{
  "Sorush_Normal_01": {
    "$type": "ConfigGadget",
    "common": {
      "effectAttachShape": {
        "$type": "ConfigEffectAttachBox"
      },
      "mass": 10.0
    },
    "specialPoint": {
      "elementAbsorb": "RootNode",
      "elementPendant": "",
      "elementDrop": "RootNode",
      "bulletAim": "RootNode_FX"
    },
    "hasModel": true,
    "combat": {
      "property": {
        "HP": 10000.0,
        "attack": 100.0,
        "weight": 500.0,
        "ignoreDamageToSelf": true
      },
      "combatLock": {
        "lockShape": "CircleLockEnemy",
        "lockType": "Gadget_Lv1"
      },
      "die": {
        "dieForceDisappearTime": 0.0,
        "dieDisappearEffect": "Eff_Sorush_Normal_Die"
      }
    },
    "attackAttenuation": "",
    "abilities": [
      {
        "abilityID": "Vehicle_Sorush_Normal_01",
        "abilityName": "Vehicle_Sorush_Normal_01",
        "abilityOverride": ""
      },
      {
        "abilityID": "Vehicle_Sorush_AutoHeal",
        "abilityName": "Vehicle_Sorush_AutoHeal",
        "abilityOverride": ""
      },
      {
        "abilityID": "SorushStatue_WithOutAvatar",
        "abilityName": "SorushStatue_WithOutAvatar",
        "abilityOverride": ""
      },
      {
        "abilityID": "SorushStatue_WithAvatar",
        "abilityName": "SorushStatue_WithAvatar",
        "abilityOverride": ""
      },
      {
        "abilityID": "Vehicle_Sorush_ActionSkill",
        "abilityName": "Vehicle_Sorush_ActionSkill",
        "abilityOverride": ""
      },
      {
        "abilityID": "Vehicle_Sorush_ChargeSkill",
        "abilityName": "Vehicle_Sorush_ChargeSkill",
        "abilityOverride": ""
      },
      {
        "abilityID": "Vehicle_Sorush_GrapplingHookSkill",
        "abilityName": "Vehicle_Sorush_GrapplingHookSkill",
        "abilityOverride": ""
      },
      {
        "abilityID": "ActivityAbility_Hitman_Sorush_FireBomb",
        "abilityName": "ActivityAbility_Hitman_Sorush_FireBomb",
        "abilityOverride": ""
      },
      {
        "abilityID": "Vehicle_Sorush_HookPoint_DropHandler",
        "abilityName": "Vehicle_Sorush_HookPoint_DropHandler",
        "abilityOverride": ""
      },
      {
        "abilityID": "Vehicle_Sorush_ActionSkillHighLight",
        "abilityName": "Vehicle_Sorush_ActionSkillHighLight",
        "abilityOverride": ""
      }
    ],
    "field": {
      "concernType": "AllAvatars",
      "shape": "CircleR4",
      "DEOHMEELJDM": "",
      "triggerInfinite": true,
      "lifeInfinite": true,
      "checkInterval": 0.5,
      "INKADPFABPA": "",
      "AAHHPDHLLLH": ""
    },
    "move": {
      "$type": "NLNCFHIBJDH"
    },
    "gadget": {
      "$type": "GMJALBPCDJG"
    },
    "stateLayers": {
      "defaultLayer": {
        "$type": "ConfigNormalStateLayer",
        "FNPGDAEJAPJ": "",
        "stateIDs": {
          "Born": {
            "$type": "ConfigAvatarStateIDInfo",
            "animatorStates": {
              "Born": []
            },
            "canDoSkill": true,
            "HPDHJBCMFPB": ""
          },
          "Idle": {
            "$type": "ConfigAvatarStateIDInfo",
            "animatorStates": {
              "Idle": []
            },
            "canDoSkill": true,
            "BDFLEJHPFBG": 10000.0,
            "HPDHJBCMFPB": ""
          },
          "Move": {
            "$type": "ConfigAvatarStateIDInfo",
            "animatorStates": {
              "Move": []
            },
            "canDoSkill": true,
            "HPDHJBCMFPB": ""
          },
          "Sprint": {
            "$type": "ConfigAvatarStateIDInfo",
            "animatorStates": {
              "Sprint": []
            },
            "canDoSkill": true,
            "HPDHJBCMFPB": ""
          },
          "ActionSkill_BS": {
            "$type": "ConfigAvatarStateIDInfo",
            "animatorStates": {
              "Skill_BS": ["Sorush_Skill_BS"]
            },
            "canDoSkill": true,
            "BDFLEJHPFBG": 10000.0,
            "HPDHJBCMFPB": ""
          },
          "ActionSkill_Loop": {
            "$type": "ConfigAvatarStateIDInfo",
            "animatorStates": {
              "Skill_Loop": []
            },
            "canDoSkill": true,
            "BDFLEJHPFBG": 10000.0,
            "HPDHJBCMFPB": ""
          },
          "ActionSkill_AS": {
            "$type": "ConfigAvatarStateIDInfo",
            "animatorStates": {
              "Skill_AS": []
            },
            "canDoSkill": true,
            "BDFLEJHPFBG": 10000.0,
            "HPDHJBCMFPB": ""
          },
          "FastSkill": {
            "$type": "ConfigAvatarStateIDInfo",
            "animatorStates": {
              "FastSkill": ["Sorush_FastSkill"]
            },
            "canDoSkill": true,
            "HPDHJBCMFPB": ""
          },
          "ChargeSkill": {
            "$type": "ConfigAvatarStateIDInfo",
            "animatorStates": {
              "ChargeSkill": []
            },
            "canDoSkill": true,
            "HPDHJBCMFPB": ""
          }
        }
      }
    },
    "audio": {
      "$type": "ConfigVehicleAudio",
      "NCOGLLMIJGO": "",
      "collisionEvent": {
        "text": "Play_amb_sceneObj_Boat_Impact"
      },
      "maxVelocity": 6.0,
      "collisionAudioTriggerCooldown": 100,
      "collisionAudioTriggerThreshold": 0.10000000149011612
    },
    "FGLPOKNNODI": {
      "ICDAOKCCCMN": "Sorush",
      "KICGKOEGDJF": "Vehicle_Sorush",
      "IPHNMLLDBGI": "",
      "BDMDHJKAFBK": 1,
      "JIAGBINJDIL": [
        {
          "CEDGNNJDMMF": "AvatarSeat",
          "CJIOJNFEPNO": 1001
        }
      ],
      "ENEAGPBPPMB": 30,
      "GDLHMGACALJ": 600301,
      "PJFPFKDLBLF": {
        "FICMCPOHMPL": 240.0,
        "KIINICBEHID": 25.0,
        "KGOFHHLBCMF": 1.5,
        "MMMBNLIECCB": 200.0,
        "HCFFPFCNMEM": 1.0,
        "IFCINKBDCFA": 10.199999809265137
      },
      "KHJOANMPDBG": 1.0,
      "CFOEHBPLJEI": 1.5,
      "NFEMPMBEPLI": false,
      "PJAMKLPKOFB": ["Skill_BS", "Skill_Loop", "Skill_AS"]
    }
  },
  "Sorush_Normal_02": {
    "$type": "ConfigGadget",
    "common": {
      "effectAttachShape": {
        "$type": "ConfigEffectAttachBox"
      },
      "mass": 10.0
    },
    "specialPoint": {
      "elementAbsorb": "RootNode",
      "elementPendant": "",
      "elementDrop": "RootNode",
      "bulletAim": "RootNode_FX"
    },
    "hasModel": true,
    "combat": {
      "property": {
        "HP": 10000.0,
        "attack": 100.0,
        "weight": 500.0,
        "ignoreDamageToSelf": true
      },
      "combatLock": {
        "lockShape": "CircleLockEnemy",
        "lockType": "Gadget_Lv1"
      },
      "die": {
        "dieForceDisappearTime": 0.0,
        "dieDisappearEffect": "Eff_Sorush_Normal_Die"
      }
    },
    "attackAttenuation": "",
    "abilities": [
      {
        "abilityID": "Vehicle_Sorush_Normal_01",
        "abilityName": "Vehicle_Sorush_Normal_01",
        "abilityOverride": ""
      },
      {
        "abilityID": "Vehicle_Sorush_AutoHeal",
        "abilityName": "Vehicle_Sorush_AutoHeal",
        "abilityOverride": ""
      },
      {
        "abilityID": "SorushStatue_WithOutAvatar",
        "abilityName": "SorushStatue_WithOutAvatar",
        "abilityOverride": ""
      },
      {
        "abilityID": "SorushStatue_WithAvatar",
        "abilityName": "SorushStatue_WithAvatar",
        "abilityOverride": ""
      },
      {
        "abilityID": "Vehicle_Sorush_ActionSkill",
        "abilityName": "Vehicle_Sorush_ActionSkill",
        "abilityOverride": ""
      },
      {
        "abilityID": "Vehicle_Sorush_ChargeSkill",
        "abilityName": "Vehicle_Sorush_ChargeSkill",
        "abilityOverride": ""
      },
      {
        "abilityID": "Vehicle_Sorush_GrapplingHookSkill",
        "abilityName": "Vehicle_Sorush_GrapplingHookSkill",
        "abilityOverride": ""
      },
      {
        "abilityID": "ActivityAbility_Hitman_Sorush_FireBomb",
        "abilityName": "ActivityAbility_Hitman_Sorush_FireBomb",
        "abilityOverride": ""
      },
      {
        "abilityID": "Vehicle_Sorush_HookPoint_DropHandler",
        "abilityName": "Vehicle_Sorush_HookPoint_DropHandler",
        "abilityOverride": ""
      },
      {
        "abilityID": "Vehicle_Sorush_DynamicCollisionHandler",
        "abilityName": "Vehicle_Sorush_DynamicCollisionHandler",
        "abilityOverride": ""
      },
      {
        "abilityID": "Vehicle_Sorush_SorushWithCrown",
        "abilityName": "Vehicle_Sorush_SorushWithCrown",
        "abilityOverride": ""
      },
      {
        "abilityID": "Vehicle_Sorush_ActionSkillHighLight_WithCrown",
        "abilityName": "Vehicle_Sorush_ActionSkillHighLight_WithCrown",
        "abilityOverride": ""
      }
    ],
    "field": {
      "concernType": "AllAvatars",
      "shape": "CircleR4",
      "DEOHMEELJDM": "",
      "triggerInfinite": true,
      "lifeInfinite": true,
      "checkInterval": 0.5,
      "INKADPFABPA": "",
      "AAHHPDHLLLH": ""
    },
    "move": {
      "$type": "NLNCFHIBJDH"
    },
    "gadget": {
      "$type": "GMJALBPCDJG"
    },
    "stateLayers": {
      "defaultLayer": {
        "$type": "ConfigNormalStateLayer",
        "FNPGDAEJAPJ": "",
        "stateIDs": {
          "Born": {
            "$type": "ConfigAvatarStateIDInfo",
            "animatorStates": {
              "Born": []
            },
            "canDoSkill": true,
            "HPDHJBCMFPB": ""
          },
          "Idle": {
            "$type": "ConfigAvatarStateIDInfo",
            "animatorStates": {
              "Idle": []
            },
            "canDoSkill": true,
            "BDFLEJHPFBG": 10000.0,
            "HPDHJBCMFPB": ""
          },
          "Move": {
            "$type": "ConfigAvatarStateIDInfo",
            "animatorStates": {
              "Move": []
            },
            "canDoSkill": true,
            "HPDHJBCMFPB": ""
          },
          "Sprint": {
            "$type": "ConfigAvatarStateIDInfo",
            "animatorStates": {
              "Sprint": []
            },
            "canDoSkill": true,
            "HPDHJBCMFPB": ""
          },
          "ActionSkill_BS": {
            "$type": "ConfigAvatarStateIDInfo",
            "animatorStates": {
              "Skill_BS": ["Sorush_Skill_BS"]
            },
            "canDoSkill": true,
            "BDFLEJHPFBG": 10000.0,
            "HPDHJBCMFPB": ""
          },
          "ActionSkill_Loop": {
            "$type": "ConfigAvatarStateIDInfo",
            "animatorStates": {
              "Skill_Loop": []
            },
            "canDoSkill": true,
            "BDFLEJHPFBG": 10000.0,
            "HPDHJBCMFPB": ""
          },
          "ActionSkill_AS": {
            "$type": "ConfigAvatarStateIDInfo",
            "animatorStates": {
              "Skill_AS": []
            },
            "canDoSkill": true,
            "BDFLEJHPFBG": 10000.0,
            "HPDHJBCMFPB": ""
          },
          "FastSkill": {
            "$type": "ConfigAvatarStateIDInfo",
            "animatorStates": {
              "FastSkill": ["Sorush_FastSkill"]
            },
            "canDoSkill": true,
            "HPDHJBCMFPB": ""
          },
          "ChargeSkill": {
            "$type": "ConfigAvatarStateIDInfo",
            "animatorStates": {
              "ChargeSkill": []
            },
            "canDoSkill": true,
            "HPDHJBCMFPB": ""
          }
        }
      }
    },
    "audio": {
      "$type": "ConfigVehicleAudio",
      "NCOGLLMIJGO": "",
      "collisionEvent": {
        "text": "Play_amb_sceneObj_Boat_Impact"
      },
      "maxVelocity": 6.0,
      "collisionAudioTriggerCooldown": 100,
      "collisionAudioTriggerThreshold": 0.10000000149011612
    },
    "FGLPOKNNODI": {
      "ICDAOKCCCMN": "Sorush",
      "KICGKOEGDJF": "Vehicle_Sorush",
      "IPHNMLLDBGI": "",
      "BDMDHJKAFBK": 1,
      "JIAGBINJDIL": [
        {
          "CEDGNNJDMMF": "AvatarSeat",
          "CJIOJNFEPNO": 1001
        }
      ],
      "ENEAGPBPPMB": 30,
      "GDLHMGACALJ": 600301,
      "PJFPFKDLBLF": {
        "FICMCPOHMPL": 240.0,
        "KIINICBEHID": 25.0,
        "KGOFHHLBCMF": 1.5,
        "MMMBNLIECCB": 200.0,
        "HCFFPFCNMEM": 1.0,
        "IFCINKBDCFA": 10.199999809265137
      },
      "KHJOANMPDBG": 1.0,
      "CFOEHBPLJEI": 1.5,
      "NFEMPMBEPLI": false,
      "PJAMKLPKOFB": ["Skill_BS", "Skill_Loop", "Skill_AS"]
    }
  },
  "Sorush_Normal_03": {
    "$type": "ConfigGadget",
    "common": {
      "effectAttachShape": {
        "$type": "ConfigEffectAttachBox"
      },
      "mass": 10.0
    },
    "specialPoint": {
      "elementAbsorb": "RootNode",
      "elementPendant": "",
      "elementDrop": "RootNode",
      "bulletAim": "RootNode_FX"
    },
    "hasModel": true,
    "combat": {
      "property": {
        "HP": 10000.0,
        "attack": 100.0,
        "weight": 500.0,
        "ignoreDamageToSelf": true
      },
      "combatLock": {
        "lockShape": "CircleLockEnemy",
        "lockType": "Gadget_Lv1"
      },
      "die": {
        "dieForceDisappearTime": 0.0,
        "dieDisappearEffect": "Eff_Sorush_Normal_Die"
      }
    },
    "attackAttenuation": "",
    "abilities": [
      {
        "abilityID": "Vehicle_Sorush_Normal_01",
        "abilityName": "Vehicle_Sorush_Normal_01",
        "abilityOverride": ""
      },
      {
        "abilityID": "Vehicle_Sorush_AutoHeal",
        "abilityName": "Vehicle_Sorush_AutoHeal",
        "abilityOverride": ""
      },
      {
        "abilityID": "SorushStatue_WithOutAvatar",
        "abilityName": "SorushStatue_WithOutAvatar",
        "abilityOverride": ""
      },
      {
        "abilityID": "SorushStatue_WithAvatar",
        "abilityName": "SorushStatue_WithAvatar",
        "abilityOverride": ""
      },
      {
        "abilityID": "Vehicle_Sorush_ActionSkill",
        "abilityName": "Vehicle_Sorush_ActionSkill",
        "abilityOverride": ""
      },
      {
        "abilityID": "Vehicle_Sorush_ChargeSkill",
        "abilityName": "Vehicle_Sorush_ChargeSkill",
        "abilityOverride": ""
      },
      {
        "abilityID": "Vehicle_Sorush_GrapplingHookSkill",
        "abilityName": "Vehicle_Sorush_GrapplingHookSkill",
        "abilityOverride": ""
      },
      {
        "abilityID": "ActivityAbility_Hitman_Sorush_FireBomb",
        "abilityName": "ActivityAbility_Hitman_Sorush_FireBomb",
        "abilityOverride": ""
      },
      {
        "abilityID": "Vehicle_Sorush_HookPoint_DropHandler",
        "abilityName": "Vehicle_Sorush_HookPoint_DropHandler",
        "abilityOverride": ""
      },
      {
        "abilityID": "Vehicle_Sorush_DynamicCollisionHandler",
        "abilityName": "Vehicle_Sorush_DynamicCollisionHandler",
        "abilityOverride": ""
      },
      {
        "abilityID": "Vehicle_Sorush_ActivityVehicleMark",
        "abilityName": "Vehicle_Sorush_ActivityVehicleMark",
        "abilityOverride": ""
      }
    ],
    "field": {
      "concernType": "AllAvatars",
      "shape": "CircleR4",
      "DEOHMEELJDM": "",
      "triggerInfinite": true,
      "lifeInfinite": true,
      "checkInterval": 0.5,
      "INKADPFABPA": "",
      "AAHHPDHLLLH": ""
    },
    "move": {
      "$type": "NLNCFHIBJDH"
    },
    "gadget": {
      "$type": "GMJALBPCDJG"
    },
    "stateLayers": {
      "defaultLayer": {
        "$type": "ConfigNormalStateLayer",
        "FNPGDAEJAPJ": "",
        "stateIDs": {
          "Born": {
            "$type": "ConfigAvatarStateIDInfo",
            "animatorStates": {
              "Born": []
            },
            "canDoSkill": true,
            "HPDHJBCMFPB": ""
          },
          "Idle": {
            "$type": "ConfigAvatarStateIDInfo",
            "animatorStates": {
              "Idle": []
            },
            "canDoSkill": true,
            "BDFLEJHPFBG": 10000.0,
            "HPDHJBCMFPB": ""
          },
          "Move": {
            "$type": "ConfigAvatarStateIDInfo",
            "animatorStates": {
              "Move": []
            },
            "canDoSkill": true,
            "HPDHJBCMFPB": ""
          },
          "Sprint": {
            "$type": "ConfigAvatarStateIDInfo",
            "animatorStates": {
              "Sprint": []
            },
            "canDoSkill": true,
            "HPDHJBCMFPB": ""
          },
          "ActionSkill_BS": {
            "$type": "ConfigAvatarStateIDInfo",
            "animatorStates": {
              "Skill_BS": ["Sorush_Skill_BS"]
            },
            "canDoSkill": true,
            "BDFLEJHPFBG": 10000.0,
            "HPDHJBCMFPB": ""
          },
          "ActionSkill_Loop": {
            "$type": "ConfigAvatarStateIDInfo",
            "animatorStates": {
              "Skill_Loop": []
            },
            "canDoSkill": true,
            "BDFLEJHPFBG": 10000.0,
            "HPDHJBCMFPB": ""
          },
          "ActionSkill_AS": {
            "$type": "ConfigAvatarStateIDInfo",
            "animatorStates": {
              "Skill_AS": []
            },
            "canDoSkill": true,
            "BDFLEJHPFBG": 10000.0,
            "HPDHJBCMFPB": ""
          },
          "FastSkill": {
            "$type": "ConfigAvatarStateIDInfo",
            "animatorStates": {
              "FastSkill": ["Sorush_FastSkill"]
            },
            "canDoSkill": true,
            "HPDHJBCMFPB": ""
          },
          "ChargeSkill": {
            "$type": "ConfigAvatarStateIDInfo",
            "animatorStates": {
              "ChargeSkill": []
            },
            "canDoSkill": true,
            "HPDHJBCMFPB": ""
          }
        }
      }
    },
    "audio": {
      "$type": "ConfigVehicleAudio",
      "NCOGLLMIJGO": "",
      "collisionEvent": {
        "text": "Play_amb_sceneObj_Boat_Impact"
      },
      "maxVelocity": 6.0,
      "collisionAudioTriggerCooldown": 100,
      "collisionAudioTriggerThreshold": 0.10000000149011612
    },
    "FGLPOKNNODI": {
      "ICDAOKCCCMN": "Sorush",
      "KICGKOEGDJF": "Vehicle_Sorush",
      "IPHNMLLDBGI": "",
      "BDMDHJKAFBK": 1,
      "JIAGBINJDIL": [
        {
          "CEDGNNJDMMF": "AvatarSeat",
          "CJIOJNFEPNO": 1001
        }
      ],
      "ENEAGPBPPMB": 30,
      "GDLHMGACALJ": 600301,
      "PJFPFKDLBLF": {
        "FICMCPOHMPL": 240.0,
        "KIINICBEHID": 25.0,
        "KGOFHHLBCMF": 1.5,
        "MMMBNLIECCB": 200.0,
        "HCFFPFCNMEM": 1.0,
        "IFCINKBDCFA": 10.199999809265137
      },
      "KHJOANMPDBG": 1.0,
      "CFOEHBPLJEI": 1.5,
      "NFEMPMBEPLI": false,
      "PJAMKLPKOFB": ["Skill_BS", "Skill_Loop", "Skill_AS"]
    }
  },
  "Bullet_Sorush_Bomb": {
    "$type": "ConfigGadget",
    "common": {
      "effectAttachShape": {
        "$type": "ConfigEffectAttachBox",
        "scaleZ": 0.4000000059604645
      },
      "mass": 10.0,
      "affectedByWorld": true,
      "checkInSurface": true
    },
    "combat": {
      "property": {
        "useCreatorProperty": true,
        "HP": 99999.0,
        "isLockHP": true,
        "canTriggerBullet": true
      },
      "combatLock": {
        "lockShape": "CircleLockEnemy",
        "denyLockOn": true,
        "lockType": "Default"
      }
    },
    "attackAttenuation": "",
    "abilities": [
      {
        "abilityID": "Bullet_Sorush_Bomb",
        "abilityName": "Bullet_Sorush_Bomb",
        "abilityOverride": ""
      }
    ],
    "timer": {
      "lifeTime": 15.0
    },
    "move": {
      "$type": "ConfigParabolaBulletMove",
      "gravityOfAcceleration": 80.0
    },
    "gadget": {
      "$type": "ConfigBulletPattern",
      "collision": {
        "ccd": {
          "type": "Always"
        },
        "targetType": "Enemy"
      },
      "triggerActions": [
        {
          "$type": "ConfigGadgetTriggerAbility",
          "abilityName": "Bullet_Sorush_Bomb"
        }
      ],
      "KEFFAOHIMHB": true
    }
  },
  "Bullet_Sorush_Hitman_FireBomb": {
    "$type": "ConfigGadget",
    "common": {
      "effectAttachShape": {
        "$type": "ConfigEffectAttachBox",
        "scaleZ": 0.4000000059604645
      },
      "mass": 10.0,
      "affectedByWorld": true,
      "checkInSurface": true
    },
    "combat": {
      "property": {
        "useCreatorProperty": true,
        "HP": 99999.0,
        "isLockHP": true,
        "canTriggerBullet": true
      },
      "combatLock": {
        "lockShape": "CircleLockEnemy",
        "denyLockOn": true,
        "lockType": "Default"
      }
    },
    "attackAttenuation": "",
    "abilities": [
      {
        "abilityID": "Bullet_Sorush_Hitman_FireBomb",
        "abilityName": "Bullet_Sorush_Hitman_FireBomb",
        "abilityOverride": ""
      }
    ],
    "timer": {
      "lifeTime": 15.0
    },
    "move": {
      "$type": "ConfigParabolaBulletMove",
      "gravityOfAcceleration": 80.0
    },
    "gadget": {
      "$type": "ConfigBulletPattern",
      "collision": {
        "ccd": {
          "type": "Always"
        },
        "targetType": "Enemy"
      },
      "triggerActions": [
        {
          "$type": "ConfigGadgetTriggerAbility",
          "abilityName": "Bullet_Sorush_Hitman_FireBomb"
        }
      ],
      "KEFFAOHIMHB": true
    }
  }
}
