{
  "SceneObj_RogueDungeon_BombBox": {
    "$type": "ConfigGadget",
    "hasModel": true,
    "combat": {
      "property": {
        "HP": 8000.0,
        "attack": 80.0,
        "weight": 80.0,
        "isLockHP": true
      },
      "beHit": {
        "hitBloodEffect": "",
        "hitAutoRedirect": false
      },
      "combatLock": {
        "lockShape": "CircleLockEnemy",
        "lockType": "Gadget_Lv1"
      },
      "die": {
        "dieEndTime": 0.10000000149011612,
        "dieForceDisappearTime": 0.20000000298023224,
        "dieDisappearEffect": ""
      }
    },
    "attackAttenuation": "",
    "abilities": [
      {
        "abilityID": "SceneObj_RogueDungeon_BombBox",
        "abilityName": "SceneObj_RogueDungeon_BombBox",
        "abilityOverride": ""
      }
    ]
  },
  "SceneObj_RogueDungeon_WoodenBox": {
    "$type": "ConfigGadget",
    "common": {
      "effectAttachShape": {
        "$type": "ConfigEffectAttachMesh",
        "mesh": "EffectMesh"
      },
      "viewSize": 2.0,
      "affectedByWorld": true
    },
    "hasModel": true,
    "combat": {
      "property": {
        "HP": 8000.0,
        "attack": 80.0,
        "weight": 80.0,
        "isLockHP": true
      },
      "beHit": {
        "hitBloodEffect": "",
        "hitAutoRedirect": false
      },
      "combatLock": {
        "lockShape": "CircleLockEnemy",
        "lockType": "Gadget_Lv1"
      },
      "die": {
        "dieEndTime": 0.10000000149011612,
        "dieForceDisappearTime": 0.20000000298023224,
        "dieDisappearEffect": ""
      }
    },
    "attackAttenuation": "",
    "abilities": [
      {
        "abilityID": "SceneObj_RogueDungeon_WoodenBox",
        "abilityName": "SceneObj_RogueDungeon_WoodenBox",
        "abilityOverride": ""
      }
    ],
    "misc": {
      "LJHHKLBGKLO": {
        "DOHEKJLMKFJ": 5.0,
        "bornEffect": "",
        "NCDKDKPECCH": "",
        "LBJBBIMDIII": ""
      },
      "GKCEMAKIKPH": ""
    }
  },
  "SceneObj_RogueDungeon_Byobu": {
    "$type": "ConfigGadget",
    "hasModel": true,
    "combat": {
      "property": {
        "HP": 8000.0,
        "attack": 80.0,
        "weight": 80.0,
        "isLockHP": true
      },
      "beHit": {
        "hitBloodEffect": "",
        "hitAutoRedirect": false
      },
      "combatLock": {
        "lockShape": "CircleLockEnemy",
        "lockType": "Gadget_Lv1"
      },
      "die": {
        "dieEndTime": 0.10000000149011612,
        "dieForceDisappearTime": 0.20000000298023224,
        "dieDisappearEffect": ""
      }
    },
    "attackAttenuation": "",
    "abilities": [
      {
        "abilityID": "SceneObj_RogueDungeon_Byobu",
        "abilityName": "SceneObj_RogueDungeon_Byobu",
        "abilityOverride": ""
      }
    ],
    "misc": {
      "LJHHKLBGKLO": {
        "DOHEKJLMKFJ": 5.0,
        "bornEffect": "",
        "NCDKDKPECCH": "",
        "LBJBBIMDIII": ""
      },
      "GKCEMAKIKPH": ""
    }
  },
  "SceneObj_RogueDungeon_Jars": {
    "$type": "ConfigGadget",
    "hasModel": true,
    "combat": {
      "property": {
        "HP": 8000.0,
        "attack": 80.0,
        "weight": 80.0,
        "isLockHP": true
      },
      "beHit": {
        "hitBloodEffect": "",
        "hitAutoRedirect": false
      },
      "combatLock": {
        "lockShape": "CircleLockEnemy",
        "lockType": "Gadget_Lv1"
      },
      "die": {
        "dieEndTime": 0.10000000149011612,
        "dieForceDisappearTime": 0.20000000298023224,
        "dieDisappearEffect": ""
      }
    },
    "attackAttenuation": "",
    "abilities": [
      {
        "abilityID": "SceneObj_RogueDungeon_Jars",
        "abilityName": "SceneObj_RogueDungeon_Jars",
        "abilityOverride": ""
      }
    ],
    "misc": {
      "LJHHKLBGKLO": {
        "DOHEKJLMKFJ": 5.0,
        "bornEffect": "",
        "NCDKDKPECCH": "",
        "LBJBBIMDIII": ""
      },
      "GKCEMAKIKPH": ""
    }
  },
  "SceneObj_RogueDungeon_Jars02": {
    "$type": "ConfigGadget",
    "hasModel": true,
    "combat": {
      "property": {
        "HP": 8000.0,
        "attack": 80.0,
        "weight": 80.0,
        "isLockHP": true
      },
      "beHit": {
        "hitBloodEffect": "",
        "hitAutoRedirect": false
      },
      "combatLock": {
        "lockShape": "CircleLockEnemy",
        "lockType": "Gadget_Lv1"
      },
      "die": {
        "dieEndTime": 0.10000000149011612,
        "dieForceDisappearTime": 0.20000000298023224,
        "dieDisappearEffect": ""
      }
    },
    "attackAttenuation": "",
    "abilities": [
      {
        "abilityID": "SceneObj_RogueDungeon_Jars02",
        "abilityName": "SceneObj_RogueDungeon_Jars02",
        "abilityOverride": ""
      }
    ],
    "misc": {
      "LJHHKLBGKLO": {
        "DOHEKJLMKFJ": 5.0,
        "bornEffect": "",
        "NCDKDKPECCH": "",
        "LBJBBIMDIII": ""
      },
      "GKCEMAKIKPH": ""
    }
  },
  "SceneObj_RogueDungeon_Jars03": {
    "$type": "ConfigGadget",
    "hasModel": true,
    "combat": {
      "property": {
        "HP": 8000.0,
        "attack": 80.0,
        "weight": 80.0,
        "isLockHP": true
      },
      "beHit": {
        "hitBloodEffect": "",
        "hitAutoRedirect": false
      },
      "combatLock": {
        "lockShape": "CircleLockEnemy",
        "lockType": "Gadget_Lv1"
      },
      "die": {
        "dieEndTime": 0.10000000149011612,
        "dieForceDisappearTime": 0.20000000298023224,
        "dieDisappearEffect": ""
      }
    },
    "attackAttenuation": "",
    "abilities": [
      {
        "abilityID": "SceneObj_RogueDungeon_Jars03",
        "abilityName": "SceneObj_RogueDungeon_Jars03",
        "abilityOverride": ""
      }
    ],
    "misc": {
      "LJHHKLBGKLO": {
        "DOHEKJLMKFJ": 5.0,
        "bornEffect": "",
        "NCDKDKPECCH": "",
        "LBJBBIMDIII": ""
      },
      "GKCEMAKIKPH": ""
    }
  },
  "SceneObj_RogueDungeon_Trap": {
    "$type": "ConfigGadget",
    "model": {
      "bornEffect": "",
      "attachEffect": "Eff_SceneObj_RougeTrap_Hint_01"
    },
    "hasModel": true,
    "combat": {
      "property": {
        "HP": 8000.0,
        "attack": 80.0,
        "weight": 80.0,
        "isLockHP": true
      },
      "beHit": {
        "hitBloodEffect": "",
        "hitAutoRedirect": false
      },
      "combatLock": {
        "lockShape": "CircleLockEnemy",
        "lockType": "Gadget_Lv1"
      },
      "die": {
        "dieEndTime": 0.10000000149011612,
        "dieForceDisappearTime": 0.20000000298023224,
        "dieDisappearEffect": ""
      }
    },
    "attackAttenuation": "",
    "abilities": [
      {
        "abilityID": "SceneObj_RogueDungeon_Trap",
        "abilityName": "SceneObj_RogueDungeon_Trap",
        "abilityOverride": ""
      }
    ],
    "field": {
      "concernType": "AllAvatars",
      "shape": "CircleR2",
      "DEOHMEELJDM": "",
      "triggerInfinite": true,
      "lifeInfinite": true,
      "checkInterval": 0.75,
      "overwriteCampType": true,
      "campType": "All",
      "INKADPFABPA": "",
      "AAHHPDHLLLH": ""
    }
  },
  "SceneObj_RogueDungeon_Trap_DeBuff": {
    "$type": "ConfigGadget",
    "model": {
      "bornEffect": "",
      "attachEffect": "Eff_SceneObj_RougeTrap_Hint_01"
    },
    "hasModel": true,
    "combat": {
      "property": {
        "HP": 8000.0,
        "attack": 80.0,
        "weight": 80.0,
        "isLockHP": true
      },
      "beHit": {
        "hitBloodEffect": "",
        "hitAutoRedirect": false
      },
      "combatLock": {
        "lockShape": "CircleLockEnemy",
        "lockType": "Gadget_Lv1"
      },
      "die": {
        "dieEndTime": 0.10000000149011612,
        "dieForceDisappearTime": 0.20000000298023224,
        "dieDisappearEffect": ""
      }
    },
    "attackAttenuation": "",
    "abilities": [
      {
        "abilityID": "SceneObj_RogueDungeon_Trap_DeBuff",
        "abilityName": "SceneObj_RogueDungeon_Trap_DeBuff",
        "abilityOverride": ""
      }
    ],
    "field": {
      "concernType": "AllAvatars",
      "shape": "CircleR2",
      "DEOHMEELJDM": "",
      "triggerInfinite": true,
      "lifeInfinite": true,
      "checkInterval": 0.75,
      "overwriteCampType": true,
      "campType": "All",
      "INKADPFABPA": "",
      "AAHHPDHLLLH": ""
    }
  },
  "SceneObj_RogueDungeon_RougeEnd": {
    "$type": "ConfigGadget",
    "model": {
      "bornEffect": "",
      "attachEffect": "Eff_SceneObj_RougeEnd_01"
    },
    "hasModel": true,
    "combat": {
      "property": {
        "HP": 8000.0,
        "attack": 80.0,
        "weight": 80.0,
        "isLockHP": true
      },
      "beHit": {
        "hitBloodEffect": "",
        "hitAutoRedirect": false
      },
      "combatLock": {
        "lockShape": "CircleLockEnemy",
        "lockType": "Gadget_Lv1"
      },
      "die": {
        "dieEndTime": 0.10000000149011612,
        "dieForceDisappearTime": 0.20000000298023224,
        "dieDisappearEffect": ""
      }
    },
    "attackAttenuation": "",
    "field": {
      "concernType": "AllAvatars",
      "shape": "CircleR3",
      "DEOHMEELJDM": "",
      "triggerInfinite": true,
      "lifeInfinite": true,
      "checkInterval": 0.5,
      "overwriteCampType": true,
      "campType": "All",
      "INKADPFABPA": "",
      "AAHHPDHLLLH": ""
    }
  },
  "SceneObj_RogueDungeon_Ball_AttackUp": {
    "$type": "ConfigGadget",
    "hasModel": true,
    "combat": {
      "property": {
        "HP": 10000.0,
        "attack": 30.0,
        "isLockHP": true,
        "canTriggerBullet": true,
        "denyElementStick": true,
        "OEPGABDDCHI": true
      },
      "beHit": {
        "hitBloodEffect": "",
        "hitAutoRedirect": false,
        "muteAllHitText": true
      },
      "combatLock": {
        "lockShape": "CircleLockEnemy",
        "denyLockOn": true,
        "lockType": "Gadget_Lv1"
      }
    },
    "attackAttenuation": "",
    "abilities": [
      {
        "abilityID": "Ability_01",
        "abilityName": "SceneObj_RogueDungeon_Ball_AttackUp",
        "abilityOverride": ""
      }
    ],
    "field": {
      "concernType": "AllAvatars",
      "shape": "",
      "DEOHMEELJDM": "",
      "triggerInfinite": true,
      "lifeInfinite": true,
      "checkInterval": 0.5,
      "overwriteCampType": true,
      "campType": "All",
      "INKADPFABPA": "",
      "AAHHPDHLLLH": ""
    }
  },
  "SceneObj_RogueDungeon_Ball_Heal": {
    "$type": "ConfigGadget",
    "hasModel": true,
    "combat": {
      "property": {
        "HP": 10000.0,
        "attack": 30.0,
        "isLockHP": true,
        "canTriggerBullet": true,
        "denyElementStick": true,
        "OEPGABDDCHI": true
      },
      "beHit": {
        "hitBloodEffect": "",
        "hitAutoRedirect": false,
        "muteAllHitText": true
      },
      "combatLock": {
        "lockShape": "CircleLockEnemy",
        "denyLockOn": true,
        "lockType": "Gadget_Lv1"
      }
    },
    "attackAttenuation": "",
    "abilities": [
      {
        "abilityID": "Ability_01",
        "abilityName": "SceneObj_RogueDungeon_Ball_Heal",
        "abilityOverride": ""
      }
    ],
    "field": {
      "concernType": "AllAvatars",
      "shape": "",
      "DEOHMEELJDM": "",
      "triggerInfinite": true,
      "lifeInfinite": true,
      "checkInterval": 0.5,
      "overwriteCampType": true,
      "campType": "All",
      "INKADPFABPA": "",
      "AAHHPDHLLLH": ""
    }
  },
  "SceneObj_RogueDungeon_Ball_SpeedUp": {
    "$type": "ConfigGadget",
    "hasModel": true,
    "combat": {
      "property": {
        "HP": 10000.0,
        "attack": 30.0,
        "isLockHP": true,
        "canTriggerBullet": true,
        "denyElementStick": true,
        "OEPGABDDCHI": true
      },
      "beHit": {
        "hitBloodEffect": "",
        "hitAutoRedirect": false,
        "muteAllHitText": true
      },
      "combatLock": {
        "lockShape": "CircleLockEnemy",
        "denyLockOn": true,
        "lockType": "Gadget_Lv1"
      }
    },
    "attackAttenuation": "",
    "abilities": [
      {
        "abilityID": "Ability_01",
        "abilityName": "SceneObj_RogueDungeon_Ball_SpeedUp",
        "abilityOverride": ""
      }
    ],
    "field": {
      "concernType": "AllAvatars",
      "shape": "",
      "DEOHMEELJDM": "",
      "triggerInfinite": true,
      "lifeInfinite": true,
      "checkInterval": 0.5,
      "overwriteCampType": true,
      "campType": "All",
      "INKADPFABPA": "",
      "AAHHPDHLLLH": ""
    }
  },
  "SceneObj_RogueDungeon_Creature_Water": {
    "$type": "ConfigGadget",
    "hasModel": true,
    "combat": {
      "property": {
        "useAbilityProperty": true,
        "HP": 100.0,
        "attack": 30.0,
        "HAECHGCAEND": "DungeonLevel"
      },
      "beHit": {
        "hitBloodEffect": "",
        "hitAutoRedirect": false,
        "muteAllHitText": true
      },
      "combatLock": {
        "lockShape": "CircleLockEnemy",
        "denyLockOn": true,
        "lockType": "Gadget_Lv1"
      }
    },
    "attackAttenuation": "",
    "abilities": [
      {
        "abilityID": "SceneObj_RogueDungeon_Creature_Water",
        "abilityName": "SceneObj_RogueDungeon_Creature_Water",
        "abilityOverride": ""
      }
    ],
    "billboard": {
      "$type": "NCBABGPMMPL",
      "EBBHBMFMOGD": "RootNode",
      "offset": {
        "y": 2.200000047683716
      },
      "radiusOffset": 8.0,
      "showDistance": 48.0,
      "ANGKJBLILKJ": true
    }
  },
  "SceneObj_RogueDungeon_Creature_Ice": {
    "$type": "ConfigGadget",
    "hasModel": true,
    "combat": {
      "property": {
        "useAbilityProperty": true,
        "HP": 100.0,
        "attack": 30.0,
        "HAECHGCAEND": "DungeonLevel"
      },
      "beHit": {
        "hitBloodEffect": "",
        "hitAutoRedirect": false,
        "muteAllHitText": true
      },
      "combatLock": {
        "lockShape": "CircleLockEnemy",
        "denyLockOn": true,
        "lockType": "Gadget_Lv1"
      }
    },
    "attackAttenuation": "",
    "abilities": [
      {
        "abilityID": "SceneObj_RogueDungeon_Creature_Ice",
        "abilityName": "SceneObj_RogueDungeon_Creature_Ice",
        "abilityOverride": ""
      }
    ],
    "billboard": {
      "$type": "NCBABGPMMPL",
      "EBBHBMFMOGD": "RootNode",
      "offset": {
        "y": 2.200000047683716
      },
      "radiusOffset": 8.0,
      "showDistance": 48.0,
      "ANGKJBLILKJ": true
    }
  },
  "SceneObj_RogueDungeon_Creature_Wind": {
    "$type": "ConfigGadget",
    "hasModel": true,
    "combat": {
      "property": {
        "useAbilityProperty": true,
        "HP": 100.0,
        "attack": 30.0,
        "HAECHGCAEND": "DungeonLevel",
        "isLockHP": true
      },
      "beHit": {
        "hitBloodEffect": "",
        "hitAutoRedirect": false,
        "muteAllHitText": true
      },
      "combatLock": {
        "lockShape": "CircleLockEnemy",
        "denyLockOn": true,
        "lockType": "Gadget_Lv1"
      }
    },
    "attackAttenuation": "",
    "abilities": [
      {
        "abilityID": "SceneObj_RogueDungeon_Creature_Wind",
        "abilityName": "SceneObj_RogueDungeon_Creature_Wind",
        "abilityOverride": ""
      }
    ]
  },
  "SceneObj_RogueDungeon_Rune_Fire": {
    "$type": "ConfigGadget",
    "hasModel": true,
    "combat": {
      "property": {
        "useAbilityProperty": true,
        "HP": 500.0,
        "attack": 30.0,
        "HAECHGCAEND": "DungeonLevel",
        "isLockHP": true,
        "denyElementStick": true,
        "OEPGABDDCHI": true
      },
      "beHit": {
        "hitBloodEffect": "",
        "hitAutoRedirect": false,
        "muteAllHitText": true
      },
      "combatLock": {
        "lockShape": "CircleLockEnemy",
        "denyLockOn": true,
        "lockType": "Gadget_Lv1"
      }
    },
    "attackAttenuation": "",
    "abilities": [
      {
        "abilityID": "SceneObj_RogueDungeon_Rune_Fire",
        "abilityName": "SceneObj_RogueDungeon_Rune_Fire",
        "abilityOverride": ""
      }
    ],
    "field": {
      "concernType": "AllAvatars",
      "shape": "CircleR8",
      "DEOHMEELJDM": "",
      "triggerInfinite": true,
      "lifeInfinite": true,
      "checkInterval": 0.5,
      "overwriteCampType": true,
      "campType": "All",
      "INKADPFABPA": "",
      "AAHHPDHLLLH": ""
    }
  },
  "SceneObj_RogueDungeon_Rune_Electric": {
    "$type": "ConfigGadget",
    "hasModel": true,
    "combat": {
      "property": {
        "useAbilityProperty": true,
        "HP": 500.0,
        "attack": 30.0,
        "HAECHGCAEND": "DungeonLevel",
        "isLockHP": true,
        "denyElementStick": true,
        "OEPGABDDCHI": true
      },
      "beHit": {
        "hitBloodEffect": "",
        "hitAutoRedirect": false,
        "muteAllHitText": true
      },
      "combatLock": {
        "lockShape": "CircleLockEnemy",
        "denyLockOn": true,
        "lockType": "Gadget_Lv1"
      }
    },
    "attackAttenuation": "",
    "abilities": [
      {
        "abilityID": "SceneObj_RogueDungeon_Rune_Electric",
        "abilityName": "SceneObj_RogueDungeon_Rune_Electric",
        "abilityOverride": ""
      }
    ],
    "field": {
      "concernType": "AllAvatars",
      "shape": "CircleR8",
      "DEOHMEELJDM": "",
      "triggerInfinite": true,
      "lifeInfinite": true,
      "checkInterval": 0.5,
      "overwriteCampType": true,
      "campType": "All",
      "INKADPFABPA": "",
      "AAHHPDHLLLH": ""
    }
  },
  "SceneObj_RogueDungeon_Rune_Wind": {
    "$type": "ConfigGadget",
    "hasModel": true,
    "combat": {
      "property": {
        "useAbilityProperty": true,
        "HP": 500.0,
        "attack": 30.0,
        "HAECHGCAEND": "DungeonLevel",
        "isLockHP": true,
        "denyElementStick": true,
        "OEPGABDDCHI": true
      },
      "beHit": {
        "hitBloodEffect": "",
        "hitAutoRedirect": false,
        "muteAllHitText": true
      },
      "combatLock": {
        "lockShape": "CircleLockEnemy",
        "denyLockOn": true,
        "lockType": "Gadget_Lv1"
      }
    },
    "attackAttenuation": "",
    "abilities": [
      {
        "abilityID": "SceneObj_RogueDungeon_Rune_Wind",
        "abilityName": "SceneObj_RogueDungeon_Rune_Wind",
        "abilityOverride": ""
      }
    ],
    "field": {
      "concernType": "AllAvatars",
      "shape": "CircleR8",
      "DEOHMEELJDM": "",
      "triggerInfinite": true,
      "lifeInfinite": true,
      "checkInterval": 0.5,
      "overwriteCampType": true,
      "campType": "All",
      "INKADPFABPA": "",
      "AAHHPDHLLLH": ""
    }
  },
  "SkillObj_RogueDungeon_Spell_Elec": {
    "$type": "ConfigGadget",
    "hasModel": true,
    "combat": {
      "property": {
        "isLockHP": true,
        "canTriggerBullet": true,
        "denyElementStick": true,
        "ignorePurgeRate": false
      },
      "beHit": {
        "hitBloodEffect": "",
        "hitAutoRedirect": false,
        "muteAllHitText": true
      },
      "combatLock": {
        "lockShape": "CircleLockEnemy",
        "denyLockOn": true,
        "lockType": "Gadget_Lv1"
      }
    },
    "attackAttenuation": "",
    "abilities": [
      {
        "abilityID": "SkillObj_RogueDungeon_Spell_Elec",
        "abilityName": "SkillObj_RogueDungeon_Spell_Elec",
        "abilityOverride": ""
      }
    ]
  },
  "SceneObj_RogueDungeon_OperatorBattle": {
    "$type": "ConfigGadget",
    "hasModel": true,
    "combat": {
      "property": {
        "HP": 10000.0,
        "attack": 30.0,
        "isLockHP": true,
        "canTriggerBullet": true,
        "denyElementStick": true,
        "OEPGABDDCHI": true
      },
      "beHit": {
        "hitBloodEffect": "",
        "hitAutoRedirect": false,
        "muteAllHitText": true
      },
      "combatLock": {
        "lockShape": "CircleLockEnemy",
        "denyLockOn": true,
        "lockType": "Gadget_Lv1"
      }
    },
    "attackAttenuation": "",
    "abilities": [
      {
        "abilityID": "SceneObj_RogueDungeon_OperatorBattle",
        "abilityName": "SceneObj_RogueDungeon_OperatorBattle",
        "abilityOverride": ""
      }
    ],
    "IHIMCPIGBOE": {
      "HCKEJPPPBKC": "UI/open_rouge_page",
      "HJGKBIMEEEN": "UI_RogueLike_Dungeon_BattleRoom",
      "icon": "",
      "NEADBBJLDAF": "",
      "OMMGBOCMAMC": "",
      "NHEGJLNIIIB": ""
    },
    "misc": {
      "GKCEMAKIKPH": "",
      "GHIKFNNEDMG": true,
      "LKMLHDPBOIC": true,
      "EADMNPIBEJD": 1.600000023841858,
      "HFPNFNDNDBJ": {
        "uiIndicator": {
          "templateName": "RogueOperator_Indicator"
        }
      }
    }
  },
  "SceneObj_RogueDungeon_OperatorDangerous": {
    "$type": "ConfigGadget",
    "hasModel": true,
    "combat": {
      "property": {
        "HP": 10000.0,
        "attack": 30.0,
        "isLockHP": true,
        "canTriggerBullet": true,
        "denyElementStick": true,
        "OEPGABDDCHI": true
      },
      "beHit": {
        "hitBloodEffect": "",
        "hitAutoRedirect": false,
        "muteAllHitText": true
      },
      "combatLock": {
        "lockShape": "CircleLockEnemy",
        "denyLockOn": true,
        "lockType": "Gadget_Lv1"
      }
    },
    "attackAttenuation": "",
    "abilities": [
      {
        "abilityID": "SceneObj_RogueDungeon_OperatorDangerous",
        "abilityName": "SceneObj_RogueDungeon_OperatorDangerous",
        "abilityOverride": ""
      }
    ],
    "IHIMCPIGBOE": {
      "HCKEJPPPBKC": "UI/open_rouge_page",
      "HJGKBIMEEEN": "UI_RogueLike_Dungeon_HardBattleRoom",
      "icon": "",
      "NEADBBJLDAF": "",
      "OMMGBOCMAMC": "",
      "NHEGJLNIIIB": ""
    },
    "misc": {
      "GKCEMAKIKPH": "",
      "GHIKFNNEDMG": true,
      "LKMLHDPBOIC": true,
      "EADMNPIBEJD": 1.600000023841858,
      "HFPNFNDNDBJ": {
        "uiIndicator": {
          "templateName": "RogueOperator_Indicator"
        }
      }
    }
  },
  "SceneObj_RogueDungeon_OperatorRevive": {
    "$type": "ConfigGadget",
    "hasModel": true,
    "combat": {
      "property": {
        "HP": 10000.0,
        "attack": 30.0,
        "isLockHP": true,
        "canTriggerBullet": true,
        "denyElementStick": true,
        "OEPGABDDCHI": true
      },
      "beHit": {
        "hitBloodEffect": "",
        "hitAutoRedirect": false,
        "muteAllHitText": true
      },
      "combatLock": {
        "lockShape": "CircleLockEnemy",
        "denyLockOn": true,
        "lockType": "Gadget_Lv1"
      }
    },
    "attackAttenuation": "",
    "abilities": [
      {
        "abilityID": "SceneObj_RogueDungeon_OperatorRevive",
        "abilityName": "SceneObj_RogueDungeon_OperatorRevive",
        "abilityOverride": ""
      }
    ],
    "IHIMCPIGBOE": {
      "HCKEJPPPBKC": "UI/open_rouge_page",
      "HJGKBIMEEEN": "UI_RogueLike_Dungeon_ReviveRoom",
      "icon": "",
      "NEADBBJLDAF": "",
      "OMMGBOCMAMC": "",
      "NHEGJLNIIIB": ""
    }
  },
  "SceneObj_RogueDungeon_OperatorTeam": {
    "$type": "ConfigGadget",
    "hasModel": true,
    "combat": {
      "property": {
        "HP": 10000.0,
        "attack": 30.0,
        "isLockHP": true,
        "canTriggerBullet": true,
        "denyElementStick": true,
        "OEPGABDDCHI": true
      },
      "beHit": {
        "hitBloodEffect": "",
        "hitAutoRedirect": false,
        "muteAllHitText": true
      },
      "combatLock": {
        "lockShape": "CircleLockEnemy",
        "denyLockOn": true,
        "lockType": "Gadget_Lv1"
      }
    },
    "attackAttenuation": "",
    "IHIMCPIGBOE": {
      "HCKEJPPPBKC": "UI/open_rouge_team_page",
      "HJGKBIMEEEN": "UI_RogueLike_Dungeon_TeamEdit",
      "icon": "",
      "NEADBBJLDAF": "",
      "OMMGBOCMAMC": "",
      "NHEGJLNIIIB": ""
    }
  },
  "SceneObj_RogueDungeon_OperatorRandom": {
    "$type": "ConfigGadget",
    "hasModel": true,
    "combat": {
      "property": {
        "HP": 10000.0,
        "attack": 30.0,
        "isLockHP": true,
        "canTriggerBullet": true,
        "denyElementStick": true,
        "OEPGABDDCHI": true
      },
      "beHit": {
        "hitBloodEffect": "",
        "hitAutoRedirect": false,
        "muteAllHitText": true
      },
      "combatLock": {
        "lockShape": "CircleLockEnemy",
        "denyLockOn": true,
        "lockType": "Gadget_Lv1"
      }
    },
    "attackAttenuation": "",
    "abilities": [
      {
        "abilityID": "SceneObj_RogueDungeon_OperatorRandom",
        "abilityName": "SceneObj_RogueDungeon_OperatorRandom",
        "abilityOverride": ""
      }
    ],
    "IHIMCPIGBOE": {
      "HCKEJPPPBKC": "UI/open_rouge_page",
      "HJGKBIMEEEN": "UI_RogueLike_Dungeon_RandomRoom",
      "icon": "",
      "NEADBBJLDAF": "",
      "OMMGBOCMAMC": "",
      "NHEGJLNIIIB": ""
    }
  },
  "SceneObj_RogueDungeon_OperatorBoss": {
    "$type": "ConfigGadget",
    "hasModel": true,
    "combat": {
      "property": {
        "HP": 10000.0,
        "attack": 30.0,
        "isLockHP": true,
        "canTriggerBullet": true,
        "denyElementStick": true,
        "OEPGABDDCHI": true
      },
      "beHit": {
        "hitBloodEffect": "",
        "hitAutoRedirect": false,
        "muteAllHitText": true
      },
      "combatLock": {
        "lockShape": "CircleLockEnemy",
        "denyLockOn": true,
        "lockType": "Gadget_Lv1"
      }
    },
    "attackAttenuation": "",
    "abilities": [
      {
        "abilityID": "SceneObj_RogueDungeon_OperatorBoss",
        "abilityName": "SceneObj_RogueDungeon_OperatorBoss",
        "abilityOverride": ""
      }
    ],
    "field": {
      "concernType": "AllAvatars",
      "shape": "CircleR2",
      "DEOHMEELJDM": "",
      "triggerInfinite": true,
      "lifeInfinite": true,
      "checkInterval": 0.5,
      "overwriteCampType": true,
      "campType": "All",
      "INKADPFABPA": "",
      "AAHHPDHLLLH": ""
    },
    "misc": {
      "GKCEMAKIKPH": "",
      "EADMNPIBEJD": 1.7000000476837158
    }
  },
  "SceneObj_RogueDungeon_Defence": {
    "$type": "ConfigGadget",
    "hasModel": true,
    "combat": {
      "property": {
        "HP": 100.0,
        "attack": 30.0,
        "canTriggerBullet": true,
        "OEPGABDDCHI": true
      },
      "beHit": {
        "hitBloodEffect": "",
        "hitAutoRedirect": false,
        "muteAllHitText": true
      },
      "combatLock": {
        "lockShape": "CircleLockEnemy",
        "denyLockOn": true,
        "lockType": "Gadget_Lv1"
      },
      "die": {
        "dieEndTime": 1.2000000476837158,
        "dieForceDisappearTime": 1.2000000476837158,
        "dieDisappearEffect": ""
      }
    },
    "attackAttenuation": "",
    "abilities": [
      {
        "abilityID": "SceneObj_RogueDungeon_Defence",
        "abilityName": "SceneObj_RogueDungeon_Defence",
        "abilityOverride": ""
      },
      {
        "abilityID": "Scene_RockGadget_Summon_Detect",
        "abilityName": "Scene_RockGadget_Summon_Detect",
        "abilityOverride": ""
      }
    ],
    "gadgetAction": {
      "gadgetStateActionList": [
        {
          "$type": "ConfigGadgetStateSetAnimInt",
          "intID": "gadgetState",
          "syncState": true
        }
      ]
    },
    "billboard": {
      "$type": "NCBABGPMMPL",
      "EBBHBMFMOGD": "RootNode",
      "offset": {
        "y": 2.0
      },
      "showDistance": 48.0,
      "ANGKJBLILKJ": true
    }
  },
  "SceneObj_RogueDungeon_Door": {
    "$type": "ConfigGadget",
    "hasModel": true,
    "combat": {
      "property": {
        "HP": 99999.0,
        "attack": 20.0,
        "weight": 50.0,
        "isLockHP": true,
        "canTriggerBullet": true,
        "denyElementStick": true,
        "FBCDFHECDNM": true
      },
      "beHit": {
        "hitBloodEffect": "",
        "hitAutoRedirect": false,
        "muteAllHitText": true
      },
      "combatLock": {
        "lockShape": "CircleLockEnemy",
        "denyLockOn": true,
        "lockType": "Gadget_Lv1"
      }
    },
    "attackAttenuation": "",
    "abilities": [
      {
        "abilityID": "SceneObj_RogueDungeon_Door",
        "abilityName": "SceneObj_RogueDungeon_Door",
        "abilityOverride": ""
      }
    ],
    "stateLayers": {
      "defaultLayer": {
        "$type": "ConfigNormalStateLayer",
        "FNPGDAEJAPJ": "",
        "stateIDs": {
          "Ani_WoodenDoor_01_Closing": {
            "$type": "ConfigNormalStateIDInfo",
            "animatorStates": {
              "Ani_WoodenDoor_01_Closing": []
            }
          },
          "Ani_WoodenDoor_01_Close": {
            "$type": "ConfigNormalStateIDInfo",
            "animatorStates": {
              "Ani_WoodenDoor_01_Close": [
                "Audio_SceneObj_gear_Build_WoodenDoor_01_Close"
              ]
            }
          },
          "Ani_WoodenDoor_01_Open": {
            "$type": "ConfigNormalStateIDInfo",
            "animatorStates": {
              "Ani_WoodenDoor_01_Open": [
                "Audio_SceneObj_gear_Build_WoodenDoor_01_Open"
              ]
            }
          }
        }
      }
    },
    "gadgetAction": {
      "gadgetStateActionList": [
        {
          "$type": "ConfigGadgetStateSetAnimInt",
          "intID": "GadgetState",
          "syncState": true
        }
      ]
    }
  },
  "SceneObj_RogueDungeon_FireBasin": {
    "$type": "ConfigGadget",
    "common": {
      "affectedByWorld": true
    },
    "customAttackShape": {
      "PAKMPIFGPKP": {
        "AFMABGBFAEH": 0.10000000149011612
      }
    },
    "hasModel": true,
    "combat": {
      "property": {
        "HP": 99999.0,
        "attack": 20.0,
        "weight": 50.0,
        "isLockHP": true,
        "FBCDFHECDNM": true
      },
      "beHit": {
        "hitBloodEffect": "",
        "hitAutoRedirect": false,
        "muteAllHitText": true
      },
      "combatLock": {
        "lockShape": "CircleLockEnemy",
        "denyLockOn": true,
        "lockType": "Gadget_Lv1"
      }
    },
    "attackAttenuation": "",
    "abilities": [
      {
        "abilityID": "SceneObj_RogueDungeon_FireBasin",
        "abilityName": "SceneObj_RogueDungeon_FireBasin",
        "abilityOverride": ""
      }
    ]
  },
  "SceneObj_RogueDungeon_ReminderSearchPoint": {
    "$type": "ConfigGadget",
    "combat": {
      "property": {
        "HP": 99999.0,
        "weight": 50.0,
        "isLockHP": true,
        "canTriggerBullet": true,
        "denyElementStick": true
      },
      "beHit": {
        "hitBloodEffect": "",
        "hitAutoRedirect": false,
        "muteAllHitText": true
      },
      "combatLock": {
        "lockShape": "CircleLockEnemy",
        "denyLockOn": true,
        "lockType": "Gadget_Lv1"
      }
    },
    "attackAttenuation": "",
    "field": {
      "concernType": "AllAvatars",
      "shape": "CircleR1",
      "DEOHMEELJDM": "",
      "triggerInfinite": true,
      "lifeInfinite": true,
      "checkInterval": 0.5,
      "overwriteCampType": true,
      "campType": "All",
      "INKADPFABPA": "",
      "AAHHPDHLLLH": ""
    }
  },
  "SceneObj_RogueDungeon_BattleHalo": {
    "$type": "ConfigGadget",
    "model": {
      "bornEffect": "",
      "attachEffect": "Eff_Stage_SealBorder_BattleHalo_09"
    },
    "hasModel": true,
    "attackAttenuation": ""
  },
  "SceneObj_Rogue_ThunderArrow": {
    "$type": "ConfigGadget",
    "combat": {
      "property": {
        "HP": 10000.0,
        "attack": 30.0,
        "isLockHP": true,
        "canTriggerBullet": true,
        "denyElementStick": true,
        "OEPGABDDCHI": true
      },
      "beHit": {
        "hitBloodEffect": "",
        "hitAutoRedirect": false,
        "muteAllHitEffect": true
      },
      "combatLock": {
        "lockShape": "CircleLockEnemy",
        "denyLockOn": true,
        "lockType": "Gadget_Lv1"
      },
      "die": {
        "dieForceDisappearTime": 0.0,
        "dieDisappearEffect": ""
      }
    },
    "attackAttenuation": "",
    "abilities": [
      {
        "abilityID": "SceneObj_Rogue_ThunderArrow",
        "abilityName": "SceneObj_Rogue_ThunderArrow",
        "abilityOverride": ""
      }
    ]
  },
  "SceneObj_Rogue_ThunderArrowBullet": {
    "$type": "ConfigGadget",
    "combat": {
      "property": {
        "useCreatorProperty": true,
        "HP": 99999.0,
        "attack": 20.0,
        "weight": 50.0,
        "isLockHP": true
      },
      "beHit": {
        "hitBloodEffect": "",
        "muteAllHit": true,
        "muteAllHitEffect": true,
        "muteAllHitText": true
      },
      "combatLock": {
        "lockShape": "CircleLockEnemy",
        "denyLockOn": true,
        "lockType": "Gadget_Lv1"
      },
      "die": {
        "dieEndTime": 0.009999999776482582,
        "dieDisappearEffect": ""
      }
    },
    "attackAttenuation": "",
    "abilities": [
      {
        "abilityID": "SceneObj_Rogue_ThunderArrowBullet",
        "abilityName": "SceneObj_Rogue_ThunderArrowBullet",
        "abilityOverride": ""
      }
    ],
    "timer": {
      "lifeTime": 10.0
    },
    "move": {
      "$type": "ConfigLinerBulletMove",
      "EINCMKOBBEG": {
        "muteAll": true
      },
      "speed": 12.0
    },
    "gadget": {
      "$type": "ConfigBulletPattern",
      "collision": {
        "triggerType": "TriggerNoRepeat",
        "targetType": "Enemy"
      },
      "triggerActions": [
        {
          "$type": "ConfigGadgetTriggerAbility",
          "abilityName": "SceneObj_Rogue_ThunderArrowBullet"
        }
      ]
    }
  }
}
