{
  "Defender_AirflowField": {
    "$type": "ConfigGadget",
    "attackAttenuation": "",
    "move": {
      "$type": "BHKMHNNCDMG",
      "target": "TargetEntity",
      "EBBHBMFMOGD": "",
      "HHDPHCLOMED": {
        "z": 1.0
      }
    },
    "misc": {
      "forceField": {
        "$type": "NENLDIOHPMM",
        "alias": "",
        "FOGDFAPNFKB": "",
        "FMDFPCLHCKJ": "",
        "velocity": 10.0,
        "stayEffect": "Eff_Windfield_Stay",
        "enterEffect": "Eff_Windfield_Enter"
      },
      "GKCEMAKIKPH": ""
    }
  },
  "Defender_None_ChaseBullet": {
    "$type": "ConfigGadget",
    "common": {
      "effectAttachShape": {
        "$type": "ConfigEffectAttachBox"
      },
      "scale": 1.5
    },
    "combat": {
      "property": {
        "useCreatorProperty": true,
        "canTriggerBullet": true,
        "denyElementStick": true,
        "ignorePurgeRate": false
      },
      "beHit": {
        "hitBloodEffect": "",
        "muteAllHit": true,
        "muteAllHitEffect": true,
        "muteAllHitText": true
      },
      "combatLock": {
        "lockShape": "CircleLockEnemy",
        "denyLockOn": true,
        "lockType": "Default"
      }
    },
    "attackAttenuation": "",
    "abilities": [
      {
        "abilityID": "Monster_Defender_None_ChaseBullet",
        "abilityName": "Monster_Defender_None_ChaseBullet",
        "abilityOverride": ""
      }
    ],
    "timer": {
      "lifeTime": 5.0
    },
    "move": {
      "$type": "MBCCJOEDLDO",
      "speed": 17.5,
      "BKIIIOFDNJM": 1080.0,
      "canBornInWater": true,
      "updateAngle": {
        "$type": "ConfigBulletMoveAngleByVelocity"
      },
      "BJLOMNNDFIF": 60.0,
      "JAILDGEEKLH": 0.20000000298023224,
      "DCIBKJODNJB": 1080.0,
      "MJBBAAKCDCP": 0.800000011920929
    },
    "gadget": {
      "$type": "ConfigBulletPattern",
      "collision": {
        "targetType": "Enemy"
      },
      "triggerActions": [
        {
          "$type": "ConfigGadgetTriggerAbility",
          "abilityName": "Monster_Defender_None_ChaseBullet"
        }
      ],
      "HOCNBGDGGPK": [
        {
          "$type": "ConfigGadgetTriggerAbility",
          "abilityName": "Monster_Defender_None_ChaseBullet"
        }
      ]
    }
  },
  "Defender_None_ChaseTarget": {
    "$type": "ConfigGadget",
    "combat": {
      "property": {
        "useCreatorProperty": true,
        "HP": 999999.0,
        "attack": 15.0,
        "defense": 999999.0,
        "isLockHP": true,
        "ignorePurgeRate": false
      },
      "beHit": {
        "hitBloodEffect": ""
      },
      "combatLock": {
        "lockShape": "CircleLockEnemy",
        "denyLockOn": true,
        "lockType": "Default"
      }
    },
    "attackAttenuation": "",
    "timer": {
      "lifeTime": 3.0
    },
    "move": {
      "$type": "BHKMHNNCDMG",
      "target": "TargetEntity",
      "EBBHBMFMOGD": "RootNode"
    }
  }
}
