{
  "SceneObj_Area_Xm_Property_Ani_Prop_ChargingBuff_02": {
    "$type": "ConfigGadget",
    "hasModel": true,
    "combat": {
      "property": {
        "HP": 99999.0,
        "attack": 35.0,
        "weight": 50.0,
        "isLockHP": true,
        "ignorePurgeRate": false
      },
      "beHit": {
        "hitBloodEffect": "",
        "hitAutoRedirect": false,
        "muteAllHitText": true
      },
      "combatLock": {
        "lockShape": "CircleLockEnemy",
        "lockType": "Gadget_Lv1"
      },
      "die": {
        "dieEndTime": 0.10000000149011612,
        "dieForceDisappearTime": 0.10000000149011612,
        "dieDisappearEffect": ""
      }
    },
    "attackAttenuation": "",
    "abilities": [
      {
        "abilityID": "SceneObj_Area_Xm_Property_Ani_Prop_ChargingBuff_01",
        "abilityName": "SceneObj_Area_Xm_Property_Ani_Prop_ChargingBuff_01",
        "abilityOverride": ""
      }
    ],
    "field": {
      "concernType": "AllAvatars",
      "shape": "CircleR2",
      "DEOHMEELJDM": "",
      "triggerInfinite": true,
      "lifeInfinite": true,
      "checkInterval": 0.75,
      "overwriteCampType": true,
      "campType": "All",
      "INKADPFABPA": "",
      "AAHHPDHLLLH": ""
    }
  },
  "SceneObj_Area_Xm_Property_Ani_Prop_ChargingBuff_03": {
    "$type": "ConfigGadget",
    "hasModel": true,
    "combat": {
      "property": {
        "HP": 99999.0,
        "attack": 35.0,
        "weight": 50.0,
        "isLockHP": true,
        "canTriggerBullet": true,
        "denyElementStick": true,
        "ignorePurgeRate": false
      },
      "beHit": {
        "hitBloodEffect": "",
        "hitAutoRedirect": false,
        "muteAllHitText": true
      },
      "combatLock": {
        "lockShape": "CircleLockEnemy",
        "denyLockOn": true,
        "lockType": "Gadget_Lv1"
      },
      "die": {
        "dieEndTime": 0.10000000149011612,
        "dieForceDisappearTime": 0.10000000149011612,
        "dieDisappearEffect": ""
      }
    },
    "attackAttenuation": "",
    "abilities": [
      {
        "abilityID": "SceneObj_Area_Xm_Property_Ani_Prop_ChargingBuff_03",
        "abilityName": "SceneObj_Area_Xm_Property_Ani_Prop_ChargingBuff_03",
        "abilityOverride": ""
      }
    ],
    "field": {
      "concernType": "AllAvatars",
      "shape": "CircleR1",
      "DEOHMEELJDM": "",
      "triggerInfinite": true,
      "lifeInfinite": true,
      "checkInterval": 0.75,
      "overwriteCampType": true,
      "campType": "All",
      "INKADPFABPA": "",
      "AAHHPDHLLLH": ""
    }
  },
  "SceneObj_Area_Xm_Property_Ani_Prop_DirectAttackSandWorm_Sand_01": {
    "$type": "ConfigGadget",
    "globalValue": {
      "serverGlobalValues": ["SGV_Attack_Times", "SGV_Target_Stragety"],
      "BDAIHKIMPPE": {
        "SGV_Attack_Times": 0.0,
        "SGV_Target_Stragety": 0.0
      }
    },
    "hasModel": true,
    "combat": {
      "property": {
        "HP": 400.0,
        "attack": 1500.0,
        "weight": 50.0,
        "isInvincible": true,
        "isLockHP": true,
        "canTriggerBullet": true,
        "denyElementStick": true,
        "ignorePurgeRate": false
      },
      "beHit": {
        "hitBloodEffect": "",
        "hitAutoRedirect": false,
        "muteAllHit": true,
        "muteAllHitEffect": true,
        "muteAllHitText": true
      },
      "combatLock": {
        "lockShape": "CircleLockEnemy",
        "denyLockOn": true,
        "lockType": "Gadget_Lv1"
      }
    },
    "attackAttenuation": "",
    "abilities": [
      {
        "abilityID": "SceneObj_Area_Xm_Property_Ani_Prop_DirectAttackSandWorm_Sand_01",
        "abilityName": "SceneObj_Area_Xm_Property_Ani_Prop_DirectAttackSandWorm_Sand_01",
        "abilityOverride": ""
      }
    ]
  },
  "SceneObj_Area_Ly_Property_Ani_Prop_ActivitySandWormMark_01": {
    "$type": "ConfigGadget",
    "hasModel": true,
    "attackAttenuation": "default",
    "field": {
      "concernType": "AllAvatars",
      "shape": "CircleR10",
      "DEOHMEELJDM": "",
      "triggerInfinite": true,
      "lifeInfinite": true,
      "checkInterval": 0.20000000298023224,
      "overwriteCampType": true,
      "campType": "All",
      "INKADPFABPA": "",
      "AAHHPDHLLLH": ""
    },
    "misc": {
      "GKCEMAKIKPH": "",
      "GHIKFNNEDMG": true,
      "EADMNPIBEJD": 2.0,
      "HFPNFNDNDBJ": {
        "uiIndicator": {
          "templateName": "ActivitySandwormCannon_Target_Icon"
        },
        "FMBCLIGPKKI": true
      }
    }
  },
  "SceneObj_Area_Ly_Property_Ani_Prop_ActivitySandWormMark_02": {
    "$type": "ConfigGadget",
    "hasModel": true,
    "attackAttenuation": "default",
    "field": {
      "concernType": "AllAvatars",
      "shape": "CircleR10",
      "DEOHMEELJDM": "",
      "triggerInfinite": true,
      "lifeInfinite": true,
      "checkInterval": 0.20000000298023224,
      "overwriteCampType": true,
      "campType": "All",
      "INKADPFABPA": "",
      "AAHHPDHLLLH": ""
    },
    "misc": {
      "GKCEMAKIKPH": "",
      "GHIKFNNEDMG": true,
      "EADMNPIBEJD": 3.0,
      "HFPNFNDNDBJ": {
        "uiIndicator": {
          "templateName": "ActivitySandwormCannon_Target_Icon"
        },
        "FMBCLIGPKKI": true
      }
    }
  },
  "SceneObj_Area_Xm_Property_Ani_Prop_ChargingStation_Sand_01": {
    "$type": "ConfigGadget",
    "hasModel": true,
    "combat": {
      "property": {
        "HP": 99999.0,
        "weight": 50.0,
        "isLockHP": true,
        "canTriggerBullet": true,
        "denyElementStick": true
      }
    },
    "attackAttenuation": "",
    "abilities": [
      {
        "abilityID": "SceneObj_Area_Xm_Property_Ani_Prop_ChargingStation_Sand_01",
        "abilityName": "SceneObj_Area_Xm_Property_Ani_Prop_ChargingStation_Sand_01",
        "abilityOverride": ""
      },
      {
        "abilityID": "Scene_RockGadget_Summon_Detect",
        "abilityName": "Scene_RockGadget_Summon_Detect",
        "abilityOverride": ""
      }
    ],
    "field": {
      "concernType": "AllAvatars",
      "shape": "CircleR1.5",
      "DEOHMEELJDM": "",
      "triggerInfinite": true,
      "lifeInfinite": true,
      "checkInterval": 0.20000000298023224,
      "overwriteCampType": true,
      "campType": "All",
      "INKADPFABPA": "",
      "AAHHPDHLLLH": ""
    }
  },
  "SceneObj_Area_Xm_Property_Ani_Prop_ChargingStation_Sand_02": {
    "$type": "ConfigGadget",
    "specialPoint": {
      "elementAbsorb": "RootNode",
      "elementPendant": "",
      "elementDrop": "RootNode",
      "bulletAim": "AimPoint"
    },
    "hasModel": true,
    "combat": {
      "property": {
        "HP": 5000.0,
        "attack": 200.0,
        "weight": 50.0,
        "canTriggerBullet": true,
        "denyElementStick": true
      },
      "beHit": {
        "hitBloodEffect": "",
        "hitAutoRedirect": false
      },
      "combatLock": {
        "lockShape": "CircleLockEnemy",
        "denyLockOn": true,
        "lockType": "Gadget_Lv1"
      }
    },
    "attackAttenuation": "",
    "abilities": [
      {
        "abilityID": "SceneObj_Area_Xm_Property_Ani_Prop_ChargingStation_Sand_02",
        "abilityName": "SceneObj_Area_Xm_Property_Ani_Prop_ChargingStation_Sand_02",
        "abilityOverride": ""
      },
      {
        "abilityID": "Scene_RockGadget_Summon_Detect",
        "abilityName": "Scene_RockGadget_Summon_Detect",
        "abilityOverride": ""
      }
    ]
  },
  "SceneObj_Area_Xm_Property_Ani_Prop_ChargingStationHpBar_01": {
    "$type": "ConfigGadget",
    "specialPoint": {
      "elementAbsorb": "RootNode",
      "elementPendant": "",
      "elementDrop": "RootNode",
      "bulletAim": "AimPoint"
    },
    "hasModel": true,
    "combat": {
      "property": {
        "HP": 50000.0,
        "attack": 200.0,
        "weight": 50.0
      },
      "beHit": {
        "hitBloodEffect": "",
        "hitAutoRedirect": false
      },
      "combatLock": {
        "lockShape": "CircleLockEnemy",
        "denyLockOn": true,
        "lockType": "Gadget_Lv1"
      }
    },
    "attackAttenuation": "",
    "abilities": [
      {
        "abilityID": "SceneObj_Area_Xm_Property_Ani_Prop_ChargingStationHpBar_01",
        "abilityName": "SceneObj_Area_Xm_Property_Ani_Prop_ChargingStationHpBar_01",
        "abilityOverride": ""
      }
    ],
    "billboard": {
      "$type": "NCBABGPMMPL",
      "EBBHBMFMOGD": "RootNode",
      "offset": {
        "y": 2.5
      },
      "radiusOffset": 3.0,
      "showDistance": 48.0,
      "ANGKJBLILKJ": true,
      "size": "Grand"
    }
  },
  "SceneObj_Area_Xm_Property_Ani_Prop_WormCannon_Sand_01": {
    "$type": "ConfigGadget",
    "hasModel": true,
    "combat": {
      "property": {
        "HP": 99999.0,
        "weight": 50.0,
        "isLockHP": true,
        "canTriggerBullet": true,
        "denyElementStick": true
      }
    },
    "attackAttenuation": "",
    "abilities": [
      {
        "abilityID": "SceneObj_Area_Xm_Property_Ani_Prop_WormCannon_Sand_01",
        "abilityName": "SceneObj_Area_Xm_Property_Ani_Prop_WormCannon_Sand_01",
        "abilityOverride": ""
      },
      {
        "abilityID": "Scene_RockGadget_Summon_Detect",
        "abilityName": "Scene_RockGadget_Summon_Detect",
        "abilityOverride": ""
      }
    ],
    "field": {
      "concernType": "AllAvatars",
      "shape": "CircleR1.5",
      "DEOHMEELJDM": "",
      "triggerInfinite": true,
      "lifeInfinite": true,
      "checkInterval": 0.20000000298023224,
      "overwriteCampType": true,
      "campType": "All",
      "INKADPFABPA": "",
      "AAHHPDHLLLH": ""
    }
  },
  "SceneObj_Area_Xm_Property_Ani_Prop_WormCannon_Sand_02": {
    "$type": "ConfigGadget",
    "hasModel": true,
    "combat": {
      "property": {
        "HP": 99999.0,
        "weight": 50.0,
        "isLockHP": true,
        "canTriggerBullet": true,
        "denyElementStick": true
      }
    },
    "attackAttenuation": "",
    "abilities": [
      {
        "abilityID": "SceneObj_Area_Xm_Property_Ani_Prop_WormCannon_Sand_02",
        "abilityName": "SceneObj_Area_Xm_Property_Ani_Prop_WormCannon_Sand_02",
        "abilityOverride": ""
      },
      {
        "abilityID": "Scene_RockGadget_Summon_Detect",
        "abilityName": "Scene_RockGadget_Summon_Detect",
        "abilityOverride": ""
      }
    ],
    "field": {
      "concernType": "AllAvatars",
      "shape": "CircleR2.5",
      "DEOHMEELJDM": "",
      "triggerInfinite": true,
      "lifeInfinite": true,
      "checkInterval": 0.20000000298023224,
      "overwriteCampType": true,
      "campType": "All",
      "INKADPFABPA": "",
      "AAHHPDHLLLH": ""
    },
    "partControl": {
      "parts": [
        {
          "$type": "FMMCPGCNMJF",
          "angularSpeed": 3600.0,
          "NCHJLODGJLP": "LazerPoint_PartControl",
          "AGAOMJIIDOI": "",
          "CJBHHMJAEJF": 360.0,
          "HFCEMLCNHGD": 360.0
        }
      ]
    }
  },
  "SceneObj_Area_Xm_Property_Ani_Prop_WormBattleBuff_01": {
    "$type": "ConfigGadget",
    "hasModel": true,
    "combat": {
      "property": {
        "HP": 99999.0,
        "attack": 35.0,
        "weight": 50.0,
        "isLockHP": true,
        "canTriggerBullet": true,
        "denyElementStick": true,
        "ignorePurgeRate": false
      },
      "beHit": {
        "hitBloodEffect": "",
        "hitAutoRedirect": false,
        "muteAllHitText": true
      },
      "combatLock": {
        "lockShape": "CircleLockEnemy",
        "denyLockOn": true,
        "lockType": "Gadget_Lv1"
      },
      "die": {
        "dieEndTime": 0.10000000149011612,
        "dieForceDisappearTime": 0.10000000149011612,
        "dieDisappearEffect": ""
      }
    },
    "attackAttenuation": "",
    "abilities": [
      {
        "abilityID": "SceneObj_Area_Xm_Property_Ani_Prop_WormBattleBuff_01",
        "abilityName": "SceneObj_Area_Xm_Property_Ani_Prop_WormBattleBuff_01",
        "abilityOverride": ""
      }
    ],
    "field": {
      "concernType": "AllAvatars",
      "shape": "CircleR0_5",
      "DEOHMEELJDM": "",
      "triggerInfinite": true,
      "lifeInfinite": true,
      "checkInterval": 0.75,
      "overwriteCampType": true,
      "campType": "All",
      "INKADPFABPA": "",
      "AAHHPDHLLLH": ""
    }
  },
  "SceneObj_Area_Xm_Property_Ani_Prop_ChargingBuff_01": {
    "$type": "ConfigGadget",
    "hasModel": true,
    "combat": {
      "property": {
        "HP": 99999.0,
        "attack": 35.0,
        "weight": 50.0,
        "isLockHP": true,
        "ignorePurgeRate": false
      },
      "beHit": {
        "hitBloodEffect": "",
        "hitAutoRedirect": false,
        "muteAllHitText": true
      },
      "combatLock": {
        "lockShape": "CircleLockEnemy",
        "lockType": "Gadget_Lv1"
      },
      "die": {
        "dieEndTime": 0.10000000149011612,
        "dieForceDisappearTime": 0.10000000149011612,
        "dieDisappearEffect": ""
      }
    },
    "attackAttenuation": "",
    "abilities": [
      {
        "abilityID": "SceneObj_Area_Xm_Property_Ani_Prop_ChargingBuff_01",
        "abilityName": "SceneObj_Area_Xm_Property_Ani_Prop_ChargingBuff_01",
        "abilityOverride": ""
      }
    ],
    "field": {
      "concernType": "AllAvatars",
      "shape": "CircleR1",
      "DEOHMEELJDM": "",
      "triggerInfinite": true,
      "lifeInfinite": true,
      "checkInterval": 0.75,
      "overwriteCampType": true,
      "campType": "All",
      "INKADPFABPA": "",
      "AAHHPDHLLLH": ""
    }
  },
  "SceneObj_Area_Xm_Property_Ani_Prop_WormSandPile_Sand_01": {
    "$type": "ConfigGadget",
    "hasModel": true,
    "combat": {
      "property": {
        "HP": 400.0,
        "attack": 15.0,
        "weight": 50.0,
        "isInvincible": true,
        "isLockHP": true,
        "canTriggerBullet": true
      },
      "beHit": {
        "hitBloodEffect": "",
        "hitAutoRedirect": false,
        "muteAllHit": true,
        "muteAllHitEffect": true,
        "muteAllHitText": true
      },
      "combatLock": {
        "lockShape": "CircleLockEnemy",
        "denyLockOn": true,
        "lockType": "Gadget_Lv1"
      },
      "die": {
        "dieDisappearEffect": "Eff_Property_Stone_SandwormStone_02_Destroy"
      }
    },
    "attackAttenuation": "",
    "abilities": [
      {
        "abilityID": "SceneObj_Area_Xm_Property_Ani_Prop_WormSandPile_Sand_01",
        "abilityName": "SceneObj_Area_Xm_Property_Ani_Prop_WormSandPile_Sand_01",
        "abilityOverride": ""
      }
    ]
  },
  "SceneObj_Area_Xm_Property_Ani_Prop_SandWormAirWall_Sand_01": {
    "$type": "ConfigGadget",
    "hasModel": true,
    "combat": {
      "property": {
        "HP": 99999.0,
        "attack": 200.0,
        "weight": 50.0,
        "isInvincible": true,
        "isLockHP": true,
        "canTriggerBullet": true,
        "denyElementStick": true
      },
      "beHit": {
        "hitBloodEffect": "",
        "hitAutoRedirect": false,
        "muteAllHitText": true
      },
      "combatLock": {
        "lockShape": "CircleLockEnemy",
        "denyLockOn": true,
        "lockType": "Gadget_Lv1"
      }
    },
    "attackAttenuation": "",
    "abilities": [
      {
        "abilityID": "SceneObj_Area_Xm_Property_Ani_Prop_SandWormAirWall_Sand_01",
        "abilityName": "SceneObj_Area_Xm_Property_Ani_Prop_SandWormAirWall_Sand_01",
        "abilityOverride": ""
      }
    ]
  },
  "SceneObj_Area_Xm_Property_Ani_Prop_AbilitySandWorm_Sand_01": {
    "$type": "ConfigGadget",
    "common": {
      "disableTickDistance": 1000000.0
    },
    "HFGOLBBHCJH": true,
    "hasModel": true,
    "combat": {
      "property": {
        "HP": 99999.0,
        "attack": 35.0,
        "weight": 50.0,
        "isLockHP": true,
        "ignorePurgeRate": false
      },
      "beHit": {
        "hitBloodEffect": "",
        "hitAutoRedirect": false,
        "muteAllHitText": true
      },
      "combatLock": {
        "lockShape": "CircleLockEnemy",
        "lockType": "Gadget_Lv1"
      },
      "die": {
        "dieEndTime": 0.10000000149011612,
        "dieForceDisappearTime": 0.10000000149011612,
        "dieDisappearEffect": ""
      }
    },
    "attackAttenuation": "",
    "abilities": [
      {
        "abilityID": "",
        "abilityName": "SceneObj_Area_Xm_Property_Ani_Prop_AbilitySandWorm_Sand_01_Steer",
        "abilityOverride": ""
      },
      {
        "abilityID": "",
        "abilityName": "SceneObj_Area_Xm_Property_Ani_Prop_AbilitySandWorm_Sand_01",
        "abilityOverride": ""
      },
      {
        "abilityID": "",
        "abilityName": "SceneObj_Area_Xm_Property_Ani_Prop_SandWorm_SetEndState",
        "abilityOverride": ""
      },
      {
        "abilityID": "",
        "abilityName": "Monster_Sandworm_ShaderLight_Stage01On",
        "abilityOverride": ""
      },
      {
        "abilityID": "",
        "abilityName": "Monster_Sandworm_ShaderLight_Off",
        "abilityOverride": ""
      },
      {
        "abilityID": "",
        "abilityName": "Monster_Sandworm_Stage01_TailCenterEffect_On",
        "abilityOverride": ""
      },
      {
        "abilityID": "",
        "abilityName": "Monster_Sandworm_EffectMeshSandPlane_Show",
        "abilityOverride": ""
      },
      {
        "abilityID": "",
        "abilityName": "Monster_Sandworm_EffectMeshSandPlane_Hide",
        "abilityOverride": ""
      },
      {
        "abilityID": "",
        "abilityName": "SceneObj_Area_Xm_Property_Ani_Prop_AbilitySandWorm_Sand_01_TailGroundCover_Start",
        "abilityOverride": ""
      },
      {
        "abilityID": "",
        "abilityName": "SceneObj_Area_Xm_Property_Ani_Prop_AbilitySandWorm_Sand_01_TailGroundCover_End",
        "abilityOverride": ""
      },
      {
        "abilityID": "",
        "abilityName": "SceneObj_Area_Xm_Property_Ani_Prop_AbilitySandWorm_Sand_01_ShootAttack",
        "abilityOverride": ""
      },
      {
        "abilityID": "",
        "abilityName": "SceneObj_Area_Xm_Property_Ani_Prop_AbilitySandWorm_PartControl_Start",
        "abilityOverride": ""
      },
      {
        "abilityID": "",
        "abilityName": "SceneObj_Area_Xm_Property_Ani_Prop_AbilitySandWorm_PartControl_End",
        "abilityOverride": ""
      },
      {
        "abilityID": "",
        "abilityName": "SceneObj_Area_Xm_Property_Ani_Prop_AbilitySandWorm_DoEarthQuake",
        "abilityOverride": ""
      }
    ],
    "field": {
      "concernType": "AllAvatars",
      "shape": "CircleR1",
      "DEOHMEELJDM": "",
      "triggerInfinite": true,
      "lifeInfinite": true,
      "checkInterval": 0.75,
      "overwriteCampType": true,
      "campType": "All",
      "INKADPFABPA": "",
      "AAHHPDHLLLH": ""
    },
    "stateLayers": {
      "defaultLayer": {
        "$type": "ConfigNormalStateLayer",
        "FNPGDAEJAPJ": "",
        "stateIDs": {
          "Skill": {
            "$type": "ConfigNormalStateIDInfo",
            "animatorStates": {
              "Skill01": [
                "Prop_AbilitySandWorm_Skill01",
                "Prop_AbilitySandworm_DoEarthQuake",
                "Audio_Monster_Sandworm_Activity_DiveOut"
              ],
              "Skill02": [
                "Prop_AbilitySandWorm_Skill02",
                "Prop_AbilitySandWorm_01_ShootAttack",
                "Audio_Monster_Sandworm_Activity_ShootAttack"
              ],
              "Skill03": [
                "Prop_AbilitySandWorm_Skill02",
                "Prop_AbilitySandWorm_01_ShootAttack",
                "Audio_Monster_Sandworm_Activity_ShootAttack"
              ],
              "Skill04": [
                "Prop_AbilitySandWorm_Skill02",
                "Prop_AbilitySandWorm_01_ShootAttack",
                "Audio_Monster_Sandworm_Activity_ShootAttack"
              ]
            },
            "cullingModelAlwaysAnimate": true
          },
          "Idle": {
            "$type": "ConfigNormalStateIDInfo",
            "animatorStates": {
              "Idle01": ["Prop_AbilitySandWorm_Idle"],
              "Idle02": ["Prop_AbilitySandWorm_Idle"]
            },
            "cullingModelAlwaysAnimate": true
          },
          "End": {
            "$type": "ConfigNormalStateIDInfo",
            "animatorStates": {
              "End": [
                "Prop_SandWorm_CommonEnd",
                "Prop_AbilitySandWorm_End",
                "Audio_Monster_Sandworm_Activity_DiveIn"
              ]
            },
            "cullingModelAlwaysAnimate": true
          }
        }
      }
    },
    "aibeta": {
      "enable": true,
      "moveSetting": {
        "enable": false,
        "navMeshAgentName": "Undead01"
      },
      "sensing": {
        "settings": {
          "DefaultSetting": {
            "viewRange": 200.0,
            "horizontalFov": 360.0,
            "verticalFov": 360.0,
            "feelRange": 200.0
          }
        }
      },
      "threat": {
        "clearThreatTargetDistance": 999.0,
        "clearThreatEdgeDistance": 999.0,
        "clearThreatByTargetOutOfZone": true,
        "clearThreatTimerByTargetOutOfZone": 999.0,
        "resistTauntLevel": "Monster_TauntLevel_5"
      },
      "defendArea": {
        "defendRange": 300.0
      }
    },
    "partControl": {
      "parts": [
        {
          "$type": "FMMCPGCNMJF",
          "angularSpeed": 240.0,
          "NCHJLODGJLP": "PartControl",
          "AGAOMJIIDOI": "",
          "CJBHHMJAEJF": 360.0,
          "HFCEMLCNHGD": 0.0
        }
      ]
    },
    "billboard": {
      "$type": "NCBABGPMMPL",
      "EBBHBMFMOGD": "RootNode",
      "offset": {
        "y": 2.0
      },
      "radiusOffset": 3.0,
      "KLIMPNOBGLK": true,
      "showDistance": 300.0,
      "ANGKJBLILKJ": true,
      "size": "Grand"
    }
  },
  "SceneObj_Area_Xm_Property_Ani_Prop_MoveSandWorm_Sand_01": {
    "$type": "ConfigGadget",
    "hasModel": true,
    "combat": {
      "property": {
        "HP": 99999.0,
        "attack": 35.0,
        "weight": 50.0,
        "isLockHP": true,
        "ignorePurgeRate": false
      },
      "beHit": {
        "hitBloodEffect": "",
        "hitAutoRedirect": false,
        "muteAllHitText": true
      },
      "combatLock": {
        "lockShape": "CircleLockEnemy",
        "lockType": "Gadget_Lv1"
      },
      "die": {
        "dieEndTime": 0.10000000149011612,
        "dieForceDisappearTime": 0.10000000149011612,
        "dieDisappearEffect": ""
      }
    },
    "attackAttenuation": "",
    "abilities": [
      {
        "abilityID": "",
        "abilityName": "SceneObj_Area_Xm_Property_Ani_Prop_MoveSandWorm_Sand_01",
        "abilityOverride": ""
      },
      {
        "abilityID": "",
        "abilityName": "SceneObj_Area_Xm_Property_Ani_Prop_SandWorm_SetEndState",
        "abilityOverride": ""
      },
      {
        "abilityID": "",
        "abilityName": "Monster_Sandworm_ShaderLight_Off",
        "abilityOverride": ""
      }
    ],
    "field": {
      "concernType": "AllAvatars",
      "shape": "CircleR1",
      "DEOHMEELJDM": "",
      "triggerInfinite": true,
      "lifeInfinite": true,
      "checkInterval": 0.75,
      "overwriteCampType": true,
      "campType": "All",
      "INKADPFABPA": "",
      "AAHHPDHLLLH": ""
    },
    "stateLayers": {
      "defaultLayer": {
        "$type": "ConfigNormalStateLayer",
        "FNPGDAEJAPJ": "",
        "stateIDs": {
          "Skill": {
            "$type": "ConfigNormalStateIDInfo",
            "animatorStates": {
              "Skill01": [
                "Prop_SandWorm_CommonEnd",
                "Prop_MoveSandWorm_StandbyMove"
              ]
            },
            "cullingModelAlwaysAnimate": true
          },
          "End": {
            "$type": "ConfigNormalStateIDInfo",
            "animatorStates": {
              "End": []
            },
            "cullingModelAlwaysAnimate": true
          }
        }
      }
    }
  },
  "SceneObj_Area_Xm_Property_Ani_Prop_DieSandWorm_Sand_01": {
    "$type": "ConfigGadget",
    "common": {
      "disableTickDistance": 1000000.0
    },
    "HFGOLBBHCJH": true,
    "hasModel": true,
    "combat": {
      "property": {
        "HP": 801.0,
        "attack": 35.0,
        "weight": 50.0,
        "isInvincible": true,
        "ignorePurgeRate": false
      },
      "beHit": {
        "hitBloodEffect": "",
        "hitAutoRedirect": false,
        "muteAllHitText": true
      },
      "combatLock": {
        "lockShape": "CircleLockEnemy",
        "lockType": "Gadget_Lv1"
      },
      "die": {
        "dieEndTime": 0.10000000149011612,
        "dieForceDisappearTime": 0.10000000149011612,
        "dieDisappearEffect": ""
      }
    },
    "attackAttenuation": "",
    "abilities": [
      {
        "abilityID": "",
        "abilityName": "SceneObj_Area_Xm_Property_Ani_Prop_AbilitySandWorm_Sand_01_Steer",
        "abilityOverride": ""
      },
      {
        "abilityID": "",
        "abilityName": "SceneObj_Area_Xm_Property_Ani_Prop_DieSandWorm_Sand_01",
        "abilityOverride": ""
      },
      {
        "abilityID": "",
        "abilityName": "SceneObj_Area_Xm_Property_Ani_Prop_SandWorm_SetEndState",
        "abilityOverride": ""
      },
      {
        "abilityID": "",
        "abilityName": "Monster_Sandworm_ShaderLight_Stage01On",
        "abilityOverride": ""
      },
      {
        "abilityID": "",
        "abilityName": "Monster_Sandworm_ShaderLight_Off",
        "abilityOverride": ""
      },
      {
        "abilityID": "",
        "abilityName": "Monster_Sandworm_Stage01_TailCenterEffect_On",
        "abilityOverride": ""
      },
      {
        "abilityID": "",
        "abilityName": "Monster_Sandworm_Stage01_TailCenterEffect_Off",
        "abilityOverride": ""
      },
      {
        "abilityID": "",
        "abilityName": "Monster_Sandworm_EffectMeshSandPlane_Show",
        "abilityOverride": ""
      },
      {
        "abilityID": "",
        "abilityName": "Monster_Sandworm_EffectMeshSandPlane_Hide",
        "abilityOverride": ""
      },
      {
        "abilityID": "",
        "abilityName": "SceneObj_Area_Xm_Property_Ani_Prop_AbilitySandWorm_Sand_01_TailGroundCover_Start",
        "abilityOverride": ""
      },
      {
        "abilityID": "",
        "abilityName": "SceneObj_Area_Xm_Property_Ani_Prop_AbilitySandWorm_Sand_01_TailGroundCover_End",
        "abilityOverride": ""
      },
      {
        "abilityID": "",
        "abilityName": "SceneObj_Area_Xm_Property_Ani_Prop_AbilitySandWorm_Sand_01_ShootAttack",
        "abilityOverride": ""
      },
      {
        "abilityID": "",
        "abilityName": "SceneObj_Area_Xm_Property_Ani_Prop_AbilitySandWorm_Sand_02_ShootAttack",
        "abilityOverride": ""
      },
      {
        "abilityID": "",
        "abilityName": "SceneObj_Area_Xm_Property_Ani_Prop_DieSandworm_03_ShootAttack",
        "abilityOverride": ""
      },
      {
        "abilityID": "",
        "abilityName": "SceneObj_Area_Xm_Property_Ani_Prop_AbilitySandWorm_PartControl_Start",
        "abilityOverride": ""
      },
      {
        "abilityID": "",
        "abilityName": "SceneObj_Area_Xm_Property_Ani_Prop_AbilitySandWorm_PartControl_End",
        "abilityOverride": ""
      },
      {
        "abilityID": "",
        "abilityName": "SceneObj_Area_Xm_Property_Ani_Prop_AbilitySandWorm_Sand_ClearBullet",
        "abilityOverride": ""
      }
    ],
    "field": {
      "concernType": "AllAvatars",
      "shape": "CircleR1",
      "DEOHMEELJDM": "",
      "triggerInfinite": true,
      "lifeInfinite": true,
      "checkInterval": 0.75,
      "overwriteCampType": true,
      "campType": "All",
      "INKADPFABPA": "",
      "AAHHPDHLLLH": ""
    },
    "stateLayers": {
      "defaultLayer": {
        "$type": "ConfigNormalStateLayer",
        "FNPGDAEJAPJ": "",
        "stateIDs": {
          "Wait": {
            "$type": "ConfigNormalStateIDInfo",
            "animatorStates": {
              "Wait": ["Prop_DieSandworm_Wait"]
            },
            "cullingModelAlwaysAnimate": true
          },
          "Skill01": {
            "$type": "ConfigNormalStateIDInfo",
            "animatorStates": {
              "Skill01": [
                "Prop_AbilitySandWorm_Skill01",
                "Audio_Monster_Sandworm_Activity_DiveOut"
              ],
              "Skill01_02": [
                "Prop_AbilitySandWorm_Skill02",
                "Prop_AbilitySandWorm_01_ShootAttack",
                "Audio_Monster_Sandworm_Activity_ShootAttack"
              ],
              "Skill01_03": [
                "Prop_AbilitySandWorm_Skill02",
                "Prop_AbilitySandWorm_01_ShootAttack",
                "Audio_Monster_Sandworm_Activity_ShootAttack"
              ]
            },
            "cullingModelAlwaysAnimate": true
          },
          "Skill02": {
            "$type": "ConfigNormalStateIDInfo",
            "animatorStates": {
              "Skill02": [
                "Prop_AbilitySandWorm_Skill01",
                "Audio_Monster_Sandworm_Activity_DiveOut"
              ],
              "Skill02_02": [
                "Prop_AbilitySandWorm_Skill02",
                "Prop_AbilitySandWorm_02_ShootAttack",
                "Audio_Monster_Sandworm_Activity_ShootAttack"
              ],
              "Skill02_03": [
                "Prop_AbilitySandWorm_Skill02",
                "Prop_AbilitySandWorm_02_ShootAttack",
                "Audio_Monster_Sandworm_Activity_ShootAttack"
              ]
            },
            "cullingModelAlwaysAnimate": true
          },
          "Skill03": {
            "$type": "ConfigNormalStateIDInfo",
            "animatorStates": {
              "Skill03": [
                "Prop_AbilitySandWorm_Skill01",
                "Audio_Monster_Sandworm_Activity_DiveOut"
              ],
              "Skill03_02": [
                "Prop_AbilitySandWorm_Skill02",
                "Prop_DieSandWorm_03_ShootAttack",
                "Audio_Monster_Sandworm_Activity_ShootAttack"
              ],
              "Skill03_03": [
                "Prop_AbilitySandWorm_Skill02",
                "Prop_DieSandWorm_03_ShootAttack",
                "Audio_Monster_Sandworm_Activity_ShootAttack"
              ]
            },
            "cullingModelAlwaysAnimate": true
          },
          "Idle": {
            "$type": "ConfigNormalStateIDInfo",
            "animatorStates": {
              "Skill01_Idle01": ["Prop_AbilitySandWorm_Idle"],
              "Skill01_Idle02": ["Prop_AbilitySandWorm_Idle"],
              "Skill02_Idle01": ["Prop_AbilitySandWorm_Idle"],
              "Skill02_Idle02": ["Prop_AbilitySandWorm_Idle"],
              "Skill03_Idle01": ["Prop_AbilitySandWorm_Idle"],
              "Skill03_Idle02": ["Prop_AbilitySandWorm_Idle"]
            },
            "cullingModelAlwaysAnimate": true
          },
          "End": {
            "$type": "ConfigNormalStateIDInfo",
            "animatorStates": {
              "End01": [
                "Prop_DieSandworm_End01",
                "Prop_SandWorm_CommonEnd",
                "Audio_Monster_Sandworm_Activity_Die_TailUp"
              ],
              "End02": [
                "Prop_DieSandworm_End01",
                "Prop_SandWorm_CommonEnd",
                "Audio_Monster_Sandworm_Activity_Die_TailUp"
              ],
              "End03": [
                "Prop_DieSandworm_End01",
                "Prop_SandWorm_CommonEnd",
                "Audio_Monster_Sandworm_Activity_Die_TailUp"
              ]
            },
            "cullingModelAlwaysAnimate": true
          }
        }
      }
    },
    "partControl": {
      "parts": [
        {
          "$type": "FMMCPGCNMJF",
          "angularSpeed": 240.0,
          "NCHJLODGJLP": "PartControl",
          "AGAOMJIIDOI": "",
          "CJBHHMJAEJF": 360.0,
          "HFCEMLCNHGD": 0.0
        }
      ]
    },
    "billboard": {
      "$type": "NCBABGPMMPL",
      "EBBHBMFMOGD": "RootNode",
      "offset": {
        "y": 2.0
      },
      "radiusOffset": 3.0,
      "KLIMPNOBGLK": true,
      "showDistance": 300.0,
      "ANGKJBLILKJ": true,
      "size": "Grand"
    }
  },
  "SceneObj_Area_Xm_Property_Ani_Prop_SmashSandWorm_Sand_01": {
    "$type": "ConfigGadget",
    "hasModel": true,
    "combat": {
      "property": {
        "HP": 99999.0,
        "attack": 35.0,
        "weight": 50.0,
        "isLockHP": true,
        "ignorePurgeRate": false
      },
      "beHit": {
        "hitBloodEffect": "",
        "hitAutoRedirect": false,
        "muteAllHitText": true
      },
      "combatLock": {
        "lockShape": "CircleLockEnemy",
        "lockType": "Gadget_Lv1"
      },
      "die": {
        "dieEndTime": 0.10000000149011612,
        "dieForceDisappearTime": 0.10000000149011612,
        "dieDisappearEffect": ""
      }
    },
    "attackAttenuation": "",
    "abilities": [
      {
        "abilityID": "",
        "abilityName": "SceneObj_Area_Xm_Property_Ani_Prop_SmashSandWorm_Sand_01",
        "abilityOverride": ""
      },
      {
        "abilityID": "",
        "abilityName": "SceneObj_Area_Xm_Property_Ani_Prop_SandWorm_SetEndState",
        "abilityOverride": ""
      },
      {
        "abilityID": "",
        "abilityName": "SceneObj_Area_Xm_Property_Ani_Prop_SmashSandWorm_SetKilledEndState",
        "abilityOverride": ""
      },
      {
        "abilityID": "",
        "abilityName": "Monster_Sandworm_ShaderLight_Stage01On",
        "abilityOverride": ""
      },
      {
        "abilityID": "",
        "abilityName": "Monster_Sandworm_ShaderLight_Off",
        "abilityOverride": ""
      },
      {
        "abilityID": "",
        "abilityName": "Monster_Sandworm_Stage01_TailCenterEffect_On",
        "abilityOverride": ""
      },
      {
        "abilityID": "",
        "abilityName": "Monster_Sandworm_Stage01_TailCenterEffect_Off",
        "abilityOverride": ""
      },
      {
        "abilityID": "",
        "abilityName": "Monster_Sandworm_EffectMeshSandPlane_Show",
        "abilityOverride": ""
      },
      {
        "abilityID": "",
        "abilityName": "Monster_Sandworm_EffectMeshSandPlane_Hide",
        "abilityOverride": ""
      },
      {
        "abilityID": "",
        "abilityName": "SceneObj_Area_Xm_Property_Ani_Prop_AbilitySandWorm_Sand_01_TailGroundCover_Start",
        "abilityOverride": ""
      },
      {
        "abilityID": "",
        "abilityName": "SceneObj_Area_Xm_Property_Ani_Prop_AbilitySandWorm_Sand_01_TailGroundCover_End",
        "abilityOverride": ""
      }
    ],
    "field": {
      "concernType": "AllAvatars",
      "shape": "CircleR1",
      "DEOHMEELJDM": "",
      "triggerInfinite": true,
      "lifeInfinite": true,
      "checkInterval": 0.75,
      "overwriteCampType": true,
      "campType": "All",
      "INKADPFABPA": "",
      "AAHHPDHLLLH": ""
    },
    "stateLayers": {
      "defaultLayer": {
        "$type": "ConfigNormalStateLayer",
        "FNPGDAEJAPJ": "",
        "stateIDs": {
          "Skill": {
            "$type": "ConfigNormalStateIDInfo",
            "animatorStates": {
              "Skill01": [
                "Prop_SmashSandWorm_Skill01",
                "Audio_Monster_Sandworm_Alert"
              ],
              "Skill02": []
            },
            "cullingModelAlwaysAnimate": true
          },
          "End": {
            "$type": "ConfigNormalStateIDInfo",
            "animatorStates": {
              "End_Default": [
                "Prop_SmashSandWorm_End",
                "Audio_Monster_Sandworm_ReturnToBorn"
              ],
              "End_Default_Underground": ["Prop_SmashSandWorm_KilledEnd"],
              "End_Killed": [
                "Prop_SmashSandWorm_End",
                "Audio_Monster_Sandworm_ReturnToBorn"
              ],
              "End_Killed_Underground": ["Prop_SandWorm_CommonEnd"]
            },
            "cullingModelAlwaysAnimate": true
          }
        }
      }
    }
  },
  "SceneObj_Area_Xm_Property_Ani_Prop_AbilitySandWorm_Sand_02": {
    "$type": "ConfigGadget",
    "common": {
      "disableTickDistance": 1000000.0
    },
    "HFGOLBBHCJH": true,
    "hasModel": true,
    "combat": {
      "property": {
        "HP": 99999.0,
        "attack": 35.0,
        "weight": 50.0,
        "isLockHP": true,
        "ignorePurgeRate": false
      },
      "beHit": {
        "hitBloodEffect": "",
        "hitAutoRedirect": false,
        "muteAllHitText": true
      },
      "combatLock": {
        "lockShape": "CircleLockEnemy",
        "lockType": "Gadget_Lv1"
      },
      "die": {
        "dieEndTime": 0.10000000149011612,
        "dieForceDisappearTime": 0.10000000149011612,
        "dieDisappearEffect": ""
      }
    },
    "attackAttenuation": "",
    "abilities": [
      {
        "abilityID": "",
        "abilityName": "SceneObj_Area_Xm_Property_Ani_Prop_AbilitySandWorm_Sand_01_Steer",
        "abilityOverride": ""
      },
      {
        "abilityID": "",
        "abilityName": "SceneObj_Area_Xm_Property_Ani_Prop_AbilitySandWorm_Sand_02",
        "abilityOverride": ""
      },
      {
        "abilityID": "",
        "abilityName": "SceneObj_Area_Xm_Property_Ani_Prop_SandWorm_SetEndState",
        "abilityOverride": ""
      },
      {
        "abilityID": "",
        "abilityName": "Monster_Sandworm_ShaderLight_Stage01On",
        "abilityOverride": ""
      },
      {
        "abilityID": "",
        "abilityName": "Monster_Sandworm_ShaderLight_Off",
        "abilityOverride": ""
      },
      {
        "abilityID": "",
        "abilityName": "Monster_Sandworm_Stage01_TailCenterEffect_On",
        "abilityOverride": ""
      },
      {
        "abilityID": "",
        "abilityName": "Monster_Sandworm_EffectMeshSandPlane_Show",
        "abilityOverride": ""
      },
      {
        "abilityID": "",
        "abilityName": "Monster_Sandworm_EffectMeshSandPlane_Hide",
        "abilityOverride": ""
      },
      {
        "abilityID": "",
        "abilityName": "SceneObj_Area_Xm_Property_Ani_Prop_AbilitySandWorm_Sand_01_TailGroundCover_Start",
        "abilityOverride": ""
      },
      {
        "abilityID": "",
        "abilityName": "SceneObj_Area_Xm_Property_Ani_Prop_AbilitySandWorm_Sand_01_TailGroundCover_End",
        "abilityOverride": ""
      },
      {
        "abilityID": "",
        "abilityName": "SceneObj_Area_Xm_Property_Ani_Prop_AbilitySandWorm_Sand_02_ShootAttack",
        "abilityOverride": ""
      },
      {
        "abilityID": "",
        "abilityName": "SceneObj_Area_Xm_Property_Ani_Prop_AbilitySandWorm_PartControl_Start",
        "abilityOverride": ""
      },
      {
        "abilityID": "",
        "abilityName": "SceneObj_Area_Xm_Property_Ani_Prop_AbilitySandWorm_PartControl_End",
        "abilityOverride": ""
      },
      {
        "abilityID": "",
        "abilityName": "SceneObj_Area_Xm_Property_Ani_Prop_AbilitySandWorm_DoEarthQuake",
        "abilityOverride": ""
      }
    ],
    "field": {
      "concernType": "AllAvatars",
      "shape": "CircleR1",
      "DEOHMEELJDM": "",
      "triggerInfinite": true,
      "lifeInfinite": true,
      "checkInterval": 0.75,
      "overwriteCampType": true,
      "campType": "All",
      "INKADPFABPA": "",
      "AAHHPDHLLLH": ""
    },
    "stateLayers": {
      "defaultLayer": {
        "$type": "ConfigNormalStateLayer",
        "FNPGDAEJAPJ": "",
        "stateIDs": {
          "Skill": {
            "$type": "ConfigNormalStateIDInfo",
            "animatorStates": {
              "Skill01": [
                "Prop_AbilitySandWorm_Skill01",
                "Prop_AbilitySandworm_DoEarthQuake",
                "Audio_Monster_Sandworm_Activity_DiveOut"
              ],
              "Skill02": [
                "Prop_AbilitySandWorm_Skill02",
                "Prop_AbilitySandWorm_02_ShootAttack",
                "Audio_Monster_Sandworm_Activity_ShootAttack"
              ],
              "Skill03": [
                "Prop_AbilitySandWorm_Skill02",
                "Prop_AbilitySandWorm_02_ShootAttack",
                "Audio_Monster_Sandworm_Activity_ShootAttack"
              ],
              "Skill04": [
                "Prop_AbilitySandWorm_Skill02",
                "Prop_AbilitySandWorm_02_ShootAttack",
                "Audio_Monster_Sandworm_Activity_ShootAttack"
              ]
            },
            "cullingModelAlwaysAnimate": true
          },
          "Idle": {
            "$type": "ConfigNormalStateIDInfo",
            "animatorStates": {
              "Idle01": ["Prop_AbilitySandWorm_Idle"],
              "Idle02": ["Prop_AbilitySandWorm_Idle"]
            },
            "cullingModelAlwaysAnimate": true
          },
          "End": {
            "$type": "ConfigNormalStateIDInfo",
            "animatorStates": {
              "End": [
                "Prop_SandWorm_CommonEnd",
                "Prop_AbilitySandWorm_End",
                "Audio_Monster_Sandworm_Activity_DiveIn"
              ]
            },
            "cullingModelAlwaysAnimate": true
          }
        }
      }
    },
    "aibeta": {
      "enable": true,
      "moveSetting": {
        "enable": false,
        "navMeshAgentName": "Undead01"
      },
      "sensing": {
        "settings": {
          "DefaultSetting": {
            "viewRange": 200.0,
            "horizontalFov": 360.0,
            "verticalFov": 360.0,
            "feelRange": 200.0
          }
        }
      },
      "threat": {
        "clearThreatTargetDistance": 999.0,
        "clearThreatEdgeDistance": 999.0,
        "clearThreatByTargetOutOfZone": true,
        "clearThreatTimerByTargetOutOfZone": 999.0,
        "resistTauntLevel": "Monster_TauntLevel_5"
      },
      "defendArea": {
        "defendRange": 300.0
      }
    },
    "partControl": {
      "parts": [
        {
          "$type": "FMMCPGCNMJF",
          "angularSpeed": 240.0,
          "NCHJLODGJLP": "PartControl",
          "AGAOMJIIDOI": "",
          "CJBHHMJAEJF": 360.0,
          "HFCEMLCNHGD": 0.0
        }
      ]
    },
    "billboard": {
      "$type": "NCBABGPMMPL",
      "EBBHBMFMOGD": "RootNode",
      "offset": {
        "y": 2.0
      },
      "radiusOffset": 3.0,
      "KLIMPNOBGLK": true,
      "showDistance": 300.0,
      "ANGKJBLILKJ": true,
      "size": "Grand"
    }
  },
  "SceneObj_Area_Xm_Property_Ani_Prop_AbilitySandWorm_Sand_03": {
    "$type": "ConfigGadget",
    "common": {
      "disableTickDistance": 1000000.0
    },
    "HFGOLBBHCJH": true,
    "hasModel": true,
    "combat": {
      "property": {
        "HP": 99999.0,
        "attack": 35.0,
        "weight": 50.0,
        "isLockHP": true,
        "ignorePurgeRate": false
      },
      "beHit": {
        "hitBloodEffect": "",
        "hitAutoRedirect": false,
        "muteAllHitText": true
      },
      "combatLock": {
        "lockShape": "CircleLockEnemy",
        "lockType": "Gadget_Lv1"
      },
      "die": {
        "dieEndTime": 0.10000000149011612,
        "dieForceDisappearTime": 0.10000000149011612,
        "dieDisappearEffect": ""
      }
    },
    "attackAttenuation": "",
    "abilities": [
      {
        "abilityID": "",
        "abilityName": "SceneObj_Area_Xm_Property_Ani_Prop_AbilitySandWorm_Sand_01_Steer",
        "abilityOverride": ""
      },
      {
        "abilityID": "",
        "abilityName": "SceneObj_Area_Xm_Property_Ani_Prop_AbilitySandWorm_Sand_03",
        "abilityOverride": ""
      },
      {
        "abilityID": "",
        "abilityName": "SceneObj_Area_Xm_Property_Ani_Prop_SandWorm_SetEndState",
        "abilityOverride": ""
      },
      {
        "abilityID": "",
        "abilityName": "Monster_Sandworm_ShaderLight_Stage01On",
        "abilityOverride": ""
      },
      {
        "abilityID": "",
        "abilityName": "Monster_Sandworm_ShaderLight_Off",
        "abilityOverride": ""
      },
      {
        "abilityID": "",
        "abilityName": "Monster_Sandworm_Stage01_TailCenterEffect_On",
        "abilityOverride": ""
      },
      {
        "abilityID": "",
        "abilityName": "Monster_Sandworm_EffectMeshSandPlane_Show",
        "abilityOverride": ""
      },
      {
        "abilityID": "",
        "abilityName": "Monster_Sandworm_EffectMeshSandPlane_Hide",
        "abilityOverride": ""
      },
      {
        "abilityID": "",
        "abilityName": "SceneObj_Area_Xm_Property_Ani_Prop_AbilitySandWorm_Sand_01_TailGroundCover_Start",
        "abilityOverride": ""
      },
      {
        "abilityID": "",
        "abilityName": "SceneObj_Area_Xm_Property_Ani_Prop_AbilitySandWorm_Sand_01_TailGroundCover_End",
        "abilityOverride": ""
      },
      {
        "abilityID": "",
        "abilityName": "SceneObj_Area_Xm_Property_Ani_Prop_AbilitySandWorm_Sand_03_ShootAttack",
        "abilityOverride": ""
      },
      {
        "abilityID": "",
        "abilityName": "SceneObj_Area_Xm_Property_Ani_Prop_AbilitySandWorm_PartControl_Start",
        "abilityOverride": ""
      },
      {
        "abilityID": "",
        "abilityName": "SceneObj_Area_Xm_Property_Ani_Prop_AbilitySandWorm_PartControl_End",
        "abilityOverride": ""
      },
      {
        "abilityID": "",
        "abilityName": "SceneObj_Area_Xm_Property_Ani_Prop_AbilitySandWorm_DoEarthQuake",
        "abilityOverride": ""
      }
    ],
    "field": {
      "concernType": "AllAvatars",
      "shape": "CircleR1",
      "DEOHMEELJDM": "",
      "triggerInfinite": true,
      "lifeInfinite": true,
      "checkInterval": 0.75,
      "overwriteCampType": true,
      "campType": "All",
      "INKADPFABPA": "",
      "AAHHPDHLLLH": ""
    },
    "stateLayers": {
      "defaultLayer": {
        "$type": "ConfigNormalStateLayer",
        "FNPGDAEJAPJ": "",
        "stateIDs": {
          "Skill": {
            "$type": "ConfigNormalStateIDInfo",
            "animatorStates": {
              "Skill01": [
                "Prop_AbilitySandWorm_Skill01",
                "Prop_AbilitySandworm_DoEarthQuake",
                "Audio_Monster_Sandworm_Activity_DiveOut"
              ],
              "Skill02": [
                "Prop_AbilitySandWorm_Skill02",
                "Prop_AbilitySandWorm_03_ShootAttack",
                "Audio_Monster_Sandworm_Activity_ShootAttack"
              ],
              "Skill03": [
                "Prop_AbilitySandWorm_Skill02",
                "Prop_AbilitySandWorm_03_ShootAttack",
                "Audio_Monster_Sandworm_Activity_ShootAttack"
              ],
              "Skill04": [
                "Prop_AbilitySandWorm_Skill02",
                "Prop_AbilitySandWorm_03_ShootAttack",
                "Audio_Monster_Sandworm_Activity_ShootAttack"
              ]
            },
            "cullingModelAlwaysAnimate": true
          },
          "Idle": {
            "$type": "ConfigNormalStateIDInfo",
            "animatorStates": {
              "Idle01": ["Prop_AbilitySandWorm_Idle"],
              "Idle02": ["Prop_AbilitySandWorm_Idle"]
            },
            "cullingModelAlwaysAnimate": true
          },
          "End": {
            "$type": "ConfigNormalStateIDInfo",
            "animatorStates": {
              "End": [
                "Prop_SandWorm_CommonEnd",
                "Prop_AbilitySandWorm_End",
                "Audio_Monster_Sandworm_Activity_DiveIn"
              ]
            },
            "cullingModelAlwaysAnimate": true
          }
        }
      }
    },
    "aibeta": {
      "enable": true,
      "moveSetting": {
        "enable": false,
        "navMeshAgentName": "Undead01"
      },
      "sensing": {
        "settings": {
          "DefaultSetting": {
            "viewRange": 200.0,
            "horizontalFov": 360.0,
            "verticalFov": 360.0,
            "feelRange": 200.0
          }
        }
      },
      "threat": {
        "clearThreatTargetDistance": 999.0,
        "clearThreatEdgeDistance": 999.0,
        "clearThreatByTargetOutOfZone": true,
        "clearThreatTimerByTargetOutOfZone": 999.0,
        "resistTauntLevel": "Monster_TauntLevel_5"
      },
      "defendArea": {
        "defendRange": 300.0
      }
    },
    "partControl": {
      "parts": [
        {
          "$type": "FMMCPGCNMJF",
          "angularSpeed": 240.0,
          "NCHJLODGJLP": "PartControl",
          "AGAOMJIIDOI": "",
          "CJBHHMJAEJF": 360.0,
          "HFCEMLCNHGD": 0.0
        }
      ]
    },
    "billboard": {
      "$type": "NCBABGPMMPL",
      "EBBHBMFMOGD": "RootNode",
      "offset": {
        "y": 2.0
      },
      "radiusOffset": 3.0,
      "KLIMPNOBGLK": true,
      "showDistance": 300.0,
      "ANGKJBLILKJ": true,
      "size": "Grand"
    }
  },
  "SceneObj_Area_Xm_Property_Ani_Prop_DieSandWorm_Sand_01_PartcontrolTarget": {
    "$type": "ConfigGadget",
    "combat": {
      "property": {
        "useCreatorProperty": true,
        "HP": 999999.0,
        "attack": 15.0,
        "defense": 999999.0,
        "isLockHP": true,
        "ignorePurgeRate": false
      },
      "beHit": {
        "hitBloodEffect": "",
        "muteAllHitEffect": true
      },
      "combatLock": {
        "lockShape": "CircleLockEnemy",
        "lockType": "Boss_Lv5"
      }
    },
    "attackAttenuation": "",
    "abilities": [
      {
        "abilityID": "",
        "abilityName": "SceneObj_Area_Xm_Property_Ani_Prop_DieSandWorm_Sand_01_PartcontrolTarget",
        "abilityOverride": ""
      }
    ],
    "timer": {
      "lifeInfinite": true
    },
    "move": {
      "$type": "BHKMHNNCDMG",
      "target": "TargetEntity",
      "EBBHBMFMOGD": "Body08",
      "EMLMHGJEPIO": true
    }
  },
  "SceneObj_Area_Xm_Property_Ani_Prop_AbilitySandWorm_Sand_01_ShootAttackBullet": {
    "$type": "ConfigGadget",
    "common": {
      "effectAttachShape": {
        "$type": "ConfigEffectAttachBox",
        "scaleZ": 0.4000000059604645
      }
    },
    "combat": {
      "property": {
        "useCreatorProperty": true,
        "HP": 999999.0,
        "attack": 15.0,
        "defense": 999999.0,
        "isLockHP": true,
        "ignorePurgeRate": false
      },
      "beHit": {
        "hitBloodEffect": "",
        "muteAllHit": true,
        "muteAllHitEffect": true,
        "muteAllHitText": true
      },
      "combatLock": {
        "lockShape": "CircleLockEnemy",
        "denyLockOn": true,
        "lockType": "Default"
      }
    },
    "attackAttenuation": "",
    "abilities": [
      {
        "abilityID": "",
        "abilityName": "SceneObj_Area_Xm_Property_Ani_Prop_AbilitySandWorm_Sand_01_ShootAttack_Attack",
        "abilityOverride": ""
      }
    ],
    "timer": {
      "lifeTime": 5.0
    },
    "move": {
      "$type": "KNONMECDFJC"
    },
    "gadget": {
      "$type": "DGAPLFNDHHH",
      "collision": {
        "targetType": "Enemy"
      },
      "triggerActions": [
        {
          "$type": "ConfigGadgetTriggerAbility",
          "abilityName": "SceneObj_Area_Xm_Property_Ani_Prop_AbilitySandWorm_Sand_01_ShootAttack_Attack"
        }
      ],
      "HOCNBGDGGPK": [
        {
          "$type": "ConfigGadgetTriggerAbility",
          "abilityName": "SceneObj_Area_Xm_Property_Ani_Prop_AbilitySandWorm_Sand_01_ShootAttack_Attack"
        }
      ],
      "KEFFAOHIMHB": true,
      "NKGFPHPMEDJ": {
        "$type": "JJIALLMLPKP",
        "LEKPIAMIMDG": "Loop",
        "healLimitedByCasterMaxHPRatio": "Eff_Monster_Sandworm_01_Stage02_FlyingAttack_MultiBullet_Activity"
      }
    }
  },
  "SceneObj_Area_Xm_Property_Ani_Prop_AbilitySandWorm_Sand_02_ShootAttackBullet": {
    "$type": "ConfigGadget",
    "common": {
      "effectAttachShape": {
        "$type": "ConfigEffectAttachBox",
        "scaleZ": 0.4000000059604645
      }
    },
    "combat": {
      "property": {
        "useCreatorProperty": true,
        "HP": 999999.0,
        "attack": 10.0,
        "defense": 999999.0,
        "isLockHP": true
      },
      "beHit": {
        "hitBloodEffect": "",
        "muteAllHit": true,
        "muteAllHitEffect": true,
        "muteAllHitText": true
      },
      "combatLock": {
        "lockShape": "CircleLockEnemy",
        "denyLockOn": true,
        "lockType": "Default"
      }
    },
    "attackAttenuation": "",
    "abilities": [
      {
        "abilityID": "Loop",
        "abilityName": "SceneObj_Area_Xm_Property_Ani_Prop_AbilitySandWorm_Sand_02_ShootAttack_Bullet_Loop",
        "abilityOverride": ""
      },
      {
        "abilityID": "Explode",
        "abilityName": "SceneObj_Area_Xm_Property_Ani_Prop_AbilitySandWorm_Sand_02_ShootAttack_Bullet_Explode",
        "abilityOverride": ""
      }
    ],
    "timer": {
      "lifeTime": 10.0
    },
    "move": {
      "$type": "MBCCJOEDLDO",
      "speed": 12.0,
      "maxSpeed": 60.0,
      "minSpeed": 12.0,
      "BKIIIOFDNJM": 0.0,
      "DNOPKNCAPAI": -10.0,
      "canBornInWater": true,
      "updateAngle": {
        "$type": "ConfigBulletMoveAngleByVelocity"
      },
      "EJLPNJNLKJO": {
        "CNCFDGHPDMM": 20.0,
        "LKGPGNFBLGO": 90.0,
        "JJOMEBOHIGM": 0.75,
        "MMFLMIJMPHO": 0.5,
        "IJIIEFJIHOM": true,
        "KBDCGLHEGLP": "Keep",
        "EFMHGACIJIK": "Keep"
      },
      "DNGMGMEICNJ": false,
      "MJBBAAKCDCP": 0.0
    },
    "gadget": {
      "$type": "ConfigBulletPattern",
      "collision": {
        "triggerType": "TriggerNoRepeat",
        "targetType": "Enemy",
        "ignoreScene": true
      },
      "triggerActions": [
        {
          "$type": "ConfigGadgetTriggerAbility",
          "abilityName": "SceneObj_Area_Xm_Property_Ani_Prop_AbilitySandWorm_Sand_02_ShootAttack_Bullet_Explode"
        }
      ],
      "HOCNBGDGGPK": [
        {
          "$type": "ConfigGadgetTriggerAbility",
          "abilityName": "SceneObj_Area_Xm_Property_Ani_Prop_AbilitySandWorm_Sand_02_ShootAttack_Bullet_Explode"
        }
      ]
    }
  },
  "SceneObj_Area_Xm_Property_Ani_Prop_AbilitySandWorm_Sand_03_ShootAttackBullet": {
    "$type": "ConfigGadget",
    "combat": {
      "property": {
        "useCreatorProperty": true,
        "HP": 100.0,
        "attack": 10.0,
        "isInvincible": true,
        "canTriggerBullet": true,
        "denyElementStick": true,
        "ignorePurgeRate": false
      },
      "combatLock": {
        "lockShape": "CircleLockEnemy",
        "denyLockOn": true,
        "lockType": "Default"
      }
    },
    "attackAttenuation": "",
    "abilities": [
      {
        "abilityID": "",
        "abilityName": "SceneObj_Area_Xm_Property_Ani_Prop_AbilitySandWorm_Sand_03_ShootAttack_Attack",
        "abilityOverride": ""
      }
    ],
    "timer": {
      "lifeTime": 5.0
    }
  }
}
