{
  "MPLevel": {
    "$type": "ConfigGadget",
    "combat": {
      "property": {
        "HP": 999999.0,
        "level": 1,
        "canTriggerBullet": true,
        "denyElementStick": true,
        "ignorePurgeRate": false,
        "FBCDFHECDNM": true
      }
    },
    "attackAttenuation": ""
  },
  "Team": {
    "$type": "ConfigGadget",
    "combat": {
      "property": {
        "HP": 999999.0,
        "canTriggerBullet": true,
        "denyElementStick": true,
        "ignorePurgeRate": false,
        "FBCDFHECDNM": true
      }
    },
    "attackAttenuation": "",
    "move": {
      "$type": "BHKMHNNCDMG",
      "target": "LocalAvatarSyncedLocation",
      "EBBHBMFMOGD": "RootNode",
      "HHDPHCLOMED": {
        "z": 1.0
      }
    }
  },
  "Enviro01": {
    "$type": "ConfigGadget",
    "attackAttenuation": "",
    "AEKCHCNADDF": {
      "OFOMLFNJNOK": [
        {
          "type": "InStorm",
          "BJPBMGFICMO": 6,
          "OKCLPLKOEKE": [2004, 2004, 2012, 2004],
          "maxNum": 30,
          "MIPLMOGEIKO": 4.0,
          "CFPPAIBFMMG": 25.0
        },
        {
          "type": "InRain",
          "BJPBMGFICMO": 6,
          "OKNODEKDIAI": [10.0, 15.0, 20.0],
          "OKCLPLKOEKE": [2002, 2002, 2002, 2010],
          "MKNAACDENIN": [5, 8, 15],
          "maxNum": 30,
          "MIPLMOGEIKO": 4.0,
          "CFPPAIBFMMG": 25.0
        },
        {
          "type": "InSnow",
          "BJPBMGFICMO": 6,
          "OKNODEKDIAI": [10.0, 15.0, 20.0],
          "OKCLPLKOEKE": [2006, 2006, 2014, 2014],
          "MKNAACDENIN": [5, 8, 15],
          "maxNum": 30,
          "MIPLMOGEIKO": 4.0,
          "CFPPAIBFMMG": 25.0
        },
        {
          "type": "AfterRain",
          "BJPBMGFICMO": 6,
          "OKNODEKDIAI": [10.0, 15.0, 20.0],
          "OKCLPLKOEKE": [2003, 2003, 2011],
          "MKNAACDENIN": [5, 8, 15],
          "maxNum": 15,
          "MIPLMOGEIKO": 3.0,
          "CFPPAIBFMMG": 25.0
        }
      ],
      "shapeName": "CircleR10000",
      "position": [0.0, 0.0, 0.0],
      "BFIDNELNHEB": "MengdeAreaDefault03",
      "weatherList": [
        "ClearSky",
        "Cloudy",
        "Cloudy1",
        "Cloudy2",
        "Cloudy3",
        "HeavyRain",
        "HeavySnow",
        "Storm",
        "Blustery"
      ],
      "GNPJNGJDDLL": [90.0, 50.0, 0.0, 0.0, 0.0, 0.0, 0.0, 0.0, 0.0]
    }
  },
  "Enviro02": {
    "$type": "ConfigGadget",
    "attackAttenuation": "",
    "AEKCHCNADDF": {
      "OFOMLFNJNOK": [
        {
          "type": "InStorm",
          "BJPBMGFICMO": 6,
          "OKCLPLKOEKE": [2004, 2004, 2012, 2004],
          "maxNum": 30,
          "MIPLMOGEIKO": 4.0,
          "CFPPAIBFMMG": 25.0
        },
        {
          "type": "InRain",
          "BJPBMGFICMO": 6,
          "OKNODEKDIAI": [10.0, 15.0, 20.0],
          "OKCLPLKOEKE": [2002, 2002, 2002, 2010],
          "MKNAACDENIN": [5, 8, 15],
          "maxNum": 30,
          "MIPLMOGEIKO": 4.0,
          "CFPPAIBFMMG": 25.0
        },
        {
          "type": "InSnow",
          "BJPBMGFICMO": 6,
          "OKNODEKDIAI": [10.0, 15.0, 20.0],
          "OKCLPLKOEKE": [2006, 2006, 2014, 2014],
          "MKNAACDENIN": [5, 8, 15],
          "maxNum": 30,
          "MIPLMOGEIKO": 4.0,
          "CFPPAIBFMMG": 25.0
        },
        {
          "type": "AfterRain",
          "BJPBMGFICMO": 6,
          "OKNODEKDIAI": [10.0, 15.0, 20.0],
          "OKCLPLKOEKE": [2003, 2003, 2011],
          "MKNAACDENIN": [5, 8, 15],
          "maxNum": 15,
          "MIPLMOGEIKO": 3.0,
          "CFPPAIBFMMG": 25.0
        }
      ],
      "shapeName": "CircleRWindDragon",
      "position": [2698.0, 195.0, 158.0],
      "priority": 10,
      "BFIDNELNHEB": "WindDragonEnviroArea",
      "weatherList": ["WindDragonWeather"],
      "GNPJNGJDDLL": [100.0, 0.0]
    }
  },
  "Enviro03": {
    "$type": "ConfigGadget",
    "attackAttenuation": "",
    "AEKCHCNADDF": {
      "shapeName": "CircleR350",
      "position": [2368.0, 208.0, -793.0],
      "priority": 20,
      "BFIDNELNHEB": "MengdeAreaDefault03",
      "weatherList": ["Blustery"],
      "GNPJNGJDDLL": [100.0, 0.0],
      "EFFGBAGMOLK": 1000.0
    }
  },
  "Grass01": {
    "$type": "ConfigGadget",
    "common": {
      "effectAttachShape": {
        "$type": "ConfigEffectAttachBox",
        "scaleX": 0.800000011920929,
        "scaleY": 0.800000011920929,
        "scaleZ": 0.30000001192092896
      },
      "affectedByWorld": true
    },
    "combat": {
      "property": {
        "HP": 999999.0,
        "attack": 1.0,
        "defense": 999999.0,
        "weight": 50.0,
        "canTriggerBullet": true,
        "ignorePurgeRate": false
      },
      "beHit": {
        "hitBloodEffect": "",
        "muteAllHit": true,
        "muteAllHitEffect": true,
        "muteAllHitText": true
      },
      "combatLock": {
        "lockShape": "CircleLockEnemy",
        "denyLockOn": true,
        "lockType": "Gadget_Lv1"
      }
    },
    "attackAttenuation": "",
    "abilities": [
      {
        "abilityID": "Grass",
        "abilityName": "GrassMaterial",
        "abilityOverride": ""
      }
    ]
  },
  "Water01": {
    "$type": "ConfigGadget",
    "common": {
      "effectAttachShape": {
        "$type": "ConfigEffectAttachBox",
        "scaleX": 2.0,
        "scaleY": 2.0,
        "scaleZ": 0.5
      }
    },
    "combat": {
      "property": {
        "HP": 999999.0,
        "attack": 1.0,
        "defense": 999999.0,
        "weight": 50.0,
        "canTriggerBullet": true,
        "ignorePurgeRate": false
      },
      "beHit": {
        "hitBloodEffect": "",
        "muteAllHit": true,
        "muteAllHitEffect": true,
        "muteAllHitText": true
      },
      "combatLock": {
        "lockShape": "CircleLockEnemy",
        "denyLockOn": true,
        "lockType": "Gadget_Lv1"
      }
    },
    "attackAttenuation": "",
    "abilities": [
      {
        "abilityID": "Water",
        "abilityName": "WaterMaterial",
        "abilityOverride": ""
      }
    ]
  },
  "Tree01": {
    "$type": "ConfigGadget",
    "common": {
      "effectAttachShape": {
        "$type": "ConfigEffectAttachMesh",
        "mesh": "EffectMesh"
      },
      "affectedByWorld": true
    },
    "combat": {
      "property": {
        "HP": 300.0,
        "attack": 10.0,
        "weight": 75.0,
        "isLockHP": true,
        "canTriggerBullet": true,
        "ignorePurgeRate": false,
        "OEPGABDDCHI": true
      },
      "beHit": {
        "hitBloodEffect": "",
        "muteAllHitText": true
      },
      "combatLock": {
        "lockShape": "CircleLockEnemy",
        "denyLockOn": true,
        "lockType": "Gadget_Lv1"
      }
    },
    "attackAttenuation": ""
  },
  "Bush01": {
    "$type": "ConfigGadget",
    "common": {
      "effectAttachShape": {
        "$type": "ConfigEffectAttachMesh",
        "mesh": "EffectMesh"
      },
      "affectedByWorld": true
    },
    "combat": {
      "property": {
        "HP": 100.0,
        "attack": 10.0,
        "weight": 75.0,
        "isLockHP": true,
        "canTriggerBullet": true,
        "OEPGABDDCHI": true
      },
      "beHit": {
        "hitBloodEffect": "",
        "muteAllHit": true,
        "muteAllHitEffect": true,
        "muteAllHitText": true
      },
      "combatLock": {
        "lockShape": "CircleLockEnemy",
        "denyLockOn": true,
        "lockType": "Gadget_Lv1"
      },
      "die": {
        "dieDisappearEffect": ""
      }
    },
    "attackAttenuation": "",
    "abilities": [
      {
        "abilityID": "Bush01",
        "abilityName": "BushMaterial01",
        "abilityOverride": ""
      }
    ]
  },
  "Bush02": {
    "$type": "ConfigGadget",
    "common": {
      "effectAttachShape": {
        "$type": "ConfigEffectAttachMesh",
        "mesh": "EffectMesh"
      },
      "affectedByWorld": true
    },
    "combat": {
      "property": {
        "HP": 100.0,
        "attack": 10.0,
        "weight": 75.0,
        "isLockHP": true,
        "canTriggerBullet": true,
        "OEPGABDDCHI": true
      },
      "beHit": {
        "hitBloodEffect": "",
        "muteAllHit": true,
        "muteAllHitEffect": true,
        "muteAllHitText": true
      },
      "combatLock": {
        "lockShape": "CircleLockEnemy",
        "denyLockOn": true,
        "lockType": "Gadget_Lv1"
      },
      "die": {
        "dieDisappearEffect": ""
      }
    },
    "attackAttenuation": "",
    "abilities": [
      {
        "abilityID": "Bush01",
        "abilityName": "BushMaterial01",
        "abilityOverride": ""
      }
    ]
  },
  "Bush_NoFire01": {
    "$type": "ConfigGadget",
    "common": {
      "effectAttachShape": {
        "$type": "ConfigEffectAttachMesh",
        "mesh": "EffectMesh"
      },
      "affectedByWorld": true
    },
    "combat": {
      "property": {
        "HP": 100.0,
        "attack": 10.0,
        "weight": 75.0,
        "isLockHP": true,
        "canTriggerBullet": true,
        "OEPGABDDCHI": true
      },
      "beHit": {
        "hitBloodEffect": "",
        "muteAllHit": true,
        "muteAllHitEffect": true,
        "muteAllHitText": true
      },
      "combatLock": {
        "lockShape": "CircleLockEnemy",
        "denyLockOn": true,
        "lockType": "Gadget_Lv1"
      },
      "die": {
        "dieDisappearEffect": ""
      }
    },
    "attackAttenuation": "",
    "abilities": [
      {
        "abilityID": "Bush_NoFire01",
        "abilityName": "Bush_NoFire01",
        "abilityOverride": ""
      }
    ]
  },
  "Bush_Yellow": {
    "$type": "ConfigGadget",
    "common": {
      "effectAttachShape": {
        "$type": "ConfigEffectAttachMesh",
        "mesh": "EffectMesh"
      },
      "viewSize": 1.7000000476837158,
      "affectedByWorld": true
    },
    "combat": {
      "property": {
        "HP": 100.0,
        "attack": 10.0,
        "weight": 75.0,
        "isLockHP": true,
        "canTriggerBullet": true,
        "OEPGABDDCHI": true
      },
      "beHit": {
        "hitBloodEffect": "",
        "muteAllHit": true,
        "muteAllHitEffect": true,
        "muteAllHitText": true
      },
      "die": {
        "dieDisappearEffect": ""
      }
    },
    "attackAttenuation": "",
    "abilities": [
      {
        "abilityID": "Ability_01",
        "abilityName": "YellowBushMaterial01",
        "abilityOverride": ""
      }
    ]
  },
  "CustomTile": {
    "$type": "ConfigGadget",
    "common": {
      "effectAttachShape": {
        "$type": "ConfigEffectAttachBox",
        "scaleX": 2.0,
        "scaleY": 2.0,
        "scaleZ": 0.5
      }
    },
    "combat": {
      "property": {
        "HP": 999999.0,
        "attack": 1.0,
        "defense": 999999.0,
        "weight": 50.0,
        "canTriggerBullet": true,
        "ignorePurgeRate": false
      },
      "beHit": {
        "hitBloodEffect": "",
        "muteAllHit": true,
        "muteAllHitEffect": true,
        "muteAllHitText": true
      },
      "combatLock": {
        "lockShape": "CircleLockEnemy",
        "denyLockOn": true,
        "lockType": "Gadget_Lv1"
      }
    },
    "attackAttenuation": ""
  },
  "Foxtail_Grass01": {
    "$type": "ConfigGadget",
    "common": {
      "effectAttachShape": {
        "$type": "ConfigEffectAttachMesh",
        "mesh": "EffectMesh"
      },
      "affectedByWorld": true
    },
    "combat": {
      "property": {
        "HP": 100.0,
        "attack": 10.0,
        "weight": 75.0,
        "isLockHP": true,
        "canTriggerBullet": true,
        "OEPGABDDCHI": true
      },
      "beHit": {
        "hitBloodEffect": "",
        "muteAllHit": true,
        "muteAllHitEffect": true,
        "muteAllHitText": true
      },
      "die": {
        "dieDisappearEffect": ""
      }
    },
    "attackAttenuation": "",
    "abilities": [
      {
        "abilityID": "Ability_01",
        "abilityName": "Foxtail_Grass01_Material",
        "abilityOverride": ""
      }
    ]
  },
  "Foxtail_Grass02": {
    "$type": "ConfigGadget",
    "common": {
      "effectAttachShape": {
        "$type": "ConfigEffectAttachMesh",
        "mesh": "EffectMesh"
      },
      "affectedByWorld": true
    },
    "combat": {
      "property": {
        "HP": 100.0,
        "attack": 10.0,
        "weight": 75.0,
        "isLockHP": true,
        "canTriggerBullet": true,
        "OEPGABDDCHI": true
      },
      "beHit": {
        "hitBloodEffect": "",
        "muteAllHit": true,
        "muteAllHitEffect": true,
        "muteAllHitText": true
      },
      "die": {
        "dieDisappearEffect": ""
      }
    },
    "attackAttenuation": "",
    "abilities": [
      {
        "abilityID": "Ability_01",
        "abilityName": "Foxtail_Grass02_Material",
        "abilityOverride": ""
      }
    ]
  },
  "Windmill": {
    "$type": "ConfigGadget",
    "common": {
      "overrideCullBoundsRadius": 45.0
    },
    "attackAttenuation": "",
    "move": {
      "$type": "HFOCEFFGNCB"
    }
  },
  "Oil": {
    "$type": "ConfigGadget",
    "common": {
      "effectAttachShape": {
        "$type": "ConfigEffectAttachMesh",
        "mesh": "EffectMesh"
      },
      "viewSize": 1.5,
      "affectedByWorld": true
    },
    "hasModel": true,
    "combat": {
      "property": {
        "HP": 5000.0,
        "attack": 15.0,
        "weight": 50.0,
        "isLockHP": true
      },
      "beHit": {
        "hitBloodEffect": "",
        "hitAutoRedirect": false,
        "muteAllHitText": true
      },
      "die": {
        "dieEndTime": 0.10000000149011612,
        "dieForceDisappearTime": 0.20000000298023224,
        "dieDisappearEffect": ""
      }
    },
    "attackAttenuation": "",
    "abilities": [
      {
        "abilityID": "Oil_Interact",
        "abilityName": "Oil_Interact",
        "abilityOverride": ""
      }
    ],
    "JHGMMGMDGOA": false,
    "billboard": {
      "$type": "NCBABGPMMPL",
      "EBBHBMFMOGD": "BillboardAttach",
      "offset": {
        "y": 1.5
      },
      "radiusOffset": 1.0,
      "ANGKJBLILKJ": true,
      "KMNKNGMODFK": true
    }
  },
  "Storm_Lightning": {
    "$type": "ConfigGadget",
    "common": {
      "effectAttachShape": {
        "$type": "ConfigEffectAttachMesh",
        "mesh": "EffectMesh"
      },
      "checkInSurface": true
    },
    "combat": {
      "property": {
        "HP": 999999.0,
        "attack": 1.0,
        "defense": 999999.0,
        "weight": 0.0,
        "isLockHP": true,
        "canTriggerBullet": true,
        "denyElementStick": true,
        "ignorePurgeRate": false
      },
      "beHit": {
        "hitBloodEffect": "",
        "hitAutoRedirect": false,
        "muteAllHit": true,
        "muteAllHitEffect": true,
        "muteAllHitText": true
      },
      "combatLock": {
        "lockShape": "CircleLockEnemy",
        "denyLockOn": true,
        "lockType": "Default"
      }
    },
    "attackAttenuation": "",
    "abilities": [
      {
        "abilityID": "Storm_Lightning",
        "abilityName": "SceneObj_Storm_Lightning",
        "abilityOverride": ""
      }
    ],
    "timer": {
      "lifeTime": 10.0
    }
  },
  "Storm_Lightning_New": {
    "$type": "ConfigGadget",
    "common": {
      "effectAttachShape": {
        "$type": "ConfigEffectAttachMesh",
        "mesh": "EffectMesh"
      },
      "checkInSurface": true
    },
    "combat": {
      "property": {
        "HP": 999999.0,
        "attack": 1.0,
        "defense": 999999.0,
        "weight": 0.0,
        "isLockHP": true,
        "canTriggerBullet": true,
        "denyElementStick": true,
        "ignorePurgeRate": false
      },
      "beHit": {
        "hitBloodEffect": "",
        "hitAutoRedirect": false,
        "muteAllHit": true,
        "muteAllHitEffect": true,
        "muteAllHitText": true
      },
      "combatLock": {
        "lockShape": "CircleLockEnemy",
        "denyLockOn": true,
        "lockType": "Default"
      }
    },
    "attackAttenuation": "",
    "abilities": [
      {
        "abilityID": "Storm_Lightning",
        "abilityName": "SceneObj_Storm_Lightnin_New",
        "abilityOverride": ""
      }
    ],
    "timer": {
      "lifeTime": 10.0
    }
  }
}
