{
  "SceneObj_Gather_Default_Gather": {
    "$type": "ConfigGadget",
    "model": {
      "bornEffect": "",
      "attachEffect": "Eff_Item_Hint_Small"
    },
    "hasModel": true,
    "attackAttenuation": "",
    "misc": {
      "LJHHKLBGKLO": {
        "CNLKNADGPHB": "Select",
        "NHADPEGEEPN": true,
        "bornEffect": "",
        "NCDKDKPECCH": "",
        "LBJBBIMDIII": ""
      },
      "GKCEMAKIKPH": ""
    }
  },
  "SceneObj_Gather_WindmilDaisy": {
    "$type": "ConfigGadget",
    "model": {
      "bornEffect": "",
      "attachEffect": "Eff_Item_Hint_Small"
    },
    "hasModel": true,
    "NEJMFDBIODF": true,
    "attackAttenuation": "",
    "misc": {
      "LJHHKLBGKLO": {
        "CNLKNADGPHB": "Select",
        "NHADPEGEEPN": true,
        "bornEffect": "",
        "NCDKDKPECCH": "",
        "LBJBBIMDIII": ""
      },
      "GKCEMAKIKPH": ""
    },
    "KOKIOOHIIKC": true
  },
  "SceneObj_Gather_GlazedLily": {
    "$type": "ConfigGadget",
    "model": {
      "bornEffect": "",
      "attachEffect": "Eff_Item_Hint_Small"
    },
    "hasModel": true,
    "NEJMFDBIODF": true,
    "attackAttenuation": "",
    "abilities": [
      {
        "abilityID": "Ability_01",
        "abilityName": "SceneObj_Gather_GlazedLily",
        "abilityOverride": ""
      }
    ],
    "misc": {
      "LJHHKLBGKLO": {
        "CNLKNADGPHB": "Select",
        "NHADPEGEEPN": true,
        "bornEffect": "",
        "NCDKDKPECCH": "",
        "LBJBBIMDIII": ""
      },
      "GKCEMAKIKPH": ""
    },
    "stateLayers": {
      "defaultLayer": {
        "$type": "ConfigNormalStateLayer",
        "FNPGDAEJAPJ": "",
        "stateIDs": {
          "All": {
            "$type": "ConfigNormalStateIDInfo",
            "animatorStates": {
              "Day": ["Lily_Day"],
              "Night": ["Lily_Night"]
            }
          }
        }
      }
    },
    "KOKIOOHIIKC": true,
    "gadgetAction": {
      "gadgetStateActionList": [
        {
          "$type": "ConfigGadgetStateSetAnimInt",
          "intID": "gadgetState",
          "syncState": true
        }
      ]
    }
  },
  "SceneObj_Gather_Small": {
    "$type": "ConfigGadget",
    "model": {
      "bornEffect": "",
      "attachEffect": "Eff_Item_Hint_Small"
    },
    "hasModel": true,
    "attackAttenuation": "",
    "misc": {
      "LJHHKLBGKLO": {
        "CNLKNADGPHB": "Select",
        "NHADPEGEEPN": true,
        "bornEffect": "",
        "NCDKDKPECCH": "",
        "LBJBBIMDIII": ""
      },
      "GKCEMAKIKPH": ""
    },
    "KOKIOOHIIKC": true
  },
  "SceneObj_Gather_DatePlam": {
    "$type": "ConfigGadget",
    "model": {
      "bornEffect": "",
      "attachEffect": "Eff_Item_Hint_Small"
    },
    "hasModel": true,
    "attackAttenuation": "canBeAttacked",
    "misc": {
      "LJHHKLBGKLO": {
        "CNLKNADGPHB": "Select",
        "NHADPEGEEPN": true,
        "bornEffect": "",
        "NCDKDKPECCH": "",
        "LBJBBIMDIII": ""
      },
      "GKCEMAKIKPH": ""
    },
    "KOKIOOHIIKC": true
  },
  "SceneObj_Gather_Small_Shining_Mushroom": {
    "$type": "ConfigGadget",
    "model": {
      "bornEffect": "",
      "attachEffect": "Eff_Item_Hint_Small"
    },
    "hasModel": true,
    "combat": {
      "property": {
        "HP": 99999.0,
        "weight": 50.0,
        "isLockHP": true,
        "canTriggerBullet": true,
        "denyElementStick": true
      },
      "beHit": {
        "hitBloodEffect": "",
        "hitAutoRedirect": false,
        "muteAllHitText": true
      },
      "combatLock": {
        "lockShape": "CircleLockEnemy",
        "denyLockOn": true,
        "lockType": "Gadget_Lv1"
      }
    },
    "attackAttenuation": "",
    "abilities": [
      {
        "abilityID": "SceneObj_Gather_Small_Shining_Mushroom",
        "abilityName": "SceneObj_Gather_Small_Shining_Mushroom",
        "abilityOverride": ""
      }
    ],
    "misc": {
      "LJHHKLBGKLO": {
        "CNLKNADGPHB": "Select",
        "NHADPEGEEPN": true,
        "bornEffect": "",
        "NCDKDKPECCH": "",
        "LBJBBIMDIII": ""
      },
      "GKCEMAKIKPH": ""
    },
    "KOKIOOHIIKC": true
  },
  "SceneObj_Gather_Hunt": {
    "$type": "ConfigGadget",
    "model": {
      "bornEffect": "",
      "attachEffect": "Eff_SceneObj_Mark_01"
    },
    "hasModel": true,
    "attackAttenuation": "",
    "misc": {
      "LJHHKLBGKLO": {
        "CNLKNADGPHB": "Select",
        "NHADPEGEEPN": true,
        "bornEffect": "",
        "NCDKDKPECCH": "",
        "LBJBBIMDIII": ""
      },
      "GKCEMAKIKPH": ""
    },
    "KOKIOOHIIKC": true
  },
  "SceneObj_Gather_Small_Ore": {
    "$type": "ConfigGadget",
    "model": {
      "bornEffect": "",
      "attachEffect": "Eff_Item_Hint_Small"
    },
    "hasModel": true,
    "attackAttenuation": "",
    "misc": {
      "LJHHKLBGKLO": {
        "CNLKNADGPHB": "Select",
        "NHADPEGEEPN": true,
        "IANDHDEGBLP": 5.0,
        "DOHEKJLMKFJ": 4.0,
        "bornEffect": "",
        "NCDKDKPECCH": "",
        "LBJBBIMDIII": ""
      },
      "GKCEMAKIKPH": ""
    }
  },
  "SceneObj_Area_Ljxs_Property_Prop_DropDulinsBlood_01": {
    "$type": "ConfigGadget",
    "model": {
      "bornEffect": "",
      "attachEffect": "Eff_SceneObj_DropDulinsBlood_03"
    },
    "hasModel": true,
    "attackAttenuation": "",
    "timer": {
      "lifeTime": 15.0
    },
    "misc": {
      "LJHHKLBGKLO": {
        "CNLKNADGPHB": "Select",
        "bornEffect": "",
        "NCDKDKPECCH": "",
        "LCIBMBFHPKG": true,
        "LBJBBIMDIII": ""
      },
      "GKCEMAKIKPH": ""
    }
  },
  "SceneObj_Gather_AutoSelect": {
    "$type": "ConfigGadget",
    "model": {
      "bornEffect": "",
      "attachEffect": "Eff_Item_Hint_Small"
    },
    "hasModel": true,
    "attackAttenuation": "",
    "misc": {
      "LJHHKLBGKLO": {
        "CNLKNADGPHB": "AutoSelect",
        "NHADPEGEEPN": true,
        "bornEffect": "",
        "NCDKDKPECCH": "",
        "LBJBBIMDIII": ""
      },
      "GKCEMAKIKPH": ""
    }
  },
  "SceneObj_Gather_Big": {
    "$type": "ConfigGadget",
    "model": {
      "bornEffect": "",
      "attachEffect": "Eff_SceneObj_Hint_01_Big"
    },
    "hasModel": true,
    "attackAttenuation": "",
    "misc": {
      "LJHHKLBGKLO": {
        "CNLKNADGPHB": "Select",
        "NHADPEGEEPN": true,
        "bornEffect": "",
        "NCDKDKPECCH": "",
        "LBJBBIMDIII": ""
      },
      "GKCEMAKIKPH": ""
    },
    "KOKIOOHIIKC": true
  },
  "SceneObj_Item_Small": {
    "$type": "ConfigGadget",
    "hasModel": true,
    "attackAttenuation": "",
    "misc": {
      "LJHHKLBGKLO": {
        "CNLKNADGPHB": "Select",
        "DOHEKJLMKFJ": 2.0,
        "IGKNJCDKGLF": 3.0,
        "bornEffect": "",
        "NCDKDKPECCH": "Eff_Item_Hint_Small",
        "DDOEHEBIFGB": {
          "x": 5.0,
          "y": 5.0,
          "z": -3.0
        },
        "LBJBBIMDIII": ""
      },
      "GKCEMAKIKPH": ""
    }
  },
  "SceneObj_Item_Small_noVector": {
    "$type": "ConfigGadget",
    "hasModel": true,
    "attackAttenuation": "",
    "misc": {
      "LJHHKLBGKLO": {
        "CNLKNADGPHB": "Select",
        "NHADPEGEEPN": true,
        "bornEffect": "",
        "NCDKDKPECCH": "Eff_Item_Hint_Small",
        "LBJBBIMDIII": ""
      },
      "GKCEMAKIKPH": ""
    }
  },
  "SceneObj_Item_Small_Ore": {
    "$type": "ConfigGadget",
    "hasModel": true,
    "attackAttenuation": "",
    "misc": {
      "LJHHKLBGKLO": {
        "CNLKNADGPHB": "Select",
        "IANDHDEGBLP": 60.0,
        "DOHEKJLMKFJ": 5.0,
        "IGKNJCDKGLF": 6.0,
        "bornEffect": "",
        "NCDKDKPECCH": "Eff_Item_Hint_Small",
        "DDOEHEBIFGB": {
          "x": 5.0,
          "y": 5.0,
          "z": -3.0
        },
        "LBJBBIMDIII": ""
      },
      "GKCEMAKIKPH": ""
    }
  },
  "SceneObj_Item_Big": {
    "$type": "ConfigGadget",
    "hasModel": true,
    "attackAttenuation": "",
    "misc": {
      "LJHHKLBGKLO": {
        "CNLKNADGPHB": "Select",
        "IANDHDEGBLP": 45.0,
        "DOHEKJLMKFJ": 3.0,
        "IGKNJCDKGLF": 4.0,
        "bornEffect": "",
        "NCDKDKPECCH": "Eff_SceneObj_Hint_01_Big",
        "DDOEHEBIFGB": {
          "x": 5.0,
          "y": 5.0,
          "z": -3.0
        },
        "LBJBBIMDIII": ""
      },
      "GKCEMAKIKPH": ""
    }
  },
  "SceneObj_Gather_Task_Gather": {
    "$type": "ConfigGadget",
    "attackAttenuation": "",
    "misc": {
      "LJHHKLBGKLO": {
        "CNLKNADGPHB": "Attract",
        "bornEffect": "",
        "NCDKDKPECCH": "",
        "LBJBBIMDIII": ""
      },
      "GKCEMAKIKPH": ""
    }
  },
  "SceneObj_Gather_Task_NoDrop": {
    "$type": "ConfigGadget",
    "model": {
      "bornEffect": "",
      "attachEffect": "Eff_Item_Hint_Small"
    },
    "hasModel": true,
    "attackAttenuation": "",
    "misc": {
      "LJHHKLBGKLO": {
        "CNLKNADGPHB": "Select",
        "NHADPEGEEPN": true,
        "bornEffect": "",
        "NCDKDKPECCH": "",
        "LBJBBIMDIII": ""
      },
      "GKCEMAKIKPH": ""
    }
  },
  "SceneObj_Gather_Task_NoDrop_70700016": {
    "$type": "ConfigGadget",
    "attackAttenuation": "",
    "misc": {
      "LJHHKLBGKLO": {
        "CNLKNADGPHB": "Select",
        "NHADPEGEEPN": true,
        "bornEffect": "",
        "NCDKDKPECCH": "",
        "LBJBBIMDIII": ""
      },
      "GKCEMAKIKPH": ""
    }
  },
  "SceneObj_Gather_Task_VisualEffect": {
    "$type": "ConfigGadget",
    "model": {
      "bornEffect": "",
      "attachEffect": "Eff_Item_Hint_Small"
    },
    "hasModel": true,
    "attackAttenuation": "",
    "abilities": [
      {
        "abilityID": "ElementVisualEffect",
        "abilityName": "ElementVisualEffect",
        "abilityOverride": ""
      }
    ],
    "misc": {
      "LJHHKLBGKLO": {
        "CNLKNADGPHB": "Select",
        "NHADPEGEEPN": true,
        "bornEffect": "",
        "NCDKDKPECCH": "",
        "LBJBBIMDIII": ""
      },
      "GKCEMAKIKPH": ""
    }
  },
  "SceneObj_Gather_KapokFlower": {
    "$type": "ConfigGadget",
    "combat": {
      "property": {
        "HP": 99999.0,
        "weight": 50.0,
        "isLockHP": true,
        "canTriggerBullet": true
      },
      "beHit": {
        "hitBloodEffect": "",
        "hitAutoRedirect": false,
        "muteAllHitText": true
      },
      "combatLock": {
        "lockShape": "CircleLockEnemy",
        "denyLockOn": true,
        "lockType": "Gadget_Lv1"
      },
      "die": {
        "hasAnimatorDie": true,
        "dieEndTime": 5.0,
        "dieForceDisappearTime": 5.0,
        "dieDisappearEffect": "Eff_ItemFlower_Bloom"
      }
    },
    "attackAttenuation": "",
    "KOKIOOHIIKC": true
  },
  "SceneObj_Gather_FireFlower01": {
    "$type": "ConfigGadget",
    "combat": {
      "property": {
        "HP": 99999.0,
        "weight": 50.0,
        "isLockHP": true,
        "canTriggerBullet": true
      },
      "beHit": {
        "hitBloodEffect": "",
        "hitAutoRedirect": false,
        "muteAllHitText": true
      },
      "combatLock": {
        "lockShape": "CircleLockEnemy",
        "lockType": "Gadget_Lv1",
        "overrideRange": 5.0
      },
      "die": {
        "dieForceDisappearTime": 0.0,
        "dieDisappearEffect": ""
      }
    },
    "attackAttenuation": "",
    "misc": {
      "LJHHKLBGKLO": {
        "CNLKNADGPHB": "Select",
        "NHADPEGEEPN": true,
        "bornEffect": "",
        "NCDKDKPECCH": "",
        "LBJBBIMDIII": ""
      },
      "GKCEMAKIKPH": ""
    },
    "stateLayers": {
      "defaultLayer": {
        "$type": "ConfigNormalStateLayer",
        "FNPGDAEJAPJ": "",
        "stateIDs": {
          "All": {
            "$type": "ConfigNormalStateIDInfo",
            "animatorStates": {
              "Ani_FireFlower_Idle": [],
              "Ani_FireFlower_Hit": ["FireFlower01_Bloom"],
              "Ani_FireFlower_Done": []
            }
          }
        }
      }
    },
    "KOKIOOHIIKC": true,
    "gadgetAction": {
      "gadgetStateActionList": [
        {
          "$type": "MJJCBEEEKNH",
          "LBDKLEDDLHH": "Action01",
          "triggerID": "FireAttack"
        },
        {
          "$type": "MJJCBEEEKNH",
          "LBDKLEDDLHH": "Action02",
          "triggerID": "NormalAttack"
        },
        {
          "$type": "MJJCBEEEKNH",
          "LBDKLEDDLHH": "Action03",
          "triggerID": "NormalAttack"
        }
      ]
    }
  },
  "SceneObj_Gather_ElectricRock01": {
    "$type": "ConfigGadget",
    "combat": {
      "property": {
        "HP": 99999.0,
        "weight": 50.0,
        "isLockHP": true,
        "canTriggerBullet": true
      },
      "beHit": {
        "hitBloodEffect": "",
        "hitAutoRedirect": false,
        "muteAllHitText": true
      },
      "combatLock": {
        "lockShape": "CircleLockEnemy",
        "lockType": "Gadget_Lv1",
        "overrideRange": 5.0
      },
      "die": {
        "dieEndTime": 0.10000000149011612,
        "dieForceDisappearTime": 0.10000000149011612,
        "dieDisappearEffect": "Eff_SceneObj_ElectricRock_01_Destroy"
      }
    },
    "attackAttenuation": "",
    "KOKIOOHIIKC": true
  },
  "SceneObj_Gather_Fuchsia01": {
    "$type": "ConfigGadget",
    "model": {
      "bornEffect": "",
      "attachEffect": "Eff_Item_Hint_Small"
    },
    "hasModel": true,
    "combat": {
      "property": {
        "HP": 99999.0,
        "weight": 50.0,
        "isLockHP": true,
        "canTriggerBullet": true
      },
      "beHit": {
        "hitBloodEffect": "",
        "hitAutoRedirect": false,
        "muteAllHitText": true
      },
      "combatLock": {
        "lockShape": "CircleLockEnemy",
        "denyLockOn": true,
        "lockType": "Gadget_Lv1"
      }
    },
    "attackAttenuation": "",
    "field": {
      "concernType": "AllAvatars",
      "shape": "CircleR3",
      "DEOHMEELJDM": "",
      "triggerInfinite": true,
      "lifeInfinite": true,
      "checkInterval": 0.75,
      "overwriteCampType": true,
      "campType": "All",
      "useCollider": false,
      "INKADPFABPA": "",
      "AAHHPDHLLLH": ""
    },
    "misc": {
      "LJHHKLBGKLO": {
        "CNLKNADGPHB": "Select",
        "NHADPEGEEPN": true,
        "bornEffect": "",
        "NCDKDKPECCH": "",
        "LBJBBIMDIII": ""
      },
      "GKCEMAKIKPH": ""
    },
    "KOKIOOHIIKC": true,
    "gadgetAction": {
      "ADBAFPEMGEB": [
        {
          "$type": "JOKACPDPKDB",
          "FKGLBHAAIKI": {
            "$type": "JKFKFDNENNC",
            "PHMAMLMKGAP": true
          },
          "FMENFCPIPOI": "",
          "healLimitedByCasterMaxHPRatio": "Eff_Item_Fuchsia01_Touch"
        }
      ]
    }
  },
  "SceneObj_Gather_ElectricRock02": {
    "$type": "ConfigGadget",
    "common": {
      "affectedByWorld": true
    },
    "hasModel": true,
    "combat": {
      "property": {
        "HP": 99999.0,
        "weight": 50.0,
        "isLockHP": true,
        "canTriggerBullet": true
      },
      "beHit": {
        "hitBloodEffect": "",
        "hitAutoRedirect": false,
        "muteAllHitText": true
      },
      "combatLock": {
        "lockShape": "CircleLockEnemy",
        "lockType": "Gadget_Lv1",
        "overrideRange": 5.0
      },
      "die": {
        "dieEndTime": 0.10000000149011612,
        "dieForceDisappearTime": 0.10000000149011612,
        "dieDisappearEffect": "Eff_SceneObj_ElectricRock_01_Destroy"
      }
    },
    "attackAttenuation": "",
    "abilities": [
      {
        "abilityID": "Ability_01",
        "abilityName": "SceneObj_Gather_ElectricRock02_Interact",
        "abilityOverride": ""
      }
    ],
    "KOKIOOHIIKC": true
  },
  "SceneObj_Gather_FireFlower02": {
    "$type": "ConfigGadget",
    "common": {
      "affectedByWorld": true
    },
    "hasModel": true,
    "combat": {
      "property": {
        "HP": 99999.0,
        "weight": 50.0,
        "isLockHP": true,
        "canTriggerBullet": true
      },
      "beHit": {
        "hitBloodEffect": "",
        "hitAutoRedirect": false,
        "muteAllHitText": true
      },
      "combatLock": {
        "lockShape": "CircleLockEnemy",
        "lockType": "Gadget_Lv1",
        "overrideRange": 5.0
      }
    },
    "attackAttenuation": "",
    "abilities": [
      {
        "abilityID": "Ability_01",
        "abilityName": "SceneObj_Gather_FireFlower02_Interact",
        "abilityOverride": ""
      }
    ],
    "misc": {
      "LJHHKLBGKLO": {
        "CNLKNADGPHB": "Select",
        "NHADPEGEEPN": true,
        "bornEffect": "",
        "NCDKDKPECCH": "",
        "LBJBBIMDIII": ""
      },
      "GKCEMAKIKPH": ""
    },
    "stateLayers": {
      "defaultLayer": {
        "$type": "ConfigNormalStateLayer",
        "FNPGDAEJAPJ": "",
        "stateIDs": {
          "Hit": {
            "$type": "ConfigNormalStateIDInfo",
            "animatorStates": {
              "Ani_FireFlower_Hit": ["FireFlower01_Bloom"]
            }
          },
          "Done": {
            "$type": "ConfigNormalStateIDInfo",
            "animatorStates": {
              "Ani_FireFlower_Done": []
            }
          },
          "Idle": {
            "$type": "ConfigNormalStateIDInfo",
            "animatorStates": {
              "Ani_FireFlower_Idle": [],
              "Ani_FireFlower_Idle_Gathable": ["FireFlower01_Bloom"]
            }
          }
        }
      }
    },
    "KOKIOOHIIKC": true
  },
  "SceneObj_Gather_IceFlower02": {
    "$type": "ConfigGadget",
    "common": {
      "affectedByWorld": true
    },
    "hasModel": true,
    "combat": {
      "property": {
        "HP": 99999.0,
        "weight": 50.0,
        "isLockHP": true,
        "canTriggerBullet": true
      },
      "beHit": {
        "hitBloodEffect": "",
        "hitAutoRedirect": false,
        "muteAllHitText": true
      },
      "combatLock": {
        "lockShape": "CircleLockEnemy",
        "lockType": "Gadget_Lv1",
        "overrideRange": 5.0
      }
    },
    "attackAttenuation": "",
    "abilities": [
      {
        "abilityID": "Ability_01",
        "abilityName": "SceneObj_Gather_IceFlower02_Interact",
        "abilityOverride": ""
      }
    ],
    "misc": {
      "LJHHKLBGKLO": {
        "CNLKNADGPHB": "Select",
        "NHADPEGEEPN": true,
        "bornEffect": "",
        "NCDKDKPECCH": "",
        "LBJBBIMDIII": ""
      },
      "GKCEMAKIKPH": ""
    },
    "stateLayers": {
      "defaultLayer": {
        "$type": "ConfigNormalStateLayer",
        "FNPGDAEJAPJ": "",
        "stateIDs": {
          "Hit": {
            "$type": "ConfigNormalStateIDInfo",
            "animatorStates": {
              "Ani_FireFlower_Hit": ["FireFlower01_Bloom"]
            }
          },
          "Done": {
            "$type": "ConfigNormalStateIDInfo",
            "animatorStates": {
              "Ani_FireFlower_Done": []
            }
          },
          "Idle": {
            "$type": "ConfigNormalStateIDInfo",
            "animatorStates": {
              "Ani_FireFlower_Idle": [],
              "Ani_FireFlower_Idle_Gathable": ["FireFlower01_Bloom"]
            }
          }
        }
      }
    },
    "KOKIOOHIIKC": true
  },
  "SceneObj_Gather_Default_Ore": {
    "$type": "ConfigGadget",
    "model": {
      "bornEffect": "",
      "attachEffect": "Eff_SceneObj_Hint_01_Big"
    },
    "hasModel": true,
    "combat": {
      "property": {
        "HP": 99999.0,
        "weight": 50.0,
        "canTriggerBullet": true
      },
      "beHit": {
        "hitBloodEffect": "",
        "hitAutoRedirect": false,
        "muteAllHitText": true
      },
      "combatLock": {
        "lockShape": "CircleLockEnemy",
        "lockType": "Gadget_Lv1"
      },
      "die": {
        "dieEndTime": 0.10000000149011612,
        "dieForceDisappearTime": 0.10000000149011612,
        "dieDisappearEffect": "Eff_SceneObj_Ore_01_Destroy"
      }
    },
    "attackAttenuation": "",
    "abilities": [
      {
        "abilityID": "Ability_01",
        "abilityName": "SceneObj_Gather_Default_Ore",
        "abilityOverride": ""
      }
    ],
    "KOKIOOHIIKC": true,
    "billboard": {
      "$type": "NCBABGPMMPL",
      "EBBHBMFMOGD": "BillboardAttach",
      "offset": {
        "y": 1.5
      },
      "radiusOffset": 1.0,
      "showDistance": 0.0,
      "ANGKJBLILKJ": true,
      "KMNKNGMODFK": true
    }
  },
  "SceneObj_Gather_Default_Mithril": {
    "$type": "ConfigGadget",
    "model": {
      "bornEffect": "",
      "attachEffect": "Eff_SceneObj_Hint_01_Big"
    },
    "hasModel": true,
    "combat": {
      "property": {
        "HP": 99999.0,
        "weight": 50.0,
        "canTriggerBullet": true
      },
      "beHit": {
        "hitBloodEffect": "",
        "hitAutoRedirect": false,
        "muteAllHitText": true
      },
      "combatLock": {
        "lockShape": "CircleLockEnemy",
        "lockType": "Gadget_Lv1"
      },
      "die": {
        "dieEndTime": 0.10000000149011612,
        "dieForceDisappearTime": 0.10000000149011612,
        "dieDisappearEffect": "Eff_SceneObj_Ore_01_Destroy"
      }
    },
    "attackAttenuation": "",
    "abilities": [
      {
        "abilityID": "Ability_01",
        "abilityName": "SceneObj_Gather_Default_Mithril",
        "abilityOverride": ""
      }
    ],
    "KOKIOOHIIKC": true,
    "billboard": {
      "$type": "NCBABGPMMPL",
      "EBBHBMFMOGD": "BillboardAttach",
      "offset": {
        "y": 1.0
      },
      "radiusOffset": 1.0,
      "showDistance": 0.0,
      "ANGKJBLILKJ": true,
      "KMNKNGMODFK": true
    }
  },
  "SceneObj_Gather_Advance_Ore": {
    "$type": "ConfigGadget",
    "model": {
      "bornEffect": "",
      "attachEffect": "Eff_SceneObj_Hint_01_Big"
    },
    "hasModel": true,
    "combat": {
      "property": {
        "HP": 99999.0,
        "weight": 50.0,
        "canTriggerBullet": true
      },
      "beHit": {
        "hitBloodEffect": "",
        "hitAutoRedirect": false,
        "muteAllHitText": true
      },
      "combatLock": {
        "lockShape": "CircleLockEnemy",
        "lockType": "Gadget_Lv1"
      },
      "die": {
        "dieEndTime": 0.10000000149011612,
        "dieForceDisappearTime": 0.10000000149011612,
        "dieDisappearEffect": "Eff_SceneObj_Ore_01_Destroy"
      }
    },
    "attackAttenuation": "",
    "abilities": [
      {
        "abilityID": "Ability_01",
        "abilityName": "SceneObj_Gather_Advance_Ore_Interact",
        "abilityOverride": ""
      }
    ],
    "KOKIOOHIIKC": true,
    "billboard": {
      "$type": "NCBABGPMMPL",
      "EBBHBMFMOGD": "BillboardAttach",
      "offset": {
        "y": 1.0
      },
      "radiusOffset": 1.0,
      "ANGKJBLILKJ": true,
      "KMNKNGMODFK": true
    }
  },
  "SceneObj_Gather_Advance_Ore_Shining": {
    "$type": "ConfigGadget",
    "model": {
      "bornEffect": "",
      "attachEffect": "Eff_SceneObj_Hint_01_Big"
    },
    "hasModel": true,
    "combat": {
      "property": {
        "HP": 99999.0,
        "weight": 50.0,
        "canTriggerBullet": true
      },
      "beHit": {
        "hitBloodEffect": "",
        "hitAutoRedirect": false,
        "muteAllHitText": true
      },
      "combatLock": {
        "lockShape": "CircleLockEnemy",
        "lockType": "Gadget_Lv1"
      },
      "die": {
        "dieEndTime": 0.10000000149011612,
        "dieForceDisappearTime": 0.10000000149011612,
        "dieDisappearEffect": "Eff_SceneObj_Ore_01_Destroy"
      }
    },
    "attackAttenuation": "",
    "abilities": [
      {
        "abilityID": "SceneObj_Gather_Advance_Ore_Interact",
        "abilityName": "SceneObj_Gather_Advance_Ore_Interact",
        "abilityOverride": ""
      },
      {
        "abilityID": "SceneObj_Gather_Advance_Ore_Shining",
        "abilityName": "SceneObj_Gather_Advance_Ore_Shining",
        "abilityOverride": ""
      }
    ],
    "KOKIOOHIIKC": true,
    "billboard": {
      "$type": "NCBABGPMMPL",
      "EBBHBMFMOGD": "BillboardAttach",
      "offset": {
        "y": 1.0
      },
      "radiusOffset": 1.0,
      "ANGKJBLILKJ": true,
      "KMNKNGMODFK": true
    }
  },
  "SceneObj_Gather_MagicOre": {
    "$type": "ConfigGadget",
    "model": {
      "bornEffect": "",
      "attachEffect": "Eff_SceneObj_Hint_01_Big"
    },
    "hasModel": true,
    "combat": {
      "property": {
        "HP": 99999.0,
        "weight": 50.0,
        "canTriggerBullet": true
      },
      "beHit": {
        "hitBloodEffect": "",
        "hitAutoRedirect": false,
        "muteAllHitText": true
      },
      "combatLock": {
        "lockShape": "CircleLockEnemy",
        "lockType": "Gadget_Lv1"
      },
      "die": {
        "dieEndTime": 0.10000000149011612,
        "dieForceDisappearTime": 0.10000000149011612,
        "dieDisappearEffect": "Eff_SceneObj_Ore_01_Destroy"
      }
    },
    "attackAttenuation": "",
    "abilities": [
      {
        "abilityID": "Ability_01",
        "abilityName": "SceneObj_Gather_MagicOre_Interact",
        "abilityOverride": ""
      }
    ],
    "KOKIOOHIIKC": true,
    "billboard": {
      "$type": "NCBABGPMMPL",
      "EBBHBMFMOGD": "BillboardAttach",
      "offset": {
        "y": 1.5
      },
      "radiusOffset": 1.0,
      "ANGKJBLILKJ": true,
      "KMNKNGMODFK": true
    }
  },
  "SceneObj_Area_Ljxs_Property_Prop_OreDulinsBlood_01": {
    "$type": "ConfigGadget",
    "model": {
      "bornEffect": "",
      "attachEffect": ""
    },
    "hasModel": true,
    "combat": {
      "property": {
        "HP": 99999.0,
        "weight": 50.0,
        "isLockHP": true,
        "canTriggerBullet": true
      },
      "beHit": {
        "hitBloodEffect": "",
        "hitAutoRedirect": false,
        "muteAllHitText": true
      },
      "combatLock": {
        "lockShape": "CircleLockEnemy",
        "denyLockOn": true,
        "lockType": "Gadget_Lv1"
      },
      "die": {
        "dieEndTime": 0.10000000149011612,
        "dieForceDisappearTime": 0.10000000149011612,
        "dieDisappearEffect": "Eff_SceneObj_OreDulinsBlood_02"
      }
    },
    "attackAttenuation": "",
    "abilities": [
      {
        "abilityID": "Ability_01",
        "abilityName": "SceneObj_Area_Ljxs_Property_Prop_OreDulinsBlood_01",
        "abilityOverride": ""
      }
    ],
    "stateLayers": {
      "defaultLayer": {
        "$type": "ConfigNormalStateLayer",
        "FNPGDAEJAPJ": "",
        "stateIDs": {
          "All": {
            "$type": "ConfigNormalStateIDInfo",
            "animatorStates": {
              "Default": ["OreDulinsBlood_Appear"],
              "Disappear": ["OreDulinsBlood_Disappear"]
            }
          }
        }
      }
    },
    "gadgetAction": {
      "gadgetStateActionList": [
        {
          "$type": "ConfigGadgetStateSetAnimInt",
          "intID": "State",
          "syncState": true
        }
      ]
    },
    "billboard": {
      "$type": "NCBABGPMMPL",
      "EBBHBMFMOGD": "BillboardAttach",
      "offset": {
        "y": 1.5
      },
      "radiusOffset": 1.0,
      "showDistance": 0.0,
      "ANGKJBLILKJ": true,
      "KMNKNGMODFK": true
    }
  },
  "SceneObj_Gather_Radar_Gather": {
    "$type": "ConfigGadget",
    "attackAttenuation": "",
    "misc": {
      "LJHHKLBGKLO": {
        "CNLKNADGPHB": "AutoSelect",
        "NHADPEGEEPN": true,
        "bornEffect": "",
        "NCDKDKPECCH": "",
        "LBJBBIMDIII": ""
      },
      "GKCEMAKIKPH": ""
    },
    "audio": {
      "$type": "NPAHBANFLHK",
      "NCOGLLMIJGO": "",
      "animAudio": {},
      "initEvent": {
        "text": "Play_amb_sceneObj_item_windCrystal_idle"
      },
      "disableEvent": {
        "text": "Stop_amb_sceneObj_item_windCrystal_idle"
      },
      "destroyEvent": {
        "text": "Stop_amb_sceneObj_item_windCrystal_idle"
      }
    },
    "KOKIOOHIIKC": true
  },
  "SceneObj_Gather_Transparent_Item": {
    "$type": "ConfigGadget",
    "attackAttenuation": "",
    "misc": {
      "LJHHKLBGKLO": {
        "CNLKNADGPHB": "AutoSelect",
        "NHADPEGEEPN": true,
        "bornEffect": "",
        "NCDKDKPECCH": "",
        "LBJBBIMDIII": ""
      },
      "GKCEMAKIKPH": ""
    }
  },
  "SceneObj_Gather_WindCrystal_Gather": {
    "$type": "ConfigGadget",
    "model": {
      "bornEffect": "",
      "attachEffect": "Eff_SceneObj_Item_WindCrystalShell"
    },
    "hasModel": true,
    "attackAttenuation": "",
    "misc": {
      "LJHHKLBGKLO": {
        "CNLKNADGPHB": "AutoSelect",
        "NHADPEGEEPN": true,
        "bornEffect": "",
        "NCDKDKPECCH": "",
        "LBJBBIMDIII": ""
      },
      "GKCEMAKIKPH": ""
    },
    "audio": {
      "$type": "NPAHBANFLHK",
      "NCOGLLMIJGO": "",
      "animAudio": {},
      "initEvent": {
        "text": "Play_amb_sceneObj_item_windCrystal_idle"
      },
      "disableEvent": {
        "text": "Stop_amb_sceneObj_item_windCrystal_idle"
      },
      "destroyEvent": {
        "text": "Stop_amb_sceneObj_item_windCrystal_idle"
      }
    },
    "KOKIOOHIIKC": true,
    "CONPJFHNDMN": true
  },
  "SceneObj_Gather_RockCrystal_Gather": {
    "$type": "ConfigGadget",
    "model": {
      "bornEffect": "",
      "attachEffect": "Eff_SceneObj_Item_RockCrystal"
    },
    "hasModel": true,
    "attackAttenuation": "",
    "misc": {
      "LJHHKLBGKLO": {
        "CNLKNADGPHB": "AutoSelect",
        "NHADPEGEEPN": true,
        "bornEffect": "",
        "NCDKDKPECCH": "",
        "LBJBBIMDIII": ""
      },
      "GKCEMAKIKPH": ""
    },
    "audio": {
      "$type": "NPAHBANFLHK",
      "NCOGLLMIJGO": "",
      "animAudio": {},
      "initEvent": {
        "text": "Play_amb_sceneObj_item_rockCrystal_idle"
      },
      "disableEvent": {
        "text": "Stop_amb_sceneObj_item_rockCrystal_idle"
      },
      "destroyEvent": {
        "text": "Stop_amb_sceneObj_item_rockCrystal_idle"
      }
    },
    "KOKIOOHIIKC": true
  },
  "SceneObj_Gather_GrassCrystal_Gather": {
    "$type": "ConfigGadget",
    "model": {
      "bornEffect": "",
      "attachEffect": "Eff_SceneObj_DendroCrystal_Idle"
    },
    "hasModel": true,
    "attackAttenuation": "",
    "misc": {
      "LJHHKLBGKLO": {
        "CNLKNADGPHB": "AutoSelect",
        "NHADPEGEEPN": true,
        "bornEffect": "",
        "NCDKDKPECCH": "",
        "LBJBBIMDIII": "",
        "AFOLDJNGNBE": [
          {
            "FJGMABDEMAJ": "Vehicle",
            "FPOAFIDHCHE": true,
            "EIGIOKIPDII": ["Sorush"]
          }
        ]
      },
      "GKCEMAKIKPH": ""
    },
    "audio": {
      "$type": "NPAHBANFLHK",
      "NCOGLLMIJGO": "",
      "animAudio": {},
      "initEvent": {
        "text": "Play_amb_sceneObj_item_windCrystal_idle"
      },
      "disableEvent": {
        "text": "Stop_amb_sceneObj_item_windCrystal_idle"
      },
      "destroyEvent": {
        "text": "Stop_amb_sceneObj_item_windCrystal_idle"
      }
    },
    "KOKIOOHIIKC": true
  },
  "SceneObj_Gather_RockCrystal_Fly_Gather": {
    "$type": "ConfigGadget",
    "model": {
      "bornEffect": "",
      "attachEffect": "Eff_RockCrystal_Fly"
    },
    "hasModel": true,
    "attackAttenuation": "",
    "abilities": [
      {
        "abilityID": "Ability_01",
        "abilityName": "SceneObj_Gather_RockCrystal_Fly_Gather",
        "abilityOverride": ""
      }
    ]
  },
  "SceneObj_Gather_WindCrystal_Fly_Gather": {
    "$type": "ConfigGadget",
    "model": {
      "bornEffect": "",
      "attachEffect": "Eff_WindCrystal_Fly"
    },
    "hasModel": true,
    "attackAttenuation": "",
    "abilities": [
      {
        "abilityID": "Ability_01",
        "abilityName": "SceneObj_Gather_WindCrystal_Fly_Gather",
        "abilityOverride": ""
      }
    ]
  },
  "SceneObj_Gather_GrassCrystal_Fly_Gather": {
    "$type": "ConfigGadget",
    "model": {
      "bornEffect": "",
      "attachEffect": "Eff_SceneObj_DendroCrystal_Fly"
    },
    "hasModel": true,
    "attackAttenuation": "",
    "abilities": [
      {
        "abilityID": "Ability_01",
        "abilityName": "SceneObj_Gather_GrassCrystal_Fly_Gather",
        "abilityOverride": ""
      }
    ]
  },
  "SceneObj_Gather_WaterFlower01": {
    "$type": "ConfigGadget",
    "common": {
      "affectedByWorld": true
    },
    "hasModel": true,
    "combat": {
      "property": {
        "HP": 99999.0,
        "weight": 50.0,
        "isLockHP": true,
        "canTriggerBullet": true
      },
      "beHit": {
        "hitBloodEffect": "",
        "hitAutoRedirect": false,
        "muteAllHitText": true
      },
      "combatLock": {
        "lockShape": "CircleLockEnemy",
        "denyLockOn": true,
        "lockType": "Gadget_Lv1"
      }
    },
    "attackAttenuation": "",
    "abilities": [
      {
        "abilityID": "Ability_01",
        "abilityName": "SceneObj_Gather_WaterFlower01",
        "abilityOverride": ""
      }
    ],
    "misc": {
      "LJHHKLBGKLO": {
        "CNLKNADGPHB": "Select",
        "NHADPEGEEPN": true,
        "bornEffect": "",
        "NCDKDKPECCH": "",
        "LBJBBIMDIII": ""
      },
      "GKCEMAKIKPH": ""
    },
    "stateLayers": {
      "defaultLayer": {
        "$type": "ConfigNormalStateLayer",
        "FNPGDAEJAPJ": "",
        "stateIDs": {
          "Hit": {
            "$type": "ConfigNormalStateIDInfo",
            "animatorStates": {
              "Ani_FireFlower_Hit": []
            }
          },
          "Done": {
            "$type": "ConfigNormalStateIDInfo",
            "animatorStates": {
              "Ani_FireFlower_Done": []
            }
          },
          "Idle": {
            "$type": "ConfigNormalStateIDInfo",
            "animatorStates": {
              "Ani_FireFlower_Idle": []
            }
          }
        }
      }
    },
    "KOKIOOHIIKC": true
  },
  "SceneObj_Gather_Dandelion": {
    "$type": "ConfigGadget",
    "common": {
      "affectedByWorld": true
    },
    "combat": {
      "property": {
        "HP": 99999.0,
        "weight": 50.0,
        "isLockHP": true,
        "canTriggerBullet": true
      },
      "beHit": {
        "hitBloodEffect": "",
        "hitAutoRedirect": false,
        "muteAllHitText": true
      },
      "combatLock": {
        "lockShape": "CircleLockEnemy",
        "lockType": "Gadget_Lv1"
      }
    },
    "attackAttenuation": "",
    "abilities": [
      {
        "abilityID": "Ability_01",
        "abilityName": "SceneObj_Gather_Dandelion",
        "abilityOverride": ""
      }
    ],
    "misc": {
      "LJHHKLBGKLO": {
        "CNLKNADGPHB": "Select",
        "NHADPEGEEPN": true,
        "bornEffect": "",
        "NCDKDKPECCH": "",
        "LBJBBIMDIII": ""
      },
      "GKCEMAKIKPH": ""
    },
    "stateLayers": {
      "defaultLayer": {
        "$type": "ConfigNormalStateLayer",
        "FNPGDAEJAPJ": "",
        "stateIDs": {
          "Hit": {
            "$type": "ConfigNormalStateIDInfo",
            "animatorStates": {
              "BeHitted": []
            }
          },
          "WindHit": {
            "$type": "ConfigNormalStateIDInfo",
            "animatorStates": {
              "BeWindHitted": ["Dandelion_Vsiable"]
            }
          },
          "Idle": {
            "$type": "ConfigNormalStateIDInfo",
            "animatorStates": {
              "Idle": [],
              "Idle_Gathable": ["Dandelion_Vsiable"]
            }
          }
        }
      }
    },
    "KOKIOOHIIKC": true
  },
  "SceneObj_Gather_Dandelion_Flora": {
    "$type": "ConfigGadget",
    "model": {
      "bornEffect": "",
      "attachEffect": "Eff_SceneObj_Item_Plant_Dandelion_Flora"
    },
    "hasModel": true,
    "combat": {
      "property": {
        "useCreatorProperty": true,
        "HP": 99999.0,
        "defense": 99999.0,
        "weight": 1.0,
        "isLockHP": true,
        "canTriggerBullet": true,
        "denyElementStick": true
      },
      "beHit": {
        "hitBloodEffect": "",
        "muteAllHit": true,
        "muteAllHitEffect": true,
        "muteAllHitText": true
      },
      "combatLock": {
        "lockShape": "CircleLockEnemy",
        "denyLockOn": true,
        "lockType": "Gadget_Lv1"
      },
      "die": {
        "hasAnimatorDie": true,
        "dieEndTime": 3.0,
        "dieForceDisappearTime": 3.0,
        "dieDisappearEffect": ""
      }
    },
    "attackAttenuation": "",
    "timer": {
      "lifeTime": 5.0
    },
    "move": {
      "$type": "ConfigLinerParabolaBulletMove",
      "speed": 2.0,
      "straightRange": 2.0,
      "gravityOfAcceleration": -1.0,
      "airResistance": 2.0
    },
    "gadget": {
      "$type": "ConfigBulletPattern"
    }
  },
  "SceneObj_Gather_SlimeFlower": {
    "$type": "ConfigGadget",
    "combat": {
      "property": {
        "HP": 99999.0,
        "weight": 50.0,
        "isLockHP": true,
        "canTriggerBullet": true
      },
      "beHit": {
        "hitBloodEffect": "",
        "hitAutoRedirect": false,
        "muteAllHitText": true
      },
      "combatLock": {
        "lockShape": "CircleLockEnemy",
        "denyLockOn": true,
        "lockType": "Gadget_Lv1"
      },
      "die": {
        "dieEndTime": 0.20000000298023224,
        "dieForceDisappearTime": 0.20000000298023224,
        "dieDisappearEffect": ""
      }
    },
    "attackAttenuation": "",
    "misc": {
      "LJHHKLBGKLO": {
        "CNLKNADGPHB": "Select",
        "NHADPEGEEPN": true,
        "bornEffect": "",
        "NCDKDKPECCH": "",
        "LBJBBIMDIII": ""
      },
      "GKCEMAKIKPH": ""
    },
    "KOKIOOHIIKC": true
  },
  "SceneObj_Gather_Gather_Clue": {
    "$type": "ConfigGadget",
    "attackAttenuation": "",
    "abilities": [
      {
        "abilityID": "Ability_01",
        "abilityName": "SceneObj_Gather_Gather_Clue",
        "abilityOverride": ""
      }
    ],
    "misc": {
      "LJHHKLBGKLO": {
        "CNLKNADGPHB": "Select",
        "NHADPEGEEPN": true,
        "bornEffect": "",
        "NCDKDKPECCH": "",
        "LBJBBIMDIII": ""
      },
      "GKCEMAKIKPH": ""
    },
    "gadgetAction": {
      "gadgetStateActionList": [
        {
          "$type": "ConfigGadgetStateSetAnimInt",
          "intID": "GadgetState"
        },
        {
          "$type": "ConfigGadgetStateSetAnimInt",
          "LBDKLEDDLHH": "GearStart",
          "intID": "GadgetState",
          "value": 201
        },
        {
          "$type": "ConfigGadgetStateSetAnimInt",
          "LBDKLEDDLHH": "GearStop",
          "intID": "GadgetState",
          "value": 202
        },
        {
          "$type": "ConfigGadgetStateSetAnimInt",
          "LBDKLEDDLHH": "GearAction1",
          "intID": "GadgetState",
          "value": 203
        },
        {
          "$type": "ConfigGadgetStateSetAnimInt",
          "LBDKLEDDLHH": "GearAction2",
          "intID": "GadgetState",
          "value": 204
        }
      ]
    }
  },
  "SceneObj_Gather_Mimosa": {
    "$type": "ConfigGadget",
    "combat": {
      "property": {
        "HP": 99999.0,
        "weight": 50.0,
        "isLockHP": true,
        "canTriggerBullet": true
      },
      "beHit": {
        "hitBloodEffect": "",
        "hitAutoRedirect": false,
        "muteAllHitText": true
      },
      "combatLock": {
        "lockShape": "CircleLockEnemy",
        "denyLockOn": true,
        "lockType": "Gadget_Lv1"
      },
      "die": {
        "dieEndTime": 0.20000000298023224,
        "dieForceDisappearTime": 0.20000000298023224,
        "dieDisappearEffect": "Eff_FlyRace_Marker_Active_AS"
      }
    },
    "attackAttenuation": "",
    "abilities": [
      {
        "abilityID": "SceneObj_Gather_Mimosa",
        "abilityName": "SceneObj_Gather_Mimosa",
        "abilityOverride": ""
      }
    ],
    "field": {
      "concernType": "AllAvatars",
      "shape": "CircleR0_5",
      "DEOHMEELJDM": "",
      "triggerInfinite": true,
      "lifeInfinite": true,
      "checkInterval": 0.5,
      "overwriteCampType": true,
      "campType": "All",
      "INKADPFABPA": "",
      "AAHHPDHLLLH": ""
    },
    "gadgetAction": {
      "gadgetStateActionList": [
        {
          "$type": "ConfigGadgetStateSetAnimInt",
          "intID": "GadgetState"
        },
        {
          "$type": "ConfigGadgetStateSetAnimInt",
          "LBDKLEDDLHH": "GearStart",
          "intID": "GadgetState",
          "value": 201
        }
      ]
    }
  },
  "SceneObj_Gather_FireFlower03": {
    "$type": "ConfigGadget",
    "common": {
      "affectedByWorld": true
    },
    "hasModel": true,
    "combat": {
      "property": {
        "HP": 99999.0,
        "weight": 50.0,
        "isLockHP": true,
        "canTriggerBullet": true
      },
      "beHit": {
        "hitBloodEffect": "",
        "hitAutoRedirect": false,
        "muteAllHitText": true
      },
      "combatLock": {
        "lockShape": "CircleLockEnemy",
        "lockType": "Gadget_Lv1"
      }
    },
    "attackAttenuation": "",
    "abilities": [
      {
        "abilityID": "Ability_01",
        "abilityName": "SceneObj_Gather_FireFlower03",
        "abilityOverride": ""
      }
    ],
    "stateLayers": {
      "defaultLayer": {
        "$type": "ConfigNormalStateLayer",
        "FNPGDAEJAPJ": "",
        "stateIDs": {
          "Hit": {
            "$type": "ConfigNormalStateIDInfo",
            "animatorStates": {
              "Ani_FireFlower_Hit": ["FireFlower01_Bloom"]
            }
          },
          "Done": {
            "$type": "ConfigNormalStateIDInfo",
            "animatorStates": {
              "Ani_FireFlower_Done": []
            }
          },
          "Idle": {
            "$type": "ConfigNormalStateIDInfo",
            "animatorStates": {
              "Ani_FireFlower_Idle": [],
              "Ani_FireFlower_Idle_Gathable": ["FireFlower01_Bloom"]
            }
          }
        }
      }
    },
    "billboard": {
      "$type": "NCBABGPMMPL",
      "EBBHBMFMOGD": "BillboardAttach",
      "offset": {
        "y": 1.5
      },
      "radiusOffset": 1.0,
      "ANGKJBLILKJ": true,
      "KMNKNGMODFK": true
    }
  },
  "SceneObj_Gather_ElectricRock03": {
    "$type": "ConfigGadget",
    "common": {
      "affectedByWorld": true
    },
    "hasModel": true,
    "combat": {
      "property": {
        "HP": 99999.0,
        "weight": 50.0,
        "isLockHP": true,
        "canTriggerBullet": true
      },
      "beHit": {
        "hitBloodEffect": "",
        "hitAutoRedirect": false,
        "muteAllHitText": true
      },
      "combatLock": {
        "lockShape": "CircleLockEnemy",
        "lockType": "Gadget_Lv1"
      },
      "die": {
        "dieEndTime": 0.10000000149011612,
        "dieForceDisappearTime": 0.10000000149011612,
        "dieDisappearEffect": "Eff_SceneObj_ElectricRock_01_Destroy"
      }
    },
    "attackAttenuation": "",
    "abilities": [
      {
        "abilityID": "Ability_01",
        "abilityName": "SceneObj_Gather_ElectricRock03",
        "abilityOverride": ""
      }
    ],
    "misc": {
      "LJHHKLBGKLO": {
        "CNLKNADGPHB": "Select",
        "NHADPEGEEPN": true,
        "bornEffect": "",
        "NCDKDKPECCH": "",
        "LBJBBIMDIII": ""
      },
      "GKCEMAKIKPH": ""
    },
    "billboard": {
      "$type": "NCBABGPMMPL",
      "EBBHBMFMOGD": "BillboardAttach",
      "offset": {
        "y": 1.5
      },
      "radiusOffset": 1.0,
      "ANGKJBLILKJ": true,
      "KMNKNGMODFK": true
    }
  },
  "SceneObj_Gather_ElementRock": {
    "$type": "ConfigGadget",
    "common": {
      "affectedByWorld": true
    },
    "hasModel": true,
    "combat": {
      "property": {
        "HP": 99999.0,
        "weight": 50.0,
        "isLockHP": true,
        "canTriggerBullet": true
      },
      "beHit": {
        "hitBloodEffect": "",
        "hitAutoRedirect": false,
        "muteAllHitText": true
      },
      "combatLock": {
        "lockShape": "CircleLockEnemy",
        "lockType": "Gadget_Lv1"
      }
    },
    "attackAttenuation": "",
    "abilities": [
      {
        "abilityID": "Ability_01",
        "abilityName": "SceneObj_Gather_ElementRock",
        "abilityOverride": ""
      },
      {
        "abilityID": "Ability_02",
        "abilityName": "SceneObj_Gather_ElementRock_Broken_Eff",
        "abilityOverride": ""
      },
      {
        "abilityID": "Ability_03",
        "abilityName": "SceneObj_Gather_ElementRock_Gather_Eff",
        "abilityOverride": ""
      }
    ],
    "misc": {
      "LJHHKLBGKLO": {
        "CNLKNADGPHB": "Select",
        "NHADPEGEEPN": true,
        "bornEffect": "",
        "NCDKDKPECCH": "",
        "LBJBBIMDIII": ""
      },
      "GKCEMAKIKPH": ""
    },
    "stateLayers": {
      "defaultLayer": {
        "$type": "ConfigNormalStateLayer",
        "FNPGDAEJAPJ": "",
        "stateIDs": {
          "Phase1": {
            "$type": "ConfigNormalStateIDInfo",
            "animatorStates": {
              "Phase1": ["ElementRock_ChangePahse1"]
            }
          },
          "Phase2": {
            "$type": "ConfigNormalStateIDInfo",
            "animatorStates": {
              "Phase2": ["ElementRock_ChangePahse2", "ElementRock_Broken_Eff"]
            }
          },
          "Phase3": {
            "$type": "ConfigNormalStateIDInfo",
            "animatorStates": {
              "Phase3": ["ElementRock_ChangePahse3", "ElementRock_Gather_Eff"]
            }
          },
          "Phase4": {
            "$type": "ConfigNormalStateIDInfo",
            "animatorStates": {
              "Phase4": ["ElementRock_Gather_Eff"]
            }
          }
        }
      }
    },
    "KOKIOOHIIKC": true,
    "gadgetAction": {
      "gadgetStateActionList": [
        {
          "$type": "ConfigGadgetStateSetAnimInt",
          "intID": "GadgetState",
          "syncState": true
        }
      ]
    },
    "billboard": {
      "$type": "NCBABGPMMPL",
      "EBBHBMFMOGD": "BillboardAttach",
      "offset": {
        "y": 1.5
      },
      "radiusOffset": 1.0,
      "ANGKJBLILKJ": true,
      "KMNKNGMODFK": true
    }
  },
  "SceneObj_Gather_Ginseng": {
    "$type": "ConfigGadget",
    "common": {
      "effectAttachShape": {
        "$type": "ConfigEffectAttachBox"
      }
    },
    "hasModel": true,
    "combat": {
      "property": {
        "HP": 300.0,
        "attack": 10.0,
        "isLockHP": true,
        "OEPGABDDCHI": true
      },
      "beHit": {
        "hitBloodEffect": "",
        "hitAutoRedirect": false,
        "muteAllHitEffect": true
      },
      "combatLock": {
        "lockShape": "CircleLockEnemy",
        "denyLockOn": true,
        "lockType": "Gadget_Lv1"
      },
      "die": {
        "dieEndTime": 1.0,
        "dieForceDisappearTime": 1.0,
        "dieDisappearEffect": "",
        "dieModelFadeDelay": 0.5
      }
    },
    "attackAttenuation": "",
    "abilities": [
      {
        "abilityID": "Ability_01",
        "abilityName": "SceneObj_Gather_Ginseng",
        "abilityOverride": ""
      }
    ],
    "move": {
      "$type": "ConfigLinerBulletMove",
      "speed": 1.0,
      "DNOPKNCAPAI": 2.0
    },
    "gadget": {
      "$type": "ConfigBulletPattern",
      "collision": {
        "targetType": "All"
      },
      "triggerActions": [
        {
          "$type": "ConfigGadgetTriggerAbility",
          "abilityName": "SceneObj_Gather_Ginseng"
        }
      ]
    },
    "misc": {
      "LJHHKLBGKLO": {
        "CNLKNADGPHB": "AutoSelect",
        "NHADPEGEEPN": true,
        "bornEffect": "",
        "NCDKDKPECCH": "",
        "LBJBBIMDIII": ""
      },
      "GKCEMAKIKPH": ""
    }
  },
  "SceneObj_Gather_Ginseng_Stable": {
    "$type": "ConfigGadget",
    "common": {
      "affectedByWorld": true
    },
    "combat": {
      "property": {
        "HP": 99999.0,
        "attack": 10.0,
        "isLockHP": true,
        "canTriggerBullet": true,
        "OEPGABDDCHI": true
      },
      "beHit": {
        "hitBloodEffect": "",
        "hitAutoRedirect": false,
        "muteAllHitText": true
      },
      "combatLock": {
        "lockShape": "CircleLockEnemy",
        "denyLockOn": true,
        "lockType": "Gadget_Lv1"
      },
      "die": {
        "dieForceDisappearTime": 3.0,
        "dieDisappearEffect": ""
      }
    },
    "attackAttenuation": "",
    "abilities": [
      {
        "abilityID": "Ability_01",
        "abilityName": "SceneObj_Gather_Ginseng_Stable",
        "abilityOverride": ""
      }
    ],
    "KOKIOOHIIKC": true
  },
  "SceneObj_Gather_ImitationGrass": {
    "$type": "ConfigGadget",
    "model": {
      "bornEffect": "",
      "attachEffect": "Eff_Item_Hint_Small"
    },
    "hasModel": true,
    "combat": {
      "property": {
        "HP": 99999.0,
        "weight": 50.0,
        "isLockHP": true,
        "ignorePurgeRate": false
      },
      "beHit": {
        "hitBloodEffect": "",
        "hitAutoRedirect": false,
        "muteAllHitText": true
      },
      "combatLock": {
        "lockShape": "CircleLockEnemy",
        "denyLockOn": true,
        "lockType": "Gadget_Lv1"
      },
      "die": {
        "dieEndTime": 0.25,
        "dieForceDisappearTime": 0.25,
        "dieDisappearEffect": ""
      }
    },
    "attackAttenuation": "",
    "IHIMCPIGBOE": {
      "HCKEJPPPBKC": "TEST/TEST_Chest_Btn",
      "HJGKBIMEEEN": "",
      "icon": "",
      "NEADBBJLDAF": "",
      "OMMGBOCMAMC": "",
      "NHEGJLNIIIB": ""
    },
    "misc": {
      "HOBFEBBCLLK": {
        "HPOHBNEFBEP": "Eff_Chest_Open_Continuous_LV1"
      },
      "LJHHKLBGKLO": {
        "bornEffect": "",
        "NCDKDKPECCH": "",
        "LBJBBIMDIII": ""
      },
      "GKCEMAKIKPH": ""
    }
  },
  "SceneObj_Gather_Ginseng_Ground": {
    "$type": "ConfigGadget",
    "common": {
      "affectedByWorld": true
    },
    "combat": {
      "property": {
        "HP": 99999.0,
        "attack": 10.0,
        "isLockHP": true,
        "canTriggerBullet": true,
        "OEPGABDDCHI": true
      },
      "beHit": {
        "hitBloodEffect": "",
        "hitAutoRedirect": false,
        "muteAllHitText": true
      },
      "combatLock": {
        "lockShape": "CircleLockEnemy",
        "denyLockOn": true,
        "lockType": "Gadget_Lv1"
      },
      "die": {
        "dieForceDisappearTime": 3.0,
        "dieDisappearEffect": ""
      }
    },
    "attackAttenuation": "",
    "abilities": [
      {
        "abilityID": "Ability_01",
        "abilityName": "SceneObj_Gather_Ginseng_Ground",
        "abilityOverride": ""
      }
    ]
  },
  "SceneObj_Gather_ImitationMonster": {
    "$type": "ConfigGadget",
    "common": {
      "affectedByWorld": true
    },
    "combat": {
      "property": {
        "HP": 99999.0,
        "attack": 10.0,
        "isLockHP": true,
        "canTriggerBullet": true,
        "OEPGABDDCHI": true
      },
      "beHit": {
        "hitBloodEffect": "",
        "hitAutoRedirect": false,
        "muteAllHitText": true
      },
      "combatLock": {
        "lockShape": "CircleLockEnemy",
        "denyLockOn": true,
        "lockType": "Gadget_Lv1"
      },
      "die": {
        "dieForceDisappearTime": 3.0,
        "dieDisappearEffect": ""
      }
    },
    "attackAttenuation": "",
    "abilities": [
      {
        "abilityID": "Ability_01",
        "abilityName": "SceneObj_Gather_ImitationMonster",
        "abilityOverride": ""
      }
    ],
    "field": {
      "concernType": "AllAvatars",
      "shape": "CircleR2",
      "DEOHMEELJDM": "",
      "triggerInfinite": true,
      "lifeInfinite": true,
      "checkInterval": 0.5,
      "overwriteCampType": true,
      "campType": "All",
      "INKADPFABPA": "",
      "AAHHPDHLLLH": ""
    },
    "gadgetAction": {
      "gadgetStateActionList": [
        {
          "$type": "ConfigGadgetStateSetAnimInt",
          "intID": "gadgetState",
          "syncState": true
        }
      ]
    }
  },
  "SceneObj_Environment_Other_CenserTask": {
    "$type": "ConfigGadget",
    "hasModel": true,
    "combat": {
      "property": {
        "HP": 99999.0,
        "attack": 20.0,
        "weight": 50.0,
        "isLockHP": true
      },
      "beHit": {
        "hitBloodEffect": "",
        "hitAutoRedirect": false,
        "muteAllHitText": true
      },
      "combatLock": {
        "lockShape": "CircleLockEnemy",
        "denyLockOn": true,
        "lockType": "Gadget_Lv1"
      }
    },
    "attackAttenuation": ""
  },
  "SceneObj_Environment_Task_Rock": {
    "$type": "ConfigGadget",
    "hasModel": true,
    "combat": {
      "property": {
        "HP": 99999.0,
        "attack": 20.0,
        "weight": 50.0,
        "isLockHP": true
      },
      "beHit": {
        "hitBloodEffect": "",
        "hitAutoRedirect": false,
        "muteAllHitText": true
      },
      "combatLock": {
        "lockShape": "CircleLockEnemy",
        "denyLockOn": true,
        "lockType": "Gadget_Lv1"
      }
    },
    "attackAttenuation": ""
  },
  "SceneObj_Gather_GamblingRock_Low": {
    "$type": "ConfigGadget",
    "common": {
      "affectedByWorld": true
    },
    "hasModel": true,
    "combat": {
      "property": {
        "HP": 99999.0,
        "weight": 50.0,
        "isLockHP": true,
        "canTriggerBullet": true
      },
      "beHit": {
        "hitBloodEffect": "",
        "hitAutoRedirect": false,
        "muteAllHitText": true
      },
      "combatLock": {
        "lockShape": "CircleLockEnemy",
        "denyLockOn": true,
        "lockType": "Gadget_Lv1"
      }
    },
    "attackAttenuation": "",
    "abilities": [
      {
        "abilityID": "Ability_01",
        "abilityName": "SceneObj_Gather_GamblingRock",
        "abilityOverride": ""
      },
      {
        "abilityID": "Ability_02",
        "abilityName": "SceneObj_Gather_GamblingRock_Broken_Eff",
        "abilityOverride": ""
      },
      {
        "abilityID": "Ability_03",
        "abilityName": "SceneObj_Gather_GamblingRock_Gather_Eff",
        "abilityOverride": ""
      }
    ],
    "stateLayers": {
      "defaultLayer": {
        "$type": "ConfigNormalStateLayer",
        "FNPGDAEJAPJ": "",
        "stateIDs": {
          "Phase2": {
            "$type": "ConfigNormalStateIDInfo",
            "animatorStates": {
              "Phase2": ["GamblingRock_Phase2", "GamblingRock_Broken_Eff"]
            }
          }
        }
      }
    },
    "gadgetAction": {
      "gadgetStateActionList": [
        {
          "$type": "ConfigGadgetStateSetAnimInt",
          "intID": "gadgetState",
          "syncState": true
        }
      ]
    },
    "billboard": {
      "$type": "NCBABGPMMPL",
      "EBBHBMFMOGD": "BillboardAttach",
      "offset": {
        "y": 1.5
      },
      "radiusOffset": 1.0,
      "ANGKJBLILKJ": true,
      "KMNKNGMODFK": true
    }
  },
  "SceneObj_Gather_GamblingRock": {
    "$type": "ConfigGadget",
    "common": {
      "affectedByWorld": true
    },
    "hasModel": true,
    "combat": {
      "property": {
        "HP": 99999.0,
        "weight": 50.0,
        "isLockHP": true,
        "canTriggerBullet": true
      },
      "beHit": {
        "hitBloodEffect": "",
        "hitAutoRedirect": false,
        "muteAllHitText": true
      },
      "combatLock": {
        "lockShape": "CircleLockEnemy",
        "lockType": "Gadget_Lv1"
      }
    },
    "attackAttenuation": "",
    "abilities": [
      {
        "abilityID": "Ability_01",
        "abilityName": "SceneObj_Gather_GamblingRock",
        "abilityOverride": ""
      },
      {
        "abilityID": "Ability_02",
        "abilityName": "SceneObj_Gather_GamblingRock_Broken_Eff",
        "abilityOverride": ""
      },
      {
        "abilityID": "Ability_03",
        "abilityName": "SceneObj_Gather_GamblingRock_Gather_Eff",
        "abilityOverride": ""
      }
    ],
    "stateLayers": {
      "defaultLayer": {
        "$type": "ConfigNormalStateLayer",
        "FNPGDAEJAPJ": "",
        "stateIDs": {
          "Phase2": {
            "$type": "ConfigNormalStateIDInfo",
            "animatorStates": {
              "Phase2": ["GamblingRock_Phase2", "GamblingRock_Gather_Eff"]
            }
          }
        }
      }
    },
    "gadgetAction": {
      "gadgetStateActionList": [
        {
          "$type": "ConfigGadgetStateSetAnimInt",
          "intID": "gadgetState",
          "syncState": true
        }
      ]
    },
    "billboard": {
      "$type": "NCBABGPMMPL",
      "EBBHBMFMOGD": "BillboardAttach",
      "offset": {
        "y": 1.5
      },
      "radiusOffset": 1.0,
      "ANGKJBLILKJ": true,
      "KMNKNGMODFK": true
    }
  },
  "SceneObj_Quest_Wind_Leaves01": {
    "$type": "ConfigGadget",
    "model": {
      "bornEffect": "",
      "attachEffect": "Eff_Item_Hint_Small"
    },
    "hasModel": true,
    "attackAttenuation": "",
    "abilities": [
      {
        "abilityID": "SceneObj_Quest_Wind_Leaves01",
        "abilityName": "SceneObj_Quest_Wind_Leaves01",
        "abilityOverride": ""
      }
    ],
    "misc": {
      "LJHHKLBGKLO": {
        "CNLKNADGPHB": "Select",
        "NHADPEGEEPN": true,
        "bornEffect": "",
        "NCDKDKPECCH": "",
        "LBJBBIMDIII": ""
      },
      "GKCEMAKIKPH": ""
    }
  },
  "SceneObj_Quest_Wind_Leaves02": {
    "$type": "ConfigGadget",
    "combat": {
      "property": {
        "HP": 99999.0,
        "attack": 20.0,
        "weight": 50.0,
        "isLockHP": true,
        "FBCDFHECDNM": true
      },
      "beHit": {
        "hitBloodEffect": "",
        "hitAutoRedirect": false,
        "muteAllHitText": true
      },
      "combatLock": {
        "lockShape": "CircleLockEnemy",
        "denyLockOn": true,
        "lockType": "Gadget_Lv1"
      }
    },
    "attackAttenuation": "",
    "abilities": [
      {
        "abilityID": "SceneObj_Quest_Wind_Leaves01",
        "abilityName": "SceneObj_Quest_Wind_Leaves01",
        "abilityOverride": ""
      }
    ]
  },
  "SceneObj_Gather_ElectricCrystal_Gather": {
    "$type": "ConfigGadget",
    "model": {
      "bornEffect": "",
      "attachEffect": "Eff_SceneObj_ElectricCrystal"
    },
    "hasModel": true,
    "attackAttenuation": "",
    "misc": {
      "LJHHKLBGKLO": {
        "CNLKNADGPHB": "AutoSelect",
        "NHADPEGEEPN": true,
        "bornEffect": "",
        "NCDKDKPECCH": "",
        "LBJBBIMDIII": ""
      },
      "GKCEMAKIKPH": ""
    },
    "audio": {
      "$type": "NPAHBANFLHK",
      "NCOGLLMIJGO": "",
      "animAudio": {},
      "initEvent": {
        "text": "Play_amb_sceneObj_item_rockCrystal_idle"
      },
      "disableEvent": {
        "text": "Stop_amb_sceneObj_item_rockCrystal_idle"
      },
      "destroyEvent": {
        "text": "Stop_amb_sceneObj_item_rockCrystal_idle"
      }
    },
    "KOKIOOHIIKC": true
  },
  "SceneObj_Gather_ElectricCrystal_Fly_Gather": {
    "$type": "ConfigGadget",
    "model": {
      "bornEffect": "",
      "attachEffect": "Eff_SceneObj_ElectricCrystal_Fly"
    },
    "hasModel": true,
    "attackAttenuation": "",
    "abilities": [
      {
        "abilityID": "Ability_01",
        "abilityName": "SceneObj_Gather_ElectricCrystal_Fly_Gather",
        "abilityOverride": ""
      }
    ]
  },
  "SceneObj_Area_Common_Property_Prop_Cherrypetals_01": {
    "$type": "ConfigGadget",
    "common": {
      "affectedByWorld": true
    },
    "hasModel": true,
    "combat": {
      "property": {
        "HP": 99999.0,
        "weight": 50.0,
        "isLockHP": true,
        "canTriggerBullet": true
      },
      "beHit": {
        "hitBloodEffect": "",
        "hitAutoRedirect": false,
        "muteAllHitEffect": true,
        "muteAllHitText": true
      },
      "combatLock": {
        "lockShape": "CircleLockEnemy",
        "lockType": "Gadget_Lv1",
        "overrideRange": 5.0
      }
    },
    "attackAttenuation": "",
    "abilities": [
      {
        "abilityID": "Ability_01",
        "abilityName": "SceneObj_Area_Common_Property_Prop_Cherrypetals_01",
        "abilityOverride": ""
      }
    ],
    "misc": {
      "LJHHKLBGKLO": {
        "CNLKNADGPHB": "Select",
        "NHADPEGEEPN": true,
        "bornEffect": "",
        "NCDKDKPECCH": "",
        "LBJBBIMDIII": ""
      },
      "GKCEMAKIKPH": ""
    },
    "KOKIOOHIIKC": true
  }
}
