{
  "SceneObj_Area_Common_Property_Prop_BrickWall_01": {
    "$type": "ConfigGadget",
    "globalValue": {
      "serverGlobalValues": ["SGV_BrickWall_Report"],
      "BDAIHKIMPPE": {
        "SGV_BrickWall_Report": 0.0
      }
    },
    "hasModel": true,
    "APEICONMGNC": true,
    "combat": {
      "property": {
        "HP": 9999999.0,
        "canTriggerBullet": true
      },
      "beHit": {
        "hitBloodEffect": "",
        "hitAutoRedirect": false,
        "muteAllHitText": true
      },
      "combatLock": {
        "lockShape": "CircleLockEnemy",
        "denyLockOn": true,
        "lockType": "Gadget_Lv1"
      }
    },
    "attackAttenuation": "",
    "abilities": [
      {
        "abilityID": "SceneObj_Area_Common_Property_Prop_BrickWall_01",
        "abilityName": "SceneObj_Area_Common_Property_Prop_BrickWall_01",
        "abilityOverride": ""
      }
    ]
  },
  "SceneObj_Gear_Platform_GlideDirtyBalloon_02": {
    "$type": "ConfigGadget",
    "hasModel": true,
    "combat": {
      "property": {
        "HP": 10.0,
        "attack": 80.0,
        "weight": 80.0,
        "isLockHP": true
      },
      "beHit": {
        "hitBloodEffect": "",
        "hitAutoRedirect": false,
        "muteAllHitText": true
      },
      "combatLock": {
        "lockShape": "CircleLockEnemy",
        "denyLockOn": true,
        "lockType": "Gadget_Lv1"
      },
      "die": {
        "hasAnimatorDie": true,
        "dieEndTime": 0.10000000149011612,
        "dieForceDisappearTime": 0.10000000149011612,
        "dieDisappearEffect": "Eff_SceneObj_GlideChampBalloon_03_01"
      }
    },
    "attackAttenuation": "",
    "abilities": [
      {
        "abilityID": "SceneObj_Gear_Platform_GlideDirtyBalloon_02",
        "abilityName": "SceneObj_Gear_Platform_GlideDirtyBalloon_02",
        "abilityOverride": ""
      }
    ],
    "field": {
      "concernType": "AllAvatars",
      "shape": "CircleR1.5",
      "DEOHMEELJDM": "",
      "triggerInfinite": true,
      "lifeInfinite": true,
      "checkInterval": 0.5,
      "overwriteCampType": true,
      "campType": "All",
      "INKADPFABPA": "",
      "AAHHPDHLLLH": ""
    }
  },
  "SceneObj_Gear_Platform_GlideDirtyBalloon_03": {
    "$type": "ConfigGadget",
    "hasModel": true,
    "combat": {
      "property": {
        "HP": 10.0,
        "attack": 80.0,
        "weight": 80.0,
        "isLockHP": true
      },
      "beHit": {
        "hitBloodEffect": "",
        "hitAutoRedirect": false,
        "muteAllHitText": true
      },
      "combatLock": {
        "lockShape": "CircleLockEnemy",
        "denyLockOn": true,
        "lockType": "Gadget_Lv1"
      },
      "die": {
        "hasAnimatorDie": true,
        "dieEndTime": 0.10000000149011612,
        "dieForceDisappearTime": 0.10000000149011612,
        "dieDisappearEffect": "Eff_SceneObj_GlideChampBalloon_03_01"
      }
    },
    "attackAttenuation": "",
    "abilities": [
      {
        "abilityID": "SceneObj_Gear_Platform_GlideDirtyBalloon_03",
        "abilityName": "SceneObj_Gear_Platform_GlideDirtyBalloon_03",
        "abilityOverride": ""
      }
    ],
    "field": {
      "concernType": "AllAvatars",
      "shape": "CircleR1.5",
      "DEOHMEELJDM": "",
      "triggerInfinite": true,
      "lifeInfinite": true,
      "checkInterval": 0.5,
      "overwriteCampType": true,
      "campType": "All",
      "INKADPFABPA": "",
      "AAHHPDHLLLH": ""
    }
  },
  "SceneObj_Area_Common_Property_Prop_CharAmusementCoin_02": {
    "$type": "ConfigGadget",
    "model": {
      "bornEffect": "",
      "attachEffect": "Eff_SceneObj_GlideChampCoin_Super_01"
    },
    "hasModel": true,
    "combat": {
      "property": {
        "HP": 10000.0,
        "attack": 30.0,
        "isLockHP": true,
        "canTriggerBullet": true,
        "ignorePurgeRate": false,
        "OEPGABDDCHI": true
      },
      "beHit": {
        "hitBloodEffect": "",
        "hitAutoRedirect": false,
        "muteAllHitEffect": true,
        "muteAllHitText": true
      },
      "combatLock": {
        "lockShape": "CircleLockEnemy",
        "denyLockOn": true,
        "lockType": "Gadget_Lv1"
      }
    },
    "attackAttenuation": "",
    "abilities": [
      {
        "abilityID": "SceneObj_Area_Common_Property_Prop_CharAmusementCoin_02",
        "abilityName": "SceneObj_Area_Common_Property_Prop_CharAmusementCoin_02",
        "abilityOverride": ""
      }
    ]
  },
  "SceneObj_Area_Common_Property_Prop_CharAmusementCoin_01": {
    "$type": "ConfigGadget",
    "model": {
      "bornEffect": "",
      "attachEffect": "Eff_SceneObj_UGCCoin_01"
    },
    "hasModel": true,
    "combat": {
      "property": {
        "HP": 10000.0,
        "attack": 30.0,
        "isLockHP": true,
        "canTriggerBullet": true,
        "ignorePurgeRate": false,
        "OEPGABDDCHI": true
      },
      "beHit": {
        "hitBloodEffect": "",
        "hitAutoRedirect": false,
        "muteAllHitEffect": true,
        "muteAllHitText": true
      },
      "combatLock": {
        "lockShape": "CircleLockEnemy",
        "denyLockOn": true,
        "lockType": "Gadget_Lv1"
      }
    },
    "attackAttenuation": "",
    "abilities": [
      {
        "abilityID": "SceneObj_Area_Common_Property_Prop_CharAmusementCoin_01",
        "abilityName": "SceneObj_Area_Common_Property_Prop_CharAmusementCoin_01",
        "abilityOverride": ""
      }
    ]
  },
  "SceneObj_Level_Common_Property_Ani_Prop_Undying_Torch_01": {
    "$type": "ConfigGadget",
    "common": {},
    "hasModel": true,
    "combat": {
      "property": {
        "HP": 99999.0,
        "attack": 20.0,
        "weight": 50.0,
        "isLockHP": true,
        "FBCDFHECDNM": true
      },
      "beHit": {
        "hitBloodEffect": "",
        "hitAutoRedirect": false,
        "muteAllHitText": true
      },
      "combatLock": {
        "lockShape": "CircleLockEnemy",
        "denyLockOn": true,
        "lockType": "Gadget_Lv1"
      }
    },
    "attackAttenuation": "",
    "abilities": [
      {
        "abilityID": "SceneObj_Level_Common_Property_Ani_Prop_Undying_Torch_01",
        "abilityName": "SceneObj_Level_Common_Property_Ani_Prop_Undying_Torch_01",
        "abilityOverride": ""
      }
    ]
  },
  "SceneObj_Area_Common_Property_Prop_BrickWall_02": {
    "$type": "ConfigGadget",
    "hasModel": true,
    "combat": {
      "property": {
        "HP": 9999999.0,
        "canTriggerBullet": true
      },
      "beHit": {
        "hitBloodEffect": "",
        "hitAutoRedirect": false,
        "muteAllHitText": true
      },
      "combatLock": {
        "lockShape": "CircleLockEnemy",
        "denyLockOn": true,
        "lockType": "Gadget_Lv1"
      }
    },
    "attackAttenuation": "",
    "abilities": [
      {
        "abilityID": "SceneObj_Area_Common_Property_Prop_BrickWall_02",
        "abilityName": "SceneObj_Area_Common_Property_Prop_BrickWall_02",
        "abilityOverride": ""
      }
    ]
  },
  "SceneObj_Area_Common_Property_Prop_BrickWall_03": {
    "$type": "ConfigGadget",
    "hasModel": true,
    "combat": {
      "property": {
        "HP": 9999999.0,
        "canTriggerBullet": true
      },
      "beHit": {
        "hitBloodEffect": "",
        "hitAutoRedirect": false,
        "muteAllHitText": true
      },
      "combatLock": {
        "lockShape": "CircleLockEnemy",
        "denyLockOn": true,
        "lockType": "Gadget_Lv1"
      }
    },
    "attackAttenuation": "",
    "abilities": [
      {
        "abilityID": "SceneObj_Area_Common_Property_Prop_BrickWall_03",
        "abilityName": "SceneObj_Area_Common_Property_Prop_BrickWall_03",
        "abilityOverride": ""
      }
    ]
  },
  "SceneObj_Area_Common_Property_Prop_BrickWall_04": {
    "$type": "ConfigGadget",
    "hasModel": true,
    "combat": {
      "property": {
        "HP": 9999999.0,
        "canTriggerBullet": true
      },
      "beHit": {
        "hitBloodEffect": "",
        "hitAutoRedirect": false,
        "muteAllHitText": true
      },
      "combatLock": {
        "lockShape": "CircleLockEnemy",
        "denyLockOn": true,
        "lockType": "Gadget_Lv1"
      }
    },
    "attackAttenuation": "",
    "abilities": [
      {
        "abilityID": "SceneObj_Area_Common_Property_Prop_BrickWall_04",
        "abilityName": "SceneObj_Area_Common_Property_Prop_BrickWall_04",
        "abilityOverride": ""
      }
    ]
  },
  "SceneObj_Area_Common_Property_Prop_BrickWall_05": {
    "$type": "ConfigGadget",
    "hasModel": true,
    "combat": {
      "property": {
        "HP": 9999999.0,
        "canTriggerBullet": true
      },
      "beHit": {
        "hitBloodEffect": "",
        "hitAutoRedirect": false,
        "muteAllHitText": true
      },
      "combatLock": {
        "lockShape": "CircleLockEnemy",
        "denyLockOn": true,
        "lockType": "Gadget_Lv1"
      }
    },
    "attackAttenuation": "",
    "abilities": [
      {
        "abilityID": "SceneObj_Area_Common_Property_Prop_BrickWall_05",
        "abilityName": "SceneObj_Area_Common_Property_Prop_BrickWall_05",
        "abilityOverride": ""
      }
    ]
  },
  "SceneObj_Area_Common_Property_Prop_BrickWall_06": {
    "$type": "ConfigGadget",
    "hasModel": true,
    "combat": {
      "property": {
        "HP": 9999999.0,
        "canTriggerBullet": true
      },
      "beHit": {
        "hitBloodEffect": "",
        "hitAutoRedirect": false,
        "muteAllHitText": true
      },
      "combatLock": {
        "lockShape": "CircleLockEnemy",
        "denyLockOn": true,
        "lockType": "Gadget_Lv1"
      }
    },
    "attackAttenuation": "",
    "abilities": [
      {
        "abilityID": "SceneObj_Area_Common_Property_Prop_BrickWall_06",
        "abilityName": "SceneObj_Area_Common_Property_Prop_BrickWall_06",
        "abilityOverride": ""
      }
    ]
  },
  "SceneObj_Area_Common_Property_Prop_BrickWall_07": {
    "$type": "ConfigGadget",
    "hasModel": true,
    "combat": {
      "property": {
        "HP": 9999999.0,
        "canTriggerBullet": true
      },
      "beHit": {
        "hitBloodEffect": "",
        "hitAutoRedirect": false,
        "muteAllHitText": true
      },
      "combatLock": {
        "lockShape": "CircleLockEnemy",
        "denyLockOn": true,
        "lockType": "Gadget_Lv1"
      }
    },
    "attackAttenuation": "",
    "abilities": [
      {
        "abilityID": "SceneObj_Area_Common_Property_Prop_BrickWall_07",
        "abilityName": "SceneObj_Area_Common_Property_Prop_BrickWall_07",
        "abilityOverride": ""
      }
    ]
  },
  "SceneObj_Area_Common_Property_Prop_SlimeMovingWall_01": {
    "$type": "ConfigGadget",
    "common": {
      "disableTickDistance": 150000.0
    },
    "hasModel": true,
    "combat": {
      "property": {
        "HP": 9999999.0,
        "isLockHP": true,
        "ignorePurgeRate": false
      },
      "beHit": {
        "hitBloodEffect": "",
        "hitAutoRedirect": false,
        "muteAllHitEffect": true,
        "muteAllHitText": true
      },
      "combatLock": {
        "lockShape": "CircleLockEnemy",
        "denyLockOn": true,
        "lockType": "Gadget_Lv1"
      },
      "die": {
        "dieEndTime": 1.0,
        "dieDisappearEffect": ""
      }
    },
    "attackAttenuation": "",
    "abilities": [
      {
        "abilityID": "SceneObj_Area_Common_Property_Prop_SlimeMovingWall_01",
        "abilityName": "SceneObj_Area_Common_Property_Prop_SlimeMovingWall_01",
        "abilityOverride": ""
      }
    ],
    "move": {
      "$type": "ConfigPlatformMove"
    },
    "gadgetAction": {
      "gadgetStateActionList": [
        {
          "$type": "ConfigGadgetStateSetAnimInt",
          "intID": "GadgetState",
          "syncState": true
        }
      ]
    }
  },
  "SceneObj_Gear_Common_Property_Prop_CharAmusementStamina_01": {
    "$type": "ConfigGadget",
    "hasModel": true,
    "combat": {
      "property": {
        "HP": 99999.0,
        "attack": 50.0,
        "weight": 50.0,
        "isLockHP": true
      },
      "beHit": {
        "hitBloodEffect": "",
        "hitAutoRedirect": false,
        "muteAllHitText": true
      },
      "combatLock": {
        "lockShape": "CircleLockEnemy",
        "denyLockOn": true,
        "lockType": "Gadget_Lv1"
      }
    },
    "attackAttenuation": "",
    "abilities": [
      {
        "abilityID": "SceneObj_Gear_Common_Property_Prop_CharAmusementStamina_01",
        "abilityName": "SceneObj_Gear_Common_Property_Prop_CharAmusementStamina_01",
        "abilityOverride": ""
      }
    ],
    "field": {
      "concernType": "AllAvatars",
      "shape": "CircleR1.5",
      "DEOHMEELJDM": "",
      "triggerInfinite": true,
      "lifeInfinite": true,
      "checkInterval": 0.20000000298023224,
      "overwriteCampType": true,
      "campType": "All",
      "INKADPFABPA": "",
      "AAHHPDHLLLH": ""
    }
  },
  "SceneObj_Area_Common_Property_Prop_CharAmusementCam_01": {
    "$type": "ConfigGadget",
    "hasModel": true,
    "combat": {
      "property": {
        "HP": 9999999.0,
        "isInvincible": true,
        "isLockHP": true,
        "canTriggerBullet": true,
        "denyElementStick": true,
        "ignorePurgeRate": false
      },
      "beHit": {
        "hitBloodEffect": "",
        "hitAutoRedirect": false,
        "muteAllHitText": true
      },
      "combatLock": {
        "lockShape": "CircleLockEnemy",
        "denyLockOn": true,
        "lockType": "Gadget_Lv1"
      }
    },
    "attackAttenuation": "",
    "abilities": [
      {
        "abilityID": "SceneObj_Area_Common_Property_Prop_CharAmusementCam_01",
        "abilityName": "SceneObj_Area_Common_Property_Prop_CharAmusementCam_01",
        "abilityOverride": ""
      }
    ],
    "FCFLCIILEAF": {
      "priority": 1.0,
      "OPKMFLHBCEL": 30.0,
      "HLJEJHJHEBG": 30.0,
      "MOINKIAMCKG": 1.2999999523162842,
      "EBDAIBLODLB": 60.0,
      "LGLGNMPNADH": 9.0,
      "EIHIEHJLINB": -10.0,
      "ELCNGKOAJFN": false,
      "KONIGEOBEPA": 30.0,
      "IKNIHFEDDIJ": 20.0,
      "LJGAGFHBAPE": 0.0,
      "FDEEGAFACDO": 0.0,
      "AOEIECPJILN": 55.0,
      "JLKGEFGDOEO": 60.0,
      "EJLANJKCDJO": "CircleR30",
      "AINPPNDKHBG": "CircleR40",
      "IPMLAAFGMGL": 360.0,
      "NNNHFBJAEFA": 999.0,
      "MMEPIBBJKML": 1.0
    }
  },
  "SceneObj_Area_Common_Property_Prop_CharAmusementCam_02": {
    "$type": "ConfigGadget",
    "hasModel": true,
    "combat": {
      "property": {
        "HP": 9999999.0,
        "isInvincible": true,
        "isLockHP": true,
        "canTriggerBullet": true,
        "denyElementStick": true,
        "ignorePurgeRate": false
      },
      "beHit": {
        "hitBloodEffect": "",
        "hitAutoRedirect": false,
        "muteAllHitText": true
      },
      "combatLock": {
        "lockShape": "CircleLockEnemy",
        "denyLockOn": true,
        "lockType": "Gadget_Lv1"
      }
    },
    "attackAttenuation": "",
    "abilities": [
      {
        "abilityID": "SceneObj_Area_Common_Property_Prop_CharAmusementCam_01",
        "abilityName": "SceneObj_Area_Common_Property_Prop_CharAmusementCam_01",
        "abilityOverride": ""
      }
    ],
    "FCFLCIILEAF": {
      "priority": 1.0,
      "OPKMFLHBCEL": 30.0,
      "HLJEJHJHEBG": 30.0,
      "MOINKIAMCKG": 0.5,
      "EBDAIBLODLB": 52.5,
      "LGLGNMPNADH": 11.0,
      "EIHIEHJLINB": -10.0,
      "ELCNGKOAJFN": false,
      "KONIGEOBEPA": 30.0,
      "IKNIHFEDDIJ": 20.0,
      "LJGAGFHBAPE": 0.0,
      "FDEEGAFACDO": 0.0,
      "AOEIECPJILN": 55.0,
      "JLKGEFGDOEO": 60.0,
      "EJLANJKCDJO": "CircleR30",
      "AINPPNDKHBG": "CircleR40",
      "IPMLAAFGMGL": 360.0,
      "NNNHFBJAEFA": 999.0
    }
  },
  "SceneObj_Area_Common_Property_Prop_CharAmusementCam_03": {
    "$type": "ConfigGadget",
    "hasModel": true,
    "combat": {
      "property": {
        "HP": 9999999.0,
        "isInvincible": true,
        "isLockHP": true,
        "canTriggerBullet": true,
        "denyElementStick": true,
        "ignorePurgeRate": false
      },
      "beHit": {
        "hitBloodEffect": "",
        "hitAutoRedirect": false,
        "muteAllHitText": true
      },
      "combatLock": {
        "lockShape": "CircleLockEnemy",
        "denyLockOn": true,
        "lockType": "Gadget_Lv1"
      }
    },
    "attackAttenuation": "",
    "abilities": [
      {
        "abilityID": "SceneObj_Area_Common_Property_Prop_CharAmusementCam_01",
        "abilityName": "SceneObj_Area_Common_Property_Prop_CharAmusementCam_01",
        "abilityOverride": ""
      }
    ],
    "FCFLCIILEAF": {
      "priority": 1.0,
      "OPKMFLHBCEL": 100.0,
      "HLJEJHJHEBG": 100.0,
      "MOINKIAMCKG": 2.0,
      "EBDAIBLODLB": 52.5,
      "LGLGNMPNADH": 9.0,
      "EIHIEHJLINB": 25.0,
      "ELCNGKOAJFN": false,
      "KONIGEOBEPA": 30.0,
      "IKNIHFEDDIJ": 40.0,
      "LJGAGFHBAPE": 0.0,
      "FDEEGAFACDO": 0.0,
      "AOEIECPJILN": 55.0,
      "JLKGEFGDOEO": 60.0,
      "EJLANJKCDJO": "CircleR30",
      "AINPPNDKHBG": "CircleR40",
      "IPMLAAFGMGL": 360.0,
      "NNNHFBJAEFA": 999.0
    }
  },
  "SceneObj_Area_Common_Property_Prop_CharAmusementCam_04": {
    "$type": "ConfigGadget",
    "hasModel": true,
    "combat": {
      "property": {
        "HP": 9999999.0,
        "isInvincible": true,
        "isLockHP": true,
        "canTriggerBullet": true,
        "denyElementStick": true,
        "ignorePurgeRate": false
      },
      "beHit": {
        "hitBloodEffect": "",
        "hitAutoRedirect": false,
        "muteAllHitText": true
      },
      "combatLock": {
        "lockShape": "CircleLockEnemy",
        "denyLockOn": true,
        "lockType": "Gadget_Lv1"
      }
    },
    "attackAttenuation": "",
    "abilities": [
      {
        "abilityID": "SceneObj_Area_Common_Property_Prop_CharAmusementCam_02",
        "abilityName": "SceneObj_Area_Common_Property_Prop_CharAmusementCam_02",
        "abilityOverride": ""
      }
    ],
    "FCFLCIILEAF": {
      "priority": 1.0,
      "OPKMFLHBCEL": 30.0,
      "HLJEJHJHEBG": 30.0,
      "MOINKIAMCKG": 1.0,
      "EBDAIBLODLB": 60.0,
      "LGLGNMPNADH": 11.5,
      "EIHIEHJLINB": 20.0,
      "KONIGEOBEPA": 60.0,
      "IKNIHFEDDIJ": 20.0,
      "LJGAGFHBAPE": 0.0,
      "FDEEGAFACDO": 0.0,
      "AOEIECPJILN": 55.0,
      "JLKGEFGDOEO": 60.0,
      "EJLANJKCDJO": "CircleR30",
      "AINPPNDKHBG": "CircleR40",
      "IPMLAAFGMGL": 360.0,
      "NNNHFBJAEFA": 999.0
    }
  },
  "SceneObj_Area_Common_Property_Prop_CharAmusementCam_05": {
    "$type": "ConfigGadget",
    "hasModel": true,
    "combat": {
      "property": {
        "HP": 9999999.0,
        "isInvincible": true,
        "isLockHP": true,
        "canTriggerBullet": true,
        "denyElementStick": true,
        "ignorePurgeRate": false
      },
      "beHit": {
        "hitBloodEffect": "",
        "hitAutoRedirect": false,
        "muteAllHitText": true
      },
      "combatLock": {
        "lockShape": "CircleLockEnemy",
        "denyLockOn": true,
        "lockType": "Gadget_Lv1"
      }
    },
    "attackAttenuation": "",
    "abilities": [
      {
        "abilityID": "SceneObj_Area_Common_Property_Prop_CharAmusementCam_01",
        "abilityName": "SceneObj_Area_Common_Property_Prop_CharAmusementCam_01",
        "abilityOverride": ""
      }
    ],
    "FCFLCIILEAF": {
      "priority": 1.0,
      "OPKMFLHBCEL": 50.0,
      "HLJEJHJHEBG": 50.0,
      "MOINKIAMCKG": -0.5,
      "EBDAIBLODLB": 60.0,
      "LGLGNMPNADH": 11.0,
      "EIHIEHJLINB": 35.0,
      "ELCNGKOAJFN": false,
      "KONIGEOBEPA": 20.0,
      "IKNIHFEDDIJ": 30.0,
      "LJGAGFHBAPE": 0.0,
      "FDEEGAFACDO": 0.0,
      "AOEIECPJILN": 55.0,
      "JLKGEFGDOEO": 60.0,
      "EJLANJKCDJO": "CircleR30",
      "AINPPNDKHBG": "CircleR40",
      "IPMLAAFGMGL": 360.0,
      "NNNHFBJAEFA": 999.0,
      "MMEPIBBJKML": 1.0
    }
  },
  "SceneObj_Area_Common_Property_Prop_CharAmusementCam_06": {
    "$type": "ConfigGadget",
    "hasModel": true,
    "combat": {
      "property": {
        "HP": 9999999.0,
        "isInvincible": true,
        "isLockHP": true,
        "canTriggerBullet": true,
        "denyElementStick": true,
        "ignorePurgeRate": false
      },
      "beHit": {
        "hitBloodEffect": "",
        "hitAutoRedirect": false,
        "muteAllHitText": true
      },
      "combatLock": {
        "lockShape": "CircleLockEnemy",
        "denyLockOn": true,
        "lockType": "Gadget_Lv1"
      }
    },
    "attackAttenuation": "",
    "abilities": [
      {
        "abilityID": "SceneObj_Area_Common_Property_Prop_CharAmusementCam_01",
        "abilityName": "SceneObj_Area_Common_Property_Prop_CharAmusementCam_01",
        "abilityOverride": ""
      }
    ],
    "FCFLCIILEAF": {
      "priority": 1.0,
      "OPKMFLHBCEL": 30.0,
      "HLJEJHJHEBG": 30.0,
      "MOINKIAMCKG": 1.0,
      "EBDAIBLODLB": 53.0,
      "LGLGNMPNADH": 7.0,
      "EIHIEHJLINB": 20.0,
      "ELCNGKOAJFN": false,
      "KONIGEOBEPA": 30.0,
      "IKNIHFEDDIJ": 25.0,
      "LJGAGFHBAPE": 0.0,
      "FDEEGAFACDO": 0.0,
      "AOEIECPJILN": 55.0,
      "JLKGEFGDOEO": 60.0,
      "EJLANJKCDJO": "CircleR30",
      "AINPPNDKHBG": "CircleR40",
      "IPMLAAFGMGL": 360.0,
      "NNNHFBJAEFA": 999.0,
      "MMEPIBBJKML": 1.0
    }
  },
  "SceneObj_Area_Common_Property_Prop_BaseballShooter_01": {
    "$type": "ConfigGadget",
    "hasModel": true,
    "combat": {
      "property": {
        "HP": 8000.0,
        "attack": 80.0,
        "weight": 80.0,
        "isLockHP": true
      },
      "beHit": {
        "hitBloodEffect": "",
        "hitAutoRedirect": false
      },
      "combatLock": {
        "lockShape": "CircleLockEnemy",
        "denyLockOn": true,
        "lockType": "Gadget_Lv1"
      },
      "die": {
        "dieEndTime": 0.10000000149011612,
        "dieForceDisappearTime": 0.20000000298023224,
        "dieDisappearEffect": ""
      }
    },
    "attackAttenuation": "",
    "abilities": [
      {
        "abilityID": "SceneObj_Area_Common_Property_Prop_BaseballShooter_01",
        "abilityName": "SceneObj_Area_Common_Property_Prop_BaseballShooter_01",
        "abilityOverride": ""
      }
    ]
  },
  "SceneObj_Area_Common_Property_Prop_FallAttackPillar_01": {
    "$type": "ConfigGadget",
    "hasModel": true,
    "combat": {
      "property": {
        "HP": 99999.0,
        "isLockHP": true,
        "canTriggerBullet": true
      },
      "beHit": {
        "hitBloodEffect": "",
        "hitAutoRedirect": false,
        "muteAllHitText": true
      },
      "combatLock": {
        "lockShape": "CircleLockEnemy",
        "denyLockOn": true,
        "lockType": "Gadget_Lv1"
      }
    },
    "attackAttenuation": "",
    "abilities": [
      {
        "abilityID": "SceneObj_Area_Common_Property_Prop_FallAttackPillar_01",
        "abilityName": "SceneObj_Area_Common_Property_Prop_FallAttackPillar_01",
        "abilityOverride": ""
      }
    ],
    "move": {
      "$type": "PEOJMJPDFGM",
      "EBBHBMFMOGD": "ColliderRoot"
    },
    "stateLayers": {
      "defaultLayer": {
        "$type": "ConfigNormalStateLayer",
        "FNPGDAEJAPJ": "",
        "stateIDs": {
          "All": {
            "$type": "ConfigNormalStateIDInfo",
            "animatorStates": {
              "Default": [],
              "NormalRise": [],
              "GoldRise": [],
              "KeepRiseGold": [],
              "KeepRiseNormal": []
            }
          }
        }
      }
    },
    "gadgetAction": {
      "gadgetStateActionList": [
        {
          "$type": "ConfigGadgetStateSetAnimInt",
          "intID": "GadgetState",
          "syncState": true
        }
      ]
    }
  },
  "SceneObj_Area_Common_Property_Prop_FallAttackPillar_02": {
    "$type": "ConfigGadget",
    "hasModel": true,
    "combat": {
      "property": {
        "HP": 99999.0,
        "isLockHP": true,
        "canTriggerBullet": true
      },
      "beHit": {
        "hitBloodEffect": "",
        "hitAutoRedirect": false,
        "muteAllHitText": true
      },
      "combatLock": {
        "lockShape": "CircleLockEnemy",
        "denyLockOn": true,
        "lockType": "Gadget_Lv1"
      }
    },
    "attackAttenuation": "",
    "abilities": [
      {
        "abilityID": "SceneObj_Area_Common_Property_Prop_FallAttackPillar_01",
        "abilityName": "SceneObj_Area_Common_Property_Prop_FallAttackPillar_01",
        "abilityOverride": ""
      }
    ],
    "move": {
      "$type": "PEOJMJPDFGM",
      "EBBHBMFMOGD": "ColliderRoot"
    },
    "gadgetAction": {
      "gadgetStateActionList": [
        {
          "$type": "ConfigGadgetStateSetAnimInt",
          "intID": "GadgetState",
          "syncState": true
        }
      ]
    }
  },
  "SceneObj_Area_Common_Property_Prop_SlimeGate_01": {
    "$type": "ConfigGadget",
    "globalValue": {
      "serverGlobalValues": ["SGV_CharAmuse_SlimeGateEff"],
      "BDAIHKIMPPE": {
        "SGV_CharAmuse_SlimeGateEff": 0.0
      }
    },
    "hasModel": true,
    "combat": {
      "property": {
        "HP": 99999.0,
        "isInvincible": true,
        "isLockHP": true,
        "canTriggerBullet": true,
        "denyElementStick": true
      },
      "beHit": {
        "hitBloodEffect": "",
        "hitAutoRedirect": false,
        "muteAllHitText": true
      },
      "combatLock": {
        "lockShape": "CircleLockEnemy",
        "denyLockOn": true,
        "lockType": "Gadget_Lv1"
      }
    },
    "attackAttenuation": "",
    "abilities": [
      {
        "abilityID": "SceneObj_Area_Common_Property_Prop_SlimeGate_01",
        "abilityName": "SceneObj_Area_Common_Property_Prop_SlimeGate_01",
        "abilityOverride": ""
      }
    ],
    "field": {
      "concernType": "CombatExcludeGWGO",
      "shape": "",
      "DEOHMEELJDM": "",
      "triggerInfinite": true,
      "lifeInfinite": true,
      "checkInterval": 0.20000000298023224,
      "overwriteCampType": true,
      "campType": "Enemy",
      "INKADPFABPA": "",
      "AAHHPDHLLLH": ""
    }
  },
  "SceneObj_Area_Common_Property_Prop_SlimeGate_02": {
    "$type": "ConfigGadget",
    "hasModel": true,
    "combat": {
      "property": {
        "HP": 99999.0,
        "isInvincible": true,
        "isLockHP": true,
        "canTriggerBullet": true,
        "denyElementStick": true
      },
      "beHit": {
        "hitBloodEffect": "",
        "hitAutoRedirect": false,
        "muteAllHitText": true
      },
      "combatLock": {
        "lockShape": "CircleLockEnemy",
        "denyLockOn": true,
        "lockType": "Gadget_Lv1"
      }
    },
    "attackAttenuation": "",
    "abilities": [
      {
        "abilityID": "SceneObj_Area_Common_Property_Prop_SlimeGate_01",
        "abilityName": "SceneObj_Area_Common_Property_Prop_SlimeGate_01",
        "abilityOverride": ""
      }
    ],
    "field": {
      "concernType": "CombatExcludeGWGO",
      "shape": "",
      "DEOHMEELJDM": "",
      "triggerInfinite": true,
      "lifeInfinite": true,
      "checkInterval": 0.20000000298023224,
      "overwriteCampType": true,
      "campType": "Enemy",
      "INKADPFABPA": "",
      "AAHHPDHLLLH": ""
    }
  },
  "SceneObj_Area_Common_Property_Prop_SlimeGate_03": {
    "$type": "ConfigGadget",
    "hasModel": true,
    "combat": {
      "property": {
        "HP": 99999.0,
        "isInvincible": true,
        "isLockHP": true,
        "canTriggerBullet": true,
        "denyElementStick": true
      },
      "beHit": {
        "hitBloodEffect": "",
        "hitAutoRedirect": false,
        "muteAllHitText": true
      },
      "combatLock": {
        "lockShape": "CircleLockEnemy",
        "denyLockOn": true,
        "lockType": "Gadget_Lv1"
      }
    },
    "attackAttenuation": "",
    "abilities": [
      {
        "abilityID": "SceneObj_Area_Common_Property_Prop_SlimeGate_01",
        "abilityName": "SceneObj_Area_Common_Property_Prop_SlimeGate_01",
        "abilityOverride": ""
      }
    ],
    "field": {
      "concernType": "CombatExcludeGWGO",
      "shape": "",
      "DEOHMEELJDM": "",
      "triggerInfinite": true,
      "lifeInfinite": true,
      "checkInterval": 0.20000000298023224,
      "overwriteCampType": true,
      "campType": "Enemy",
      "INKADPFABPA": "",
      "AAHHPDHLLLH": ""
    }
  },
  "SceneObj_Area_Common_Property_Prop_SlimeGate_04": {
    "$type": "ConfigGadget",
    "hasModel": true,
    "combat": {
      "property": {
        "HP": 99999.0,
        "isInvincible": true,
        "isLockHP": true,
        "canTriggerBullet": true,
        "denyElementStick": true
      },
      "beHit": {
        "hitBloodEffect": "",
        "hitAutoRedirect": false,
        "muteAllHitText": true
      },
      "combatLock": {
        "lockShape": "CircleLockEnemy",
        "denyLockOn": true,
        "lockType": "Gadget_Lv1"
      }
    },
    "attackAttenuation": "",
    "abilities": [
      {
        "abilityID": "SceneObj_Area_Common_Property_Prop_SlimeGate_01",
        "abilityName": "SceneObj_Area_Common_Property_Prop_SlimeGate_01",
        "abilityOverride": ""
      }
    ],
    "field": {
      "concernType": "CombatExcludeGWGO",
      "shape": "",
      "DEOHMEELJDM": "",
      "triggerInfinite": true,
      "lifeInfinite": true,
      "checkInterval": 0.20000000298023224,
      "overwriteCampType": true,
      "campType": "Enemy",
      "INKADPFABPA": "",
      "AAHHPDHLLLH": ""
    }
  },
  "SceneObj_Area_Common_Property_Prop_SpiningBall_01": {
    "$type": "ConfigGadget",
    "common": {
      "disableTickDistance": 150000.0
    },
    "combat": {
      "property": {
        "HP": 99999.0,
        "attack": 20.0,
        "weight": 50.0,
        "isLockHP": true
      },
      "beHit": {
        "hitBloodEffect": "",
        "muteAllHit": true,
        "muteAllHitEffect": true,
        "muteAllHitText": true
      },
      "combatLock": {
        "lockShape": "CircleLockEnemy",
        "denyLockOn": true,
        "lockType": "Gadget_Lv1"
      },
      "die": {
        "dieEndTime": 0.4000000059604645,
        "dieForceDisappearTime": 0.4000000059604645,
        "dieDisappearEffect": ""
      }
    },
    "attackAttenuation": "",
    "abilities": [
      {
        "abilityID": "SceneObj_Area_Common_Property_Prop_SpiningBall_01",
        "abilityName": "SceneObj_Area_Common_Property_Prop_SpiningBall_01",
        "abilityOverride": ""
      }
    ],
    "move": {
      "$type": "ConfigPlatformMove"
    },
    "gadget": {
      "$type": "JBOEGDAAMLN",
      "collision": {
        "triggerType": "TriggerAlways",
        "triggerCD": 0.20000000298023224,
        "targetType": "All"
      },
      "IGCMINPBBNM": [
        {
          "$type": "ConfigGadgetTriggerAbility",
          "abilityName": "SceneObj_Area_Common_Property_Prop_SpiningBall_01"
        }
      ],
      "EHIGIDDGBBL": "Collider",
      "BHNNHNJILCH": "InteeTrigger"
    }
  },
  "SceneObj_Area_Common_Property_Prop_CharAmusementAirWall_01": {
    "$type": "ConfigGadget",
    "model": {
      "bornEffect": "",
      "attachEffect": "Eff_SceneObj_Airwall_Dodgeball_01"
    },
    "hasModel": true,
    "combat": {
      "property": {
        "HP": 99999.0,
        "isInvincible": true,
        "isLockHP": true,
        "canTriggerBullet": true,
        "denyElementStick": true
      }
    },
    "attackAttenuation": ""
  },
  "SceneObj_Area_Common_Property_Prop_CharAmusementAirWall_02": {
    "$type": "ConfigGadget",
    "model": {
      "bornEffect": "",
      "attachEffect": "Eff_SceneObj_Airwall_Football_01"
    },
    "hasModel": true,
    "combat": {
      "property": {
        "HP": 99999.0,
        "isInvincible": true,
        "isLockHP": true,
        "canTriggerBullet": true,
        "denyElementStick": true
      }
    },
    "attackAttenuation": ""
  },
  "SceneObj_Area_Common_Property_Prop_CharAmusementAirWall_03": {
    "$type": "ConfigGadget",
    "model": {
      "bornEffect": "",
      "attachEffect": "Eff_SceneObj_Airwall_Baseball_01"
    },
    "hasModel": true,
    "combat": {
      "property": {
        "HP": 99999.0,
        "isInvincible": true,
        "isLockHP": true,
        "canTriggerBullet": true,
        "denyElementStick": true
      }
    },
    "attackAttenuation": ""
  },
  "SceneObj_Area_Common_Property_Prop_CharAmusementAirWall_04": {
    "$type": "ConfigGadget",
    "model": {
      "bornEffect": "",
      "attachEffect": "Eff_SceneObj_Airwall_MistCity_01"
    },
    "hasModel": true,
    "combat": {
      "property": {
        "HP": 99999.0,
        "isInvincible": true,
        "isLockHP": true,
        "canTriggerBullet": true,
        "denyElementStick": true
      }
    },
    "attackAttenuation": ""
  },
  "SceneObj_Area_Common_Property_Prop_CharAmusementAirWall_05": {
    "$type": "ConfigGadget",
    "model": {
      "bornEffect": "",
      "attachEffect": "Eff_SceneObj_Airwall_MistCity_02"
    },
    "hasModel": true,
    "combat": {
      "property": {
        "HP": 99999.0,
        "isInvincible": true,
        "isLockHP": true,
        "canTriggerBullet": true,
        "denyElementStick": true
      }
    },
    "attackAttenuation": ""
  },
  "SceneObj_Area_Common_Property_Prop_Baseball_01": {
    "$type": "ConfigGadget",
    "globalValue": {
      "serverGlobalValues": ["SGV_Is_BaseBall", "SGV_BaseBall_State"],
      "BDAIHKIMPPE": {
        "SGV_Is_BaseBall": 1.0,
        "SGV_BaseBall_State": 0.0
      }
    },
    "hasModel": true,
    "combat": {
      "property": {
        "useCreatorProperty": true,
        "HP": 99999.0,
        "attack": 20.0,
        "weight": 50.0,
        "isLockHP": true
      },
      "beHit": {
        "hitBloodEffect": "",
        "muteAllHit": true,
        "muteAllHitEffect": true,
        "muteAllHitText": true
      },
      "combatLock": {
        "lockShape": "CircleLockEnemy",
        "denyLockOn": true,
        "lockType": "Gadget_Lv1"
      },
      "die": {
        "dieEndTime": 0.009999999776482582,
        "dieDisappearEffect": ""
      }
    },
    "attackAttenuation": "",
    "abilities": [
      {
        "abilityID": "SceneObj_Area_Common_Property_Prop_Baseball_01",
        "abilityName": "SceneObj_Area_Common_Property_Prop_Baseball_01",
        "abilityOverride": ""
      }
    ],
    "move": {
      "$type": "ConfigLinerBulletMove",
      "EINCMKOBBEG": {
        "muteAll": true
      },
      "speed": 10.0
    },
    "gadget": {
      "$type": "ConfigBulletPattern",
      "collision": {
        "ignoreScene": true
      },
      "KEFFAOHIMHB": true,
      "IGFFOBDFGJD": 1.0
    }
  },
  "SceneObj_Area_Common_Property_Prop_Baseball_02": {
    "$type": "ConfigGadget",
    "globalValue": {
      "serverGlobalValues": ["SGV_Is_BaseBall", "SGV_BaseBall_State"],
      "BDAIHKIMPPE": {
        "SGV_Is_BaseBall": 1.0,
        "SGV_BaseBall_State": 0.0
      }
    },
    "hasModel": true,
    "combat": {
      "property": {
        "useCreatorProperty": true,
        "HP": 99999.0,
        "attack": 20.0,
        "weight": 50.0,
        "isLockHP": true
      },
      "beHit": {
        "hitBloodEffect": "",
        "muteAllHit": true,
        "muteAllHitEffect": true,
        "muteAllHitText": true
      },
      "combatLock": {
        "lockShape": "CircleLockEnemy",
        "denyLockOn": true,
        "lockType": "Gadget_Lv1"
      },
      "die": {
        "dieEndTime": 0.009999999776482582,
        "dieDisappearEffect": ""
      }
    },
    "attackAttenuation": "",
    "abilities": [
      {
        "abilityID": "SceneObj_Area_Common_Property_Prop_Baseball_02",
        "abilityName": "SceneObj_Area_Common_Property_Prop_Baseball_02",
        "abilityOverride": ""
      }
    ],
    "move": {
      "$type": "ConfigLinerBulletMove",
      "EINCMKOBBEG": {
        "muteAll": true
      },
      "speed": 16.0
    },
    "gadget": {
      "$type": "ConfigBulletPattern",
      "collision": {
        "ignoreScene": true
      },
      "KEFFAOHIMHB": true,
      "IGFFOBDFGJD": 1.0
    }
  },
  "SceneObj_Area_Common_Property_Prop_Baseball_03": {
    "$type": "ConfigGadget",
    "globalValue": {
      "serverGlobalValues": ["SGV_Is_BaseBall", "SGV_BaseBall_State"],
      "BDAIHKIMPPE": {
        "SGV_Is_BaseBall": 1.0,
        "SGV_BaseBall_State": 0.0
      }
    },
    "hasModel": true,
    "combat": {
      "property": {
        "useCreatorProperty": true,
        "HP": 99999.0,
        "attack": 20.0,
        "weight": 50.0,
        "isLockHP": true
      },
      "beHit": {
        "hitBloodEffect": "",
        "muteAllHit": true,
        "muteAllHitEffect": true,
        "muteAllHitText": true
      },
      "combatLock": {
        "lockShape": "CircleLockEnemy",
        "denyLockOn": true,
        "lockType": "Gadget_Lv1"
      },
      "die": {
        "dieEndTime": 0.009999999776482582,
        "dieDisappearEffect": ""
      }
    },
    "attackAttenuation": "",
    "abilities": [
      {
        "abilityID": "SceneObj_Area_Common_Property_Prop_Baseball_02",
        "abilityName": "SceneObj_Area_Common_Property_Prop_Baseball_02",
        "abilityOverride": ""
      }
    ],
    "move": {
      "$type": "CCONGDOMIGK",
      "EINCMKOBBEG": {
        "muteAll": true
      },
      "speed": 14.0,
      "BKIIIOFDNJM": 35.0,
      "DNOPKNCAPAI": 4.0,
      "NHIGHAGJEAI": true,
      "DPJJDDBMMGO": {
        "$type": "KFAMGFDFNJO",
        "GKBNMGHLBGP": {
          "$type": "ODKAAGHNCIP",
          "offset": {
            "x": 10.0,
            "y": 0.0,
            "z": -40.0
          },
          "IABNJPGBAOH": true
        },
        "radius": 0.5
      }
    },
    "gadget": {
      "$type": "ConfigBulletPattern",
      "collision": {
        "ignoreScene": true
      },
      "KEFFAOHIMHB": true,
      "IGFFOBDFGJD": 1.0
    }
  },
  "SceneObj_Area_Common_Property_Prop_Baseball_04": {
    "$type": "ConfigGadget",
    "globalValue": {
      "serverGlobalValues": ["SGV_Is_BaseBall", "SGV_BaseBall_State"],
      "BDAIHKIMPPE": {
        "SGV_Is_BaseBall": 1.0,
        "SGV_BaseBall_State": 0.0
      }
    },
    "hasModel": true,
    "combat": {
      "property": {
        "useCreatorProperty": true,
        "HP": 99999.0,
        "attack": 20.0,
        "weight": 50.0,
        "isLockHP": true
      },
      "beHit": {
        "hitBloodEffect": "",
        "muteAllHit": true,
        "muteAllHitEffect": true,
        "muteAllHitText": true
      },
      "combatLock": {
        "lockShape": "CircleLockEnemy",
        "denyLockOn": true,
        "lockType": "Gadget_Lv1"
      },
      "die": {
        "dieEndTime": 0.009999999776482582,
        "dieDisappearEffect": ""
      }
    },
    "attackAttenuation": "",
    "abilities": [
      {
        "abilityID": "SceneObj_Area_Common_Property_Prop_Baseball_02",
        "abilityName": "SceneObj_Area_Common_Property_Prop_Baseball_02",
        "abilityOverride": ""
      }
    ],
    "move": {
      "$type": "CCONGDOMIGK",
      "EINCMKOBBEG": {
        "muteAll": true
      },
      "speed": 14.0,
      "BKIIIOFDNJM": 35.0,
      "DNOPKNCAPAI": 4.0,
      "NHIGHAGJEAI": true,
      "DPJJDDBMMGO": {
        "$type": "KFAMGFDFNJO",
        "GKBNMGHLBGP": {
          "$type": "ODKAAGHNCIP",
          "offset": {
            "x": -10.0,
            "y": 0.0,
            "z": -40.0
          },
          "IABNJPGBAOH": true
        },
        "radius": 0.5
      }
    },
    "gadget": {
      "$type": "ConfigBulletPattern",
      "collision": {
        "ignoreScene": true
      },
      "KEFFAOHIMHB": true,
      "IGFFOBDFGJD": 1.0
    }
  },
  "SceneObj_Gear_Common_Property_Prop_CharAmusementExpandAccess_01": {
    "$type": "ConfigGadget",
    "combat": {
      "property": {
        "HP": 10000.0,
        "attack": 30.0,
        "isLockHP": true,
        "canTriggerBullet": true,
        "denyElementStick": true,
        "OEPGABDDCHI": true
      },
      "beHit": {
        "hitBloodEffect": "",
        "hitAutoRedirect": false,
        "muteAllHitText": true
      },
      "combatLock": {
        "lockShape": "CircleLockEnemy",
        "denyLockOn": true,
        "lockType": "Gadget_Lv1"
      }
    },
    "attackAttenuation": "",
    "abilities": [
      {
        "abilityID": "SceneObj_Gear_Common_Property_Prop_CharAmusementExpandAccess_01",
        "abilityName": "SceneObj_Gear_Common_Property_Prop_CharAmusementExpandAccess_01",
        "abilityOverride": ""
      }
    ],
    "field": {
      "concernType": "AllAvatars",
      "shape": "CircleR1",
      "DEOHMEELJDM": "",
      "triggerInfinite": true,
      "lifeInfinite": true,
      "checkInterval": 0.5,
      "overwriteCampType": true,
      "campType": "All",
      "INKADPFABPA": "",
      "AAHHPDHLLLH": ""
    }
  },
  "SceneObj_Gear_Common_Property_Prop_JumpUp_02": {
    "$type": "ConfigGadget",
    "combat": {
      "property": {
        "HP": 10000.0,
        "attack": 30.0,
        "isLockHP": true,
        "canTriggerBullet": true,
        "denyElementStick": true,
        "OEPGABDDCHI": true
      },
      "beHit": {
        "hitBloodEffect": "",
        "hitAutoRedirect": false,
        "muteAllHitText": true
      },
      "combatLock": {
        "lockShape": "CircleLockEnemy",
        "denyLockOn": true,
        "lockType": "Gadget_Lv1"
      }
    },
    "attackAttenuation": "",
    "abilities": [
      {
        "abilityID": "SceneObj_Gear_Common_Property_Prop_JumpUp_02",
        "abilityName": "SceneObj_Gear_Common_Property_Prop_JumpUp_02",
        "abilityOverride": ""
      }
    ],
    "field": {
      "concernType": "AllAvatars",
      "shape": "CircleR1",
      "DEOHMEELJDM": "",
      "triggerInfinite": true,
      "lifeInfinite": true,
      "checkInterval": 0.5,
      "overwriteCampType": true,
      "campType": "All",
      "INKADPFABPA": "",
      "AAHHPDHLLLH": ""
    }
  },
  "SceneObj_MonsterObj_Level_IceSlime_01": {
    "$type": "ConfigGadget",
    "common": {},
    "hasModel": true,
    "combat": {
      "property": {
        "HP": 99999.0,
        "isLockHP": true,
        "FBCDFHECDNM": true
      },
      "beHit": {
        "hitBloodEffect": "",
        "hitAutoRedirect": false,
        "muteAllHitText": true
      },
      "combatLock": {
        "lockShape": "CircleLockEnemy",
        "lockType": "Avatar&Monster_Lv4"
      }
    },
    "attackAttenuation": "",
    "abilities": [
      {
        "abilityID": "AbilityResistFrozen",
        "abilityName": "AbilityResistFrozen",
        "abilityOverride": ""
      },
      {
        "abilityID": "IceState",
        "abilityName": "Slime_Ice_02_IceState",
        "abilityOverride": ""
      }
    ],
    "stateLayers": {
      "defaultLayer": {
        "$type": "ConfigNormalStateLayer",
        "FNPGDAEJAPJ": "",
        "stateIDs": {
          "Born": {
            "$type": "CGCNEPDODHF",
            "animatorStates": {
              "Born": ["Monster_Slime_Born_03", "Audio_Slime_03_Born_H"]
            },
            "LFEBJMAGIAE": true,
            "LLAMHOPNFJG": ["DoSkill"]
          },
          "NormalIdle": {
            "$type": "CGCNEPDODHF",
            "animatorStates": {
              "Standby": []
            },
            "canDoSkill": true,
            "LFEBJMAGIAE": true,
            "LLAMHOPNFJG": ["DoSkill"]
          },
          "Turn": {
            "$type": "CGCNEPDODHF",
            "animatorStates": {
              "Turn": ["Audio_Slime_03_Run_H"]
            },
            "canDoSkill": true,
            "LFEBJMAGIAE": true,
            "LLAMHOPNFJG": ["DoSkill"]
          },
          "NormalMove": {
            "$type": "CGCNEPDODHF",
            "animatorStates": {
              "Walk": ["Audio_Slime_03_Walk_H"],
              "Run": ["Audio_Slime_03_Run_H"]
            },
            "canDoSkill": true,
            "LFEBJMAGIAE": true,
            "LLAMHOPNFJG": ["DoSkill"],
            "BHEPAJIOBDN": true
          },
          "BeHit": {
            "$type": "CGCNEPDODHF",
            "animatorStates": {
              "Hit_L": ["Monster_Slime_BeHit", "Audio_Slime_03_Hit_L"],
              "Hit_H": ["Monster_Slime_BeHit", "Audio_Slime_03_Hit_H"]
            },
            "EOPFMICKIKG": ["BeHit"],
            "LLAMHOPNFJG": ["DoSkill"]
          },
          "BeHitThrow": {
            "$type": "CGCNEPDODHF",
            "animatorStates": {
              "HitThrow": ["Monster_Slime_BeHit", "Audio_Slime_03_HitThrow_H"],
              "HitThrowDrop": [],
              "HitThrowToGround": [
                "Monster_Slime_ThrowToGround_03",
                "Audio_Slime_03_HitThrowToGround_H"
              ]
            },
            "EOPFMICKIKG": ["BeHit", "HitAir2HitDrop"],
            "LLAMHOPNFJG": ["DoSkill"]
          },
          "Struggle": {
            "$type": "CGCNEPDODHF",
            "animatorStates": {
              "Struggle": []
            },
            "EOPFMICKIKG": ["BeHit", "HitAir2HitDrop"],
            "LLAMHOPNFJG": ["DoSkill"]
          },
          "Die": {
            "$type": "CGCNEPDODHF",
            "animatorStates": {
              "Die": [
                "Monster_Slime_Die",
                "Monster_Slime_Ice_03_Die",
                "Audio_Slime_Ice_03_Die"
              ],
              "SwimDie": [
                "Monster_Slime_Die",
                "Monster_Slime_Ice_03_Die",
                "Audio_Slime_Ice_03_Die"
              ]
            }
          },
          "Warning": {
            "$type": "CGCNEPDODHF",
            "animatorStates": {
              "Warning": ["Monster_Slime_Warning"]
            },
            "LLAMHOPNFJG": ["BeHit", "DoSkill"]
          },
          "JumpAttack": {
            "$type": "CGCNEPDODHF",
            "animatorStates": {
              "JumpAttack": [
                "Monster_Slime_Ice_JumpAttack",
                "Audio_Slime_03_JumpAtk_H"
              ]
            },
            "cullingModelAlwaysAnimate": true,
            "BFDKJHMDDML": 0.6000000238418579,
            "BDFLEJHPFBG": 20.0,
            "LLAMHOPNFJG": ["BeHit", "DoSkill"]
          },
          "ThrowAttack": {
            "$type": "CGCNEPDODHF",
            "animatorStates": {
              "ThrowAttack_BS": [],
              "ThrowAttack_BS_01": [],
              "ThrowAttack_BS_02": [],
              "ThrowAttack_BS_03": [],
              "ThrowAttack_AS": [
                "Monster_Slime_Ice_ThrowAttack",
                "Audio_Slime_Ice_03_IceThrow"
              ]
            },
            "LLAMHOPNFJG": ["BeHit", "DoSkill"]
          },
          "BlowAttack": {
            "$type": "CGCNEPDODHF",
            "animatorStates": {
              "BlowAttack": [
                "Monster_Slime_Ice_BlowAttack",
                "Audio_Slime_Ice_03_BlowAtk"
              ]
            },
            "BFDKJHMDDML": 0.0,
            "BDFLEJHPFBG": 20.0,
            "LLAMHOPNFJG": ["BeHit", "DoSkill"]
          },
          "BlowAttack_Jump": {
            "$type": "CGCNEPDODHF",
            "animatorStates": {
              "BlowAttack_Jump": ["Audio_Slime_03_Run_H"]
            },
            "LLAMHOPNFJG": ["BeHit", "DoSkill"]
          },
          "ShieldBorn": {
            "$type": "CGCNEPDODHF",
            "animatorStates": {
              "ShieldBorn": ["Monster_Slime_Ice_03_ShieldBorn"]
            },
            "BFDKJHMDDML": 0.6000000238418579,
            "BDFLEJHPFBG": 20.0,
            "LLAMHOPNFJG": ["BeHit", "DoSkill"]
          },
          "ShieldDestroy": {
            "$type": "CGCNEPDODHF",
            "animatorStates": {
              "ShieldDestroy": ["Monster_Slime_Ice_ShieldDestroy"]
            },
            "LLAMHOPNFJG": ["BeHit", "DoSkill"]
          }
        }
      }
    }
  }
}
