{
  "SceneObj_Environment_GrassMaterial_LeaveStacks": {
    "$type": "ConfigGadget",
    "common": {
      "effectAttachShape": {
        "$type": "ConfigEffectAttachBox",
        "scaleZ": 0.4000000059604645
      },
      "viewSize": 1.5,
      "affectedByWorld": true
    },
    "hasModel": true,
    "combat": {
      "property": {
        "HP": 99999.0,
        "attack": 20.0,
        "weight": 50.0,
        "isInvincible": true
      },
      "beHit": {
        "hitBloodEffect": "",
        "muteAllHit": true,
        "muteAllHitEffect": true
      },
      "combatLock": {
        "lockShape": "CircleLockEnemy",
        "denyLockOn": true,
        "lockType": "Gadget_Lv1"
      },
      "die": {
        "dieEndTime": 0.30000001192092896,
        "dieForceDisappearTime": 0.3499999940395355,
        "dieDisappearEffect": ""
      }
    },
    "attackAttenuation": "",
    "abilities": [
      {
        "abilityID": "SceneObj_Environment_GrassMaterial_LeaveStacks_Interact",
        "abilityName": "SceneObj_Environment_GrassMaterial_LeaveStacks_Interact",
        "abilityOverride": ""
      }
    ]
  },
  "SceneObj_Environment_GrassMaterial_LeafBlanket": {
    "$type": "ConfigGadget",
    "common": {
      "effectAttachShape": {
        "$type": "ConfigEffectAttachMesh",
        "mesh": "EffectMesh"
      },
      "viewSize": 2.5,
      "affectedByWorld": true
    },
    "customAttackShape": {
      "AAEEHFCBOAE": {
        "LOOAOEOKDCE": 2.0,
        "JIJLOLOKMAI": 2.0,
        "MOPAOFAFCKP": 0.20000000298023224
      }
    },
    "hasModel": true,
    "combat": {
      "property": {
        "HP": 99999.0,
        "attack": 50.0,
        "weight": 50.0,
        "isLockHP": true
      },
      "beHit": {
        "hitBloodEffect": "",
        "hitAutoRedirect": false,
        "muteAllHitEffect": true,
        "muteAllHitText": true
      },
      "combatLock": {
        "lockShape": "CircleLockEnemy",
        "denyLockOn": true,
        "lockType": "Gadget_Lv1"
      },
      "die": {
        "dieEndTime": 0.30000001192092896,
        "dieForceDisappearTime": 0.3499999940395355,
        "dieDisappearEffect": ""
      }
    },
    "attackAttenuation": "",
    "abilities": [
      {
        "abilityID": "SceneObj_Environment_GrassMaterial_LeafBlanket_Interact",
        "abilityName": "SceneObj_Environment_GrassMaterial_LeafBlanket_Interact",
        "abilityOverride": ""
      }
    ]
  },
  "SceneObj_Environment_GrassMaterial_GrassStacks": {
    "$type": "ConfigGadget",
    "common": {
      "effectAttachShape": {
        "$type": "ConfigEffectAttachMesh",
        "mesh": "EffectMesh"
      },
      "viewSize": 2.5,
      "affectedByWorld": true
    },
    "hasModel": true,
    "combat": {
      "property": {
        "HP": 99999.0,
        "attack": 20.0,
        "weight": 50.0,
        "isInvincible": true
      },
      "beHit": {
        "hitBloodEffect": "",
        "muteAllHit": true,
        "muteAllHitEffect": true
      },
      "combatLock": {
        "lockShape": "CircleLockEnemy",
        "denyLockOn": true,
        "lockType": "Gadget_Lv1"
      },
      "die": {
        "dieEndTime": 0.30000001192092896,
        "dieForceDisappearTime": 0.3499999940395355,
        "dieDisappearEffect": ""
      }
    },
    "attackAttenuation": "",
    "abilities": [
      {
        "abilityID": "SceneObj_Environment_GrassMaterial_GrassStacks_Interact",
        "abilityName": "SceneObj_Environment_GrassMaterial_GrassStacks_Interact",
        "abilityOverride": ""
      }
    ]
  },
  "SceneObj_Environment_GrassMaterial_LeafBlanket02": {
    "$type": "ConfigGadget",
    "common": {
      "effectAttachShape": {
        "$type": "ConfigEffectAttachBox",
        "scaleX": 6.0,
        "scaleY": 6.0,
        "scaleZ": 0.20000000298023224
      },
      "viewSize": 2.5,
      "affectedByWorld": true
    },
    "customAttackShape": {
      "AAEEHFCBOAE": {
        "LOOAOEOKDCE": 6.0,
        "JIJLOLOKMAI": 6.0,
        "MOPAOFAFCKP": 0.20000000298023224
      }
    },
    "hasModel": true,
    "combat": {
      "property": {
        "HP": 99999.0,
        "attack": 500.0,
        "weight": 50.0,
        "isLockHP": true
      },
      "beHit": {
        "hitBloodEffect": "",
        "hitAutoRedirect": false,
        "muteAllHitEffect": true,
        "muteAllHitText": true
      },
      "combatLock": {
        "lockShape": "CircleLockEnemy",
        "denyLockOn": true,
        "lockType": "Gadget_Lv1"
      },
      "die": {
        "dieEndTime": 0.30000001192092896,
        "dieForceDisappearTime": 0.3499999940395355,
        "dieDisappearEffect": ""
      }
    },
    "attackAttenuation": "",
    "abilities": [
      {
        "abilityID": "SceneObj_Environment_GrassMaterial_LeafBlanket_Interact",
        "abilityName": "SceneObj_Environment_GrassMaterial_LeafBlanket02_Interact",
        "abilityOverride": ""
      }
    ]
  },
  "SceneObj_Environment_GrassMaterial_SakuraStacks": {
    "$type": "ConfigGadget",
    "common": {
      "effectAttachShape": {
        "$type": "ConfigEffectAttachBox",
        "scaleZ": 0.4000000059604645
      },
      "viewSize": 1.5,
      "affectedByWorld": true
    },
    "hasModel": true,
    "combat": {
      "property": {
        "HP": 99999.0,
        "attack": 20.0,
        "weight": 50.0,
        "isInvincible": true
      },
      "beHit": {
        "hitBloodEffect": "",
        "muteAllHit": true,
        "muteAllHitEffect": true
      },
      "combatLock": {
        "lockShape": "CircleLockEnemy",
        "denyLockOn": true,
        "lockType": "Gadget_Lv1"
      },
      "die": {
        "dieEndTime": 0.30000001192092896,
        "dieForceDisappearTime": 0.3499999940395355,
        "dieDisappearEffect": ""
      }
    },
    "attackAttenuation": "",
    "abilities": [
      {
        "abilityID": "SceneObj_Environment_GrassMaterial_SakuraStacks_Interact",
        "abilityName": "SceneObj_Environment_GrassMaterial_SakuraStacks_Interact",
        "abilityOverride": ""
      }
    ]
  },
  "SceneObj_Environment_CobWeb": {
    "$type": "ConfigGadget",
    "common": {
      "effectAttachShape": {
        "$type": "ConfigEffectAttachMesh",
        "mesh": "EffectMesh"
      }
    },
    "hasModel": true,
    "combat": {
      "property": {
        "useCreatorProperty": true,
        "HP": 100.0,
        "attack": 20.0,
        "weight": 50.0
      },
      "beHit": {
        "hitBloodEffect": "",
        "hitAutoRedirect": false,
        "muteAllHitText": true
      },
      "combatLock": {
        "lockShape": "CircleLockEnemy",
        "lockType": "Avatar&Monster_Lv4"
      },
      "die": {
        "dieEndTime": 0.10000000149011612,
        "dieForceDisappearTime": 0.10000000149011612,
        "dieDisappearEffect": ""
      }
    },
    "attackAttenuation": "",
    "abilities": [
      {
        "abilityID": "SceneObj_Environment_CobWeb_Interact",
        "abilityName": "SceneObj_Environment_CobWeb_Interact",
        "abilityOverride": ""
      }
    ],
    "field": {
      "concernType": "AllAvatars",
      "shape": "CircleR10",
      "DEOHMEELJDM": "",
      "triggerInfinite": true,
      "lifeInfinite": true,
      "checkInterval": 0.20000000298023224,
      "overwriteCampType": true,
      "campType": "All",
      "INKADPFABPA": "",
      "AAHHPDHLLLH": ""
    },
    "stateLayers": {
      "defaultLayer": {
        "$type": "ConfigNormalStateLayer",
        "FNPGDAEJAPJ": "",
        "stateIDs": {
          "All": {
            "$type": "ConfigNormalStateIDInfo",
            "animatorStates": {
              "Stay": ["Cobweb_Hit_Protect_Relieve"],
              "Hit": ["Cobweb_Hit_Protect", "Cobweb_Hit_Refresh"]
            }
          }
        }
      }
    },
    "billboard": {
      "$type": "NCBABGPMMPL",
      "EBBHBMFMOGD": "AttachPoint",
      "offset": {
        "y": 0.8999999761581421
      },
      "radiusOffset": 1.0,
      "showDistance": 25.0,
      "ANGKJBLILKJ": true
    }
  },
  "SceneObj_Environment_CobWeb_Bullet": {
    "$type": "ConfigGadget",
    "common": {
      "effectAttachShape": {
        "$type": "ConfigEffectAttachBox",
        "scaleZ": 0.4000000059604645
      }
    },
    "combat": {
      "property": {
        "useCreatorProperty": true,
        "HP": 999999.0,
        "attack": 50.0,
        "defense": 999999.0,
        "isLockHP": true
      },
      "beHit": {
        "hitBloodEffect": "",
        "muteAllHit": true,
        "muteAllHitEffect": true,
        "muteAllHitText": true
      },
      "combatLock": {
        "lockShape": "CircleLockEnemy",
        "denyLockOn": true,
        "lockType": "Default"
      }
    },
    "attackAttenuation": "",
    "abilities": [
      {
        "abilityID": "SceneObj_Environment_CobWeb_Bullet_Loop",
        "abilityName": "SceneObj_Environment_CobWeb_Bullet_Loop",
        "abilityOverride": ""
      },
      {
        "abilityID": "SceneObj_Environment_CobWeb_Bullet_Explode",
        "abilityName": "SceneObj_Environment_CobWeb_Bullet_Explode",
        "abilityOverride": ""
      }
    ],
    "timer": {
      "lifeTime": 3.0
    },
    "move": {
      "$type": "CCONGDOMIGK",
      "speed": 15.0,
      "canBornInWater": true,
      "updateAngle": {
        "$type": "ConfigBulletMoveAngleByVelocity"
      },
      "NHIGHAGJEAI": true
    },
    "gadget": {
      "$type": "ConfigBulletPattern",
      "collision": {
        "targetType": "Enemy"
      },
      "triggerActions": [
        {
          "$type": "ConfigGadgetTriggerAbility",
          "abilityName": "SceneObj_Environment_CobWeb_Bullet_Explode"
        }
      ],
      "HOCNBGDGGPK": [
        {
          "$type": "ConfigGadgetTriggerAbility",
          "abilityName": "SceneObj_Environment_CobWeb_Bullet_Explode"
        }
      ],
      "KEFFAOHIMHB": true
    }
  }
}
