{
  "Apep_Stage1_DiveIn_UnderGround": {
    "$type": "ConfigGadget",
    "common": {
      "effectAttachShape": {
        "$type": "ConfigEffectAttachBox"
      }
    },
    "combat": {
      "property": {
        "useCreatorProperty": true,
        "HP": 999999.0,
        "attack": 15.0,
        "defense": 999999.0,
        "isInvincible": true,
        "denyElementStick": true,
        "ignorePurgeRate": false
      },
      "beHit": {
        "hitBloodEffect": "",
        "hitAutoRedirect": false,
        "muteAllHitText": true
      },
      "combatLock": {
        "lockShape": "CircleLockEnemy",
        "denyLockOn": true,
        "lockType": "Default"
      }
    },
    "attackAttenuation": "",
    "abilities": [
      {
        "abilityID": "",
        "abilityName": "Apep_Stage1_DiveIn_Underground",
        "abilityOverride": ""
      }
    ],
    "field": {
      "concernType": "AllAvatars",
      "shape": "",
      "DEOHMEELJDM": "",
      "triggerInfinite": true,
      "lifeInfinite": true,
      "checkInterval": 0.10000000149011612,
      "INKADPFABPA": "",
      "AAHHPDHLLLH": ""
    },
    "timer": {
      "lifeTime": 20.0
    },
    "move": {
      "$type": "NMDLLGAGCBF",
      "EINCMKOBBEG": {
        "muteAll": true
      },
      "JOFFKAKINLN": true
    },
    "stateLayers": {
      "defaultLayer": {
        "$type": "ConfigNormalStateLayer",
        "FNPGDAEJAPJ": "",
        "stateIDs": {
          "Underground_BS": {
            "$type": "CGCNEPDODHF",
            "animatorStates": {
              "Underground_BS": []
            },
            "LFEBJMAGIAE": true,
            "BHEPAJIOBDN": true,
            "BKLKHCBEHNL": true
          },
          "Underground_Loop": {
            "$type": "CGCNEPDODHF",
            "animatorStates": {
              "Underground_Loop": []
            },
            "LFEBJMAGIAE": true,
            "BHEPAJIOBDN": true,
            "BKLKHCBEHNL": true
          }
        }
      }
    }
  },
  "Apep_Stage1_Forearm_CrashAttack01": {
    "$type": "ConfigGadget",
    "common": {
      "effectAttachShape": {
        "$type": "ConfigEffectAttachBox"
      }
    },
    "HFGOLBBHCJH": true,
    "combat": {
      "property": {
        "useCreatorProperty": true,
        "HP": 999999.0,
        "attack": 10.0,
        "defense": 999999.0,
        "isInvincible": true,
        "canTriggerBullet": true,
        "denyElementStick": true
      },
      "beHit": {
        "hitBloodEffect": "",
        "muteAllHit": true,
        "muteAllHitEffect": true,
        "muteAllHitText": true
      },
      "combatLock": {
        "lockShape": "CircleLockEnemy",
        "denyLockOn": true,
        "lockType": "Default"
      }
    },
    "attackAttenuation": "",
    "abilities": [
      {
        "abilityID": "",
        "abilityName": "Apep_Stage1_Forearm_CrashAttack",
        "abilityOverride": ""
      },
      {
        "abilityID": "",
        "abilityName": "Apep_Stage1_Forearm_CrashAttack01",
        "abilityOverride": ""
      }
    ],
    "timer": {
      "lifeTime": 5.0
    },
    "stateLayers": {
      "defaultLayer": {
        "$type": "ConfigNormalStateLayer",
        "FNPGDAEJAPJ": "",
        "stateIDs": {
          "CrashAttack01": {
            "$type": "CGCNEPDODHF",
            "animatorStates": {
              "CrashAttack01": ["Gadget_Apep_Stage1_CrashAttack01"]
            },
            "LFEBJMAGIAE": true,
            "BHEPAJIOBDN": true
          }
        }
      }
    }
  },
  "Apep_Stage1_Forearm_CrashAttack02": {
    "$type": "ConfigGadget",
    "common": {
      "effectAttachShape": {
        "$type": "ConfigEffectAttachBox"
      }
    },
    "HFGOLBBHCJH": true,
    "combat": {
      "property": {
        "useCreatorProperty": true,
        "HP": 999999.0,
        "attack": 10.0,
        "defense": 999999.0,
        "isInvincible": true,
        "canTriggerBullet": true,
        "denyElementStick": true
      },
      "beHit": {
        "hitBloodEffect": "",
        "muteAllHit": true,
        "muteAllHitEffect": true,
        "muteAllHitText": true
      },
      "combatLock": {
        "lockShape": "CircleLockEnemy",
        "denyLockOn": true,
        "lockType": "Default"
      }
    },
    "attackAttenuation": "",
    "abilities": [
      {
        "abilityID": "",
        "abilityName": "Apep_Stage1_Forearm_CrashAttack",
        "abilityOverride": ""
      },
      {
        "abilityID": "",
        "abilityName": "Apep_Stage1_Forearm_CrashAttack02",
        "abilityOverride": ""
      }
    ],
    "timer": {
      "lifeTime": 5.0
    },
    "stateLayers": {
      "defaultLayer": {
        "$type": "ConfigNormalStateLayer",
        "FNPGDAEJAPJ": "",
        "stateIDs": {
          "CrashAttack02": {
            "$type": "CGCNEPDODHF",
            "animatorStates": {
              "CrashAttack02": ["Gadget_Apep_Stage1_CrashAttack02"]
            },
            "LFEBJMAGIAE": true,
            "BHEPAJIOBDN": true
          }
        }
      }
    }
  },
  "Apep_Stage1_Forearm_CrashAttack03": {
    "$type": "ConfigGadget",
    "common": {
      "effectAttachShape": {
        "$type": "ConfigEffectAttachBox"
      }
    },
    "HFGOLBBHCJH": true,
    "combat": {
      "property": {
        "useCreatorProperty": true,
        "HP": 999999.0,
        "attack": 10.0,
        "defense": 999999.0,
        "isInvincible": true,
        "canTriggerBullet": true,
        "denyElementStick": true
      },
      "beHit": {
        "hitBloodEffect": "",
        "muteAllHit": true,
        "muteAllHitEffect": true,
        "muteAllHitText": true
      },
      "combatLock": {
        "lockShape": "CircleLockEnemy",
        "denyLockOn": true,
        "lockType": "Default"
      }
    },
    "attackAttenuation": "",
    "abilities": [
      {
        "abilityID": "",
        "abilityName": "Apep_Stage1_Forearm_CrashAttack",
        "abilityOverride": ""
      },
      {
        "abilityID": "",
        "abilityName": "Apep_Stage1_Forearm_CrashAttack03",
        "abilityOverride": ""
      }
    ],
    "timer": {
      "lifeTime": 5.0
    },
    "stateLayers": {
      "defaultLayer": {
        "$type": "ConfigNormalStateLayer",
        "FNPGDAEJAPJ": "",
        "stateIDs": {
          "CrashAttack03": {
            "$type": "CGCNEPDODHF",
            "animatorStates": {
              "CrashAttack03": ["Gadget_Apep_Stage1_CrashAttack03"]
            },
            "LFEBJMAGIAE": true,
            "BHEPAJIOBDN": true
          }
        }
      }
    }
  },
  "Apep_Stage1_Forearm_CrashAttack04": {
    "$type": "ConfigGadget",
    "common": {
      "effectAttachShape": {
        "$type": "ConfigEffectAttachBox"
      }
    },
    "HFGOLBBHCJH": true,
    "combat": {
      "property": {
        "useCreatorProperty": true,
        "HP": 999999.0,
        "attack": 10.0,
        "defense": 999999.0,
        "isInvincible": true,
        "canTriggerBullet": true,
        "denyElementStick": true
      },
      "beHit": {
        "hitBloodEffect": "",
        "muteAllHit": true,
        "muteAllHitEffect": true,
        "muteAllHitText": true
      },
      "combatLock": {
        "lockShape": "CircleLockEnemy",
        "denyLockOn": true,
        "lockType": "Default"
      }
    },
    "attackAttenuation": "",
    "abilities": [
      {
        "abilityID": "",
        "abilityName": "Apep_Stage1_Forearm_CrashAttack",
        "abilityOverride": ""
      },
      {
        "abilityID": "",
        "abilityName": "Apep_Stage1_Forearm_CrashAttack04",
        "abilityOverride": ""
      }
    ],
    "timer": {
      "lifeTime": 5.0
    },
    "stateLayers": {
      "defaultLayer": {
        "$type": "ConfigNormalStateLayer",
        "FNPGDAEJAPJ": "",
        "stateIDs": {
          "CrashAttack04": {
            "$type": "CGCNEPDODHF",
            "animatorStates": {
              "CrashAttack04": ["Gadget_Apep_Stage1_CrashAttack04"]
            },
            "LFEBJMAGIAE": true,
            "BHEPAJIOBDN": true
          }
        }
      }
    }
  },
  "Apep_Stage1_Forearm_CrashAttack_CenterGadget": {
    "$type": "ConfigGadget",
    "common": {
      "effectAttachShape": {
        "$type": "ConfigEffectAttachBox"
      }
    },
    "HFGOLBBHCJH": true,
    "combat": {
      "property": {
        "useCreatorProperty": true,
        "HP": 999999.0,
        "attack": 10.0,
        "defense": 999999.0,
        "isInvincible": true,
        "denyElementStick": true
      },
      "beHit": {
        "hitBloodEffect": "",
        "muteAllHit": true,
        "muteAllHitEffect": true,
        "muteAllHitText": true
      },
      "combatLock": {
        "lockShape": "CircleLockEnemy",
        "denyLockOn": true,
        "lockType": "Default"
      }
    },
    "attackAttenuation": "",
    "abilities": [
      {
        "abilityID": "",
        "abilityName": "Apep_Stage1_Forearm_CrashAttack_CenterGadget",
        "abilityOverride": ""
      }
    ],
    "timer": {
      "lifeTime": 5.0
    }
  },
  "Apep_Stage1_UltAttack_PosGadget": {
    "$type": "ConfigGadget",
    "common": {
      "effectAttachShape": {
        "$type": "ConfigEffectAttachBox"
      }
    },
    "combat": {
      "property": {
        "useCreatorProperty": true,
        "HP": 999999.0,
        "attack": 10.0,
        "defense": 999999.0,
        "isInvincible": true,
        "denyElementStick": true
      },
      "beHit": {
        "hitBloodEffect": "",
        "muteAllHit": true,
        "muteAllHitEffect": true,
        "muteAllHitText": true
      },
      "combatLock": {
        "lockShape": "CircleLockEnemy",
        "denyLockOn": true,
        "lockType": "Default"
      }
    },
    "attackAttenuation": "",
    "abilities": [
      {
        "abilityID": "",
        "abilityName": "Apep_Stage1_UltAttack_PosGadget",
        "abilityOverride": ""
      }
    ],
    "timer": {
      "lifeTime": 10.0
    }
  },
  "Apep_Stage1_UltAttack_PatternBullet": {
    "$type": "ConfigGadget",
    "common": {
      "effectAttachShape": {
        "$type": "ConfigEffectAttachBox"
      }
    },
    "combat": {
      "property": {
        "useCreatorProperty": true,
        "HP": 999999.0,
        "attack": 10.0,
        "defense": 999999.0,
        "isInvincible": true,
        "canTriggerBullet": true,
        "denyElementStick": true
      },
      "beHit": {
        "hitBloodEffect": "",
        "muteAllHit": true,
        "muteAllHitEffect": true,
        "muteAllHitText": true
      },
      "combatLock": {
        "lockShape": "CircleLockEnemy",
        "denyLockOn": true,
        "lockType": "Default"
      },
      "resetCycle": {
        "enable": true,
        "radius": 0.5
      }
    },
    "attackAttenuation": "",
    "abilities": [
      {
        "abilityID": "",
        "abilityName": "Apep_Stage1_UltAttack_PatternBullet",
        "abilityOverride": ""
      }
    ],
    "timer": {
      "lifeTime": 12.0
    },
    "move": {
      "$type": "KNONMECDFJC"
    },
    "gadget": {
      "$type": "DGAPLFNDHHH",
      "collision": {
        "targetType": "Enemy"
      },
      "triggerActions": [
        {
          "$type": "ConfigGadgetTriggerAbility",
          "abilityName": "Apep_Stage1_UltAttack_PatternBullet"
        }
      ],
      "HOCNBGDGGPK": [
        {
          "$type": "ConfigGadgetTriggerAbility",
          "abilityName": "Apep_Stage1_UltAttack_PatternBullet"
        }
      ],
      "KEFFAOHIMHB": true,
      "NKGFPHPMEDJ": {
        "$type": "JJIALLMLPKP",
        "LEKPIAMIMDG": "None",
        "healLimitedByCasterMaxHPRatio": "Eff_Monster_Apep_Stage1_UltAttack_PatternBullet"
      }
    },
    "AHJAADFBDLD": true
  },
  "Apep_Stage1_UltAttack_PatternBullet_Final": {
    "$type": "ConfigGadget",
    "common": {
      "effectAttachShape": {
        "$type": "ConfigEffectAttachBox"
      }
    },
    "combat": {
      "property": {
        "useCreatorProperty": true,
        "HP": 999999.0,
        "attack": 10.0,
        "defense": 999999.0,
        "isInvincible": true,
        "canTriggerBullet": true,
        "denyElementStick": true
      },
      "beHit": {
        "hitBloodEffect": "",
        "muteAllHit": true,
        "muteAllHitEffect": true,
        "muteAllHitText": true
      },
      "combatLock": {
        "lockShape": "CircleLockEnemy",
        "denyLockOn": true,
        "lockType": "Default"
      },
      "resetCycle": {
        "enable": true,
        "radius": 0.5
      }
    },
    "attackAttenuation": "",
    "abilities": [
      {
        "abilityID": "",
        "abilityName": "Apep_Stage1_UltAttack_PatternBullet_Final",
        "abilityOverride": ""
      }
    ],
    "timer": {
      "lifeTime": 12.0
    },
    "move": {
      "$type": "KNONMECDFJC"
    },
    "gadget": {
      "$type": "DGAPLFNDHHH",
      "collision": {
        "targetType": "Enemy"
      },
      "triggerActions": [
        {
          "$type": "ConfigGadgetTriggerAbility",
          "abilityName": "Apep_Stage1_UltAttack_PatternBullet_Final"
        }
      ],
      "HOCNBGDGGPK": [
        {
          "$type": "ConfigGadgetTriggerAbility",
          "abilityName": "Apep_Stage1_UltAttack_PatternBullet_Final"
        }
      ],
      "KEFFAOHIMHB": true,
      "NKGFPHPMEDJ": {
        "$type": "JJIALLMLPKP",
        "healLimitedByCasterMaxHPRatio": "Eff_Monster_Apep_Stage1_UltAttack_PatternBullet_Final"
      }
    },
    "AHJAADFBDLD": true
  },
  "Apep_Stage1_UltAttack_TrackBullet": {
    "$type": "ConfigGadget",
    "common": {
      "effectAttachShape": {
        "$type": "ConfigEffectAttachBox"
      }
    },
    "combat": {
      "property": {
        "useCreatorProperty": true,
        "HP": 999999.0,
        "attack": 10.0,
        "defense": 999999.0,
        "isInvincible": true,
        "denyElementStick": true
      },
      "beHit": {
        "hitBloodEffect": "",
        "muteAllHit": true,
        "muteAllHitEffect": true,
        "muteAllHitText": true
      },
      "combatLock": {
        "lockShape": "CircleLockEnemy",
        "denyLockOn": true,
        "lockType": "Default"
      }
    },
    "attackAttenuation": "",
    "abilities": [
      {
        "abilityID": "",
        "abilityName": "Apep_Stage1_UltAttack_TrackBullet",
        "abilityOverride": ""
      }
    ],
    "timer": {
      "lifeTime": 3.0
    },
    "move": {
      "$type": "MBCCJOEDLDO",
      "speed": 10.0,
      "maxSpeed": 20.0,
      "minSpeed": 10.0,
      "BKIIIOFDNJM": 1080.0,
      "DNOPKNCAPAI": 10.0,
      "canBornInWater": true,
      "updateAngle": {
        "$type": "ConfigBulletMoveAngleByVelocity"
      },
      "MPJAHBIPABI": 0.20000000298023224,
      "EJLPNJNLKJO": {
        "CNCFDGHPDMM": 4.0,
        "LKGPGNFBLGO": 30.0,
        "JJOMEBOHIGM": 0.20000000298023224,
        "MMFLMIJMPHO": 0.10000000149011612,
        "KBDCGLHEGLP": "Keep",
        "EFMHGACIJIK": "Keep"
      },
      "BJLOMNNDFIF": 180.0,
      "JAILDGEEKLH": 0.15000000596046448,
      "DCIBKJODNJB": 720.0
    },
    "gadget": {
      "$type": "ConfigBulletPattern",
      "collision": {
        "targetType": "Enemy",
        "ignoreScene": true
      },
      "triggerActions": [
        {
          "$type": "ConfigGadgetTriggerAbility",
          "abilityName": "Apep_Stage1_UltAttack_TrackBullet"
        }
      ]
    }
  },
  "Apep_Stage1_UltAttack_TrackBullet_Final": {
    "$type": "ConfigGadget",
    "common": {
      "effectAttachShape": {
        "$type": "ConfigEffectAttachBox"
      }
    },
    "combat": {
      "property": {
        "useCreatorProperty": true,
        "HP": 999999.0,
        "attack": 10.0,
        "defense": 999999.0,
        "isInvincible": true,
        "denyElementStick": true
      },
      "beHit": {
        "hitBloodEffect": "",
        "muteAllHit": true,
        "muteAllHitEffect": true,
        "muteAllHitText": true
      },
      "combatLock": {
        "lockShape": "CircleLockEnemy",
        "denyLockOn": true,
        "lockType": "Default"
      }
    },
    "attackAttenuation": "",
    "abilities": [
      {
        "abilityID": "",
        "abilityName": "Apep_Stage1_UltAttack_TrackBullet_Final",
        "abilityOverride": ""
      }
    ],
    "timer": {
      "lifeTime": 3.0
    },
    "move": {
      "$type": "MBCCJOEDLDO",
      "speed": 10.0,
      "maxSpeed": 20.0,
      "minSpeed": 10.0,
      "BKIIIOFDNJM": 1080.0,
      "DNOPKNCAPAI": 10.0,
      "canBornInWater": true,
      "updateAngle": {
        "$type": "ConfigBulletMoveAngleByVelocity"
      },
      "MPJAHBIPABI": 0.20000000298023224,
      "EJLPNJNLKJO": {
        "CNCFDGHPDMM": 4.0,
        "LKGPGNFBLGO": 30.0,
        "JJOMEBOHIGM": 0.20000000298023224,
        "MMFLMIJMPHO": 0.10000000149011612,
        "KBDCGLHEGLP": "Keep",
        "EFMHGACIJIK": "Keep"
      },
      "BJLOMNNDFIF": 180.0,
      "JAILDGEEKLH": 0.15000000596046448,
      "DCIBKJODNJB": 720.0
    },
    "gadget": {
      "$type": "ConfigBulletPattern",
      "collision": {
        "targetType": "Enemy",
        "ignoreScene": true
      },
      "triggerActions": [
        {
          "$type": "ConfigGadgetTriggerAbility",
          "abilityName": "Apep_Stage1_UltAttack_TrackBullet_Final"
        }
      ]
    }
  },
  "Apep_Stage1_StageChange_PosGadget1": {
    "$type": "ConfigGadget",
    "common": {
      "effectAttachShape": {
        "$type": "ConfigEffectAttachBox"
      }
    },
    "combat": {
      "property": {
        "useCreatorProperty": true,
        "HP": 999999.0,
        "attack": 10.0,
        "defense": 999999.0,
        "isInvincible": true,
        "denyElementStick": true
      },
      "beHit": {
        "hitBloodEffect": "",
        "muteAllHit": true,
        "muteAllHitEffect": true,
        "muteAllHitText": true
      },
      "combatLock": {
        "lockShape": "CircleLockEnemy",
        "denyLockOn": true,
        "lockType": "Default"
      }
    },
    "attackAttenuation": "",
    "abilities": [
      {
        "abilityID": "",
        "abilityName": "Apep_Stage1_StageChange_PosGadget01",
        "abilityOverride": ""
      }
    ],
    "timer": {
      "lifeTime": 5.0
    }
  },
  "Apep_Stage1_StageChange_PosGadget2": {
    "$type": "ConfigGadget",
    "common": {
      "effectAttachShape": {
        "$type": "ConfigEffectAttachBox"
      }
    },
    "combat": {
      "property": {
        "useCreatorProperty": true,
        "HP": 999999.0,
        "attack": 10.0,
        "defense": 999999.0,
        "isInvincible": true,
        "denyElementStick": true
      },
      "beHit": {
        "hitBloodEffect": "",
        "muteAllHit": true,
        "muteAllHitEffect": true,
        "muteAllHitText": true
      },
      "combatLock": {
        "lockShape": "CircleLockEnemy",
        "denyLockOn": true,
        "lockType": "Default"
      }
    },
    "attackAttenuation": "",
    "abilities": [
      {
        "abilityID": "",
        "abilityName": "Apep_Stage1_StageChange_PosGadget02",
        "abilityOverride": ""
      }
    ],
    "timer": {
      "lifeTime": 5.0
    }
  },
  "Apep_Stage2_Flat": {
    "$type": "ConfigGadget",
    "common": {
      "effectAttachShape": {
        "$type": "ConfigEffectAttachBox"
      },
      "disableTickDistance": 100000.0
    },
    "HFGOLBBHCJH": true,
    "combat": {
      "property": {
        "useCreatorProperty": true,
        "HP": 999999.0,
        "attack": 10.0,
        "defense": 999999.0,
        "isInvincible": true,
        "denyElementStick": true
      },
      "beHit": {
        "hitBloodEffect": "",
        "muteAllHit": true,
        "muteAllHitEffect": true,
        "muteAllHitText": true
      },
      "combatLock": {
        "lockShape": "CircleLockEnemy",
        "denyLockOn": true,
        "lockType": "Default"
      }
    },
    "attackAttenuation": "",
    "abilities": [
      {
        "abilityID": "",
        "abilityName": "Monster_Apep_Flat_MovingState",
        "abilityOverride": ""
      }
    ],
    "timer": {
      "lifeInfinite": true
    },
    "stateLayers": {
      "defaultLayer": {
        "$type": "ConfigNormalStateLayer",
        "FNPGDAEJAPJ": "",
        "stateIDs": {
          "NormalIdle": {
            "$type": "CGCNEPDODHF",
            "animatorStates": {
              "GadgetChange": ["Audio_monster_Apep_Stage2_Flat_gadgetchange"]
            },
            "LFEBJMAGIAE": true,
            "cullingModelAlwaysAnimate": true,
            "BHEPAJIOBDN": true,
            "ECGKJECEAII": true
          },
          "Run": {
            "$type": "CGCNEPDODHF",
            "animatorStates": {
              "RunL": [],
              "RunR": []
            },
            "LFEBJMAGIAE": true,
            "cullingModelAlwaysAnimate": true,
            "BHEPAJIOBDN": true,
            "ECGKJECEAII": true
          },
          "TurnL": {
            "$type": "CGCNEPDODHF",
            "animatorStates": {
              "RunR_AS": [],
              "Run_Up": []
            },
            "LFEBJMAGIAE": true,
            "cullingModelAlwaysAnimate": true,
            "BHEPAJIOBDN": true,
            "ECGKJECEAII": true
          },
          "TurnR": {
            "$type": "CGCNEPDODHF",
            "animatorStates": {
              "RunL_AS": [],
              "RunR_BS": []
            },
            "LFEBJMAGIAE": true,
            "cullingModelAlwaysAnimate": true,
            "BHEPAJIOBDN": true,
            "ECGKJECEAII": true
          }
        }
      }
    },
    "audio": {
      "$type": "NPAHBANFLHK",
      "KEMBJLPCHOH": true,
      "NCOGLLMIJGO": "Audio_HandD01_R",
      "animAudio": {
        "onTransitionIn": [
          {
            "currentStateName": "RunL",
            "audioEvent": {
              "text": "Play_sfx_monster_Apep_Stage2_Flat_run"
            },
            "otherStateNames": ["RunL"],
            "usage": "Except"
          },
          {
            "currentStateName": "Run_Up",
            "audioEvent": {
              "text": "Play_sfx_monster_Apep_Stage2_Flat_run"
            },
            "otherStateNames": ["Run_Up"],
            "usage": "Except"
          },
          {
            "currentStateName": "RunR",
            "audioEvent": {
              "text": "Play_sfx_monster_Apep_Stage2_Flat_run"
            },
            "otherStateNames": ["RunR"],
            "usage": "Except"
          },
          {
            "currentStateName": "RunR_AS",
            "audioEvent": {
              "text": "Play_sfx_monster_Apep_Stage2_Flat_run"
            },
            "otherStateNames": ["RunR_AS"],
            "usage": "Except"
          },
          {
            "currentStateName": "RunR_BS",
            "audioEvent": {
              "text": "Play_sfx_monster_Apep_Stage2_Flat_run"
            },
            "otherStateNames": ["RunR_BS"],
            "usage": "Except"
          },
          {
            "currentStateName": "RunL_AS",
            "audioEvent": {
              "text": "Play_sfx_monster_Apep_Stage2_Flat_run"
            },
            "otherStateNames": ["RunL_AS"],
            "usage": "Except"
          },
          {
            "currentStateName": "RunL_BS",
            "audioEvent": {
              "text": "Play_sfx_monster_Apep_Stage2_Flat_run"
            },
            "otherStateNames": ["RunL_BS"],
            "usage": "Except"
          }
        ],
        "onTransitionOut": [
          {
            "currentStateName": "",
            "audioEvent": {
              "text": ""
            }
          }
        ]
      }
    }
  },
  "Apep_Stage2_DefendTarget_Test": {
    "$type": "ConfigGadget",
    "common": {
      "effectAttachShape": {
        "$type": "ConfigEffectAttachBox"
      },
      "disableTickDistance": 100000.0
    },
    "combat": {
      "property": {
        "useCreatorProperty": true,
        "HP": 999999.0,
        "attack": 10.0,
        "defense": 999999.0,
        "isInvincible": true,
        "denyElementStick": true
      },
      "beHit": {
        "hitBloodEffect": "",
        "muteAllHit": true,
        "muteAllHitEffect": true,
        "muteAllHitText": true
      },
      "combatLock": {
        "lockShape": "CircleLockEnemy",
        "denyLockOn": true,
        "lockType": "Default"
      }
    },
    "attackAttenuation": "",
    "abilities": [
      {
        "abilityID": "",
        "abilityName": "Apep_Stage2_DefendTarget_Test",
        "abilityOverride": ""
      }
    ],
    "timer": {
      "lifeInfinite": true
    }
  },
  "Apep_Stage3_BlinkAttack_PositionGadget": {
    "$type": "ConfigGadget",
    "common": {
      "effectAttachShape": {
        "$type": "ConfigEffectAttachBox"
      }
    },
    "combat": {
      "property": {
        "useCreatorProperty": true,
        "HP": 999999.0,
        "attack": 10.0,
        "defense": 999999.0,
        "isInvincible": true,
        "denyElementStick": true
      },
      "beHit": {
        "hitBloodEffect": "",
        "muteAllHit": true,
        "muteAllHitEffect": true,
        "muteAllHitText": true
      },
      "combatLock": {
        "lockShape": "CircleLockEnemy",
        "denyLockOn": true,
        "lockType": "Default"
      }
    },
    "attackAttenuation": "",
    "abilities": [
      {
        "abilityID": "",
        "abilityName": "Apep_Stage3_BlinkAttack_PositionGadget",
        "abilityOverride": ""
      }
    ],
    "timer": {
      "lifeTime": 8.0
    }
  },
  "Apep_Stage3_RangeAttack2_Bullet": {
    "$type": "ConfigGadget",
    "common": {
      "effectAttachShape": {
        "$type": "ConfigEffectAttachBox"
      }
    },
    "combat": {
      "property": {
        "useCreatorProperty": true,
        "HP": 999999.0,
        "attack": 10.0,
        "defense": 999999.0,
        "isInvincible": true,
        "canTriggerBullet": true,
        "denyElementStick": true
      },
      "beHit": {
        "hitBloodEffect": "",
        "muteAllHit": true,
        "muteAllHitEffect": true,
        "muteAllHitText": true
      },
      "combatLock": {
        "lockShape": "CircleLockEnemy",
        "denyLockOn": true,
        "lockType": "Default"
      },
      "resetCycle": {
        "enable": true,
        "radius": 0.20000000298023224
      }
    },
    "attackAttenuation": "",
    "abilities": [
      {
        "abilityID": "",
        "abilityName": "Apep_Stage3_RangeAttack2_Bullet",
        "abilityOverride": ""
      }
    ],
    "timer": {
      "lifeTime": 6.0
    },
    "move": {
      "$type": "KNONMECDFJC"
    },
    "gadget": {
      "$type": "DGAPLFNDHHH",
      "collision": {
        "targetType": "Enemy"
      },
      "triggerActions": [
        {
          "$type": "ConfigGadgetTriggerAbility",
          "abilityName": "Apep_Stage3_RangeAttack2_Bullet"
        }
      ],
      "HOCNBGDGGPK": [
        {
          "$type": "ConfigGadgetTriggerAbility",
          "abilityName": "Apep_Stage3_RangeAttack2_Bullet"
        }
      ],
      "KEFFAOHIMHB": true,
      "NKGFPHPMEDJ": {
        "$type": "JJIALLMLPKP",
        "healLimitedByCasterMaxHPRatio": "Eff_Monster_Apep_Stage3_RangeAttack2_Bullet"
      }
    },
    "AHJAADFBDLD": true
  },
  "Apep_Stage3_RangeAttack3_TrackBullet": {
    "$type": "ConfigGadget",
    "common": {
      "effectAttachShape": {
        "$type": "ConfigEffectAttachBox"
      }
    },
    "combat": {
      "property": {
        "useCreatorProperty": true,
        "HP": 999999.0,
        "attack": 15.0,
        "defense": 999999.0,
        "isInvincible": true,
        "denyElementStick": true,
        "ignorePurgeRate": false
      },
      "beHit": {
        "hitBloodEffect": "",
        "hitAutoRedirect": false,
        "muteAllHitText": true
      },
      "combatLock": {
        "lockShape": "CircleLockEnemy",
        "denyLockOn": true,
        "lockType": "Default"
      }
    },
    "attackAttenuation": "",
    "field": {
      "shape": "",
      "DEOHMEELJDM": "",
      "triggerInfinite": true,
      "lifeInfinite": true,
      "checkInterval": 0.10000000149011612,
      "INKADPFABPA": "",
      "AAHHPDHLLLH": ""
    },
    "timer": {
      "lifeTime": 8.0
    }
  },
  "Apep_Stage3_RangeAttack3_DamageGadget_FirstAttack": {
    "$type": "ConfigGadget",
    "common": {
      "effectAttachShape": {
        "$type": "ConfigEffectAttachBox"
      }
    },
    "combat": {
      "property": {
        "useCreatorProperty": true,
        "HP": 999999.0,
        "attack": 10.0,
        "defense": 999999.0,
        "isInvincible": true,
        "canTriggerBullet": true,
        "denyElementStick": true
      },
      "beHit": {
        "hitBloodEffect": "",
        "muteAllHit": true,
        "muteAllHitEffect": true,
        "muteAllHitText": true
      },
      "combatLock": {
        "lockShape": "CircleLockEnemy",
        "denyLockOn": true,
        "lockType": "Default"
      }
    },
    "attackAttenuation": "",
    "abilities": [
      {
        "abilityID": "",
        "abilityName": "Apep_Stage3_RangeAttack3_DamageGadget_FirstAttack",
        "abilityOverride": ""
      }
    ],
    "timer": {
      "lifeTime": 5.0
    }
  },
  "Apep_Stage3_RangeAttack3_DamageGadget_RepeatAttack": {
    "$type": "ConfigGadget",
    "common": {
      "effectAttachShape": {
        "$type": "ConfigEffectAttachBox"
      }
    },
    "combat": {
      "property": {
        "useCreatorProperty": true,
        "HP": 999999.0,
        "attack": 10.0,
        "defense": 999999.0,
        "isInvincible": true,
        "canTriggerBullet": true,
        "denyElementStick": true
      },
      "beHit": {
        "hitBloodEffect": "",
        "muteAllHit": true,
        "muteAllHitEffect": true,
        "muteAllHitText": true
      },
      "combatLock": {
        "lockShape": "CircleLockEnemy",
        "denyLockOn": true,
        "lockType": "Default"
      }
    },
    "attackAttenuation": "",
    "abilities": [
      {
        "abilityID": "",
        "abilityName": "Apep_Stage3_RangeAttack3_DamageGadget_RepeatAttack",
        "abilityOverride": ""
      }
    ],
    "timer": {
      "lifeTime": 5.0
    }
  },
  "Apep_Stage3_UltAttack_FieldBullet01": {
    "$type": "ConfigGadget",
    "common": {
      "effectAttachShape": {
        "$type": "ConfigEffectAttachBox",
        "scaleZ": 0.4000000059604645
      }
    },
    "combat": {
      "property": {
        "useCreatorProperty": true,
        "HP": 999999.0,
        "attack": 10.0,
        "defense": 999999.0,
        "isLockHP": true
      },
      "beHit": {
        "hitBloodEffect": "",
        "muteAllHit": true,
        "muteAllHitEffect": true,
        "muteAllHitText": true
      },
      "combatLock": {
        "lockShape": "CircleLockEnemy",
        "denyLockOn": true,
        "lockType": "Default"
      }
    },
    "attackAttenuation": "",
    "abilities": [
      {
        "abilityID": "",
        "abilityName": "Apep_Stage3_UltAttack_FieldBullet_Common",
        "abilityOverride": ""
      },
      {
        "abilityID": "",
        "abilityName": "Apep_Stage3_UltAttack_FieldBullet01",
        "abilityOverride": ""
      },
      {
        "abilityID": "",
        "abilityName": "Apep_Stage3_UltAttack_FieldBullet01_LifeOver",
        "abilityOverride": ""
      }
    ],
    "timer": {
      "lifeTime": 2.0
    },
    "move": {
      "$type": "ConfigParabolaBulletMove",
      "speed": 30.0,
      "updateAngle": {
        "$type": "ConfigBulletMoveAngleByVelocity"
      },
      "angleOffHor": 30.0,
      "gravityOfAcceleration": 15.0,
      "correction": {
        "$type": "ConfigParabolaBulletMoveCorrection",
        "fixAngleOfVer": 30.0,
        "minSpeed": 5.0
      }
    },
    "gadget": {
      "$type": "ConfigBulletPattern",
      "collision": {
        "triggerType": "TriggerNoRepeat",
        "targetType": "All"
      },
      "triggerActions": [
        {
          "$type": "ConfigGadgetTriggerAbility",
          "abilityName": "Apep_Stage3_UltAttack_FieldBullet01"
        }
      ],
      "HOCNBGDGGPK": [
        {
          "$type": "ConfigGadgetTriggerAbility",
          "abilityName": "Apep_Stage3_UltAttack_FieldBullet01_LifeOver"
        }
      ],
      "KEFFAOHIMHB": true
    }
  },
  "Apep_Stage3_UltAttack_FieldBullet02": {
    "$type": "ConfigGadget",
    "common": {
      "effectAttachShape": {
        "$type": "ConfigEffectAttachBox",
        "scaleZ": 0.4000000059604645
      }
    },
    "combat": {
      "property": {
        "useCreatorProperty": true,
        "HP": 999999.0,
        "attack": 10.0,
        "defense": 999999.0,
        "isLockHP": true
      },
      "beHit": {
        "hitBloodEffect": "",
        "muteAllHit": true,
        "muteAllHitEffect": true,
        "muteAllHitText": true
      },
      "combatLock": {
        "lockShape": "CircleLockEnemy",
        "denyLockOn": true,
        "lockType": "Default"
      }
    },
    "attackAttenuation": "",
    "abilities": [
      {
        "abilityID": "",
        "abilityName": "Apep_Stage3_UltAttack_FieldBullet_Common",
        "abilityOverride": ""
      },
      {
        "abilityID": "",
        "abilityName": "Apep_Stage3_UltAttack_FieldBullet02",
        "abilityOverride": ""
      },
      {
        "abilityID": "",
        "abilityName": "Apep_Stage3_UltAttack_FieldBullet02_LifeOver",
        "abilityOverride": ""
      }
    ],
    "timer": {
      "lifeTime": 2.0
    },
    "move": {
      "$type": "ConfigParabolaBulletMove",
      "speed": 30.0,
      "updateAngle": {
        "$type": "ConfigBulletMoveAngleByVelocity"
      },
      "angleOffHor": 30.0,
      "gravityOfAcceleration": 15.0,
      "correction": {
        "$type": "ConfigParabolaBulletMoveCorrection",
        "fixAngleOfVer": 30.0,
        "minSpeed": 5.0
      }
    },
    "gadget": {
      "$type": "ConfigBulletPattern",
      "collision": {
        "triggerType": "TriggerNoRepeat",
        "targetType": "All"
      },
      "triggerActions": [
        {
          "$type": "ConfigGadgetTriggerAbility",
          "abilityName": "Apep_Stage3_UltAttack_FieldBullet02"
        }
      ],
      "HOCNBGDGGPK": [
        {
          "$type": "ConfigGadgetTriggerAbility",
          "abilityName": "Apep_Stage3_UltAttack_FieldBullet02_LifeOver"
        }
      ],
      "KEFFAOHIMHB": true
    }
  },
  "Apep_Stage3_UltAttack_FieldBullet03": {
    "$type": "ConfigGadget",
    "common": {
      "effectAttachShape": {
        "$type": "ConfigEffectAttachBox",
        "scaleZ": 0.4000000059604645
      }
    },
    "combat": {
      "property": {
        "useCreatorProperty": true,
        "HP": 999999.0,
        "attack": 10.0,
        "defense": 999999.0,
        "isLockHP": true
      },
      "beHit": {
        "hitBloodEffect": "",
        "muteAllHit": true,
        "muteAllHitEffect": true,
        "muteAllHitText": true
      },
      "combatLock": {
        "lockShape": "CircleLockEnemy",
        "denyLockOn": true,
        "lockType": "Default"
      }
    },
    "attackAttenuation": "",
    "abilities": [
      {
        "abilityID": "",
        "abilityName": "Apep_Stage3_UltAttack_FieldBullet_Common",
        "abilityOverride": ""
      },
      {
        "abilityID": "",
        "abilityName": "Apep_Stage3_UltAttack_FieldBullet03",
        "abilityOverride": ""
      },
      {
        "abilityID": "",
        "abilityName": "Apep_Stage3_UltAttack_FieldBullet03_LifeOver",
        "abilityOverride": ""
      }
    ],
    "timer": {
      "lifeTime": 2.0
    },
    "move": {
      "$type": "ConfigParabolaBulletMove",
      "speed": 30.0,
      "updateAngle": {
        "$type": "ConfigBulletMoveAngleByVelocity"
      },
      "angleOffHor": 30.0,
      "gravityOfAcceleration": 15.0,
      "correction": {
        "$type": "ConfigParabolaBulletMoveCorrection",
        "fixAngleOfVer": 30.0,
        "minSpeed": 5.0
      }
    },
    "gadget": {
      "$type": "ConfigBulletPattern",
      "collision": {
        "triggerType": "TriggerNoRepeat",
        "targetType": "All"
      },
      "triggerActions": [
        {
          "$type": "ConfigGadgetTriggerAbility",
          "abilityName": "Apep_Stage3_UltAttack_FieldBullet03"
        }
      ],
      "HOCNBGDGGPK": [
        {
          "$type": "ConfigGadgetTriggerAbility",
          "abilityName": "Apep_Stage3_UltAttack_FieldBullet03_LifeOver"
        }
      ],
      "KEFFAOHIMHB": true
    }
  },
  "Apep_Stage3_UltAttack_FieldGadget01": {
    "$type": "ConfigGadget",
    "common": {
      "effectAttachShape": {
        "$type": "ConfigEffectAttachBox"
      }
    },
    "combat": {
      "property": {
        "useCreatorProperty": true,
        "HP": 999999.0,
        "attack": 10.0,
        "defense": 999999.0,
        "isInvincible": true,
        "canTriggerBullet": true,
        "denyElementStick": true
      },
      "beHit": {
        "hitBloodEffect": "",
        "muteAllHit": true,
        "muteAllHitEffect": true,
        "muteAllHitText": true
      },
      "combatLock": {
        "lockShape": "CircleLockEnemy",
        "denyLockOn": true,
        "lockType": "Default"
      }
    },
    "attackAttenuation": "",
    "abilities": [
      {
        "abilityID": "",
        "abilityName": "Apep_Stage3_UltAttack_FieldGadget_Common",
        "abilityOverride": ""
      },
      {
        "abilityID": "",
        "abilityName": "Apep_Stage3_UltAttack_FieldGadget01",
        "abilityOverride": ""
      }
    ],
    "field": {
      "concernType": "AllTeams",
      "shape": "CircleR3_3H4_3",
      "BHAJLFBHFMD": true,
      "DEOHMEELJDM": "",
      "triggerInfinite": true,
      "lifeInfinite": true,
      "checkInterval": 0.10000000149011612,
      "overwriteCampType": true,
      "campType": "Enemy",
      "useCollider": false,
      "INKADPFABPA": "",
      "AAHHPDHLLLH": ""
    },
    "timer": {
      "lifeTime": 20.0
    }
  },
  "Apep_Stage3_UltAttack_FieldGadget02": {
    "$type": "ConfigGadget",
    "common": {
      "effectAttachShape": {
        "$type": "ConfigEffectAttachBox"
      }
    },
    "combat": {
      "property": {
        "useCreatorProperty": true,
        "HP": 999999.0,
        "attack": 10.0,
        "defense": 999999.0,
        "isInvincible": true,
        "canTriggerBullet": true,
        "denyElementStick": true
      },
      "beHit": {
        "hitBloodEffect": "",
        "muteAllHit": true,
        "muteAllHitEffect": true,
        "muteAllHitText": true
      },
      "combatLock": {
        "lockShape": "CircleLockEnemy",
        "denyLockOn": true,
        "lockType": "Default"
      }
    },
    "attackAttenuation": "",
    "abilities": [
      {
        "abilityID": "",
        "abilityName": "Apep_Stage3_UltAttack_FieldGadget_Common",
        "abilityOverride": ""
      },
      {
        "abilityID": "",
        "abilityName": "Apep_Stage3_UltAttack_FieldGadget02",
        "abilityOverride": ""
      }
    ],
    "field": {
      "concernType": "AllTeams",
      "shape": "CircleR3_3H4_3",
      "BHAJLFBHFMD": true,
      "DEOHMEELJDM": "",
      "triggerInfinite": true,
      "lifeInfinite": true,
      "checkInterval": 0.10000000149011612,
      "overwriteCampType": true,
      "campType": "Enemy",
      "useCollider": false,
      "INKADPFABPA": "",
      "AAHHPDHLLLH": ""
    },
    "timer": {
      "lifeTime": 20.0
    }
  },
  "Apep_Stage3_UltAttack_FieldGadget03": {
    "$type": "ConfigGadget",
    "common": {
      "effectAttachShape": {
        "$type": "ConfigEffectAttachBox"
      }
    },
    "combat": {
      "property": {
        "useCreatorProperty": true,
        "HP": 999999.0,
        "attack": 10.0,
        "defense": 999999.0,
        "isInvincible": true,
        "canTriggerBullet": true,
        "denyElementStick": true
      },
      "beHit": {
        "hitBloodEffect": "",
        "muteAllHit": true,
        "muteAllHitEffect": true,
        "muteAllHitText": true
      },
      "combatLock": {
        "lockShape": "CircleLockEnemy",
        "denyLockOn": true,
        "lockType": "Default"
      }
    },
    "attackAttenuation": "",
    "abilities": [
      {
        "abilityID": "",
        "abilityName": "Apep_Stage3_UltAttack_FieldGadget_Common",
        "abilityOverride": ""
      },
      {
        "abilityID": "",
        "abilityName": "Apep_Stage3_UltAttack_FieldGadget03",
        "abilityOverride": ""
      }
    ],
    "field": {
      "concernType": "AllTeams",
      "shape": "CircleR3_3H4_3",
      "BHAJLFBHFMD": true,
      "DEOHMEELJDM": "",
      "triggerInfinite": true,
      "lifeInfinite": true,
      "checkInterval": 0.10000000149011612,
      "overwriteCampType": true,
      "campType": "Enemy",
      "useCollider": false,
      "INKADPFABPA": "",
      "AAHHPDHLLLH": ""
    },
    "timer": {
      "lifeTime": 20.0
    }
  }
}
