{
  "SceneObj_Gear_ElemForce_Initial": {
    "$type": "ConfigGadget",
    "combat": {
      "property": {
        "HP": 99999.0,
        "weight": 50.0,
        "isLockHP": true,
        "canTriggerBullet": true,
        "denyElementStick": true
      },
      "beHit": {
        "hitBloodEffect": "",
        "hitAutoRedirect": false,
        "muteAllHitText": true
      },
      "combatLock": {
        "lockShape": "CircleLockEnemy",
        "denyLockOn": true,
        "lockType": "Gadget_Lv1"
      }
    },
    "attackAttenuation": "",
    "abilities": [
      {
        "abilityID": "Ability_01",
        "abilityName": "SceneObj_Gear_ElemForce_Initial",
        "abilityOverride": ""
      }
    ]
  },
  "SceneObj_Gear_ElemForce_Operator": {
    "$type": "ConfigGadget",
    "common": {
      "disableTickDistance": 3000.0
    },
    "combat": {
      "property": {
        "HP": 99999.0,
        "weight": 50.0,
        "isLockHP": true,
        "canTriggerBullet": true,
        "denyElementStick": true
      },
      "beHit": {
        "hitBloodEffect": "",
        "hitAutoRedirect": false,
        "muteAllHitText": true
      },
      "combatLock": {
        "lockShape": "CircleLockEnemy",
        "denyLockOn": true,
        "lockType": "Gadget_Lv1"
      }
    },
    "attackAttenuation": "",
    "abilities": [
      {
        "abilityID": "Ability_01",
        "abilityName": "SceneObj_Gear_ElemForce_Operator",
        "abilityOverride": ""
      }
    ],
    "IHIMCPIGBOE": {
      "HCKEJPPPBKC": "TEST/TEST_Chest_Btn",
      "HJGKBIMEEEN": "",
      "LBFHIFOIOLK": "MultipleReward",
      "icon": "",
      "NEADBBJLDAF": "",
      "OMMGBOCMAMC": "",
      "NHEGJLNIIIB": "",
      "PCBANGIAGLI": 3
    },
    "stateLayers": {
      "defaultLayer": {
        "$type": "ConfigNormalStateLayer",
        "FNPGDAEJAPJ": "",
        "stateIDs": {
          "All": {
            "$type": "ConfigNormalStateIDInfo",
            "animatorStates": {
              "Born": [],
              "Loop": ["CrucibleReword_TriggerAbility"],
              "Empty": ["CrucibleReword_FireEffect"]
            }
          }
        }
      }
    },
    "gadgetAction": {
      "gadgetStateActionList": [
        {
          "$type": "EJMBACIDIPA"
        },
        {
          "$type": "EJMBACIDIPA",
          "LBDKLEDDLHH": "GearStart",
          "enable": true
        }
      ]
    }
  },
  "SceneObj_Gear_ElemForce_Base": {
    "$type": "ConfigGadget",
    "common": {
      "disableTickDistance": 3000.0
    },
    "hasModel": true,
    "combat": {
      "property": {
        "HP": 99999.0,
        "weight": 50.0,
        "isLockHP": true,
        "canTriggerBullet": true
      },
      "beHit": {
        "hitBloodEffect": "",
        "hitAutoRedirect": false,
        "muteAllHitText": true
      },
      "combatLock": {
        "lockShape": "CircleLockEnemy",
        "denyLockOn": true,
        "lockType": "Gadget_Lv1"
      }
    },
    "attackAttenuation": "",
    "abilities": [
      {
        "abilityID": "Ability_01",
        "abilityName": "SceneObj_Gear_ElemForce_Base",
        "abilityOverride": ""
      }
    ],
    "field": {
      "concernType": "AllAvatars",
      "shape": "CircleR5",
      "DEOHMEELJDM": "",
      "triggerInfinite": true,
      "lifeInfinite": true,
      "checkInterval": 1.0,
      "overwriteCampType": true,
      "campType": "All",
      "INKADPFABPA": "",
      "AAHHPDHLLLH": ""
    },
    "IHIMCPIGBOE": {
      "HCKEJPPPBKC": "UI/open_mp_crucible_page",
      "HJGKBIMEEEN": "UI_ACTIVITY_CRUCIBLE_GAGDGET_BTN",
      "icon": "",
      "NEADBBJLDAF": "",
      "OMMGBOCMAMC": "",
      "NHEGJLNIIIB": ""
    },
    "gadgetAction": {
      "gadgetStateActionList": [
        {
          "$type": "ConfigGadgetStateSetAnimInt",
          "intID": "gadgetState",
          "syncState": true
        }
      ],
      "FPOFAOPFCKB": [
        {
          "$type": "EJMBACIDIPA",
          "FKGLBHAAIKI": {
            "$type": "FFILECDNGCD"
          }
        },
        {
          "$type": "EJMBACIDIPA",
          "FKGLBHAAIKI": {
            "$type": "FFILECDNGCD",
            "DOLGEJDONDA": true
          },
          "enable": true
        }
      ]
    },
    "LMENNKEHFFL": true
  },
  "SceneObj_Gear_ElementForce_Bullet": {
    "$type": "ConfigGadget",
    "common": {
      "effectAttachShape": {
        "$type": "ConfigEffectAttachBox"
      },
      "mass": 50.0,
      "enableCrashDamage": false
    },
    "combat": {
      "property": {
        "useCreatorProperty": true,
        "HP": 500.0,
        "attack": 10.0,
        "defense": 500.0,
        "weight": 50.0,
        "isLockHP": true
      },
      "beHit": {
        "hitBloodEffect": "",
        "muteAllHit": true,
        "muteAllHitEffect": true,
        "muteAllHitText": true
      },
      "combatLock": {
        "lockShape": "CircleLockEnemy",
        "denyLockOn": true,
        "lockType": "Gadget_Lv1"
      },
      "die": {
        "hasAnimatorDie": true,
        "dieEndTime": 1.0,
        "dieForceDisappearTime": 1.0,
        "dieDisappearEffect": ""
      }
    },
    "attackAttenuation": "",
    "abilities": [
      {
        "abilityID": "Ability_01",
        "abilityName": "SceneObj_Gear_ElementForce_Bullet",
        "abilityOverride": ""
      }
    ],
    "move": {
      "$type": "BHKMHNNCDMG",
      "EBBHBMFMOGD": "RootNode",
      "EMLMHGJEPIO": true
    },
    "gadget": {
      "$type": "ConfigBulletPattern",
      "collision": {
        "triggerType": "TriggerAlways",
        "triggerCD": 0.5,
        "targetType": "Enemy",
        "ignoreScene": true
      }
    }
  },
  "SceneObj_Gear_ElemForce_Base_Rock": {
    "$type": "ConfigGadget",
    "specialPoint": {
      "elementAbsorb": "RootNode",
      "elementPendant": "",
      "elementDrop": "RootNode",
      "bulletAim": "bulletAim"
    },
    "combat": {
      "property": {
        "HP": 99999.0,
        "weight": 50.0,
        "isLockHP": true
      },
      "beHit": {
        "hitBloodEffect": "",
        "hitAutoRedirect": false,
        "muteAllHitText": true
      },
      "combatLock": {
        "lockShape": "CircleLockEnemy",
        "denyLockOn": true,
        "lockType": "Gadget_Lv1"
      }
    },
    "attackAttenuation": "",
    "abilities": [
      {
        "abilityID": "Ability_01",
        "abilityName": "SceneObj_Gear_ElemForce_Base_Rock",
        "abilityOverride": ""
      }
    ],
    "field": {
      "concernType": "AllAvatars",
      "shape": "CircleR5",
      "DEOHMEELJDM": "",
      "triggerInfinite": true,
      "lifeInfinite": true,
      "checkInterval": 1.0,
      "overwriteCampType": true,
      "campType": "All",
      "INKADPFABPA": "",
      "AAHHPDHLLLH": ""
    },
    "gadgetAction": {
      "gadgetStateActionList": [
        {
          "$type": "ConfigGadgetStateSetAnimInt",
          "intID": "gadgetState",
          "syncState": true
        }
      ]
    }
  },
  "SceneObj_Gear_ElemForce_Water": {
    "$type": "ConfigGadget",
    "common": {
      "viewSize": 2.0
    },
    "combat": {
      "property": {
        "HP": 99999.0,
        "weight": 50.0,
        "isLockHP": true,
        "canTriggerBullet": true
      },
      "beHit": {
        "hitBloodEffect": "",
        "hitAutoRedirect": false,
        "muteAllHitText": true
      },
      "combatLock": {
        "lockShape": "CircleLockEnemy",
        "denyLockOn": true,
        "lockType": "Gadget_Lv1"
      }
    },
    "attackAttenuation": "",
    "abilities": [
      {
        "abilityID": "Ability_01",
        "abilityName": "SceneObj_Gear_ElemForce_Water",
        "abilityOverride": ""
      }
    ],
    "gadget": {
      "$type": "JBOEGDAAMLN",
      "collision": {
        "triggerType": "TriggerAlways",
        "targetType": "All"
      },
      "IGCMINPBBNM": [
        {
          "$type": "ConfigGadgetTriggerAbility",
          "abilityName": "SceneObj_Gear_ElemForce_Water"
        }
      ],
      "EHIGIDDGBBL": "Collider",
      "BHNNHNJILCH": "InteeTrigger"
    }
  },
  "SceneObj_Gear_ElemForce_Water_Big": {
    "$type": "ConfigGadget",
    "common": {
      "viewSize": 1.5
    },
    "combat": {
      "property": {
        "HP": 99999.0,
        "weight": 50.0,
        "isLockHP": true,
        "canTriggerBullet": true
      },
      "beHit": {
        "hitBloodEffect": "",
        "hitAutoRedirect": false,
        "muteAllHitText": true
      },
      "combatLock": {
        "lockShape": "CircleLockEnemy",
        "denyLockOn": true,
        "lockType": "Gadget_Lv1"
      }
    },
    "attackAttenuation": "",
    "abilities": [
      {
        "abilityID": "Ability_01",
        "abilityName": "SceneObj_Gear_ElemForce_Water_Big",
        "abilityOverride": ""
      }
    ],
    "gadget": {
      "$type": "JBOEGDAAMLN",
      "collision": {
        "triggerType": "TriggerAlways",
        "targetType": "All"
      },
      "IGCMINPBBNM": [
        {
          "$type": "ConfigGadgetTriggerAbility",
          "abilityName": "SceneObj_Gear_ElemForce_Water_Big"
        }
      ],
      "EHIGIDDGBBL": "Collider",
      "BHNNHNJILCH": "InteeTrigger"
    }
  },
  "SceneObj_Gear_ElemForce_Fire": {
    "$type": "ConfigGadget",
    "common": {
      "viewSize": 2.0
    },
    "combat": {
      "property": {
        "HP": 99999.0,
        "weight": 50.0,
        "isLockHP": true,
        "canTriggerBullet": true
      },
      "beHit": {
        "hitBloodEffect": "",
        "hitAutoRedirect": false,
        "muteAllHitText": true
      },
      "combatLock": {
        "lockShape": "CircleLockEnemy",
        "denyLockOn": true,
        "lockType": "Gadget_Lv1"
      }
    },
    "attackAttenuation": "",
    "abilities": [
      {
        "abilityID": "Ability_01",
        "abilityName": "SceneObj_Gear_ElemForce_Fire",
        "abilityOverride": ""
      }
    ],
    "gadget": {
      "$type": "JBOEGDAAMLN",
      "collision": {
        "triggerType": "TriggerAlways",
        "targetType": "All"
      },
      "IGCMINPBBNM": [
        {
          "$type": "ConfigGadgetTriggerAbility",
          "abilityName": "SceneObj_Gear_ElemForce_Fire"
        }
      ],
      "EHIGIDDGBBL": "Collider",
      "BHNNHNJILCH": "InteeTrigger"
    }
  },
  "SceneObj_Gear_ElemForce_Fire_Big": {
    "$type": "ConfigGadget",
    "common": {
      "viewSize": 1.5
    },
    "combat": {
      "property": {
        "HP": 99999.0,
        "weight": 50.0,
        "isLockHP": true,
        "canTriggerBullet": true
      },
      "beHit": {
        "hitBloodEffect": "",
        "hitAutoRedirect": false,
        "muteAllHitText": true
      },
      "combatLock": {
        "lockShape": "CircleLockEnemy",
        "denyLockOn": true,
        "lockType": "Gadget_Lv1"
      }
    },
    "attackAttenuation": "",
    "abilities": [
      {
        "abilityID": "Ability_01",
        "abilityName": "SceneObj_Gear_ElemForce_Fire_Big",
        "abilityOverride": ""
      }
    ],
    "gadget": {
      "$type": "JBOEGDAAMLN",
      "collision": {
        "triggerType": "TriggerAlways",
        "targetType": "All"
      },
      "IGCMINPBBNM": [
        {
          "$type": "ConfigGadgetTriggerAbility",
          "abilityName": "SceneObj_Gear_ElemForce_Fire_Big"
        }
      ],
      "EHIGIDDGBBL": "Collider",
      "BHNNHNJILCH": "InteeTrigger"
    }
  },
  "SceneObj_Gear_ElemForce_Electric": {
    "$type": "ConfigGadget",
    "common": {
      "viewSize": 2.0
    },
    "combat": {
      "property": {
        "HP": 99999.0,
        "weight": 50.0,
        "isLockHP": true,
        "canTriggerBullet": true
      },
      "beHit": {
        "hitBloodEffect": "",
        "hitAutoRedirect": false,
        "muteAllHitText": true
      },
      "combatLock": {
        "lockShape": "CircleLockEnemy",
        "denyLockOn": true,
        "lockType": "Gadget_Lv1"
      }
    },
    "attackAttenuation": "",
    "abilities": [
      {
        "abilityID": "Ability_01",
        "abilityName": "SceneObj_Gear_ElemForce_Electric",
        "abilityOverride": ""
      }
    ],
    "gadget": {
      "$type": "JBOEGDAAMLN",
      "collision": {
        "triggerType": "TriggerAlways",
        "targetType": "All"
      },
      "IGCMINPBBNM": [
        {
          "$type": "ConfigGadgetTriggerAbility",
          "abilityName": "SceneObj_Gear_ElemForce_Electric"
        }
      ],
      "EHIGIDDGBBL": "Collider",
      "BHNNHNJILCH": "InteeTrigger"
    }
  },
  "SceneObj_Gear_ElemForce_Electric_Big": {
    "$type": "ConfigGadget",
    "common": {
      "viewSize": 1.5
    },
    "combat": {
      "property": {
        "HP": 99999.0,
        "weight": 50.0,
        "isLockHP": true,
        "canTriggerBullet": true
      },
      "beHit": {
        "hitBloodEffect": "",
        "hitAutoRedirect": false,
        "muteAllHitText": true
      },
      "combatLock": {
        "lockShape": "CircleLockEnemy",
        "denyLockOn": true,
        "lockType": "Gadget_Lv1"
      }
    },
    "attackAttenuation": "",
    "abilities": [
      {
        "abilityID": "Ability_01",
        "abilityName": "SceneObj_Gear_ElemForce_Electric_Big",
        "abilityOverride": ""
      }
    ],
    "gadget": {
      "$type": "JBOEGDAAMLN",
      "collision": {
        "triggerType": "TriggerAlways",
        "targetType": "All"
      },
      "IGCMINPBBNM": [
        {
          "$type": "ConfigGadgetTriggerAbility",
          "abilityName": "SceneObj_Gear_ElemForce_Electric_Big"
        }
      ],
      "EHIGIDDGBBL": "Collider",
      "BHNNHNJILCH": "InteeTrigger"
    }
  },
  "SceneObj_Gear_ElemForce_Ice": {
    "$type": "ConfigGadget",
    "common": {
      "viewSize": 2.0
    },
    "combat": {
      "property": {
        "HP": 99999.0,
        "weight": 50.0,
        "isLockHP": true,
        "canTriggerBullet": true
      },
      "beHit": {
        "hitBloodEffect": "",
        "hitAutoRedirect": false,
        "muteAllHitText": true
      },
      "combatLock": {
        "lockShape": "CircleLockEnemy",
        "denyLockOn": true,
        "lockType": "Gadget_Lv1"
      }
    },
    "attackAttenuation": "",
    "abilities": [
      {
        "abilityID": "Ability_01",
        "abilityName": "SceneObj_Gear_ElemForce_Ice",
        "abilityOverride": ""
      }
    ],
    "gadget": {
      "$type": "JBOEGDAAMLN",
      "collision": {
        "triggerType": "TriggerAlways",
        "targetType": "All"
      },
      "IGCMINPBBNM": [
        {
          "$type": "ConfigGadgetTriggerAbility",
          "abilityName": "SceneObj_Gear_ElemForce_Ice"
        }
      ],
      "EHIGIDDGBBL": "Collider",
      "BHNNHNJILCH": "InteeTrigger"
    }
  },
  "SceneObj_Gear_ElemForce_Ice_Big": {
    "$type": "ConfigGadget",
    "common": {
      "viewSize": 1.5
    },
    "combat": {
      "property": {
        "HP": 99999.0,
        "weight": 50.0,
        "isLockHP": true,
        "canTriggerBullet": true
      },
      "beHit": {
        "hitBloodEffect": "",
        "hitAutoRedirect": false,
        "muteAllHitText": true
      },
      "combatLock": {
        "lockShape": "CircleLockEnemy",
        "denyLockOn": true,
        "lockType": "Gadget_Lv1"
      }
    },
    "attackAttenuation": "",
    "abilities": [
      {
        "abilityID": "Ability_01",
        "abilityName": "SceneObj_Gear_ElemForce_Ice_Big",
        "abilityOverride": ""
      }
    ],
    "gadget": {
      "$type": "JBOEGDAAMLN",
      "collision": {
        "triggerType": "TriggerAlways",
        "targetType": "All"
      },
      "IGCMINPBBNM": [
        {
          "$type": "ConfigGadgetTriggerAbility",
          "abilityName": "SceneObj_Gear_ElemForce_Ice_Big"
        }
      ],
      "EHIGIDDGBBL": "Collider",
      "BHNNHNJILCH": "InteeTrigger"
    }
  },
  "SceneObj_Gear_ElemForce_Grass": {
    "$type": "ConfigGadget",
    "common": {
      "viewSize": 2.0
    },
    "combat": {
      "property": {
        "HP": 99999.0,
        "weight": 50.0,
        "isLockHP": true,
        "canTriggerBullet": true
      },
      "beHit": {
        "hitBloodEffect": "",
        "hitAutoRedirect": false,
        "muteAllHitText": true
      },
      "combatLock": {
        "lockShape": "CircleLockEnemy",
        "denyLockOn": true,
        "lockType": "Gadget_Lv1"
      }
    },
    "attackAttenuation": "",
    "abilities": [
      {
        "abilityID": "Ability_01",
        "abilityName": "SceneObj_Gear_ElemForce_Grass",
        "abilityOverride": ""
      }
    ],
    "gadget": {
      "$type": "JBOEGDAAMLN",
      "collision": {
        "triggerType": "TriggerAlways",
        "targetType": "All"
      },
      "IGCMINPBBNM": [
        {
          "$type": "ConfigGadgetTriggerAbility",
          "abilityName": "SceneObj_Gear_ElemForce_Grass"
        }
      ],
      "EHIGIDDGBBL": "Collider",
      "BHNNHNJILCH": "InteeTrigger"
    }
  },
  "SceneObj_Gear_ElemForce_Grass_Big": {
    "$type": "ConfigGadget",
    "common": {
      "viewSize": 1.5
    },
    "combat": {
      "property": {
        "HP": 99999.0,
        "weight": 50.0,
        "isLockHP": true,
        "canTriggerBullet": true
      },
      "beHit": {
        "hitBloodEffect": "",
        "hitAutoRedirect": false,
        "muteAllHitText": true
      },
      "combatLock": {
        "lockShape": "CircleLockEnemy",
        "denyLockOn": true,
        "lockType": "Gadget_Lv1"
      }
    },
    "attackAttenuation": "",
    "abilities": [
      {
        "abilityID": "Ability_01",
        "abilityName": "SceneObj_Gear_ElemForce_Grass_Big",
        "abilityOverride": ""
      }
    ],
    "gadget": {
      "$type": "JBOEGDAAMLN",
      "collision": {
        "triggerType": "TriggerAlways",
        "targetType": "All"
      },
      "IGCMINPBBNM": [
        {
          "$type": "ConfigGadgetTriggerAbility",
          "abilityName": "SceneObj_Gear_ElemForce_Grass_Big"
        }
      ],
      "EHIGIDDGBBL": "Collider",
      "BHNNHNJILCH": "InteeTrigger"
    }
  },
  "SceneObj_Gear_ElemForce_Rocky": {
    "$type": "ConfigGadget",
    "common": {
      "viewSize": 2.0
    },
    "combat": {
      "property": {
        "HP": 99999.0,
        "weight": 50.0,
        "isLockHP": true,
        "canTriggerBullet": true
      },
      "beHit": {
        "hitBloodEffect": "",
        "hitAutoRedirect": false,
        "muteAllHitText": true
      },
      "combatLock": {
        "lockShape": "CircleLockEnemy",
        "denyLockOn": true,
        "lockType": "Gadget_Lv1"
      }
    },
    "attackAttenuation": "",
    "abilities": [
      {
        "abilityID": "Ability_01",
        "abilityName": "SceneObj_Gear_ElemForce_Rocky",
        "abilityOverride": ""
      }
    ],
    "gadget": {
      "$type": "JBOEGDAAMLN",
      "collision": {
        "triggerType": "TriggerAlways",
        "targetType": "All"
      },
      "IGCMINPBBNM": [
        {
          "$type": "ConfigGadgetTriggerAbility",
          "abilityName": "SceneObj_Gear_ElemForce_Rocky"
        }
      ],
      "EHIGIDDGBBL": "Collider",
      "BHNNHNJILCH": "InteeTrigger"
    }
  },
  "SceneObj_Gear_ElemForce_Rocky_Big": {
    "$type": "ConfigGadget",
    "common": {
      "viewSize": 1.5
    },
    "combat": {
      "property": {
        "HP": 99999.0,
        "weight": 50.0,
        "isLockHP": true,
        "canTriggerBullet": true
      },
      "beHit": {
        "hitBloodEffect": "",
        "hitAutoRedirect": false,
        "muteAllHitText": true
      },
      "combatLock": {
        "lockShape": "CircleLockEnemy",
        "denyLockOn": true,
        "lockType": "Gadget_Lv1"
      }
    },
    "attackAttenuation": "",
    "abilities": [
      {
        "abilityID": "Ability_01",
        "abilityName": "SceneObj_Gear_ElemForce_Rocky_Big",
        "abilityOverride": ""
      }
    ],
    "gadget": {
      "$type": "JBOEGDAAMLN",
      "collision": {
        "triggerType": "TriggerAlways",
        "targetType": "All"
      },
      "IGCMINPBBNM": [
        {
          "$type": "ConfigGadgetTriggerAbility",
          "abilityName": "SceneObj_Gear_ElemForce_Rocky_Big"
        }
      ],
      "EHIGIDDGBBL": "Collider",
      "BHNNHNJILCH": "InteeTrigger"
    }
  },
  "SceneObj_Gear_ElemForce_Wind": {
    "$type": "ConfigGadget",
    "common": {
      "viewSize": 2.0
    },
    "combat": {
      "property": {
        "HP": 99999.0,
        "weight": 50.0,
        "isLockHP": true,
        "canTriggerBullet": true
      },
      "beHit": {
        "hitBloodEffect": "",
        "hitAutoRedirect": false,
        "muteAllHitText": true
      },
      "combatLock": {
        "lockShape": "CircleLockEnemy",
        "denyLockOn": true,
        "lockType": "Gadget_Lv1"
      }
    },
    "attackAttenuation": "",
    "abilities": [
      {
        "abilityID": "Ability_01",
        "abilityName": "SceneObj_Gear_ElemForce_Wind",
        "abilityOverride": ""
      }
    ],
    "gadget": {
      "$type": "JBOEGDAAMLN",
      "collision": {
        "triggerType": "TriggerAlways",
        "targetType": "All"
      },
      "IGCMINPBBNM": [
        {
          "$type": "ConfigGadgetTriggerAbility",
          "abilityName": "SceneObj_Gear_ElemForce_Wind"
        }
      ],
      "EHIGIDDGBBL": "Collider",
      "BHNNHNJILCH": "InteeTrigger"
    }
  },
  "SceneObj_Gear_ElemForce_Wind_Big": {
    "$type": "ConfigGadget",
    "common": {
      "viewSize": 1.5
    },
    "combat": {
      "property": {
        "HP": 99999.0,
        "weight": 50.0,
        "isLockHP": true,
        "canTriggerBullet": true
      },
      "beHit": {
        "hitBloodEffect": "",
        "hitAutoRedirect": false,
        "muteAllHitText": true
      },
      "combatLock": {
        "lockShape": "CircleLockEnemy",
        "denyLockOn": true,
        "lockType": "Gadget_Lv1"
      }
    },
    "attackAttenuation": "",
    "abilities": [
      {
        "abilityID": "Ability_01",
        "abilityName": "SceneObj_Gear_ElemForce_Wind_Big",
        "abilityOverride": ""
      }
    ],
    "gadget": {
      "$type": "JBOEGDAAMLN",
      "collision": {
        "triggerType": "TriggerAlways",
        "targetType": "All"
      },
      "IGCMINPBBNM": [
        {
          "$type": "ConfigGadgetTriggerAbility",
          "abilityName": "SceneObj_Gear_ElemForce_Wind_Big"
        }
      ],
      "EHIGIDDGBBL": "Collider",
      "BHNNHNJILCH": "InteeTrigger"
    }
  },
  "SceneObj_Gear_ElemForce_Fire_Hit": {
    "$type": "ConfigGadget",
    "combat": {
      "property": {
        "HP": 99999.0,
        "weight": 50.0,
        "isLockHP": true,
        "canTriggerBullet": true
      },
      "beHit": {
        "hitBloodEffect": "",
        "hitAutoRedirect": false,
        "muteAllHitText": true
      },
      "combatLock": {
        "lockShape": "CircleLockEnemy",
        "denyLockOn": true,
        "lockType": "Gadget_Lv1"
      }
    },
    "attackAttenuation": "",
    "abilities": [
      {
        "abilityID": "Ability_01",
        "abilityName": "SceneObj_Gear_ElemForce_Fire_Hit",
        "abilityOverride": ""
      }
    ]
  },
  "SceneObj_Gear_ElemForce_Rock_AbsorbBullet": {
    "$type": "ConfigGadget",
    "common": {
      "effectAttachShape": {
        "$type": "ConfigEffectAttachBox"
      }
    },
    "combat": {
      "property": {
        "HP": 99999.0,
        "attack": 50.0,
        "defense": 99999.0,
        "weight": 1.0,
        "ignorePurgeRate": false
      },
      "beHit": {
        "hitBloodEffect": "",
        "muteAllHit": true,
        "muteAllHitEffect": true,
        "muteAllHitText": true
      },
      "combatLock": {
        "lockShape": "CircleLockEnemy",
        "denyLockOn": true,
        "lockType": "Gadget_Lv1"
      }
    },
    "attackAttenuation": "",
    "abilities": [
      {
        "abilityID": "Ability_01",
        "abilityName": "SceneObj_Gear_ElemForce_Rock_AbsorbBullet",
        "abilityOverride": ""
      }
    ],
    "timer": {
      "lifeTime": 8.0
    },
    "move": {
      "$type": "CCONGDOMIGK",
      "speed": 5.0,
      "BKIIIOFDNJM": 720.0,
      "DNOPKNCAPAI": 8.0,
      "NHIGHAGJEAI": true
    },
    "gadget": {
      "$type": "ConfigBulletPattern",
      "collision": {
        "triggerType": "TriggerNoRepeat",
        "targetType": "All",
        "ignoreScene": true
      },
      "triggerActions": [
        {
          "$type": "ConfigGadgetTriggerAbility",
          "abilityName": "SceneObj_Gear_ElemForce_Rock_AbsorbBullet"
        }
      ]
    }
  },
  "SceneObj_Gear_ElemForce_Rock": {
    "$type": "ConfigGadget",
    "combat": {
      "property": {
        "HP": 99999.0,
        "weight": 50.0,
        "isLockHP": true,
        "canTriggerBullet": true
      },
      "beHit": {
        "hitBloodEffect": "",
        "hitAutoRedirect": false,
        "muteAllHitText": true
      },
      "combatLock": {
        "lockShape": "CircleLockEnemy",
        "denyLockOn": true,
        "lockType": "Gadget_Lv1"
      }
    },
    "attackAttenuation": "",
    "abilities": [
      {
        "abilityID": "Ability_01",
        "abilityName": "SceneObj_Gear_ElemForce_Rock",
        "abilityOverride": ""
      }
    ],
    "field": {
      "concernType": "AllAvatars",
      "shape": "CircleR2",
      "DEOHMEELJDM": "",
      "triggerInfinite": true,
      "lifeInfinite": true,
      "checkInterval": 0.5,
      "overwriteCampType": true,
      "campType": "All",
      "INKADPFABPA": "",
      "AAHHPDHLLLH": ""
    }
  },
  "SceneObj_Gear_ElemForce_RockSeed": {
    "$type": "ConfigGadget",
    "combat": {
      "property": {
        "HP": 99999.0,
        "weight": 50.0,
        "isLockHP": true,
        "canTriggerBullet": true
      },
      "beHit": {
        "hitBloodEffect": "",
        "hitAutoRedirect": false,
        "muteAllHitText": true
      },
      "combatLock": {
        "lockShape": "CircleLockEnemy",
        "lockType": "Gadget_Lv1",
        "overrideRange": 5.0
      }
    },
    "attackAttenuation": "",
    "abilities": [
      {
        "abilityID": "Ability_01",
        "abilityName": "SceneObj_Gear_ElemForce_RockSeed",
        "abilityOverride": ""
      }
    ],
    "billboard": {
      "$type": "NCBABGPMMPL",
      "EBBHBMFMOGD": "BillboardAttach",
      "offset": {
        "y": 2.0
      },
      "radiusOffset": 1.0,
      "ANGKJBLILKJ": true,
      "size": "Grand",
      "KMNKNGMODFK": true
    }
  },
  "SceneObj_Gear_RockForce_Bullet": {
    "$type": "ConfigGadget",
    "common": {
      "effectAttachShape": {
        "$type": "ConfigEffectAttachBox"
      },
      "mass": 50.0,
      "enableCrashDamage": false
    },
    "combat": {
      "property": {
        "HP": 500.0,
        "attack": 10.0,
        "defense": 500.0,
        "weight": 50.0,
        "isLockHP": true
      },
      "beHit": {
        "hitBloodEffect": "",
        "muteAllHit": true,
        "muteAllHitEffect": true,
        "muteAllHitText": true
      },
      "combatLock": {
        "lockShape": "CircleLockEnemy",
        "denyLockOn": true,
        "lockType": "Gadget_Lv1"
      },
      "die": {
        "hasAnimatorDie": true,
        "dieEndTime": 1.0,
        "dieForceDisappearTime": 1.0,
        "dieDisappearEffect": ""
      }
    },
    "attackAttenuation": "",
    "abilities": [
      {
        "abilityID": "Ability_01",
        "abilityName": "SceneObj_Gear_RockForce_Bullet",
        "abilityOverride": ""
      }
    ],
    "move": {
      "$type": "BHKMHNNCDMG",
      "EBBHBMFMOGD": "RootNode",
      "EMLMHGJEPIO": true
    },
    "gadget": {
      "$type": "ConfigBulletPattern",
      "collision": {
        "triggerType": "TriggerAlways",
        "triggerCD": 0.5,
        "targetType": "Enemy",
        "ignoreScene": true
      }
    }
  },
  "SceneObj_Gear_ElemForce_Bullet": {
    "$type": "ConfigGadget",
    "common": {
      "effectAttachShape": {
        "$type": "ConfigEffectAttachBox"
      },
      "mass": 50.0
    },
    "hasModel": true,
    "combat": {
      "property": {
        "HP": 500.0,
        "attack": 10.0,
        "defense": 500.0,
        "weight": 50.0,
        "isLockHP": true,
        "canTriggerBullet": true
      },
      "beHit": {
        "hitBloodEffect": "",
        "muteAllHitEffect": true,
        "muteAllHitText": true
      },
      "combatLock": {
        "lockShape": "CircleLockEnemy",
        "denyLockOn": true,
        "lockType": "Gadget_Lv1"
      }
    },
    "attackAttenuation": "",
    "abilities": [
      {
        "abilityID": "Ability_01",
        "abilityName": "SceneObj_Gear_ElemForce_Bullet",
        "abilityOverride": ""
      }
    ],
    "move": {
      "$type": "BHKMHNNCDMG",
      "EBBHBMFMOGD": "RootNode",
      "EMLMHGJEPIO": true
    },
    "gadget": {
      "$type": "ConfigBulletPattern",
      "collision": {
        "triggerType": "TriggerAlways",
        "triggerCD": 3.0,
        "targetType": "Enemy",
        "ignoreScene": true
      },
      "GOHAFILEHBL": 180.0
    }
  },
  "SceneObj_Gear_GrassWind": {
    "$type": "ConfigGadget",
    "common": {
      "enableCrashDamage": false
    },
    "combat": {
      "property": {
        "HP": 99999.0,
        "isLockHP": true,
        "canTriggerBullet": true
      },
      "beHit": {
        "hitBloodEffect": "",
        "hitAutoRedirect": false,
        "muteAllHit": true,
        "muteAllHitEffect": true,
        "muteAllHitText": true
      },
      "combatLock": {
        "lockShape": "CircleLockEnemy",
        "denyLockOn": true,
        "lockType": "Gadget_Lv1"
      },
      "die": {
        "hasAnimatorDie": true,
        "dieEndTime": 0.5,
        "dieForceDisappearTime": 0.5,
        "dieDisappearEffect": ""
      }
    },
    "attackAttenuation": "",
    "abilities": [
      {
        "abilityID": "Ability_01",
        "abilityName": "SceneObj_Gear_GrassWind",
        "abilityOverride": ""
      }
    ],
    "field": {
      "concernType": "AllAvatars",
      "shape": "",
      "DEOHMEELJDM": "",
      "triggerInfinite": true,
      "lifeInfinite": true,
      "checkInterval": 0.5,
      "overwriteCampType": true,
      "campType": "All",
      "INKADPFABPA": "",
      "AAHHPDHLLLH": ""
    },
    "misc": {
      "DMNJEDIPAJO": {},
      "GKCEMAKIKPH": ""
    },
    "stateLayers": {
      "defaultLayer": {
        "$type": "ConfigNormalStateLayer",
        "FNPGDAEJAPJ": "",
        "stateIDs": {
          "All": {
            "$type": "ConfigNormalStateIDInfo",
            "animatorStates": {
              "Buffer": ["HideCollider"],
              "ShowCollider": ["ShowCollider"],
              "Die": ["HideCollider"]
            }
          }
        }
      }
    }
  },
  "SceneObj_Gear_GrassWind_Fake": {
    "$type": "ConfigGadget",
    "common": {
      "enableCrashDamage": false
    },
    "combat": {
      "property": {
        "HP": 99999.0,
        "isLockHP": true,
        "canTriggerBullet": true
      },
      "beHit": {
        "hitBloodEffect": "",
        "hitAutoRedirect": false,
        "muteAllHit": true,
        "muteAllHitEffect": true,
        "muteAllHitText": true
      },
      "combatLock": {
        "lockShape": "CircleLockEnemy",
        "denyLockOn": true,
        "lockType": "Gadget_Lv1"
      },
      "die": {
        "hasAnimatorDie": true,
        "dieEndTime": 0.5,
        "dieForceDisappearTime": 0.5,
        "dieDisappearEffect": ""
      }
    },
    "attackAttenuation": "",
    "abilities": [
      {
        "abilityID": "Ability_01",
        "abilityName": "SceneObj_Gear_GrassWind_Fake",
        "abilityOverride": ""
      }
    ],
    "field": {
      "concernType": "AllAvatars",
      "shape": "",
      "DEOHMEELJDM": "",
      "triggerInfinite": true,
      "lifeInfinite": true,
      "checkInterval": 0.5,
      "overwriteCampType": true,
      "campType": "All",
      "INKADPFABPA": "",
      "AAHHPDHLLLH": ""
    },
    "stateLayers": {
      "defaultLayer": {
        "$type": "ConfigNormalStateLayer",
        "FNPGDAEJAPJ": "",
        "stateIDs": {
          "All": {
            "$type": "ConfigNormalStateIDInfo",
            "animatorStates": {
              "Buffer": ["HideCollider"],
              "ShowCollider": ["ShowCollider"],
              "Die": ["HideCollider"]
            }
          }
        }
      }
    }
  },
  "SceneObj_Gear_GrassWind_Bullet": {
    "$type": "ConfigGadget",
    "common": {
      "effectAttachShape": {
        "$type": "ConfigEffectAttachBox"
      },
      "mass": 50.0,
      "enableCrashDamage": false
    },
    "combat": {
      "property": {
        "HP": 500.0,
        "attack": 10.0,
        "defense": 500.0,
        "weight": 50.0,
        "isLockHP": true
      },
      "beHit": {
        "hitBloodEffect": "",
        "muteAllHit": true,
        "muteAllHitEffect": true,
        "muteAllHitText": true
      },
      "combatLock": {
        "lockShape": "CircleLockEnemy",
        "denyLockOn": true,
        "lockType": "Gadget_Lv1"
      },
      "die": {
        "dieEndTime": 1.0,
        "dieForceDisappearTime": 1.0,
        "dieDisappearEffect": ""
      }
    },
    "attackAttenuation": "",
    "abilities": [
      {
        "abilityID": "Ability_01",
        "abilityName": "SceneObj_Gear_GrassWind_Bullet",
        "abilityOverride": ""
      }
    ],
    "move": {
      "$type": "BHKMHNNCDMG",
      "EBBHBMFMOGD": "RootNode",
      "EMLMHGJEPIO": true
    },
    "gadget": {
      "$type": "ConfigBulletPattern",
      "collision": {
        "triggerType": "TriggerAlways",
        "triggerCD": 0.5,
        "targetType": "Enemy",
        "ignoreScene": true
      }
    }
  },
  "SceneObj_Gear_GrassWind_Bullet02": {
    "$type": "ConfigGadget",
    "common": {
      "effectAttachShape": {
        "$type": "ConfigEffectAttachBox"
      },
      "mass": 50.0
    },
    "combat": {
      "property": {
        "HP": 500.0,
        "attack": 10.0,
        "defense": 500.0,
        "weight": 50.0,
        "isLockHP": true
      },
      "beHit": {
        "hitBloodEffect": "",
        "muteAllHitEffect": true,
        "muteAllHitText": true
      },
      "combatLock": {
        "lockShape": "CircleLockEnemy",
        "denyLockOn": true,
        "lockType": "Gadget_Lv1"
      },
      "die": {
        "dieEndTime": 1.0,
        "dieForceDisappearTime": 1.0,
        "dieDisappearEffect": ""
      }
    },
    "attackAttenuation": "",
    "abilities": [
      {
        "abilityID": "Ability_01",
        "abilityName": "SceneObj_Gear_GrassWind_Bullet02",
        "abilityOverride": ""
      }
    ],
    "timer": {
      "lifeTime": 5.0
    },
    "move": {
      "$type": "BHKMHNNCDMG",
      "EBBHBMFMOGD": "RootNode",
      "EMLMHGJEPIO": true
    },
    "gadget": {
      "$type": "ConfigBulletPattern",
      "collision": {
        "triggerType": "TriggerAlways",
        "triggerCD": 0.5,
        "targetType": "Enemy",
        "ignoreScene": true
      }
    }
  },
  "SceneObj_Gear_GrassWind_Bullet03": {
    "$type": "ConfigGadget",
    "common": {
      "effectAttachShape": {
        "$type": "ConfigEffectAttachBox"
      },
      "mass": 50.0
    },
    "combat": {
      "property": {
        "HP": 500.0,
        "attack": 10.0,
        "defense": 500.0,
        "weight": 50.0,
        "isLockHP": true
      },
      "beHit": {
        "hitBloodEffect": "",
        "muteAllHitEffect": true,
        "muteAllHitText": true
      },
      "combatLock": {
        "lockShape": "CircleLockEnemy",
        "denyLockOn": true,
        "lockType": "Gadget_Lv1"
      },
      "die": {
        "dieEndTime": 1.0,
        "dieForceDisappearTime": 1.0,
        "dieDisappearEffect": ""
      }
    },
    "attackAttenuation": "",
    "abilities": [
      {
        "abilityID": "Ability_01",
        "abilityName": "SceneObj_Gear_GrassWind_Bullet03",
        "abilityOverride": ""
      }
    ],
    "timer": {
      "lifeTime": 5.0
    },
    "move": {
      "$type": "BHKMHNNCDMG",
      "EBBHBMFMOGD": "RootNode",
      "EMLMHGJEPIO": true
    },
    "gadget": {
      "$type": "ConfigBulletPattern",
      "collision": {
        "triggerType": "TriggerAlways",
        "triggerCD": 0.5,
        "targetType": "Enemy",
        "ignoreScene": true
      }
    }
  },
  "SceneObj_Level_Common_Property_Prop_Guiguo_01": {
    "$type": "ConfigGadget",
    "combat": {
      "property": {
        "HP": 99999.0,
        "weight": 50.0,
        "isLockHP": true,
        "canTriggerBullet": true
      },
      "beHit": {
        "hitBloodEffect": "",
        "hitAutoRedirect": false,
        "muteAllHitText": true
      },
      "combatLock": {
        "lockShape": "CircleLockEnemy",
        "denyLockOn": true,
        "lockType": "Gadget_Lv1"
      }
    },
    "attackAttenuation": "",
    "abilities": [
      {
        "abilityID": "SceneObj_Level_Common_Property_Prop_Guiguo_01",
        "abilityName": "SceneObj_Level_Common_Property_Prop_Guiguo_01",
        "abilityOverride": ""
      }
    ],
    "field": {
      "concernType": "AllAvatars",
      "shape": "CircleR2",
      "DEOHMEELJDM": "",
      "triggerInfinite": true,
      "lifeInfinite": true,
      "checkInterval": 0.5,
      "overwriteCampType": true,
      "campType": "All",
      "INKADPFABPA": "",
      "AAHHPDHLLLH": ""
    }
  },
  "SceneObj_Level_Common_Property_Prop_Guiguo_Revert": {
    "$type": "ConfigGadget",
    "combat": {
      "property": {
        "HP": 99999.0,
        "weight": 50.0,
        "isLockHP": true,
        "canTriggerBullet": true
      },
      "beHit": {
        "hitBloodEffect": "",
        "hitAutoRedirect": false,
        "muteAllHitText": true
      },
      "combatLock": {
        "lockShape": "CircleLockEnemy",
        "denyLockOn": true,
        "lockType": "Gadget_Lv1"
      }
    },
    "attackAttenuation": "",
    "abilities": [
      {
        "abilityID": "SceneObj_Level_Common_Property_Prop_Guiguo_Revert",
        "abilityName": "SceneObj_Level_Common_Property_Prop_Guiguo_Revert",
        "abilityOverride": ""
      }
    ]
  },
  "SceneObj_Level_Common_Property_Prop_GuihuoJizuo_01": {
    "$type": "ConfigGadget",
    "specialPoint": {
      "elementAbsorb": "RootNode",
      "elementPendant": "",
      "elementDrop": "RootNode",
      "bulletAim": "bulletAim"
    },
    "combat": {
      "property": {
        "HP": 99999.0,
        "weight": 50.0,
        "isLockHP": true
      },
      "beHit": {
        "hitBloodEffect": "",
        "hitAutoRedirect": false,
        "muteAllHitText": true
      },
      "combatLock": {
        "lockShape": "CircleLockEnemy",
        "denyLockOn": true,
        "lockType": "Gadget_Lv1"
      }
    },
    "attackAttenuation": "",
    "abilities": [
      {
        "abilityID": "SceneObj_Level_Common_Property_Prop_GuihuoJizuo_01",
        "abilityName": "SceneObj_Level_Common_Property_Prop_GuihuoJizuo_01",
        "abilityOverride": ""
      }
    ],
    "field": {
      "concernType": "AllAvatars",
      "shape": "CircleR5",
      "DEOHMEELJDM": "",
      "triggerInfinite": true,
      "lifeInfinite": true,
      "checkInterval": 1.0,
      "overwriteCampType": true,
      "campType": "All",
      "INKADPFABPA": "",
      "AAHHPDHLLLH": ""
    },
    "gadgetAction": {
      "gadgetStateActionList": [
        {
          "$type": "ConfigGadgetStateSetAnimInt",
          "intID": "gadgetState",
          "syncState": true
        }
      ]
    }
  }
}
