[
  {
    "NLPAAEAIGBG": 1,
    "descTextMapHash": 1030055025,
    "scoreRatio": 1.0,
    "KOCIDGIKEPH": 64
  },
  {
    "NLPAAEAIGBG": 2,
    "descTextMapHash": 40439033,
    "scoreRatio": 2.5,
    "KOCIDGIKEPH": 84
  }
]
