[
  {
    "id": 20003,
    "skillTarget": "AST_PLAY",
    "abilityName": "SceneObj_Aster_PlayEntity_Esay",
    "globalValueKey": "AVATAR_ASTER_SCORE",
    "energyMin": 100,
    "energyMax": 200,
    "HBBPLIOIPDG": [],
    "cdTime": 5.0,
    "guideTime": 5.0,
    "skillIcon": "Skill_C_ChargeNormal",
    "guideKey": ["GuideAsterios", "GuideAsterPC", "GuideAsterPS"],
    "guideOpenState": "OPEN_STATE_GUIDE_ACTIVITY_SKILL_ASTER",
    "unableTextTextMapHash": 3023981786,
    "channelTextTextMapHash": 3489266646,
    "interruptTextTextMapHash": 3139714931
  },
  {
    "id": 20004,
    "skillTarget": "AST_PLAY",
    "abilityName": "SceneObj_Aster_PlayEntity_Normal",
    "globalValueKey": "AVATAR_ASTER_SCORE",
    "energyMin": 100,
    "energyMax": 200,
    "HBBPLIOIPDG": [],
    "cdTime": 5.0,
    "guideTime": 5.0,
    "skillIcon": "Skill_C_ChargeNormal",
    "guideKey": ["GuideAsterios", "GuideAsterPC", "GuideAsterPS"],
    "guideOpenState": "OPEN_STATE_GUIDE_ACTIVITY_SKILL_ASTER",
    "unableTextTextMapHash": 1411312698,
    "channelTextTextMapHash": 984280278,
    "interruptTextTextMapHash": 2738963867
  },
  {
    "id": 20005,
    "skillTarget": "AST_PLAY",
    "abilityName": "SceneObj_Aster_PlayEntity_Hard",
    "globalValueKey": "AVATAR_ASTER_SCORE",
    "energyMin": 150,
    "energyMax": 300,
    "HBBPLIOIPDG": [],
    "cdTime": 5.0,
    "guideTime": 5.0,
    "skillIcon": "Skill_C_ChargeNormal",
    "guideKey": ["GuideAsterios", "GuideAsterPC", "GuideAsterPS"],
    "guideOpenState": "OPEN_STATE_GUIDE_ACTIVITY_SKILL_ASTER",
    "unableTextTextMapHash": 131537850,
    "channelTextTextMapHash": 3824182390,
    "interruptTextTextMapHash": 1853603443
  },
  {
    "id": 20006,
    "skillTarget": "AST_PLAY",
    "abilityName": "SceneObj_Aster_PlayEntity_Single",
    "globalValueKey": "AVATAR_ASTER_SCORE",
    "energyMin": 200,
    "energyMax": 400,
    "HBBPLIOIPDG": [],
    "cdTime": 5.0,
    "guideTime": 5.0,
    "skillIcon": "Skill_C_ChargeNormal",
    "guideKey": ["GuideAsterios", "GuideAsterPC", "GuideAsterPS"],
    "guideOpenState": "OPEN_STATE_GUIDE_ACTIVITY_SKILL_ASTER",
    "unableTextTextMapHash": 3638211266,
    "channelTextTextMapHash": 4184233174,
    "interruptTextTextMapHash": 3668771819
  },
  {
    "id": 20007,
    "skillTarget": "AST_TEAM",
    "abilityName": "SceneObj_Electric_Stake_Play",
    "globalValueKey": "AVATAR_Electric_Stake_Play",
    "energyMin": 1,
    "energyMax": 100,
    "HBBPLIOIPDG": [],
    "cdTime": 1.0,
    "skillIcon": "Skill_C_ElectricTransfer",
    "guideKey": [],
    "unableTextTextMapHash": 3585499578,
    "channelTextTextMapHash": 3118572110,
    "interruptTextTextMapHash": 2995024459
  },
  {
    "id": 20008,
    "abilityName": "SceneObj_Electric_Core",
    "globalValueKey": "AVATAR_Electric_Core",
    "energyMin": 1,
    "energyMax": 100,
    "HBBPLIOIPDG": [],
    "cdTime": 1.0,
    "skillIcon": "Skill_C_ThunderCoil",
    "guideKey": [],
    "unableTextTextMapHash": 2312877842,
    "channelTextTextMapHash": 1034297878,
    "interruptTextTextMapHash": 4115239763
  },
  {
    "id": 20009,
    "abilityName": "SceneObj_Temari_Hide_Ball",
    "globalValueKey": "AVATAR_Temari_Hide_Ball",
    "energyMax": 100,
    "HBBPLIOIPDG": [],
    "cdTime": 5.0,
    "skillIcon": "Skill_C_Temari",
    "guideKey": [],
    "unableTextTextMapHash": 1672559106,
    "channelTextTextMapHash": 2544211126,
    "interruptTextTextMapHash": 135287419
  },
  {
    "id": 20010,
    "abilityName": "SceneObj_Electric_Core_Challenge",
    "globalValueKey": "AVATAR_Electric_Core",
    "energyMin": 1,
    "energyMax": 100,
    "HBBPLIOIPDG": [],
    "cdTime": 1.0,
    "skillIcon": "Skill_C_ThunderCoil",
    "guideKey": [],
    "unableTextTextMapHash": 3146490970,
    "channelTextTextMapHash": 1361974054,
    "interruptTextTextMapHash": 527816019
  },
  {
    "id": 20011,
    "skillTarget": "AST_TEAM",
    "abilityName": "SceneObj_Firecracker_Play",
    "globalValueKey": "AVATAR_Firecracker_Play",
    "energyMin": 1,
    "energyMax": 100,
    "HBBPLIOIPDG": [],
    "cdTime": 1.0,
    "skillIcon": "Skill_C_FireCracker",
    "guideKey": [],
    "unableTextTextMapHash": 4120364242,
    "channelTextTextMapHash": 1337122782,
    "interruptTextTextMapHash": 2743084387
  },
  {
    "id": 20012,
    "skillTarget": "AST_TEAM",
    "abilityName": "SceneObj_LightStone_Lv1",
    "globalValueKey": "Light_Stone_Energy",
    "energyMin": 1,
    "energyMax": 100,
    "HBBPLIOIPDG": [],
    "cdTime": 4.0,
    "guideTime": 4.0,
    "skillIcon": "Skill_C_ElectricTransfer",
    "guideKey": [],
    "unableTextTextMapHash": 2273549850,
    "channelTextTextMapHash": 337202382,
    "interruptTextTextMapHash": 3827395547
  },
  {
    "id": 20013,
    "skillTarget": "AST_TEAM",
    "abilityName": "SceneObj_LightStone_Lv2",
    "globalValueKey": "Light_Stone_Energy",
    "energyMin": 1,
    "energyMax": 100,
    "HBBPLIOIPDG": [],
    "cdTime": 2.0,
    "guideTime": 2.0,
    "skillIcon": "Skill_C_ElectricTransfer",
    "guideKey": [],
    "unableTextTextMapHash": 69798562,
    "channelTextTextMapHash": 2917689782,
    "interruptTextTextMapHash": 3806610603
  },
  {
    "id": 20014,
    "abilityName": "GrapplingHookSkill_Ability",
    "globalValueKey": "AVATAR_GrapplingHookSkill",
    "energyMin": 1,
    "energyMax": 100,
    "HBBPLIOIPDG": [],
    "cdTime": 1.0,
    "skillIcon": "Skill_C_GrapplingHook",
    "guideKey": [],
    "unableTextTextMapHash": 3246321162,
    "channelTextTextMapHash": 1415827966,
    "interruptTextTextMapHash": 3864823291,
    "ABDFHCDPIIB": 1
  },
  {
    "id": 20015,
    "abilityName": "GrapplingHookSkill_Step2_Ability",
    "globalValueKey": "AVATAR_GrapplingHookSkill",
    "energyMin": 1,
    "energyMax": 100,
    "HBBPLIOIPDG": [],
    "cdTime": 1.0,
    "skillIcon": "Skill_C_GrapplingHook",
    "guideKey": [],
    "unableTextTextMapHash": 824967642,
    "channelTextTextMapHash": 1776020438,
    "interruptTextTextMapHash": 1316387539
  },
  {
    "id": 20016,
    "skillTarget": "AST_TEAM",
    "abilityName": "ActivityAbility_SummerTimeV2_KazuhaAOE",
    "globalValueKey": "AVATAR_SummerTimeV2_KazuhaAOE",
    "energyMin": 1,
    "energyMax": 100,
    "HBBPLIOIPDG": [],
    "cdTime": 15.0,
    "skillIcon": "Skill_SummerTimeV2_01",
    "guideKey": [],
    "unableTextTextMapHash": 1993275194,
    "channelTextTextMapHash": 1063442110,
    "interruptTextTextMapHash": 3239508355
  },
  {
    "id": 20017,
    "skillTarget": "AST_TEAM",
    "abilityName": "ActivityAbility_UnstableSpray",
    "globalValueKey": "UNSTABLE_SPRAY_CD",
    "energyMin": 1,
    "energyMax": 100,
    "HBBPLIOIPDG": [],
    "cdTime": 15.0,
    "skillIcon": "Skill_C_InstableSpray",
    "NAPCBIJBBKP": true,
    "guideKey": [],
    "unableTextTextMapHash": 987128970,
    "channelTextTextMapHash": 4218660174,
    "interruptTextTextMapHash": 4044794075
  },
  {
    "id": 20018,
    "skillTarget": "AST_TEAM",
    "abilityName": "ActivityAbility_Maze_Skill",
    "globalValueKey": "ActivityAbility_Maze_Skill",
    "energyMin": 1,
    "energyMax": 100,
    "HBBPLIOIPDG": [],
    "cdTime": 20.0,
    "skillIcon": "Skill_WindField_Icon01",
    "guideKey": ["GuideWindFieldios", "GuideWindFieldPC", "GuideWindFieldPS"],
    "guideOpenState": "OPEN_STATE_GUIDE_WINDFIELD_SKILL",
    "unableTextTextMapHash": 327425882,
    "channelTextTextMapHash": 2486149342,
    "interruptTextTextMapHash": 2773303779
  },
  {
    "id": 20019,
    "skillTarget": "AST_TEAM",
    "abilityName": "ActivityAbility_MuqadasPotion_Key",
    "globalValueKey": "MuqadasPotion_Camera_Times",
    "energyMin": 1000,
    "energyMax": 3000,
    "HBBPLIOIPDG": [1000, 2000, 3000],
    "cdTime": 5.0,
    "skillIcon": "Skill_C_MuqadasPotion",
    "guideKey": ["GuideMuqadasIOS", "GuideMuqadasPC", "GuideMuqadasPS", ""],
    "guideOpenState": "OPEN_STATE_GUIDE_MUQADAS",
    "unableTextTextMapHash": 1421042018,
    "channelTextTextMapHash": 473020182,
    "interruptTextTextMapHash": 518498107
  },
  {
    "id": 20020,
    "skillTarget": "AST_TEAM",
    "abilityName": "SceneObj_TMHY_Bright_Play",
    "globalValueKey": "AVATAR_TMHY_Bright_Play",
    "energyMin": 1,
    "energyMax": 100,
    "HBBPLIOIPDG": [],
    "cdTime": 1.0,
    "skillIcon": "Skill_C_ElectricTransfer",
    "guideKey": [],
    "unableTextTextMapHash": 1205223514,
    "channelTextTextMapHash": 2433014342,
    "interruptTextTextMapHash": 2427027379
  },
  {
    "id": 20021,
    "skillTarget": "AST_TEAM",
    "abilityName": "Gagana_ActivateCircle_Electric",
    "globalValueKey": "GAGANA_ENERGY",
    "energyMin": 100,
    "energyMax": 100,
    "HBBPLIOIPDG": [],
    "cdTime": 3.0,
    "skillIcon": "Skill_C_Gagana_Charge",
    "guideKey": [],
    "unableTextTextMapHash": 215088394,
    "channelTextTextMapHash": 3441069718,
    "interruptTextTextMapHash": 2787079899,
    "ABDFHCDPIIB": 1
  },
  {
    "id": 20022,
    "skillTarget": "AST_TEAM",
    "abilityName": "Gagana_ActivateCircle_Fire",
    "globalValueKey": "GAGANA_ENERGY",
    "energyMin": 100,
    "energyMax": 100,
    "HBBPLIOIPDG": [],
    "cdTime": 3.0,
    "skillIcon": "Skill_C_Gagana_Charge",
    "guideKey": [],
    "unableTextTextMapHash": 4222125554,
    "channelTextTextMapHash": 289371846,
    "interruptTextTextMapHash": 898462179,
    "ABDFHCDPIIB": 1
  },
  {
    "id": 20023,
    "skillTarget": "AST_TEAM",
    "abilityName": "Gagana_ActivateCircle_Ice",
    "globalValueKey": "GAGANA_ENERGY",
    "energyMin": 100,
    "energyMax": 100,
    "HBBPLIOIPDG": [],
    "cdTime": 3.0,
    "skillIcon": "Skill_C_Gagana_Charge",
    "guideKey": [],
    "unableTextTextMapHash": 417673978,
    "channelTextTextMapHash": 4176931830,
    "interruptTextTextMapHash": 2341684059,
    "ABDFHCDPIIB": 1
  },
  {
    "id": 20024,
    "skillTarget": "AST_TEAM",
    "abilityName": "Gagana_ActivateCircle_Wind",
    "globalValueKey": "GAGANA_ENERGY",
    "energyMin": 100,
    "energyMax": 100,
    "HBBPLIOIPDG": [],
    "cdTime": 3.0,
    "skillIcon": "Skill_C_Gagana_Charge",
    "guideKey": [],
    "unableTextTextMapHash": 3666461890,
    "channelTextTextMapHash": 354950582,
    "interruptTextTextMapHash": 3468489003,
    "ABDFHCDPIIB": 1
  },
  {
    "id": 20025,
    "skillTarget": "AST_TEAM",
    "abilityName": "Gagana_ActivateCircle_Water",
    "globalValueKey": "GAGANA_ENERGY",
    "energyMin": 100,
    "energyMax": 100,
    "HBBPLIOIPDG": [],
    "cdTime": 3.0,
    "skillIcon": "Skill_C_Gagana_Charge",
    "guideKey": [],
    "unableTextTextMapHash": 3024868426,
    "channelTextTextMapHash": 305452774,
    "interruptTextTextMapHash": 2627961107,
    "ABDFHCDPIIB": 1
  },
  {
    "id": 20026,
    "skillTarget": "AST_TEAM",
    "abilityName": "Gagana_ActivateCircle_Electric_Mirror",
    "globalValueKey": "GAGANA_ENERGY",
    "energyMin": 100,
    "energyMax": 100,
    "HBBPLIOIPDG": [],
    "cdTime": 3.0,
    "skillIcon": "Skill_C_Gagana_Charge",
    "guideKey": [],
    "unableTextTextMapHash": 1160865698,
    "channelTextTextMapHash": 1546572470,
    "interruptTextTextMapHash": 3084661907,
    "ABDFHCDPIIB": 1
  },
  {
    "id": 20027,
    "skillTarget": "AST_TEAM",
    "abilityName": "TeamAbility_Scene_ShadowPlay_Transfer",
    "globalValueKey": "GV_Scene_ShadowPlay_Transfer",
    "energyMin": 100,
    "energyMax": 100,
    "HBBPLIOIPDG": [],
    "cdTime": 3.0,
    "skillIcon": "Skill_C_ChargeNormal",
    "NAPCBIJBBKP": true,
    "guideKey": [],
    "unableTextTextMapHash": 460855450,
    "channelTextTextMapHash": 21715310,
    "interruptTextTextMapHash": 2036930267
  },
  {
    "id": 20029,
    "skillTarget": "AST_TEAM",
    "abilityName": "Gagana_ActivateAimShoot",
    "globalValueKey": "GAGANA_ENERGY",
    "energyMin": 100,
    "energyMax": 100,
    "HBBPLIOIPDG": [],
    "cdTime": 1.0,
    "skillIcon": "Skill_C_Gagana_Charge",
    "NAPCBIJBBKP": true,
    "guideKey": [],
    "unableTextTextMapHash": 3106100714,
    "channelTextTextMapHash": 3017472230,
    "interruptTextTextMapHash": 729398603,
    "ABDFHCDPIIB": 1
  },
  {
    "id": 20030,
    "skillTarget": "AST_TEAM",
    "abilityName": "ActivityAbility_BossChallenge_Water_FreezeTriggerCJB",
    "globalValueKey": "BossChallenge_Energy",
    "energyMin": 1,
    "energyMax": 1,
    "HBBPLIOIPDG": [],
    "cdTime": 5.0,
    "skillIcon": "Skill_C_EffigyChallengeV3",
    "guideKey": [],
    "unableTextTextMapHash": 2981825042,
    "channelTextTextMapHash": 1948061478,
    "interruptTextTextMapHash": 3636041027
  },
  {
    "id": 20031,
    "skillTarget": "AST_TEAM",
    "abilityName": "ActivityAbility_BossChallenge_Water_ElementAddHurt_Ice",
    "globalValueKey": "BossChallenge_Energy",
    "energyMin": 1,
    "energyMax": 1,
    "HBBPLIOIPDG": [],
    "cdTime": 5.0,
    "skillIcon": "Skill_C_EffigyChallengeV3",
    "guideKey": [],
    "unableTextTextMapHash": 677527450,
    "channelTextTextMapHash": 3220890374,
    "interruptTextTextMapHash": 1317251323
  },
  {
    "id": 20032,
    "skillTarget": "AST_TEAM",
    "abilityName": "ActivityAbility_BossChallenge_Water_ElementAddHurt_Elec",
    "globalValueKey": "BossChallenge_Energy",
    "energyMin": 1,
    "energyMax": 1,
    "HBBPLIOIPDG": [],
    "cdTime": 5.0,
    "skillIcon": "Skill_C_EffigyChallengeV3",
    "guideKey": [],
    "unableTextTextMapHash": 273591746,
    "channelTextTextMapHash": 1954240294,
    "interruptTextTextMapHash": 1078799067
  },
  {
    "id": 20033,
    "skillTarget": "AST_TEAM",
    "abilityName": "ActivityAbility_BossChallenge_Water_KillMonsterHealHp",
    "globalValueKey": "BossChallenge_Energy",
    "energyMin": 1,
    "energyMax": 1,
    "HBBPLIOIPDG": [],
    "cdTime": 5.0,
    "skillIcon": "Skill_C_EffigyChallengeV3",
    "guideKey": [],
    "unableTextTextMapHash": 415582450,
    "channelTextTextMapHash": 38178174,
    "interruptTextTextMapHash": 3342251227
  },
  {
    "id": 20034,
    "skillTarget": "AST_TEAM",
    "abilityName": "ActivityAbility_BossChallenge_Fire_ElementAddHurt_Water",
    "globalValueKey": "BossChallenge_Energy",
    "energyMin": 1,
    "energyMax": 1,
    "HBBPLIOIPDG": [],
    "cdTime": 5.0,
    "skillIcon": "Skill_C_EffigyChallengeV3",
    "guideKey": [],
    "unableTextTextMapHash": 1776374370,
    "channelTextTextMapHash": 1095173782,
    "interruptTextTextMapHash": 626282763
  },
  {
    "id": 20035,
    "skillTarget": "AST_TEAM",
    "abilityName": "ActivityAbility_BossChallenge_Fire_Rain",
    "globalValueKey": "BossChallenge_Energy",
    "energyMin": 1,
    "energyMax": 1,
    "HBBPLIOIPDG": [],
    "cdTime": 5.0,
    "skillIcon": "Skill_C_EffigyChallengeV3",
    "guideKey": [],
    "unableTextTextMapHash": 3484940906,
    "channelTextTextMapHash": 35414598,
    "interruptTextTextMapHash": 1810817195
  },
  {
    "id": 20036,
    "skillTarget": "AST_TEAM",
    "abilityName": "ActivityAbility_BossChallenge_Fire_KillMonsterAttackUp",
    "globalValueKey": "BossChallenge_Energy",
    "energyMin": 1,
    "energyMax": 1,
    "HBBPLIOIPDG": [],
    "cdTime": 5.0,
    "skillIcon": "Skill_C_EffigyChallengeV3",
    "guideKey": [],
    "unableTextTextMapHash": 996680546,
    "channelTextTextMapHash": 1911679326,
    "interruptTextTextMapHash": 1110911875
  },
  {
    "id": 20037,
    "skillTarget": "AST_TEAM",
    "abilityName": "ActivityAbility_BossChallenge_Fire_SubHurtDeltaDown",
    "globalValueKey": "BossChallenge_Energy",
    "energyMin": 1,
    "energyMax": 1,
    "HBBPLIOIPDG": [],
    "cdTime": 5.0,
    "skillIcon": "Skill_C_EffigyChallengeV3",
    "guideKey": [],
    "unableTextTextMapHash": 571559498,
    "channelTextTextMapHash": 457894710,
    "interruptTextTextMapHash": 3093879267
  },
  {
    "id": 20038,
    "skillTarget": "AST_TEAM",
    "abilityName": "ActivityAbility_BossChallenge_Ice_DoubleDestoryShield",
    "globalValueKey": "BossChallenge_Energy",
    "energyMin": 1,
    "energyMax": 1,
    "HBBPLIOIPDG": [],
    "cdTime": 5.0,
    "skillIcon": "Skill_C_EffigyChallengeV3",
    "guideKey": [],
    "unableTextTextMapHash": 3882420106,
    "channelTextTextMapHash": 585892566,
    "interruptTextTextMapHash": 3670148603
  },
  {
    "id": 20039,
    "skillTarget": "AST_TEAM",
    "abilityName": "ActivityAbility_BossChallenge_Ice_DestoryWall",
    "globalValueKey": "BossChallenge_Energy",
    "energyMin": 1,
    "energyMax": 1,
    "HBBPLIOIPDG": [],
    "cdTime": 5.0,
    "skillIcon": "Skill_C_EffigyChallengeV3",
    "guideKey": [],
    "unableTextTextMapHash": 2865818546,
    "channelTextTextMapHash": 3145442158,
    "interruptTextTextMapHash": 619186051
  },
  {
    "id": 20040,
    "skillTarget": "AST_TEAM",
    "abilityName": "ActivityAbility_BossChallenge_Ice_ElementAddHurt_Fire",
    "globalValueKey": "BossChallenge_Energy",
    "energyMin": 1,
    "energyMax": 1,
    "HBBPLIOIPDG": [],
    "cdTime": 5.0,
    "skillIcon": "Skill_C_EffigyChallengeV3",
    "guideKey": [],
    "unableTextTextMapHash": 2581487818,
    "channelTextTextMapHash": 2126609662,
    "interruptTextTextMapHash": 2519586011
  },
  {
    "id": 20041,
    "skillTarget": "AST_TEAM",
    "abilityName": "ActivityAbility_BossChallenge_Ice_HealHp",
    "globalValueKey": "BossChallenge_Energy",
    "energyMin": 1,
    "energyMax": 1,
    "HBBPLIOIPDG": [],
    "cdTime": 5.0,
    "skillIcon": "Skill_C_EffigyChallengeV3",
    "guideKey": [],
    "unableTextTextMapHash": 656896242,
    "channelTextTextMapHash": 47160430,
    "interruptTextTextMapHash": 1445669083
  },
  {
    "id": 20042,
    "skillTarget": "AST_TEAM",
    "abilityName": "ActivityAbility_BossChallenge_Grass_ChangeTriggerDamageUp",
    "globalValueKey": "BossChallenge_Energy",
    "energyMin": 1,
    "energyMax": 1,
    "HBBPLIOIPDG": [],
    "cdTime": 5.0,
    "skillIcon": "Skill_C_EffigyChallengeV3",
    "guideKey": [],
    "unableTextTextMapHash": 3271110578,
    "channelTextTextMapHash": 1909335318,
    "interruptTextTextMapHash": 1993234507
  },
  {
    "id": 20043,
    "skillTarget": "AST_TEAM",
    "abilityName": "ActivityAbility_BossChallenge_Grass_HealHp",
    "globalValueKey": "BossChallenge_Energy",
    "energyMin": 1,
    "energyMax": 1,
    "HBBPLIOIPDG": [],
    "cdTime": 5.0,
    "skillIcon": "Skill_C_EffigyChallengeV3",
    "guideKey": [],
    "unableTextTextMapHash": 1618988186,
    "channelTextTextMapHash": 207683622,
    "interruptTextTextMapHash": 1397272171
  },
  {
    "id": 20044,
    "abilityName": "Gagana_GrapplingHookSkill",
    "globalValueKey": "AVATAR_GrapplingHookSkill",
    "energyMin": 1,
    "energyMax": 100,
    "HBBPLIOIPDG": [],
    "cdTime": 1.0,
    "skillIcon": "Skill_C_GrapplingHook",
    "guideKey": [],
    "unableTextTextMapHash": 2561433282,
    "channelTextTextMapHash": 1585432966,
    "interruptTextTextMapHash": 3485395443,
    "ABDFHCDPIIB": 1
  },
  {
    "id": 20045,
    "skillTarget": "AST_TEAM",
    "abilityName": "Team_TMHY_BrightPlay_DeployHandler",
    "globalValueKey": "TEAM_TMHY_Bright_Play",
    "energyMin": 1,
    "energyMax": 100,
    "HBBPLIOIPDG": [],
    "cdTime": 1.0,
    "skillIcon": "Skill_C_PortableFarr",
    "guideKey": [],
    "unableTextTextMapHash": 2641053578,
    "channelTextTextMapHash": 4101866662,
    "interruptTextTextMapHash": 1744479771,
    "ABDFHCDPIIB": 1
  },
  {
    "id": 20046,
    "skillTarget": "AST_VEHICLE",
    "abilityName": "Vehicle_Sorush_GrapplingHookSkill",
    "globalValueKey": "SORUSH_GrapplingHook_Mark",
    "energyMin": 1,
    "energyMax": 1,
    "HBBPLIOIPDG": [],
    "cdTime": 1.0,
    "skillIcon": "Btn_Sorush_GrapplingHook",
    "guideKey": [],
    "unableTextTextMapHash": 1009189106,
    "channelTextTextMapHash": 2133891558,
    "interruptTextTextMapHash": 1217615659,
    "ABDFHCDPIIB": 2,
    "AMOGPEBLEAD": true,
    "NAODIJGBKBP": true
  },
  {
    "id": 20048,
    "skillTarget": "AST_TEAM",
    "abilityName": "Team_TMHY_BrightPlayRuin01_DeployHandler",
    "globalValueKey": "TEAM_TMHY_Bright01_Play",
    "energyMin": 1,
    "energyMax": 100,
    "HBBPLIOIPDG": [],
    "cdTime": 1.0,
    "skillIcon": "Skill_C_PortableFarr",
    "guideKey": [],
    "unableTextTextMapHash": 2055253338,
    "channelTextTextMapHash": 1308840470,
    "interruptTextTextMapHash": 3574224811,
    "ABDFHCDPIIB": 1
  },
  {
    "id": 20049,
    "skillTarget": "AST_TEAM",
    "abilityName": "Team_TMHY_BrightPlayRuin02_DeployHandler",
    "globalValueKey": "TEAM_TMHY_Bright02_Play",
    "energyMin": 1,
    "energyMax": 100,
    "HBBPLIOIPDG": [],
    "cdTime": 1.0,
    "skillIcon": "Skill_C_PortableFarr",
    "guideKey": [],
    "unableTextTextMapHash": 2100393154,
    "channelTextTextMapHash": 2337381646,
    "interruptTextTextMapHash": 4155999363,
    "ABDFHCDPIIB": 1
  },
  {
    "id": 20050,
    "abilityName": "AkaFesGrapplingHookSkill_Ability",
    "globalValueKey": "AVATAR_GrapplingHookSkill",
    "energyMin": 1,
    "energyMax": 100,
    "HBBPLIOIPDG": [],
    "cdTime": 1.0,
    "skillIcon": "Skill_C_GrapplingHook",
    "guideKey": [],
    "unableTextTextMapHash": 4089257930,
    "channelTextTextMapHash": 1935327622,
    "interruptTextTextMapHash": 2228617171,
    "ABDFHCDPIIB": 1
  }
]
