[
  {
    "id": 1,
    "AMOFJLKKIAC": 70515,
    "JKMMJHLHJPD": "Eff_SceneObj_Homeworld_MechanicalDrawing_01_Frame",
    "MFLDNOIGMBG": "Eff_SceneObj_Homeworld_MechanicalDrawing_01_Putting",
    "MFNLEGLFGAP": "Eff_SceneObj_Homeworld_MechanicalDrawing_01_Rotating",
    "IKOPGAFOPDK": 101,
    "pushTipsId": 6059
  }
]
