[
  {
    "id": 1,
    "activityId": 2016,
    "rewardPreviewId": 33369,
    "FCGPBAKJGGM": 1003,
    "KKPFDKPDFDE": 2005,
    "LOBAMIEAJMO": [12016001, 12016002, 12016003, 12016004, 12016005],
    "OICMIBIHIMA": 396,
    "MLEHABGNHHG": 454,
    "MGGLOELALGI": 1000
  }
]
