[
  {
    "ID": 1,
    "scheduleId": 5019001,
    "levelId": 1,
    "levelNameTextMapHash": 1617615091,
    "monsterPreviewId": 10202,
    "monsterConfig": "10202;10107;10110;10105;10102",
    "levelDescTextMapHash": 3966393582,
    "ANBMIGHBEDP": "",
    "JGMENOPEGIG": 10202,
    "IFAJIOLNOJN": "10202;10107;10110;10105;10102",
    "NLMGPMKFGOM": 4150813250,
    "BBBJAHIJIFA": "",
    "levelDetailDescTextMapHash": 856793801,
    "challengeIdList": [110152, 0, 110153, 1, 110154, 2, 110179, 2]
  },
  {
    "ID": 2,
    "scheduleId": 5019001,
    "levelId": 2,
    "levelNameTextMapHash": 4225504947,
    "monsterPreviewId": 111,
    "monsterConfig": "00110;00111",
    "levelDescTextMapHash": 3087126294,
    "ANBMIGHBEDP": "",
    "JGMENOPEGIG": 111,
    "IFAJIOLNOJN": "00110;00111",
    "NLMGPMKFGOM": 924503074,
    "BBBJAHIJIFA": "",
    "levelDetailDescTextMapHash": 3717992121,
    "challengeIdList": [110156, 0, 110157, 1, 110158, 2, 110179, 2]
  },
  {
    "ID": 3,
    "scheduleId": 5019001,
    "levelId": 3,
    "levelNameTextMapHash": 2557279731,
    "monsterPreviewId": 10105,
    "monsterConfig": "10110;10109;10105;10202;10102",
    "levelDescTextMapHash": 1987608830,
    "ANBMIGHBEDP": "",
    "JGMENOPEGIG": 10105,
    "IFAJIOLNOJN": "10110;10109;10105;10202;10102",
    "NLMGPMKFGOM": 3825937594,
    "BBBJAHIJIFA": "",
    "levelDetailDescTextMapHash": 509184593,
    "challengeIdList": [110160, 0, 110161, 1, 110162, 2, 110179, 2]
  },
  {
    "ID": 4,
    "scheduleId": 5019001,
    "levelId": 4,
    "levelNameTextMapHash": 3901318435,
    "monsterPreviewId": 40101,
    "monsterConfig": "40101",
    "levelDescTextMapHash": 3550957902,
    "ANBMIGHBEDP": "",
    "JGMENOPEGIG": 40101,
    "IFAJIOLNOJN": "40101",
    "NLMGPMKFGOM": 3419830154,
    "BBBJAHIJIFA": "",
    "levelDetailDescTextMapHash": 218334289,
    "challengeIdList": [110164, 0, 110169, 1, 110166, 2, 110179, 2]
  },
  {
    "ID": 5,
    "scheduleId": 5019001,
    "levelId": 5,
    "levelNameTextMapHash": 1968625931,
    "monsterPreviewId": 10205,
    "monsterConfig": "10205",
    "levelDescTextMapHash": 3088630118,
    "ANBMIGHBEDP": "",
    "JGMENOPEGIG": 10205,
    "IFAJIOLNOJN": "10205",
    "NLMGPMKFGOM": 1078982018,
    "BBBJAHIJIFA": "",
    "levelDetailDescTextMapHash": 3053392593,
    "challengeIdList": [110168, 0, 110169, 1, 110170, 2, 110179, 2]
  },
  {
    "ID": 6,
    "scheduleId": 5019001,
    "levelId": 6,
    "levelNameTextMapHash": 287474595,
    "monsterPreviewId": 10112,
    "monsterConfig": "10102;10112;10202",
    "levelDescTextMapHash": 1020632238,
    "ANBMIGHBEDP": "",
    "JGMENOPEGIG": 10112,
    "IFAJIOLNOJN": "10102;10112;10202",
    "NLMGPMKFGOM": 1759732146,
    "BBBJAHIJIFA": "",
    "levelDetailDescTextMapHash": 867351849,
    "challengeIdList": [110172, 0, 110174, 1, 110179, 1]
  },
  {
    "ID": 7,
    "scheduleId": 5019001,
    "levelId": 7,
    "levelNameTextMapHash": 1495360627,
    "monsterPreviewId": 10204,
    "monsterConfig": "10204",
    "levelDescTextMapHash": 564409214,
    "ANBMIGHBEDP": "",
    "JGMENOPEGIG": 10204,
    "IFAJIOLNOJN": "10204",
    "NLMGPMKFGOM": 2516004954,
    "BBBJAHIJIFA": "",
    "levelDetailDescTextMapHash": 771196665,
    "challengeIdList": [110176, 0, 110177, 1, 110178, 2, 110179, 2]
  },
  {
    "ID": 8,
    "scheduleId": 5034001,
    "levelId": 1,
    "levelNameTextMapHash": 2656555835,
    "monsterPreviewId": 50102,
    "monsterConfig": "50107;50302;50303;50102;50202;50701",
    "levelDescTextMapHash": 3831773014,
    "ANBMIGHBEDP": "100;10;3",
    "JGMENOPEGIG": 51001,
    "IFAJIOLNOJN": "50801;50802;50803;51001;51002;50202;50303",
    "NLMGPMKFGOM": 3683066482,
    "BBBJAHIJIFA": "100;10;3",
    "levelDetailDescTextMapHash": 1346765321,
    "challengeIdList": []
  },
  {
    "ID": 9,
    "scheduleId": 5034001,
    "levelId": 2,
    "levelNameTextMapHash": 317120803,
    "monsterPreviewId": 10207,
    "monsterConfig": "00106;10116;10306;10207",
    "levelDescTextMapHash": 1735160902,
    "ANBMIGHBEDP": "1000;30;3",
    "JGMENOPEGIG": 30501,
    "IFAJIOLNOJN": "50102;50107;50202;30501",
    "NLMGPMKFGOM": 4245340266,
    "BBBJAHIJIFA": "1000;30;3",
    "levelDetailDescTextMapHash": 162923689,
    "challengeIdList": []
  },
  {
    "ID": 10,
    "scheduleId": 5034001,
    "levelId": 3,
    "levelNameTextMapHash": 1169917715,
    "monsterPreviewId": 10306,
    "monsterConfig": "10306;10110;10116;10207",
    "levelDescTextMapHash": 3483679150,
    "ANBMIGHBEDP": "2;2",
    "JGMENOPEGIG": 10205,
    "IFAJIOLNOJN": "10306;10110;10105;10106;10116;10202;10205",
    "NLMGPMKFGOM": 1313289698,
    "BBBJAHIJIFA": "2;2",
    "levelDetailDescTextMapHash": 3272338785,
    "challengeIdList": []
  },
  {
    "ID": 11,
    "scheduleId": 5034001,
    "levelId": 4,
    "levelNameTextMapHash": 471013731,
    "monsterPreviewId": 107,
    "monsterConfig": "00105;00106;00107;10107;10207",
    "levelDescTextMapHash": 1748311398,
    "ANBMIGHBEDP": "3;5;5;50;1000;2",
    "JGMENOPEGIG": 50803,
    "IFAJIOLNOJN": "50801;50802;50803;50102;50302;50303",
    "NLMGPMKFGOM": 3134377354,
    "BBBJAHIJIFA": "3;8;4;50;1000;2",
    "levelDetailDescTextMapHash": 2589182745,
    "challengeIdList": []
  },
  {
    "ID": 12,
    "scheduleId": 5034001,
    "levelId": 5,
    "levelNameTextMapHash": 2446321363,
    "monsterPreviewId": 40101,
    "monsterConfig": "40101",
    "levelDescTextMapHash": 4124095830,
    "ANBMIGHBEDP": "30;8;10;50",
    "JGMENOPEGIG": 40103,
    "IFAJIOLNOJN": "40101;40103",
    "NLMGPMKFGOM": 1809250922,
    "BBBJAHIJIFA": "30;8;10;50",
    "levelDetailDescTextMapHash": 2221003537,
    "challengeIdList": []
  },
  {
    "ID": 13,
    "scheduleId": 5034001,
    "levelId": 6,
    "levelNameTextMapHash": 213646067,
    "monsterPreviewId": 10204,
    "monsterConfig": "10116;10102;10204",
    "levelDescTextMapHash": 3017011134,
    "ANBMIGHBEDP": "50;10;5",
    "JGMENOPEGIG": 10208,
    "IFAJIOLNOJN": "10109;10114;10107;10306;10208",
    "NLMGPMKFGOM": 3415446522,
    "BBBJAHIJIFA": "50;10;5",
    "levelDetailDescTextMapHash": 685112849,
    "challengeIdList": []
  },
  {
    "ID": 14,
    "scheduleId": 5034001,
    "levelId": 7,
    "levelNameTextMapHash": 731611915,
    "monsterPreviewId": 20201,
    "monsterConfig": "20201;20301",
    "levelDescTextMapHash": 3901945750,
    "ANBMIGHBEDP": "25;25;2",
    "JGMENOPEGIG": 20301,
    "IFAJIOLNOJN": "20201;20301",
    "NLMGPMKFGOM": 4038169098,
    "BBBJAHIJIFA": "25;25;2",
    "levelDetailDescTextMapHash": 649527345,
    "challengeIdList": []
  },
  {
    "ID": 15,
    "scheduleId": 5085001,
    "levelId": 1,
    "levelNameTextMapHash": 1181256187,
    "monsterPreviewId": 40102,
    "monsterConfig": "40102;40201;40202;40204",
    "levelDescTextMapHash": 1818329190,
    "ANBMIGHBEDP": "50;6;75;2;3",
    "JGMENOPEGIG": 40103,
    "IFAJIOLNOJN": "40103;40201;40202;40204",
    "NLMGPMKFGOM": 3885316322,
    "BBBJAHIJIFA": "50;6;75;2;3",
    "levelDetailDescTextMapHash": 3186053121,
    "challengeIdList": []
  },
  {
    "ID": 16,
    "scheduleId": 5085001,
    "levelId": 2,
    "levelNameTextMapHash": 1244111179,
    "monsterPreviewId": 20102,
    "monsterConfig": "20102;10206;00108;10114;10109;10305",
    "levelDescTextMapHash": 1018683582,
    "ANBMIGHBEDP": "40;12;40;4;1",
    "JGMENOPEGIG": 10204,
    "IFAJIOLNOJN": "10204;10206;20102;00108;10114;10109;10305",
    "NLMGPMKFGOM": 353066890,
    "BBBJAHIJIFA": "40;12;40;4;1",
    "levelDetailDescTextMapHash": 1335250873,
    "challengeIdList": []
  },
  {
    "ID": 17,
    "scheduleId": 5085001,
    "levelId": 3,
    "levelNameTextMapHash": 3980032875,
    "monsterPreviewId": 60101,
    "monsterConfig": "60101;60102;10202;00111;00113;00110;00112;10301;10303",
    "levelDescTextMapHash": 1881519982,
    "ANBMIGHBEDP": "50;4;20;70;4;6;4;1",
    "JGMENOPEGIG": 60101,
    "IFAJIOLNOJN": "60101;60102;10202;00111;00113;00110;00112;10301;10303",
    "NLMGPMKFGOM": 1610768938,
    "BBBJAHIJIFA": "50;4;20;70;4;6;4;1",
    "levelDetailDescTextMapHash": 1194878113,
    "challengeIdList": []
  },
  {
    "ID": 18,
    "scheduleId": 5085001,
    "levelId": 4,
    "levelNameTextMapHash": 3579850467,
    "monsterPreviewId": 30201,
    "monsterConfig": "30201;30401;50302;50701;50202;50104;50106",
    "levelDescTextMapHash": 2185516790,
    "ANBMIGHBEDP": "50;4;15;75;4;6;4;1",
    "JGMENOPEGIG": 30201,
    "IFAJIOLNOJN": "30201;30301;30401;30501;50302;50701;50202;50104;50106",
    "NLMGPMKFGOM": 82555346,
    "BBBJAHIJIFA": "50;4;15;75;4;6;4;1",
    "levelDetailDescTextMapHash": 3899677049,
    "challengeIdList": []
  },
  {
    "ID": 19,
    "scheduleId": 5085001,
    "levelId": 5,
    "levelNameTextMapHash": 1667510059,
    "monsterPreviewId": 10203,
    "monsterConfig": "10203;10202;10104;10107;10304;10102",
    "levelDescTextMapHash": 1741836502,
    "ANBMIGHBEDP": "50;15;50;40;1",
    "JGMENOPEGIG": 10205,
    "IFAJIOLNOJN": "10205;10202;10203;10107;10304;10104;10102",
    "NLMGPMKFGOM": 4124207986,
    "BBBJAHIJIFA": "50;15;50;40;1",
    "levelDetailDescTextMapHash": 2465078761,
    "challengeIdList": []
  },
  {
    "ID": 20,
    "scheduleId": 5085001,
    "levelId": 6,
    "levelNameTextMapHash": 3208802731,
    "monsterPreviewId": 10207,
    "monsterConfig": "10116;10110;10107;10306;10207",
    "levelDescTextMapHash": 3835059374,
    "ANBMIGHBEDP": "50;20;75;4;2;1",
    "JGMENOPEGIG": 10208,
    "IFAJIOLNOJN": "10208;10207;10107;10116;10110;10306",
    "NLMGPMKFGOM": 395368314,
    "BBBJAHIJIFA": "50;20;75;4;2;1",
    "levelDetailDescTextMapHash": 2595679401,
    "challengeIdList": []
  },
  {
    "ID": 21,
    "scheduleId": 5085001,
    "levelId": 7,
    "levelNameTextMapHash": 3726516211,
    "monsterPreviewId": 60401,
    "monsterConfig": "60401;60301;10102;00110",
    "levelDescTextMapHash": 2481999934,
    "ANBMIGHBEDP": "50;15;50;60;4;1",
    "JGMENOPEGIG": 60401,
    "IFAJIOLNOJN": "60401;60301;10102;00110",
    "NLMGPMKFGOM": 1734460506,
    "BBBJAHIJIFA": "50;15;50;60;4;1",
    "levelDetailDescTextMapHash": 1007488505,
    "challengeIdList": []
  }
]
