[
  {
    "id": 1,
    "groupId": 1,
    "OEOBHHPKIMM": 0.75
  },
  {
    "id": 2,
    "groupId": 1,
    "OEOBHHPKIMM": 2.25,
    "MEPJGJMHJHO": "HIGH"
  },
  {
    "id": 101,
    "type": "FORMAL",
    "groupId": 1,
    "OEOBHHPKIMM": 0.75
  },
  {
    "id": 102,
    "type": "FORMAL",
    "groupId": 1,
    "OEOBHHPKIMM": 2.25
  },
  {
    "id": 103,
    "type": "FORMAL",
    "groupId": 2,
    "OEOBHHPKIMM": 6.75
  },
  {
    "id": 104,
    "type": "FORMAL",
    "groupId": 2,
    "OEOBHHPKIMM": 8.25,
    "MEPJGJMHJHO": "HIGH"
  },
  {
    "id": 105,
    "type": "FORMAL",
    "groupId": 3,
    "OEOBHHPKIMM": 12.0
  },
  {
    "id": 106,
    "type": "FORMAL",
    "groupId": 3,
    "OEOBHHPKIMM": 12.75
  },
  {
    "id": 107,
    "type": "FORMAL",
    "groupId": 3,
    "OEOBHHPKIMM": 13.5
  },
  {
    "id": 108,
    "type": "FORMAL",
    "groupId": 3,
    "OEOBHHPKIMM": 14.25
  },
  {
    "id": 109,
    "type": "FORMAL",
    "groupId": 4,
    "OEOBHHPKIMM": 18.0
  },
  {
    "id": 110,
    "type": "FORMAL",
    "groupId": 4,
    "OEOBHHPKIMM": 18.75
  },
  {
    "id": 111,
    "type": "FORMAL",
    "groupId": 4,
    "OEOBHHPKIMM": 20.25,
    "MEPJGJMHJHO": "HIGH"
  },
  {
    "id": 112,
    "type": "FORMAL",
    "groupId": 5,
    "OEOBHHPKIMM": 24.0
  },
  {
    "id": 113,
    "type": "FORMAL",
    "groupId": 5,
    "OEOBHHPKIMM": 24.75,
    "MEPJGJMHJHO": "HIGH"
  },
  {
    "id": 114,
    "type": "FORMAL",
    "groupId": 5,
    "OEOBHHPKIMM": 26.25,
    "MEPJGJMHJHO": "HIGH"
  },
  {
    "id": 115,
    "type": "FORMAL",
    "groupId": 6,
    "OEOBHHPKIMM": 30.0
  },
  {
    "id": 116,
    "type": "FORMAL",
    "groupId": 6,
    "OEOBHHPKIMM": 30.75
  },
  {
    "id": 117,
    "type": "FORMAL",
    "groupId": 6,
    "OEOBHHPKIMM": 31.5
  },
  {
    "id": 118,
    "type": "FORMAL",
    "groupId": 6,
    "OEOBHHPKIMM": 32.25
  },
  {
    "id": 119,
    "type": "FORMAL",
    "groupId": 7,
    "OEOBHHPKIMM": 36.75,
    "MEPJGJMHJHO": "HIGH"
  },
  {
    "id": 120,
    "type": "FORMAL",
    "groupId": 7,
    "OEOBHHPKIMM": 38.25,
    "MEPJGJMHJHO": "HIGH"
  },
  {
    "id": 121,
    "type": "FORMAL",
    "groupId": 8,
    "OEOBHHPKIMM": 42.0
  },
  {
    "id": 122,
    "type": "FORMAL",
    "groupId": 8,
    "OEOBHHPKIMM": 42.75
  },
  {
    "id": 123,
    "type": "FORMAL",
    "groupId": 8,
    "OEOBHHPKIMM": 44.25,
    "MEPJGJMHJHO": "HIGH"
  },
  {
    "id": 124,
    "type": "FORMAL",
    "groupId": 9,
    "OEOBHHPKIMM": 48.0
  },
  {
    "id": 125,
    "type": "FORMAL",
    "groupId": 9,
    "OEOBHHPKIMM": 48.75
  },
  {
    "id": 126,
    "type": "FORMAL",
    "groupId": 9,
    "OEOBHHPKIMM": 49.5
  },
  {
    "id": 127,
    "type": "FORMAL",
    "groupId": 9,
    "OEOBHHPKIMM": 50.25
  },
  {
    "id": 128,
    "type": "FORMAL",
    "groupId": 10,
    "OEOBHHPKIMM": 54.0
  },
  {
    "id": 129,
    "type": "FORMAL",
    "groupId": 10,
    "OEOBHHPKIMM": 54.75
  },
  {
    "id": 130,
    "type": "FORMAL",
    "groupId": 10,
    "OEOBHHPKIMM": 56.25,
    "MEPJGJMHJHO": "HIGH"
  }
]
