[
  {
    "id": 6001,
    "FBCIPAIPPDI": 250,
    "GHICOPCJMKH": 100,
    "APDJANNEJOC": "ART/Effect/SceneInteractive/EffObject/Eff_SceneObj_UGC_AreaRing_01"
  },
  {
    "id": 6002,
    "FBCIPAIPPDI": 150,
    "GHICOPCJMKH": 50,
    "APDJANNEJOC": "ART/Effect/SceneInteractive/EffObject/Eff_SceneObj_UGC_AreaBox_01"
  },
  {
    "id": 6003,
    "FBCIPAIPPDI": 75,
    "GHICOPCJMKH": 25,
    "APDJANNEJOC": ""
  },
  {
    "id": 6004,
    "FBCIPAIPPDI": 50,
    "GHICOPCJMKH": 25,
    "APDJANNEJOC": ""
  },
  {
    "id": 6007,
    "FBCIPAIPPDI": 25,
    "GHICOPCJMKH": 10,
    "APDJANNEJOC": ""
  },
  {
    "id": 6008,
    "FBCIPAIPPDI": 25,
    "GHICOPCJMKH": 10,
    "APDJANNEJOC": ""
  },
  {
    "id": 6009,
    "FBCIPAIPPDI": 30,
    "GHICOPCJMKH": 15,
    "APDJANNEJOC": ""
  },
  {
    "id": 6010,
    "FBCIPAIPPDI": 15,
    "GHICOPCJMKH": 5,
    "APDJANNEJOC": ""
  },
  {
    "id": 6011,
    "FBCIPAIPPDI": 50,
    "GHICOPCJMKH": 25,
    "APDJANNEJOC": ""
  },
  {
    "id": 6012,
    "FBCIPAIPPDI": 15,
    "GHICOPCJMKH": 5,
    "APDJANNEJOC": ""
  },
  {
    "id": 6013,
    "FBCIPAIPPDI": 15,
    "GHICOPCJMKH": 5,
    "APDJANNEJOC": ""
  },
  {
    "id": 6014,
    "FBCIPAIPPDI": 10,
    "GHICOPCJMKH": 5,
    "APDJANNEJOC": ""
  },
  {
    "id": 6015,
    "FBCIPAIPPDI": 80,
    "GHICOPCJMKH": 40,
    "APDJANNEJOC": ""
  },
  {
    "id": 6016,
    "FBCIPAIPPDI": 100,
    "GHICOPCJMKH": 50,
    "APDJANNEJOC": ""
  },
  {
    "id": 6017,
    "FBCIPAIPPDI": 80,
    "GHICOPCJMKH": 40,
    "APDJANNEJOC": ""
  },
  {
    "id": 6018,
    "FBCIPAIPPDI": 80,
    "GHICOPCJMKH": 40,
    "APDJANNEJOC": ""
  },
  {
    "id": 6019,
    "FBCIPAIPPDI": 80,
    "GHICOPCJMKH": 40,
    "APDJANNEJOC": ""
  },
  {
    "id": 6020,
    "FBCIPAIPPDI": 30,
    "GHICOPCJMKH": 10,
    "APDJANNEJOC": ""
  },
  {
    "id": 6021,
    "FBCIPAIPPDI": 30,
    "GHICOPCJMKH": 10,
    "APDJANNEJOC": ""
  }
]
