[
  {
    "effectName": "Eff_Activity_Bartender_Origin_Cup"
  },
  {
    "OAMBHJKOBJL": "BARTENDER_ORIGIN_CUP_ONHAND",
    "effectName": "Eff_Activity_Bartender_Origin_Cup_OnHand"
  },
  {
    "OAMBHJKOBJL": "BARTENDER_MIX_BAR",
    "effectName": "Eff_Activity_Bartender_Mix_Bar"
  },
  {
    "OAMBHJKOBJL": "BARTENDER_INGREDIENTS",
    "HNPDDDABMIO": 410001,
    "effectName": "Eff_Activity_Bartender_Ingredient_Cup_Coffee"
  },
  {
    "OAMBHJKOBJL": "BARTENDER_INGREDIENTS",
    "HNPDDDABMIO": 410002,
    "effectName": "Eff_Activity_Bartender_Ingredient_Cup_Blacktea"
  },
  {
    "OAMBHJKOBJL": "BARTENDER_INGREDIENTS",
    "HNPDDDABMIO": 410003,
    "effectName": "Eff_Activity_Bartender_Ingredient_Cup_Sunsettia_Juice"
  },
  {
    "OAMBHJKOBJL": "BARTENDER_INGREDIENTS",
    "HNPDDDABMIO": 410004,
    "effectName": "Eff_Activity_Bartender_Ingredient_Cup_Milk"
  },
  {
    "OAMBHJKOBJL": "BARTENDER_INGREDIENTS",
    "HNPDDDABMIO": 410005,
    "effectName": "Eff_Activity_Bartender_Ingredient_Cup_Caramel"
  },
  {
    "OAMBHJKOBJL": "BARTENDER_INGREDIENTS",
    "HNPDDDABMIO": 410006,
    "effectName": "Eff_Activity_Bartender_Ingredient_Cup_Lemon"
  },
  {
    "OAMBHJKOBJL": "BARTENDER_INGREDIENTS",
    "HNPDDDABMIO": 410007,
    "effectName": "Eff_Activity_Bartender_Ingredient_Cup_Mint"
  },
  {
    "OAMBHJKOBJL": "BARTENDER_INGREDIENTS",
    "HNPDDDABMIO": 410008,
    "effectName": "Eff_Activity_Bartender_Ingredient_Cup_Sparkling_Water"
  },
  {
    "OAMBHJKOBJL": "BARTENDER_INGREDIENTS",
    "HNPDDDABMIO": 410009,
    "effectName": "Eff_Activity_Bartender_Ingredient_Cup_Cacao_Paste"
  },
  {
    "OAMBHJKOBJL": "BARTENDER_FINISH_CUP_ONHAND",
    "HNPDDDABMIO": 1001,
    "effectName": "Eff_Activity_Bartender_Finished_Cup_Coffee_Onhand"
  },
  {
    "OAMBHJKOBJL": "BARTENDER_FINISH_CUP_ONHAND",
    "HNPDDDABMIO": 1002,
    "effectName": "Eff_Activity_Bartender_Finished_Cup_Coffee_Onhand"
  },
  {
    "OAMBHJKOBJL": "BARTENDER_FINISH_CUP_ONHAND",
    "HNPDDDABMIO": 1003,
    "effectName": "Eff_Activity_Bartender_Finished_Cup_Coffee_Onhand"
  },
  {
    "OAMBHJKOBJL": "BARTENDER_FINISH_CUP_ONHAND",
    "HNPDDDABMIO": 1004,
    "effectName": "Eff_Activity_Bartender_Finished_Cup_Coffee_Onhand"
  },
  {
    "OAMBHJKOBJL": "BARTENDER_FINISH_CUP_ONHAND",
    "HNPDDDABMIO": 1005,
    "effectName": "Eff_Activity_Bartender_Finished_Cup_Coffee_Onhand"
  },
  {
    "OAMBHJKOBJL": "BARTENDER_FINISH_CUP_ONHAND",
    "HNPDDDABMIO": 1006,
    "effectName": "Eff_Activity_Bartender_Finished_Cup_Coffee_Onhand"
  },
  {
    "OAMBHJKOBJL": "BARTENDER_FINISH_CUP_ONHAND",
    "HNPDDDABMIO": 1007,
    "effectName": "Eff_Activity_Bartender_Finished_Cup_Coffee_Onhand"
  },
  {
    "OAMBHJKOBJL": "BARTENDER_FINISH_CUP_ONHAND",
    "HNPDDDABMIO": 1008,
    "effectName": "Eff_Activity_Bartender_Finished_Cup_Tea_Onhand"
  },
  {
    "OAMBHJKOBJL": "BARTENDER_FINISH_CUP_ONHAND",
    "HNPDDDABMIO": 1009,
    "effectName": "Eff_Activity_Bartender_Finished_Cup_Tea_Onhand"
  },
  {
    "OAMBHJKOBJL": "BARTENDER_FINISH_CUP_ONHAND",
    "HNPDDDABMIO": 1010,
    "effectName": "Eff_Activity_Bartender_Finished_Cup_Tea_Onhand"
  },
  {
    "OAMBHJKOBJL": "BARTENDER_FINISH_CUP_ONHAND",
    "HNPDDDABMIO": 1011,
    "effectName": "Eff_Activity_Bartender_Finished_Cup_Tea_Onhand"
  },
  {
    "OAMBHJKOBJL": "BARTENDER_FINISH_CUP_ONHAND",
    "HNPDDDABMIO": 1012,
    "effectName": "Eff_Activity_Bartender_Finished_Cup_Tea_Onhand"
  },
  {
    "OAMBHJKOBJL": "BARTENDER_FINISH_CUP_ONHAND",
    "HNPDDDABMIO": 1013,
    "effectName": "Eff_Activity_Bartender_Finished_Cup_Tea_Onhand"
  },
  {
    "OAMBHJKOBJL": "BARTENDER_FINISH_CUP_ONHAND",
    "HNPDDDABMIO": 1014,
    "effectName": "Eff_Activity_Bartender_Finished_Cup_Tea_Onhand"
  },
  {
    "OAMBHJKOBJL": "BARTENDER_FINISH_CUP_ONHAND",
    "HNPDDDABMIO": 1015,
    "effectName": "Eff_Activity_Bartender_Finished_Cup_Tea_Onhand"
  },
  {
    "OAMBHJKOBJL": "BARTENDER_FINISH_CUP_ONHAND",
    "HNPDDDABMIO": 1016,
    "effectName": "Eff_Activity_Bartender_Finished_Cup_Juice_Onhand"
  },
  {
    "OAMBHJKOBJL": "BARTENDER_FINISH_CUP_ONHAND",
    "HNPDDDABMIO": 1017,
    "effectName": "Eff_Activity_Bartender_Finished_Cup_Juice_Onhand"
  },
  {
    "OAMBHJKOBJL": "BARTENDER_FINISH_CUP_ONHAND",
    "HNPDDDABMIO": 1018,
    "effectName": "Eff_Activity_Bartender_Finished_Cup_Juice_Onhand"
  },
  {
    "OAMBHJKOBJL": "BARTENDER_FINISH_CUP_ONHAND",
    "HNPDDDABMIO": 1019,
    "effectName": "Eff_Activity_Bartender_Finished_Cup_Juice_Onhand"
  },
  {
    "OAMBHJKOBJL": "BARTENDER_FINISH_CUP_ONHAND",
    "HNPDDDABMIO": 1020,
    "effectName": "Eff_Activity_Bartender_Finished_Cup_Juice_Onhand"
  },
  {
    "OAMBHJKOBJL": "BARTENDER_FINISH_CUP_ONHAND",
    "HNPDDDABMIO": 1021,
    "effectName": "Eff_Activity_Bartender_Finished_Cup_Juice_Onhand"
  },
  {
    "OAMBHJKOBJL": "BARTENDER_FINISH_CUP_ONHAND",
    "HNPDDDABMIO": 1022,
    "effectName": "Eff_Activity_Bartender_Finished_Cup_Coffee_Onhand"
  },
  {
    "OAMBHJKOBJL": "BARTENDER_FINISH_CUP_ONTABLE",
    "HNPDDDABMIO": 1001,
    "effectName": "Eff_Activity_Bartender_Finished_Cup_Coffee"
  },
  {
    "OAMBHJKOBJL": "BARTENDER_FINISH_CUP_ONTABLE",
    "HNPDDDABMIO": 1002,
    "effectName": "Eff_Activity_Bartender_Finished_Cup_Coffee"
  },
  {
    "OAMBHJKOBJL": "BARTENDER_FINISH_CUP_ONTABLE",
    "HNPDDDABMIO": 1003,
    "effectName": "Eff_Activity_Bartender_Finished_Cup_Coffee"
  },
  {
    "OAMBHJKOBJL": "BARTENDER_FINISH_CUP_ONTABLE",
    "HNPDDDABMIO": 1004,
    "effectName": "Eff_Activity_Bartender_Finished_Cup_Coffee"
  },
  {
    "OAMBHJKOBJL": "BARTENDER_FINISH_CUP_ONTABLE",
    "HNPDDDABMIO": 1005,
    "effectName": "Eff_Activity_Bartender_Finished_Cup_Coffee"
  },
  {
    "OAMBHJKOBJL": "BARTENDER_FINISH_CUP_ONTABLE",
    "HNPDDDABMIO": 1006,
    "effectName": "Eff_Activity_Bartender_Finished_Cup_Coffee"
  },
  {
    "OAMBHJKOBJL": "BARTENDER_FINISH_CUP_ONTABLE",
    "HNPDDDABMIO": 1007,
    "effectName": "Eff_Activity_Bartender_Finished_Cup_Coffee"
  },
  {
    "OAMBHJKOBJL": "BARTENDER_FINISH_CUP_ONTABLE",
    "HNPDDDABMIO": 1008,
    "effectName": "Eff_Activity_Bartender_Finished_Cup_Tea"
  },
  {
    "OAMBHJKOBJL": "BARTENDER_FINISH_CUP_ONTABLE",
    "HNPDDDABMIO": 1009,
    "effectName": "Eff_Activity_Bartender_Finished_Cup_Tea"
  },
  {
    "OAMBHJKOBJL": "BARTENDER_FINISH_CUP_ONTABLE",
    "HNPDDDABMIO": 1010,
    "effectName": "Eff_Activity_Bartender_Finished_Cup_Tea"
  },
  {
    "OAMBHJKOBJL": "BARTENDER_FINISH_CUP_ONTABLE",
    "HNPDDDABMIO": 1011,
    "effectName": "Eff_Activity_Bartender_Finished_Cup_Tea"
  },
  {
    "OAMBHJKOBJL": "BARTENDER_FINISH_CUP_ONTABLE",
    "HNPDDDABMIO": 1012,
    "effectName": "Eff_Activity_Bartender_Finished_Cup_Tea"
  },
  {
    "OAMBHJKOBJL": "BARTENDER_FINISH_CUP_ONTABLE",
    "HNPDDDABMIO": 1013,
    "effectName": "Eff_Activity_Bartender_Finished_Cup_Tea"
  },
  {
    "OAMBHJKOBJL": "BARTENDER_FINISH_CUP_ONTABLE",
    "HNPDDDABMIO": 1014,
    "effectName": "Eff_Activity_Bartender_Finished_Cup_Tea"
  },
  {
    "OAMBHJKOBJL": "BARTENDER_FINISH_CUP_ONTABLE",
    "HNPDDDABMIO": 1015,
    "effectName": "Eff_Activity_Bartender_Finished_Cup_Tea"
  },
  {
    "OAMBHJKOBJL": "BARTENDER_FINISH_CUP_ONTABLE",
    "HNPDDDABMIO": 1016,
    "effectName": "Eff_Activity_Bartender_Finished_Cup_Juice"
  },
  {
    "OAMBHJKOBJL": "BARTENDER_FINISH_CUP_ONTABLE",
    "HNPDDDABMIO": 1017,
    "effectName": "Eff_Activity_Bartender_Finished_Cup_Juice"
  },
  {
    "OAMBHJKOBJL": "BARTENDER_FINISH_CUP_ONTABLE",
    "HNPDDDABMIO": 1018,
    "effectName": "Eff_Activity_Bartender_Finished_Cup_Juice"
  },
  {
    "OAMBHJKOBJL": "BARTENDER_FINISH_CUP_ONTABLE",
    "HNPDDDABMIO": 1019,
    "effectName": "Eff_Activity_Bartender_Finished_Cup_Juice"
  },
  {
    "OAMBHJKOBJL": "BARTENDER_FINISH_CUP_ONTABLE",
    "HNPDDDABMIO": 1020,
    "effectName": "Eff_Activity_Bartender_Finished_Cup_Juice"
  },
  {
    "OAMBHJKOBJL": "BARTENDER_FINISH_CUP_ONTABLE",
    "HNPDDDABMIO": 1021,
    "effectName": "Eff_Activity_Bartender_Finished_Cup_Juice"
  },
  {
    "OAMBHJKOBJL": "BARTENDER_FINISH_CUP_ONTABLE",
    "HNPDDDABMIO": 1022,
    "effectName": "Eff_Activity_Bartender_Finished_Cup_Coffee"
  },
  {
    "OAMBHJKOBJL": "BARTENDER_FINISH_CUP_PUSH",
    "HNPDDDABMIO": 1001,
    "effectName": "Eff_Activity_Bartender_Finished_Cup_Coffee"
  },
  {
    "OAMBHJKOBJL": "BARTENDER_FINISH_CUP_PUSH",
    "HNPDDDABMIO": 1002,
    "effectName": "Eff_Activity_Bartender_Finished_Cup_Coffee"
  },
  {
    "OAMBHJKOBJL": "BARTENDER_FINISH_CUP_PUSH",
    "HNPDDDABMIO": 1003,
    "effectName": "Eff_Activity_Bartender_Finished_Cup_Coffee"
  },
  {
    "OAMBHJKOBJL": "BARTENDER_FINISH_CUP_PUSH",
    "HNPDDDABMIO": 1004,
    "effectName": "Eff_Activity_Bartender_Finished_Cup_Coffee"
  },
  {
    "OAMBHJKOBJL": "BARTENDER_FINISH_CUP_PUSH",
    "HNPDDDABMIO": 1005,
    "effectName": "Eff_Activity_Bartender_Finished_Cup_Coffee"
  },
  {
    "OAMBHJKOBJL": "BARTENDER_FINISH_CUP_PUSH",
    "HNPDDDABMIO": 1006,
    "effectName": "Eff_Activity_Bartender_Finished_Cup_Coffee"
  },
  {
    "OAMBHJKOBJL": "BARTENDER_FINISH_CUP_PUSH",
    "HNPDDDABMIO": 1007,
    "effectName": "Eff_Activity_Bartender_Finished_Cup_Coffee"
  },
  {
    "OAMBHJKOBJL": "BARTENDER_FINISH_CUP_PUSH",
    "HNPDDDABMIO": 1008,
    "effectName": "Eff_Activity_Bartender_Finished_Cup_Tea"
  },
  {
    "OAMBHJKOBJL": "BARTENDER_FINISH_CUP_PUSH",
    "HNPDDDABMIO": 1009,
    "effectName": "Eff_Activity_Bartender_Finished_Cup_Tea"
  },
  {
    "OAMBHJKOBJL": "BARTENDER_FINISH_CUP_PUSH",
    "HNPDDDABMIO": 1010,
    "effectName": "Eff_Activity_Bartender_Finished_Cup_Tea"
  },
  {
    "OAMBHJKOBJL": "BARTENDER_FINISH_CUP_PUSH",
    "HNPDDDABMIO": 1011,
    "effectName": "Eff_Activity_Bartender_Finished_Cup_Tea"
  },
  {
    "OAMBHJKOBJL": "BARTENDER_FINISH_CUP_PUSH",
    "HNPDDDABMIO": 1012,
    "effectName": "Eff_Activity_Bartender_Finished_Cup_Tea"
  },
  {
    "OAMBHJKOBJL": "BARTENDER_FINISH_CUP_PUSH",
    "HNPDDDABMIO": 1013,
    "effectName": "Eff_Activity_Bartender_Finished_Cup_Tea"
  },
  {
    "OAMBHJKOBJL": "BARTENDER_FINISH_CUP_PUSH",
    "HNPDDDABMIO": 1014,
    "effectName": "Eff_Activity_Bartender_Finished_Cup_Tea"
  },
  {
    "OAMBHJKOBJL": "BARTENDER_FINISH_CUP_PUSH",
    "HNPDDDABMIO": 1015,
    "effectName": "Eff_Activity_Bartender_Finished_Cup_Tea"
  },
  {
    "OAMBHJKOBJL": "BARTENDER_FINISH_CUP_PUSH",
    "HNPDDDABMIO": 1016,
    "effectName": "Eff_Activity_Bartender_Finished_Cup_Juice"
  },
  {
    "OAMBHJKOBJL": "BARTENDER_FINISH_CUP_PUSH",
    "HNPDDDABMIO": 1017,
    "effectName": "Eff_Activity_Bartender_Finished_Cup_Juice"
  },
  {
    "OAMBHJKOBJL": "BARTENDER_FINISH_CUP_PUSH",
    "HNPDDDABMIO": 1018,
    "effectName": "Eff_Activity_Bartender_Finished_Cup_Juice"
  },
  {
    "OAMBHJKOBJL": "BARTENDER_FINISH_CUP_PUSH",
    "HNPDDDABMIO": 1019,
    "effectName": "Eff_Activity_Bartender_Finished_Cup_Juice"
  },
  {
    "OAMBHJKOBJL": "BARTENDER_FINISH_CUP_PUSH",
    "HNPDDDABMIO": 1020,
    "effectName": "Eff_Activity_Bartender_Finished_Cup_Juice"
  },
  {
    "OAMBHJKOBJL": "BARTENDER_FINISH_CUP_PUSH",
    "HNPDDDABMIO": 1021,
    "effectName": "Eff_Activity_Bartender_Finished_Cup_Juice"
  },
  {
    "OAMBHJKOBJL": "BARTENDER_FINISH_CUP_PUSH",
    "HNPDDDABMIO": 1022,
    "effectName": "Eff_Activity_Bartender_Finished_Cup_Coffee"
  },
  {
    "OAMBHJKOBJL": "BARTENDER_FINISH_CUP_EFF",
    "HNPDDDABMIO": 1001,
    "effectName": "Eff_Activity_Bartender_Finished_Cup_Coffee_BlackCoffee"
  },
  {
    "OAMBHJKOBJL": "BARTENDER_FINISH_CUP_EFF",
    "HNPDDDABMIO": 1002,
    "effectName": "Eff_Activity_Bartender_Finished_Cup_Coffee_Latte"
  },
  {
    "OAMBHJKOBJL": "BARTENDER_FINISH_CUP_EFF",
    "HNPDDDABMIO": 1003,
    "effectName": "Eff_Activity_Bartender_Finished_Cup_Coffee_Latte"
  },
  {
    "OAMBHJKOBJL": "BARTENDER_FINISH_CUP_EFF",
    "HNPDDDABMIO": 1004,
    "effectName": "Eff_Activity_Bartender_Finished_Cup_Coffee_Latte"
  },
  {
    "OAMBHJKOBJL": "BARTENDER_FINISH_CUP_EFF",
    "HNPDDDABMIO": 1005,
    "effectName": "Eff_Activity_Bartender_Finished_Cup_Coffee_Latte"
  },
  {
    "OAMBHJKOBJL": "BARTENDER_FINISH_CUP_EFF",
    "HNPDDDABMIO": 1006,
    "effectName": "Eff_Activity_Bartender_Finished_Cup_Coffee_BlackCoffee"
  },
  {
    "OAMBHJKOBJL": "BARTENDER_FINISH_CUP_EFF",
    "HNPDDDABMIO": 1007,
    "effectName": "Eff_Activity_Bartender_Finished_Cup_Coffee_Latte"
  },
  {
    "OAMBHJKOBJL": "BARTENDER_FINISH_CUP_EFF",
    "HNPDDDABMIO": 1008,
    "effectName": "Eff_Activity_Bartender_Finished_Cup_Tea_PureTea"
  },
  {
    "OAMBHJKOBJL": "BARTENDER_FINISH_CUP_EFF",
    "HNPDDDABMIO": 1009,
    "effectName": "Eff_Activity_Bartender_Finished_Cup_Tea_MilkTea"
  },
  {
    "OAMBHJKOBJL": "BARTENDER_FINISH_CUP_EFF",
    "HNPDDDABMIO": 1010,
    "effectName": "Eff_Activity_Bartender_Finished_Cup_Tea_MilkTea"
  },
  {
    "OAMBHJKOBJL": "BARTENDER_FINISH_CUP_EFF",
    "HNPDDDABMIO": 1011,
    "effectName": "Eff_Activity_Bartender_Finished_Cup_Tea_MilkTea"
  },
  {
    "OAMBHJKOBJL": "BARTENDER_FINISH_CUP_EFF",
    "HNPDDDABMIO": 1012,
    "effectName": "Eff_Activity_Bartender_Finished_Cup_Tea_MilkTea"
  },
  {
    "OAMBHJKOBJL": "BARTENDER_FINISH_CUP_EFF",
    "HNPDDDABMIO": 1013,
    "effectName": "Eff_Activity_Bartender_Finished_Cup_Tea_MilkTea"
  },
  {
    "OAMBHJKOBJL": "BARTENDER_FINISH_CUP_EFF",
    "HNPDDDABMIO": 1014,
    "effectName": "Eff_Activity_Bartender_Finished_Cup_Tea_PureTea"
  },
  {
    "OAMBHJKOBJL": "BARTENDER_FINISH_CUP_EFF",
    "HNPDDDABMIO": 1015,
    "effectName": "Eff_Activity_Bartender_Finished_Cup_Tea_PureTea"
  },
  {
    "OAMBHJKOBJL": "BARTENDER_FINISH_CUP_EFF",
    "HNPDDDABMIO": 1016,
    "effectName": "Eff_Activity_Bartender_Finished_Cup_Juice_PureJuice"
  },
  {
    "OAMBHJKOBJL": "BARTENDER_FINISH_CUP_EFF",
    "HNPDDDABMIO": 1017,
    "effectName": "Eff_Activity_Bartender_Finished_Cup_Juice_MilkJuice"
  },
  {
    "OAMBHJKOBJL": "BARTENDER_FINISH_CUP_EFF",
    "HNPDDDABMIO": 1018,
    "effectName": "Eff_Activity_Bartender_Finished_Cup_Juice_MilkJuice"
  },
  {
    "OAMBHJKOBJL": "BARTENDER_FINISH_CUP_EFF",
    "HNPDDDABMIO": 1019,
    "effectName": "Eff_Activity_Bartender_Finished_Cup_Juice_PureJuice"
  },
  {
    "OAMBHJKOBJL": "BARTENDER_FINISH_CUP_EFF",
    "HNPDDDABMIO": 1020,
    "effectName": "Eff_Activity_Bartender_Finished_Cup_Juice_PureJuice"
  },
  {
    "OAMBHJKOBJL": "BARTENDER_FINISH_CUP_EFF",
    "HNPDDDABMIO": 1021,
    "effectName": "Eff_Activity_Bartender_Finished_Cup_Juice_PureJuice"
  },
  {
    "OAMBHJKOBJL": "BARTENDER_FINISH_CUP_EFF",
    "HNPDDDABMIO": 1022,
    "effectName": "Eff_Activity_Bartender_Finished_Cup_Coffee_Strange"
  },
  {
    "OAMBHJKOBJL": "BARTENDER_FINISH_POUR_EFF",
    "HNPDDDABMIO": 1001,
    "effectName": "Eff_Activity_Bartender_Finished_Cup_Flow_BlackCoffee"
  },
  {
    "OAMBHJKOBJL": "BARTENDER_FINISH_POUR_EFF",
    "HNPDDDABMIO": 1002,
    "effectName": "Eff_Activity_Bartender_Finished_Cup_Flow_Latte"
  },
  {
    "OAMBHJKOBJL": "BARTENDER_FINISH_POUR_EFF",
    "HNPDDDABMIO": 1003,
    "effectName": "Eff_Activity_Bartender_Finished_Cup_Flow_Latte"
  },
  {
    "OAMBHJKOBJL": "BARTENDER_FINISH_POUR_EFF",
    "HNPDDDABMIO": 1004,
    "effectName": "Eff_Activity_Bartender_Finished_Cup_Flow_Latte"
  },
  {
    "OAMBHJKOBJL": "BARTENDER_FINISH_POUR_EFF",
    "HNPDDDABMIO": 1005,
    "effectName": "Eff_Activity_Bartender_Finished_Cup_Flow_Latte"
  },
  {
    "OAMBHJKOBJL": "BARTENDER_FINISH_POUR_EFF",
    "HNPDDDABMIO": 1006,
    "effectName": "Eff_Activity_Bartender_Finished_Cup_Flow_BlackCoffee"
  },
  {
    "OAMBHJKOBJL": "BARTENDER_FINISH_POUR_EFF",
    "HNPDDDABMIO": 1007,
    "effectName": "Eff_Activity_Bartender_Finished_Cup_Flow_Latte"
  },
  {
    "OAMBHJKOBJL": "BARTENDER_FINISH_POUR_EFF",
    "HNPDDDABMIO": 1008,
    "effectName": "Eff_Activity_Bartender_Finished_Cup_Flow_PureTea"
  },
  {
    "OAMBHJKOBJL": "BARTENDER_FINISH_POUR_EFF",
    "HNPDDDABMIO": 1009,
    "effectName": "Eff_Activity_Bartender_Finished_Cup_Flow_MilkTea"
  },
  {
    "OAMBHJKOBJL": "BARTENDER_FINISH_POUR_EFF",
    "HNPDDDABMIO": 1010,
    "effectName": "Eff_Activity_Bartender_Finished_Cup_Flow_MilkTea"
  },
  {
    "OAMBHJKOBJL": "BARTENDER_FINISH_POUR_EFF",
    "HNPDDDABMIO": 1011,
    "effectName": "Eff_Activity_Bartender_Finished_Cup_Flow_MilkTea"
  },
  {
    "OAMBHJKOBJL": "BARTENDER_FINISH_POUR_EFF",
    "HNPDDDABMIO": 1012,
    "effectName": "Eff_Activity_Bartender_Finished_Cup_Flow_MilkTea"
  },
  {
    "OAMBHJKOBJL": "BARTENDER_FINISH_POUR_EFF",
    "HNPDDDABMIO": 1013,
    "effectName": "Eff_Activity_Bartender_Finished_Cup_Flow_MilkTea"
  },
  {
    "OAMBHJKOBJL": "BARTENDER_FINISH_POUR_EFF",
    "HNPDDDABMIO": 1014,
    "effectName": "Eff_Activity_Bartender_Finished_Cup_Flow_PureTea"
  },
  {
    "OAMBHJKOBJL": "BARTENDER_FINISH_POUR_EFF",
    "HNPDDDABMIO": 1015,
    "effectName": "Eff_Activity_Bartender_Finished_Cup_Flow_PureTea"
  },
  {
    "OAMBHJKOBJL": "BARTENDER_FINISH_POUR_EFF",
    "HNPDDDABMIO": 1016,
    "effectName": "Eff_Activity_Bartender_Finished_Cup_Flow_PureJuice"
  },
  {
    "OAMBHJKOBJL": "BARTENDER_FINISH_POUR_EFF",
    "HNPDDDABMIO": 1017,
    "effectName": "Eff_Activity_Bartender_Finished_Cup_Flow_MilkJuice"
  },
  {
    "OAMBHJKOBJL": "BARTENDER_FINISH_POUR_EFF",
    "HNPDDDABMIO": 1018,
    "effectName": "Eff_Activity_Bartender_Finished_Cup_Flow_MilkJuice"
  },
  {
    "OAMBHJKOBJL": "BARTENDER_FINISH_POUR_EFF",
    "HNPDDDABMIO": 1019,
    "effectName": "Eff_Activity_Bartender_Finished_Cup_Flow_PureJuice"
  },
  {
    "OAMBHJKOBJL": "BARTENDER_FINISH_POUR_EFF",
    "HNPDDDABMIO": 1020,
    "effectName": "Eff_Activity_Bartender_Finished_Cup_Flow_PureJuice"
  },
  {
    "OAMBHJKOBJL": "BARTENDER_FINISH_POUR_EFF",
    "HNPDDDABMIO": 1021,
    "effectName": "Eff_Activity_Bartender_Finished_Cup_Flow_PureJuice"
  },
  {
    "OAMBHJKOBJL": "BARTENDER_FINISH_POUR_EFF",
    "HNPDDDABMIO": 1022,
    "effectName": "Eff_Activity_Bartender_Finished_Cup_Flow_Strange"
  },
  {
    "OAMBHJKOBJL": "BARTENDER_INGREDIENTS_POUR_EFF",
    "HNPDDDABMIO": 410001,
    "effectName": "Eff_Activity_Bartender_Add_Coffee"
  },
  {
    "OAMBHJKOBJL": "BARTENDER_INGREDIENTS_POUR_EFF",
    "HNPDDDABMIO": 410002,
    "effectName": "Eff_Activity_Bartender_Add_Tea"
  },
  {
    "OAMBHJKOBJL": "BARTENDER_INGREDIENTS_POUR_EFF",
    "HNPDDDABMIO": 410003,
    "effectName": "Eff_Activity_Bartender_Add_Juice"
  },
  {
    "OAMBHJKOBJL": "BARTENDER_INGREDIENTS_POUR_EFF",
    "HNPDDDABMIO": 410004,
    "effectName": "Eff_Activity_Bartender_Add_Milk"
  },
  {
    "OAMBHJKOBJL": "BARTENDER_INGREDIENTS_POUR_EFF",
    "HNPDDDABMIO": 410005,
    "effectName": "Eff_Activity_Bartender_Add_Tea"
  },
  {
    "OAMBHJKOBJL": "BARTENDER_INGREDIENTS_POUR_EFF",
    "HNPDDDABMIO": 410006,
    "effectName": "Eff_Activity_Bartender_Add_Lemon"
  },
  {
    "OAMBHJKOBJL": "BARTENDER_INGREDIENTS_POUR_EFF",
    "HNPDDDABMIO": 410007,
    "effectName": "Eff_Activity_Bartender_Add_Mint"
  },
  {
    "OAMBHJKOBJL": "BARTENDER_INGREDIENTS_POUR_EFF",
    "HNPDDDABMIO": 410008,
    "effectName": "Eff_Activity_Bartender_Add_Sparkling"
  },
  {
    "OAMBHJKOBJL": "BARTENDER_INGREDIENTS_POUR_EFF",
    "HNPDDDABMIO": 410009,
    "effectName": "Eff_Activity_Bartender_Add_Coffee"
  },
  {
    "OAMBHJKOBJL": "BARTENDER_FINISH_CUP_OVER",
    "HNPDDDABMIO": 1,
    "effectName": "Eff_Activity_Bartender_Finish_Fail"
  },
  {
    "OAMBHJKOBJL": "BARTENDER_FINISH_CUP_OVER",
    "HNPDDDABMIO": 2,
    "effectName": "Eff_Activity_Bartender_Finish_Succeed"
  }
]
