[
  {
    "Id": 50029001,
    "materialId": 100223,
    "SortOrder": 1010
  },
  {
    "Id": 50029002,
    "materialId": 100361,
    "SortOrder": 1011
  },
  {
    "Id": 50029003,
    "materialId": 101558,
    "SortOrder": 1012
  },
  {
    "Id": 50006001,
    "materialId": 100208,
    "SortOrder": 2010
  },
  {
    "Id": 50016001,
    "materialId": 100507,
    "SortOrder": 2011
  },
  {
    "Id": 50016002,
    "materialId": 100508,
    "SortOrder": 2012
  },
  {
    "Id": 50016003,
    "materialId": 100509,
    "SortOrder": 2013
  },
  {
    "Id": 50002001,
    "materialId": 100182,
    "SortOrder": 3001
  },
  {
    "Id": 50002002,
    "materialId": 100183,
    "SortOrder": 3002
  },
  {
    "Id": 50004001,
    "materialId": 100196,
    "SortOrder": 3003
  },
  {
    "Id": 50004002,
    "materialId": 100197,
    "SortOrder": 3004
  },
  {
    "Id": 50007005,
    "materialId": 100389,
    "SortOrder": 3005
  },
  {
    "Id": 50007001,
    "materialId": 100226,
    "SortOrder": 3006
  },
  {
    "Id": 50007007,
    "materialId": 100391,
    "SortOrder": 3007
  },
  {
    "Id": 50007002,
    "materialId": 100227,
    "SortOrder": 3008
  },
  {
    "Id": 50007003,
    "materialId": 100228,
    "SortOrder": 3009
  },
  {
    "Id": 50007004,
    "materialId": 100388,
    "SortOrder": 3010
  },
  {
    "Id": 50007006,
    "materialId": 100390,
    "SortOrder": 3011
  },
  {
    "Id": 50007008,
    "materialId": 100441,
    "SortOrder": 3012
  },
  {
    "Id": 50007009,
    "materialId": 100706,
    "SortOrder": 3013
  },
  {
    "Id": 50007010,
    "materialId": 101541,
    "SortOrder": 3067
  },
  {
    "Id": 50007011,
    "materialId": 101601,
    "SortOrder": 3069
  },
  {
    "Id": 50008005,
    "materialId": 100229,
    "SortOrder": 3014
  },
  {
    "Id": 50008001,
    "materialId": 100230,
    "SortOrder": 3015
  },
  {
    "Id": 50008002,
    "materialId": 100239,
    "SortOrder": 3016
  },
  {
    "Id": 50008003,
    "materialId": 100240,
    "SortOrder": 3017
  },
  {
    "Id": 50008004,
    "materialId": 100241,
    "SortOrder": 3018
  },
  {
    "Id": 50008006,
    "materialId": 101540,
    "SortOrder": 3068
  },
  {
    "Id": 50009001,
    "materialId": 100399,
    "SortOrder": 3019
  },
  {
    "Id": 50009002,
    "materialId": 100400,
    "SortOrder": 3020
  },
  {
    "Id": 50009003,
    "materialId": 100637,
    "SortOrder": 3021
  },
  {
    "Id": 50009004,
    "materialId": 100638,
    "SortOrder": 3022
  },
  {
    "Id": 50009005,
    "materialId": 100730,
    "SortOrder": 3023
  },
  {
    "Id": 50009006,
    "materialId": 100731,
    "SortOrder": 3024
  },
  {
    "Id": 50010001,
    "materialId": 100406,
    "SortOrder": 3025
  },
  {
    "Id": 50010002,
    "materialId": 100407,
    "SortOrder": 3026
  },
  {
    "Id": 50010003,
    "materialId": 100615,
    "SortOrder": 3027
  },
  {
    "Id": 50010004,
    "materialId": 100408,
    "SortOrder": 3028
  },
  {
    "Id": 50011001,
    "materialId": 100411,
    "SortOrder": 3029
  },
  {
    "Id": 50011002,
    "materialId": 100412,
    "SortOrder": 3030
  },
  {
    "Id": 50015001,
    "materialId": 100480,
    "SortOrder": 3031
  },
  {
    "Id": 50015002,
    "materialId": 100481,
    "SortOrder": 3032
  },
  {
    "Id": 50015003,
    "materialId": 100482,
    "SortOrder": 3033
  },
  {
    "Id": 50015004,
    "materialId": 100483,
    "SortOrder": 3034
  },
  {
    "Id": 50017001,
    "materialId": 100565,
    "SortOrder": 3035
  },
  {
    "Id": 50017002,
    "materialId": 100566,
    "SortOrder": 3036
  },
  {
    "Id": 50017003,
    "materialId": 100567,
    "SortOrder": 3037
  },
  {
    "Id": 50019001,
    "materialId": 100573,
    "SortOrder": 3038
  },
  {
    "Id": 50019002,
    "materialId": 100574,
    "SortOrder": 3039
  },
  {
    "Id": 50019003,
    "materialId": 100575,
    "SortOrder": 3040
  },
  {
    "Id": 50019004,
    "materialId": 100576,
    "SortOrder": 3041
  },
  {
    "Id": 50020001,
    "materialId": 100577,
    "SortOrder": 3042
  },
  {
    "Id": 50020002,
    "materialId": 100578,
    "SortOrder": 3043
  },
  {
    "Id": 50020003,
    "materialId": 100579,
    "SortOrder": 3044
  },
  {
    "Id": 50020004,
    "materialId": 100580,
    "SortOrder": 3045
  },
  {
    "Id": 50023001,
    "materialId": 100586,
    "SortOrder": 3046
  },
  {
    "Id": 50023002,
    "materialId": 100587,
    "SortOrder": 3047
  },
  {
    "Id": 50023003,
    "materialId": 100588,
    "SortOrder": 3048
  },
  {
    "Id": 50023004,
    "materialId": 100589,
    "SortOrder": 3049
  },
  {
    "Id": 50025001,
    "materialId": 100403,
    "SortOrder": 3050
  },
  {
    "Id": 50025002,
    "materialId": 100624,
    "SortOrder": 3051
  },
  {
    "Id": 50025003,
    "materialId": 100640,
    "SortOrder": 3052
  },
  {
    "Id": 50027001,
    "materialId": 100402,
    "SortOrder": 3054
  },
  {
    "Id": 50027004,
    "materialId": 100733,
    "SortOrder": 3056
  },
  {
    "Id": 50028001,
    "materialId": 100201,
    "SortOrder": 3057
  },
  {
    "Id": 50028002,
    "materialId": 100213,
    "SortOrder": 3058
  },
  {
    "Id": 50026001,
    "materialId": 100642,
    "SortOrder": 3059
  },
  {
    "Id": 50026004,
    "materialId": 100643,
    "SortOrder": 3060
  },
  {
    "Id": 50026005,
    "materialId": 100644,
    "SortOrder": 3061
  },
  {
    "Id": 50026006,
    "materialId": 100786,
    "SortOrder": 3062
  },
  {
    "Id": 50026007,
    "materialId": 100787,
    "SortOrder": 3063
  },
  {
    "Id": 50033001,
    "materialId": 101529,
    "SortOrder": 3064
  },
  {
    "Id": 50033002,
    "materialId": 101530,
    "SortOrder": 3065
  },
  {
    "Id": 50033003,
    "materialId": 101531,
    "SortOrder": 3066
  },
  {
    "Id": 50036001,
    "materialId": 101599,
    "SortOrder": 3070
  },
  {
    "Id": 50037001,
    "materialId": 101680,
    "SortOrder": 3080
  },
  {
    "Id": 50037002,
    "materialId": 101681,
    "SortOrder": 3081
  },
  {
    "Id": 50037003,
    "materialId": 101682,
    "SortOrder": 3082
  },
  {
    "Id": 50037004,
    "materialId": 101683,
    "SortOrder": 3083
  },
  {
    "Id": 50037005,
    "materialId": 101684,
    "SortOrder": 3084
  },
  {
    "Id": 50001001,
    "materialId": 100178,
    "SortOrder": 4001
  },
  {
    "Id": 50001002,
    "materialId": 100179,
    "SortOrder": 4002
  },
  {
    "Id": 50001003,
    "materialId": 100180,
    "SortOrder": 4003
  },
  {
    "Id": 50001004,
    "materialId": 100611,
    "SortOrder": 4004
  },
  {
    "Id": 50001005,
    "materialId": 100198,
    "SortOrder": 4005
  },
  {
    "Id": 50001006,
    "materialId": 100612,
    "SortOrder": 4006
  },
  {
    "Id": 50001007,
    "materialId": 100613,
    "SortOrder": 4007
  },
  {
    "Id": 50001008,
    "materialId": 100614,
    "SortOrder": 4008
  },
  {
    "Id": 50001009,
    "materialId": 100199,
    "SortOrder": 4009
  },
  {
    "Id": 50001010,
    "materialId": 100200,
    "SortOrder": 4010
  },
  {
    "Id": 50003001,
    "materialId": 100188,
    "SortOrder": 4011
  },
  {
    "Id": 50003002,
    "materialId": 100189,
    "SortOrder": 4012
  },
  {
    "Id": 50003003,
    "materialId": 100190,
    "SortOrder": 4013
  },
  {
    "Id": 50003004,
    "materialId": 100607,
    "SortOrder": 4014
  },
  {
    "Id": 50003005,
    "materialId": 100191,
    "SortOrder": 4015
  },
  {
    "Id": 50003006,
    "materialId": 100192,
    "SortOrder": 4016
  },
  {
    "Id": 50003007,
    "materialId": 100193,
    "SortOrder": 4017
  },
  {
    "Id": 50003008,
    "materialId": 100608,
    "SortOrder": 4018
  },
  {
    "Id": 50003009,
    "materialId": 100609,
    "SortOrder": 4019
  },
  {
    "Id": 50003010,
    "materialId": 100194,
    "SortOrder": 4020
  },
  {
    "Id": 50003011,
    "materialId": 100195,
    "SortOrder": 4021
  },
  {
    "Id": 50005001,
    "materialId": 100202,
    "SortOrder": 4022
  },
  {
    "Id": 50005002,
    "materialId": 100203,
    "SortOrder": 4023
  },
  {
    "Id": 50005003,
    "materialId": 100204,
    "SortOrder": 4024
  },
  {
    "Id": 50005004,
    "materialId": 100205,
    "SortOrder": 4025
  },
  {
    "Id": 50005005,
    "materialId": 100206,
    "SortOrder": 4026
  },
  {
    "Id": 50005006,
    "materialId": 100610,
    "SortOrder": 4027
  },
  {
    "Id": 50005007,
    "materialId": 100207,
    "SortOrder": 4028
  },
  {
    "Id": 50012001,
    "materialId": 100432,
    "SortOrder": 4029
  },
  {
    "Id": 50012002,
    "materialId": 100433,
    "SortOrder": 4030
  },
  {
    "Id": 50012003,
    "materialId": 100434,
    "SortOrder": 4031
  },
  {
    "Id": 50012004,
    "materialId": 100435,
    "SortOrder": 4032
  },
  {
    "Id": 50012005,
    "materialId": 100436,
    "SortOrder": 4033
  },
  {
    "Id": 50012006,
    "materialId": 100364,
    "SortOrder": 4034
  },
  {
    "Id": 50013001,
    "materialId": 100437,
    "SortOrder": 4035
  },
  {
    "Id": 50013002,
    "materialId": 100438,
    "SortOrder": 4036
  },
  {
    "Id": 50013003,
    "materialId": 100439,
    "SortOrder": 4037
  },
  {
    "Id": 50013004,
    "materialId": 100440,
    "SortOrder": 4038
  },
  {
    "Id": 50018001,
    "materialId": 100568,
    "SortOrder": 4039
  },
  {
    "Id": 50018002,
    "materialId": 100569,
    "SortOrder": 4040
  },
  {
    "Id": 50018003,
    "materialId": 100570,
    "SortOrder": 4041
  },
  {
    "Id": 50018004,
    "materialId": 100571,
    "SortOrder": 4042
  },
  {
    "Id": 50018005,
    "materialId": 100572,
    "SortOrder": 4043
  },
  {
    "Id": 50018006,
    "materialId": 100734,
    "SortOrder": 4044
  },
  {
    "Id": 50018007,
    "materialId": 100735,
    "SortOrder": 4045
  },
  {
    "Id": 50018008,
    "materialId": 100736,
    "SortOrder": 4046
  },
  {
    "Id": 50018009,
    "materialId": 100783,
    "SortOrder": 4047
  },
  {
    "Id": 50018012,
    "materialId": 100784,
    "SortOrder": 4048
  },
  {
    "Id": 50018013,
    "materialId": 100785,
    "SortOrder": 4049
  },
  {
    "Id": 50022001,
    "materialId": 100215,
    "SortOrder": 4050
  },
  {
    "Id": 50022002,
    "materialId": 100216,
    "SortOrder": 4051
  },
  {
    "Id": 50022003,
    "materialId": 100217,
    "SortOrder": 4052
  },
  {
    "Id": 50022004,
    "materialId": 100218,
    "SortOrder": 4053
  },
  {
    "Id": 50022005,
    "materialId": 100219,
    "SortOrder": 4054
  },
  {
    "Id": 50022006,
    "materialId": 100220,
    "SortOrder": 4055
  },
  {
    "Id": 50022007,
    "materialId": 100221,
    "SortOrder": 4056
  },
  {
    "Id": 50024001,
    "materialId": 100590,
    "SortOrder": 4057
  },
  {
    "Id": 50024002,
    "materialId": 100591,
    "SortOrder": 4058
  },
  {
    "Id": 50024003,
    "materialId": 100592,
    "SortOrder": 4059
  },
  {
    "Id": 50024004,
    "materialId": 100593,
    "SortOrder": 4060
  },
  {
    "Id": 50030001,
    "materialId": 101507,
    "SortOrder": 4071
  },
  {
    "Id": 50030002,
    "materialId": 101508,
    "SortOrder": 4072
  },
  {
    "Id": 50030003,
    "materialId": 101509,
    "SortOrder": 4073
  },
  {
    "Id": 50030004,
    "materialId": 101510,
    "SortOrder": 4074
  },
  {
    "Id": 50030005,
    "materialId": 101511,
    "SortOrder": 4075
  },
  {
    "Id": 50030006,
    "materialId": 101512,
    "SortOrder": 4076
  },
  {
    "Id": 50031001,
    "materialId": 101523,
    "SortOrder": 4080
  },
  {
    "Id": 50031002,
    "materialId": 101524,
    "SortOrder": 4081
  },
  {
    "Id": 50031003,
    "materialId": 101525,
    "SortOrder": 4082
  },
  {
    "Id": 50031004,
    "materialId": 101526,
    "SortOrder": 4083
  },
  {
    "Id": 50031005,
    "materialId": 101527,
    "SortOrder": 4084
  },
  {
    "Id": 50031006,
    "materialId": 101588,
    "SortOrder": 4085
  },
  {
    "Id": 50032001,
    "materialId": 101532,
    "SortOrder": 4086
  },
  {
    "Id": 50032002,
    "materialId": 101533,
    "SortOrder": 4087
  },
  {
    "Id": 50032003,
    "materialId": 101534,
    "SortOrder": 4088
  },
  {
    "Id": 50032004,
    "materialId": 101535,
    "SortOrder": 4089
  },
  {
    "Id": 50032005,
    "materialId": 101536,
    "SortOrder": 4090
  },
  {
    "Id": 50032006,
    "materialId": 101766,
    "SortOrder": 4091
  },
  {
    "Id": 50034001,
    "materialId": 101548,
    "SortOrder": 4092
  },
  {
    "Id": 50034002,
    "materialId": 101549,
    "SortOrder": 4093
  },
  {
    "Id": 50034003,
    "materialId": 101550,
    "SortOrder": 4094
  },
  {
    "Id": 50034004,
    "materialId": 101551,
    "SortOrder": 4095
  },
  {
    "Id": 50034005,
    "materialId": 101552,
    "SortOrder": 4096
  },
  {
    "Id": 50034006,
    "materialId": 101553,
    "SortOrder": 4097
  },
  {
    "Id": 50035001,
    "materialId": 101554,
    "SortOrder": 4098
  },
  {
    "Id": 50038001,
    "materialId": 120019,
    "SortOrder": 4104
  },
  {
    "Id": 50038002,
    "materialId": 120020,
    "SortOrder": 4105
  },
  {
    "Id": 50039001,
    "materialId": 120022,
    "SortOrder": 4106
  },
  {
    "Id": 50039002,
    "materialId": 120023,
    "SortOrder": 4107
  },
  {
    "Id": 50039003,
    "materialId": 120024,
    "SortOrder": 4108
  },
  {
    "Id": 50040001,
    "materialId": 120025,
    "SortOrder": 4109
  },
  {
    "Id": 50040002,
    "materialId": 120026,
    "SortOrder": 4110
  },
  {
    "Id": 50040003,
    "materialId": 120027,
    "SortOrder": 4111
  },
  {
    "Id": 50041001,
    "materialId": 120074,
    "SortOrder": 4112
  },
  {
    "Id": 50041002,
    "materialId": 120075,
    "SortOrder": 4113
  },
  {
    "Id": 50041003,
    "materialId": 120076,
    "SortOrder": 4114
  },
  {
    "Id": 50041004,
    "materialId": 120077,
    "SortOrder": 4115
  },
  {
    "Id": 50041005,
    "materialId": 120078,
    "SortOrder": 4116
  },
  {
    "Id": 50041006,
    "materialId": 120079,
    "SortOrder": 4117
  },
  {
    "Id": 50014001,
    "materialId": 100442,
    "SortOrder": 4061,
    "isDisuse": true
  },
  {
    "Id": 50014002,
    "materialId": 100443,
    "SortOrder": 4062,
    "isDisuse": true
  },
  {
    "Id": 50014003,
    "materialId": 100444,
    "SortOrder": 4063,
    "isDisuse": true
  },
  {
    "Id": 50014004,
    "materialId": 100445,
    "SortOrder": 4064,
    "isDisuse": true
  },
  {
    "Id": 50021001,
    "materialId": 100366,
    "SortOrder": 4065,
    "isDisuse": true
  },
  {
    "Id": 50021002,
    "materialId": 100367,
    "SortOrder": 4066,
    "isDisuse": true
  },
  {
    "Id": 50021003,
    "materialId": 100368,
    "SortOrder": 4067,
    "isDisuse": true
  },
  {
    "Id": 50021004,
    "materialId": 100369,
    "SortOrder": 4068,
    "isDisuse": true
  },
  {
    "Id": 50026002,
    "materialId": 100643,
    "SortOrder": 4069,
    "isDisuse": true
  },
  {
    "Id": 50026003,
    "materialId": 100644,
    "SortOrder": 4070,
    "isDisuse": true
  },
  {
    "Id": 50027002,
    "materialId": 100732,
    "SortOrder": 3055,
    "isDisuse": true
  },
  {
    "Id": 50027003,
    "materialId": 100733,
    "SortOrder": 3056,
    "isDisuse": true
  },
  {
    "Id": 50025004,
    "materialId": 100641,
    "SortOrder": 3053,
    "isDisuse": true
  },
  {
    "Id": 50018010,
    "materialId": 100784,
    "SortOrder": 4048,
    "isDisuse": true
  },
  {
    "Id": 50018011,
    "materialId": 100785,
    "SortOrder": 4049,
    "isDisuse": true
  },
  {
    "Id": 50030007,
    "materialId": 101555,
    "SortOrder": 4077,
    "isDisuse": true
  },
  {
    "Id": 50030008,
    "materialId": 101556,
    "SortOrder": 4078,
    "isDisuse": true
  },
  {
    "Id": 50030009,
    "materialId": 101557,
    "SortOrder": 4079,
    "isDisuse": true
  }
]
