[
  {
    "id": 1,
    "titleTextMapHash": 808154669,
    "descTextMapHash": 3231586584,
    "HHMLPNMHJGA": 18016557648835344454
  },
  {
    "id": 2,
    "titleTextMapHash": 3735234173,
    "descTextMapHash": 3432494576,
    "HHMLPNMHJGA": 16477436746268228754
  },
  {
    "id": 3,
    "titleTextMapHash": 3268236101,
    "descTextMapHash": 1710364856,
    "HHMLPNMHJGA": 3770595014593467234
  },
  {
    "id": 4,
    "titleTextMapHash": 2355060989,
    "descTextMapHash": 3689485744,
    "HHMLPNMHJGA": 8441337240898822291
  },
  {
    "id": 5,
    "titleTextMapHash": 1156243061,
    "descTextMapHash": 1869043208,
    "HHMLPNMHJGA": 17723697426268961826
  },
  {
    "id": 6,
    "titleTextMapHash": 497553597,
    "descTextMapHash": 3021873240,
    "HHMLPNMHJGA": 16059406055302572177
  },
  {
    "id": 7,
    "titleTextMapHash": 69076589,
    "descTextMapHash": 323067464,
    "HHMLPNMHJGA": 15675661150887491157
  },
  {
    "id": 8,
    "titleTextMapHash": 3535979869,
    "descTextMapHash": 4011187320,
    "HHMLPNMHJGA": 5480334497072072260
  },
  {
    "id": 9,
    "titleTextMapHash": 2513271029,
    "descTextMapHash": 290274176,
    "HHMLPNMHJGA": 798680935160621529
  }
]
