[
  {
    "id": 1,
    "EIKNGHEDNED": [1001, 1002],
    "KOCIDGIKEPH": 100301,
    "openDay": 1,
    "NEEFMEEDNJH": [
      [1201801, 1201828, 1201803, 1201829, 1201830],
      [1201804, 1201831, 1201806, 1201832, 1201833]
    ],
    "IKBFGPDJNPL": [1201819, 1201820, 1201821, 1201842, 1201843]
  },
  {
    "id": 2,
    "EIKNGHEDNED": [2001, 2002],
    "KOCIDGIKEPH": 200301,
    "openDay": 3,
    "NEEFMEEDNJH": [
      [1201807, 1201808, 1201809, 1201834, 1201835],
      [1201810, 1201811, 1201812, 1201836, 1201837]
    ],
    "IKBFGPDJNPL": [1201822, 1201823, 1201824, 1201844, 1201845]
  },
  {
    "id": 3,
    "EIKNGHEDNED": [3001, 3002],
    "KOCIDGIKEPH": 300301,
    "openDay": 5,
    "NEEFMEEDNJH": [
      [1201813, 1201814, 1201815, 1201838, 1201839],
      [1201816, 1201817, 1201818, 1201840, 1201841]
    ],
    "IKBFGPDJNPL": [1201825, 1201826, 1201827, 1201846, 1201847]
  }
]
