[
  {
    "id": 1,
    "galleryId": 8001,
    "groupId": 144004004,
    "dayIndex": 3,
    "rewardPreview": 31604,
    "NOAAJFHBPPD": 3409658046,
    "MONLJFKOCPA": 1296356496,
    "MPOOKNNOHCJ": [1503004, 1503005, 1503006],
    "PKCHMEHIBCL": [500, 1000, 2000],
    "recommendLevel": [50, 70, 90],
    "CPGEJLNFNFN": [-654.0, 122.0, -205.0]
  },
  {
    "id": 2,
    "galleryId": 8002,
    "groupId": 144001064,
    "dayIndex": 6,
    "rewardPreview": 31607,
    "NOAAJFHBPPD": 2691393294,
    "MONLJFKOCPA": 1496509000,
    "MPOOKNNOHCJ": [1503007, 1503008, 1503009],
    "PKCHMEHIBCL": [500, 1000, 2000],
    "recommendLevel": [50, 70, 90],
    "CPGEJLNFNFN": [269.0, 120.5, 405.0]
  },
  {
    "id": 3,
    "galleryId": 8003,
    "groupId": 144004008,
    "dayIndex": 7,
    "rewardPreview": 31608,
    "NOAAJFHBPPD": 2181422318,
    "MONLJFKOCPA": 54602872,
    "MPOOKNNOHCJ": [1503010, 1503011, 1503012],
    "PKCHMEHIBCL": [500, 1000, 2000],
    "recommendLevel": [50, 70, 90],
    "CPGEJLNFNFN": [-296.0, 121.0, -700.0]
  },
  {
    "id": 4,
    "galleryId": 8004,
    "groupId": 144001107,
    "dayIndex": 1,
    "rewardPreview": 31602,
    "NOAAJFHBPPD": 3560911350,
    "MONLJFKOCPA": 913836208,
    "MPOOKNNOHCJ": [1503013, 1503014, 1503015],
    "PKCHMEHIBCL": [500, 1000, 2000],
    "recommendLevel": [50, 70, 90],
    "CPGEJLNFNFN": [142.0, 120.0, 324.0]
  },
  {
    "id": 5,
    "galleryId": 8005,
    "groupId": 144003031,
    "dayIndex": 4,
    "rewardPreview": 31605,
    "NOAAJFHBPPD": 2532250206,
    "MONLJFKOCPA": 3110003744,
    "MPOOKNNOHCJ": [1503016, 1503017, 1503018],
    "PKCHMEHIBCL": [500, 1000, 2000],
    "recommendLevel": [50, 70, 90],
    "CPGEJLNFNFN": [-205.0, 120.0, 493.0]
  },
  {
    "id": 6,
    "galleryId": 8006,
    "groupId": 144002066,
    "dayIndex": 2,
    "rewardPreview": 31603,
    "NOAAJFHBPPD": 3312265718,
    "MONLJFKOCPA": 4147161760,
    "MPOOKNNOHCJ": [1503019, 1503020, 1503021],
    "PKCHMEHIBCL": [500, 1000, 2000],
    "recommendLevel": [50, 70, 90],
    "CPGEJLNFNFN": [583.0, 121.0, -595.0]
  },
  {
    "id": 7,
    "galleryId": 8007,
    "groupId": 144002067,
    "dayIndex": 5,
    "rewardPreview": 31606,
    "NOAAJFHBPPD": 3935374174,
    "MONLJFKOCPA": 3137084144,
    "MPOOKNNOHCJ": [1503022, 1503023, 1503024],
    "PKCHMEHIBCL": [500, 1000, 2000],
    "recommendLevel": [50, 70, 90],
    "CPGEJLNFNFN": [396.0, 121.0, -395.0]
  }
]
