[
  {
    "tagID": 1001
  },
  {
    "tagID": 1002
  },
  {
    "tagID": 1003
  },
  {
    "tagID": 1004
  },
  {
    "tagID": 1005
  },
  {
    "tagID": 1011
  },
  {
    "tagID": 1012
  },
  {
    "tagID": 1041
  },
  {
    "tagID": 1042
  },
  {
    "tagID": 1043
  },
  {
    "tagID": 1044
  },
  {
    "tagID": 1045
  },
  {
    "tagID": 1051
  },
  {
    "tagID": 1052
  },
  {
    "tagID": 1053
  },
  {
    "tagID": 1054
  },
  {
    "tagID": 1055
  },
  {
    "tagID": 1095
  },
  {
    "tagID": 1096
  },
  {
    "tagID": 1097
  },
  {
    "tagID": 1098
  },
  {
    "tagID": 1099
  },
  {
    "tagID": 3001
  },
  {
    "tagID": 3002
  },
  {
    "tagID": 3003
  },
  {
    "tagID": 3004
  },
  {
    "tagID": 3005
  },
  {
    "tagID": 3006
  },
  {
    "tagID": 4001
  },
  {
    "tagID": 4002
  },
  {
    "tagID": 4003
  },
  {
    "tagID": 4004
  },
  {
    "tagID": 4005
  },
  {
    "tagID": 4006
  },
  {
    "tagID": 4007
  },
  {
    "tagID": 4008
  },
  {
    "tagID": 4009
  },
  {
    "tagID": 4010
  },
  {
    "tagID": 4011
  },
  {
    "tagID": 4012
  },
  {
    "tagID": 4013
  },
  {
    "tagID": 4014
  },
  {
    "tagID": 4015
  },
  {
    "tagID": 4016
  },
  {
    "tagID": 4017
  },
  {
    "tagID": 4018
  },
  {
    "tagID": 4019
  },
  {
    "tagID": 4020
  },
  {
    "tagID": 4021
  },
  {
    "tagID": 4022
  },
  {
    "tagID": 4023
  },
  {
    "tagID": 4024
  },
  {
    "tagID": 4029
  },
  {
    "tagID": 4030
  },
  {
    "tagID": 4901
  },
  {
    "tagID": 4902
  },
  {
    "tagID": 4903
  },
  {
    "tagID": 9001
  },
  {
    "tagID": 9002
  },
  {
    "tagID": 9003
  },
  {
    "tagID": 9004
  },
  {
    "tagID": 9005
  },
  {
    "tagID": 9101
  },
  {
    "tagID": 9102
  },
  {
    "tagID": 9200
  },
  {
    "tagID": 9201
  },
  {
    "tagID": 9202
  },
  {
    "tagID": 9203
  },
  {
    "tagID": 9204
  },
  {
    "tagID": 9205
  },
  {
    "tagID": 9206
  },
  {
    "tagID": 9207
  },
  {
    "tagID": 9208
  },
  {
    "tagID": 9301
  },
  {
    "tagID": 9302
  },
  {
    "tagID": 9303
  },
  {
    "tagID": 9901
  },
  {
    "tagID": 10016
  },
  {
    "tagID": 10020
  },
  {
    "tagID": 10023
  },
  {
    "tagID": 10025
  },
  {
    "tagID": 10026
  },
  {
    "tagID": 10029
  },
  {
    "tagID": 10030
  },
  {
    "tagID": 10031
  },
  {
    "tagID": 10032
  },
  {
    "tagID": 10033
  },
  {
    "tagID": 10034
  },
  {
    "tagID": 10036
  },
  {
    "tagID": 10037
  },
  {
    "tagID": 10038
  },
  {
    "tagID": 10039
  },
  {
    "tagID": 10042
  },
  {
    "tagID": 10043
  },
  {
    "tagID": 10045
  },
  {
    "tagID": 10047
  },
  {
    "tagID": 10048
  },
  {
    "tagID": 10050
  },
  {
    "tagID": 10051
  },
  {
    "tagID": 10052
  },
  {
    "tagID": 10055
  },
  {
    "tagID": 10056
  },
  {
    "tagID": 10057
  },
  {
    "tagID": 10058
  },
  {
    "tagID": 10059
  },
  {
    "tagID": 10060
  },
  {
    "tagID": 10062
  },
  {
    "tagID": 10063
  },
  {
    "tagID": 10064
  },
  {
    "tagID": 10065
  },
  {
    "tagID": 10067
  },
  {
    "tagID": 10070
  },
  {
    "tagID": 10071
  },
  {
    "tagID": 10072
  },
  {
    "tagID": 10073
  },
  {
    "tagID": 10074
  },
  {
    "tagID": 10075
  },
  {
    "tagID": 10076
  },
  {
    "tagID": 10077
  },
  {
    "tagID": 10078
  },
  {
    "tagID": 10079
  },
  {
    "tagID": 10080
  },
  {
    "tagID": 10081
  },
  {
    "tagID": 10082
  },
  {
    "tagID": 30001,
    "tagName": "FEATURE_TAG_AVATAR"
  },
  {
    "tagID": 30002,
    "tagName": "FEATURE_TAG_HUMAN"
  },
  {
    "tagID": 30003,
    "tagName": "FEATURE_TAG_ARANARA"
  },
  {
    "tagID": 30004,
    "tagName": "FEATURE_TAG_MONSTER"
  },
  {
    "tagID": 30005,
    "tagName": "FEATURE_TAG_ANIMAL"
  },
  {
    "tagID": 30006,
    "tagName": "FEATURE_TAG_PARI"
  },
  {
    "tagID": 30100,
    "tagName": "FEATURE_TAG_NAHIDA_INTER"
  }
]
