[
  {
    "stageID": 1,
    "openDay": 1,
    "dungeonID": 8501,
    "watcherList": [12020201, 12020202, 12020203],
    "galleryID": 34002,
    "PNPDAKMIONN": 1001,
    "ONHKAEHBIJE": 100,
    "titleTextMapHash": 3350072736,
    "descTextMapHash": 1967442357,
    "GMOMOGLHMCM": 197279705349052218
  },
  {
    "stageID": 2,
    "openDay": 2,
    "dungeonID": 8502,
    "watcherList": [12020204, 12020205, 12020206],
    "galleryID": 34003,
    "PNPDAKMIONN": 1002,
    "ONHKAEHBIJE": 100,
    "titleTextMapHash": 2016961112,
    "descTextMapHash": 1951866821,
    "GMOMOGLHMCM": 9041089597866159898
  },
  {
    "stageID": 3,
    "openDay": 3,
    "dungeonID": 8503,
    "watcherList": [12020207, 12020208, 12020209],
    "galleryID": 34004,
    "PNPDAKMIONN": 1003,
    "ONHKAEHBIJE": 80,
    "titleTextMapHash": 1812681096,
    "descTextMapHash": 2262628685,
    "GMOMOGLHMCM": 11054633183741866539
  },
  {
    "stageID": 4,
    "openDay": 4,
    "dungeonID": 8504,
    "watcherList": [12020210, 12020211, 12020212],
    "galleryID": 34005,
    "PNPDAKMIONN": 1004,
    "ONHKAEHBIJE": 76,
    "titleTextMapHash": 1370490608,
    "descTextMapHash": 800760205,
    "GMOMOGLHMCM": 8119002095659534190
  },
  {
    "stageID": 5,
    "openDay": 5,
    "dungeonID": 8505,
    "watcherList": [12020213, 12020214, 12020215],
    "galleryID": 34006,
    "PNPDAKMIONN": 1005,
    "ONHKAEHBIJE": 88,
    "titleTextMapHash": 4278847552,
    "descTextMapHash": 3147385205,
    "GMOMOGLHMCM": 14377386443025403545
  },
  {
    "stageID": 6,
    "openDay": 6,
    "dungeonID": 8506,
    "watcherList": [12020216, 12020217, 12020218],
    "galleryID": 34007,
    "PNPDAKMIONN": 1006,
    "ONHKAEHBIJE": 88,
    "titleTextMapHash": 1131113048,
    "descTextMapHash": 298338821,
    "GMOMOGLHMCM": 7214670620738645350
  }
]
