[
  {
    "id": 1,
    "monsterId": 28040201,
    "itemId": 131000,
    "hp": 40,
    "LKPCJGDOJNE": [2010],
    "KPCLNLBBODM": 1001,
    "NFGJMNDCHIJ": 36,
    "BCJCKKCDOGM": [1.0, 2.0],
    "PLDGBIILKKF": [10, 30],
    "AKAGADCKCJD": [25.0, 30.0],
    "EFIKECMBCCG": [1.0, 1.5],
    "ADJBEMILEGG": 2.4000000953674316,
    "KCHEMPNFPKA": 1.0,
    "rewardId": 242001,
    "JFFFOMHBPLN": [],
    "ICABJCHOBEB": 5,
    "HPALHCFNJBP": 1,
    "OLPOMMPDJND": 1013
  },
  {
    "id": 2,
    "monsterId": 28040202,
    "itemId": 131001,
    "hp": 40,
    "LKPCJGDOJNE": [2010],
    "KPCLNLBBODM": 1001,
    "NFGJMNDCHIJ": 36,
    "BCJCKKCDOGM": [1.0, 2.0],
    "PLDGBIILKKF": [10, 30],
    "AKAGADCKCJD": [25.0, 30.0],
    "EFIKECMBCCG": [1.0, 1.5],
    "ADJBEMILEGG": 2.4000000953674316,
    "KCHEMPNFPKA": 1.0,
    "rewardId": 242002,
    "JFFFOMHBPLN": [],
    "ICABJCHOBEB": 5,
    "HPALHCFNJBP": 1,
    "OLPOMMPDJND": 1014
  },
  {
    "id": 3,
    "monsterId": 28040203,
    "itemId": 131002,
    "hp": 40,
    "LKPCJGDOJNE": [2010],
    "KPCLNLBBODM": 1001,
    "NFGJMNDCHIJ": 36,
    "BCJCKKCDOGM": [1.0, 2.0],
    "PLDGBIILKKF": [10, 30],
    "AKAGADCKCJD": [25.0, 30.0],
    "EFIKECMBCCG": [1.0, 1.5],
    "ADJBEMILEGG": 2.4000000953674316,
    "KCHEMPNFPKA": 1.0,
    "rewardId": 242003,
    "JFFFOMHBPLN": [],
    "ICABJCHOBEB": 5,
    "HPALHCFNJBP": 1,
    "OLPOMMPDJND": 1015
  },
  {
    "id": 4,
    "monsterId": 28040204,
    "itemId": 131003,
    "hp": 40,
    "LKPCJGDOJNE": [2010],
    "KPCLNLBBODM": 1001,
    "NFGJMNDCHIJ": 36,
    "BCJCKKCDOGM": [1.0, 2.0],
    "PLDGBIILKKF": [10, 30],
    "AKAGADCKCJD": [25.0, 30.0],
    "EFIKECMBCCG": [1.0, 1.5],
    "ADJBEMILEGG": 2.4000000953674316,
    "KCHEMPNFPKA": 1.0,
    "rewardId": 242004,
    "JFFFOMHBPLN": [],
    "ICABJCHOBEB": 5,
    "HPALHCFNJBP": 1,
    "OLPOMMPDJND": 1016
  },
  {
    "id": 5,
    "monsterId": 28040205,
    "itemId": 131004,
    "hp": 96,
    "LKPCJGDOJNE": [2011],
    "KPCLNLBBODM": 1001,
    "NFGJMNDCHIJ": 24,
    "BCJCKKCDOGM": [0.5, 1.0],
    "PLDGBIILKKF": [10, 30],
    "AKAGADCKCJD": [25.0, 40.0],
    "EFIKECMBCCG": [2.0, 3.0],
    "ADJBEMILEGG": 2.0,
    "KCHEMPNFPKA": 1.2000000476837158,
    "rewardId": 242005,
    "JFFFOMHBPLN": [],
    "ICABJCHOBEB": 1,
    "HPALHCFNJBP": 1,
    "OLPOMMPDJND": 1017
  },
  {
    "id": 6,
    "monsterId": 28040206,
    "itemId": 131005,
    "hp": 96,
    "LKPCJGDOJNE": [2011],
    "KPCLNLBBODM": 1001,
    "NFGJMNDCHIJ": 24,
    "BCJCKKCDOGM": [0.5, 1.0],
    "PLDGBIILKKF": [10, 30],
    "AKAGADCKCJD": [25.0, 40.0],
    "EFIKECMBCCG": [2.0, 3.0],
    "ADJBEMILEGG": 2.0,
    "KCHEMPNFPKA": 1.2000000476837158,
    "rewardId": 242006,
    "JFFFOMHBPLN": [],
    "ICABJCHOBEB": 1,
    "HPALHCFNJBP": 1,
    "OLPOMMPDJND": 1018
  },
  {
    "id": 7,
    "monsterId": 28040301,
    "itemId": 131006,
    "hp": 60,
    "LKPCJGDOJNE": [2012],
    "KPCLNLBBODM": 1001,
    "NFGJMNDCHIJ": 28,
    "BCJCKKCDOGM": [1.0, 2.0],
    "PLDGBIILKKF": [15, 30],
    "AKAGADCKCJD": [25.0, 40.0],
    "EFIKECMBCCG": [2.0, 3.0],
    "ADJBEMILEGG": 3.0,
    "KCHEMPNFPKA": 1.2000000476837158,
    "rewardId": 242007,
    "JFFFOMHBPLN": [],
    "ICABJCHOBEB": 3,
    "HPALHCFNJBP": 1,
    "OLPOMMPDJND": 1019
  },
  {
    "id": 8,
    "monsterId": 28040302,
    "itemId": 131007,
    "hp": 60,
    "LKPCJGDOJNE": [2012],
    "KPCLNLBBODM": 1001,
    "NFGJMNDCHIJ": 28,
    "BCJCKKCDOGM": [1.0, 2.0],
    "PLDGBIILKKF": [15, 30],
    "AKAGADCKCJD": [25.0, 40.0],
    "EFIKECMBCCG": [2.0, 3.0],
    "ADJBEMILEGG": 3.0,
    "KCHEMPNFPKA": 1.2000000476837158,
    "rewardId": 242008,
    "JFFFOMHBPLN": [],
    "ICABJCHOBEB": 3,
    "HPALHCFNJBP": 1,
    "OLPOMMPDJND": 1020
  },
  {
    "id": 9,
    "monsterId": 28040303,
    "itemId": 131008,
    "hp": 60,
    "LKPCJGDOJNE": [2012],
    "KPCLNLBBODM": 1001,
    "NFGJMNDCHIJ": 28,
    "BCJCKKCDOGM": [1.0, 2.0],
    "PLDGBIILKKF": [15, 30],
    "AKAGADCKCJD": [25.0, 40.0],
    "EFIKECMBCCG": [2.0, 3.0],
    "ADJBEMILEGG": 3.0,
    "KCHEMPNFPKA": 1.2000000476837158,
    "rewardId": 242009,
    "JFFFOMHBPLN": [],
    "ICABJCHOBEB": 3,
    "HPALHCFNJBP": 1,
    "OLPOMMPDJND": 1021
  },
  {
    "id": 10,
    "monsterId": 28040304,
    "itemId": 131009,
    "hp": 112,
    "LKPCJGDOJNE": [2013],
    "KPCLNLBBODM": 1001,
    "NFGJMNDCHIJ": 24,
    "BCJCKKCDOGM": [0.5, 1.0],
    "PLDGBIILKKF": [15, 30],
    "AKAGADCKCJD": [25.0, 40.0],
    "EFIKECMBCCG": [3.0, 5.0],
    "ADJBEMILEGG": 3.0,
    "KCHEMPNFPKA": 1.5,
    "rewardId": 242010,
    "JFFFOMHBPLN": [],
    "ICABJCHOBEB": 1,
    "HPALHCFNJBP": 1,
    "OLPOMMPDJND": 1022
  },
  {
    "id": 11,
    "monsterId": 28040305,
    "itemId": 131010,
    "hp": 140,
    "LKPCJGDOJNE": [2014, 1000],
    "KPCLNLBBODM": 1001,
    "NFGJMNDCHIJ": 20,
    "BCJCKKCDOGM": [0.5, 1.0],
    "PLDGBIILKKF": [15, 30],
    "AKAGADCKCJD": [25.0, 40.0],
    "EFIKECMBCCG": [3.0, 5.0],
    "ADJBEMILEGG": 3.0,
    "KCHEMPNFPKA": 1.5,
    "rewardId": 242011,
    "JFFFOMHBPLN": [],
    "ICABJCHOBEB": 1,
    "HPALHCFNJBP": 1,
    "OLPOMMPDJND": 1023
  },
  {
    "id": 12,
    "monsterId": 28040401,
    "itemId": 131011,
    "hp": 126,
    "LKPCJGDOJNE": [2015],
    "KPCLNLBBODM": 1001,
    "NFGJMNDCHIJ": 24,
    "BCJCKKCDOGM": [1.0, 2.0],
    "PLDGBIILKKF": [20, 40],
    "AKAGADCKCJD": [40.0, 50.0],
    "EFIKECMBCCG": [3.0, 5.0],
    "ADJBEMILEGG": 2.4000000953674316,
    "KCHEMPNFPKA": 1.7000000476837158,
    "rewardId": 242012,
    "JFFFOMHBPLN": [],
    "ICABJCHOBEB": 1,
    "HPALHCFNJBP": 1,
    "OLPOMMPDJND": 1024
  },
  {
    "id": 13,
    "monsterId": 28040402,
    "itemId": 131012,
    "hp": 126,
    "LKPCJGDOJNE": [2015],
    "KPCLNLBBODM": 1001,
    "NFGJMNDCHIJ": 24,
    "BCJCKKCDOGM": [1.0, 2.0],
    "PLDGBIILKKF": [20, 40],
    "AKAGADCKCJD": [40.0, 50.0],
    "EFIKECMBCCG": [3.0, 5.0],
    "ADJBEMILEGG": 2.4000000953674316,
    "KCHEMPNFPKA": 1.7000000476837158,
    "rewardId": 242013,
    "JFFFOMHBPLN": [],
    "ICABJCHOBEB": 1,
    "HPALHCFNJBP": 1,
    "OLPOMMPDJND": 1025
  },
  {
    "id": 14,
    "monsterId": 28040501,
    "itemId": 131013,
    "hp": 40,
    "LKPCJGDOJNE": [2016],
    "KPCLNLBBODM": 1001,
    "NFGJMNDCHIJ": 36,
    "BCJCKKCDOGM": [1.0, 2.0],
    "PLDGBIILKKF": [20, 40],
    "AKAGADCKCJD": [10.0, 20.0],
    "EFIKECMBCCG": [1.0, 1.5],
    "ADJBEMILEGG": 2.4000000953674316,
    "KCHEMPNFPKA": 1.0,
    "rewardId": 242014,
    "JFFFOMHBPLN": [],
    "ICABJCHOBEB": 5,
    "HPALHCFNJBP": 1,
    "OLPOMMPDJND": 1026
  },
  {
    "id": 15,
    "monsterId": 28040502,
    "itemId": 131014,
    "hp": 40,
    "LKPCJGDOJNE": [2016],
    "KPCLNLBBODM": 1001,
    "NFGJMNDCHIJ": 36,
    "BCJCKKCDOGM": [1.0, 2.0],
    "PLDGBIILKKF": [20, 40],
    "AKAGADCKCJD": [10.0, 20.0],
    "EFIKECMBCCG": [1.0, 1.5],
    "ADJBEMILEGG": 2.4000000953674316,
    "KCHEMPNFPKA": 1.0,
    "rewardId": 242015,
    "JFFFOMHBPLN": [],
    "ICABJCHOBEB": 5,
    "HPALHCFNJBP": 1,
    "OLPOMMPDJND": 1027
  },
  {
    "id": 16,
    "monsterId": 28040503,
    "itemId": 131015,
    "hp": 40,
    "LKPCJGDOJNE": [2016],
    "KPCLNLBBODM": 1001,
    "NFGJMNDCHIJ": 36,
    "BCJCKKCDOGM": [1.0, 2.0],
    "PLDGBIILKKF": [20, 40],
    "AKAGADCKCJD": [10.0, 20.0],
    "EFIKECMBCCG": [1.0, 1.5],
    "ADJBEMILEGG": 2.0,
    "KCHEMPNFPKA": 1.0,
    "rewardId": 242016,
    "JFFFOMHBPLN": [],
    "ICABJCHOBEB": 5,
    "HPALHCFNJBP": 1,
    "OLPOMMPDJND": 1028
  },
  {
    "id": 17,
    "monsterId": 28040504,
    "itemId": 131016,
    "hp": 125,
    "LKPCJGDOJNE": [2017, 1000],
    "KPCLNLBBODM": 1001,
    "NFGJMNDCHIJ": 20,
    "BCJCKKCDOGM": [0.5, 1.0],
    "PLDGBIILKKF": [20, 40],
    "AKAGADCKCJD": [20.0, 30.0],
    "EFIKECMBCCG": [2.0, 3.0],
    "ADJBEMILEGG": 2.0,
    "KCHEMPNFPKA": 1.0,
    "rewardId": 242017,
    "JFFFOMHBPLN": [],
    "ICABJCHOBEB": 1,
    "HPALHCFNJBP": 1,
    "OLPOMMPDJND": 1029
  },
  {
    "id": 18,
    "monsterId": 28040505,
    "itemId": 131017,
    "hp": 125,
    "LKPCJGDOJNE": [2017, 1000],
    "KPCLNLBBODM": 1001,
    "NFGJMNDCHIJ": 20,
    "BCJCKKCDOGM": [0.5, 1.0],
    "PLDGBIILKKF": [20, 40],
    "AKAGADCKCJD": [20.0, 30.0],
    "EFIKECMBCCG": [2.0, 3.0],
    "ADJBEMILEGG": 2.0,
    "KCHEMPNFPKA": 1.2000000476837158,
    "rewardId": 242018,
    "JFFFOMHBPLN": [],
    "ICABJCHOBEB": 1,
    "HPALHCFNJBP": 1,
    "OLPOMMPDJND": 1030
  },
  {
    "id": 20,
    "monsterId": 28040601,
    "itemId": 131019,
    "hp": 170,
    "LKPCJGDOJNE": [2019],
    "KPCLNLBBODM": 1001,
    "NFGJMNDCHIJ": 30,
    "BCJCKKCDOGM": [0.0, 0.5],
    "PLDGBIILKKF": [50, 80],
    "AKAGADCKCJD": [5.0, 10.0],
    "EFIKECMBCCG": [3.0, 5.0],
    "ADJBEMILEGG": 3.0,
    "KCHEMPNFPKA": 1.7000000476837158,
    "rewardId": 242020,
    "JFFFOMHBPLN": [],
    "ICABJCHOBEB": 1,
    "HPALHCFNJBP": 1,
    "OLPOMMPDJND": 1031
  },
  {
    "id": 21,
    "monsterId": 28040602,
    "itemId": 131020,
    "hp": 170,
    "LKPCJGDOJNE": [2019],
    "KPCLNLBBODM": 1001,
    "NFGJMNDCHIJ": 30,
    "BCJCKKCDOGM": [0.0, 0.5],
    "PLDGBIILKKF": [50, 80],
    "AKAGADCKCJD": [5.0, 10.0],
    "EFIKECMBCCG": [3.0, 5.0],
    "ADJBEMILEGG": 3.0,
    "KCHEMPNFPKA": 1.7000000476837158,
    "rewardId": 242021,
    "JFFFOMHBPLN": [],
    "ICABJCHOBEB": 1,
    "HPALHCFNJBP": 1,
    "OLPOMMPDJND": 1032
  },
  {
    "id": 22,
    "monsterId": 28040701,
    "itemId": 131021,
    "hp": 97,
    "LKPCJGDOJNE": [2030, 1001],
    "KPCLNLBBODM": 1001,
    "NFGJMNDCHIJ": 30,
    "BCJCKKCDOGM": [0.0, 0.5],
    "PLDGBIILKKF": [20, 40],
    "AKAGADCKCJD": [20.0, 30.0],
    "EFIKECMBCCG": [3.0, 5.0],
    "ADJBEMILEGG": 3.0,
    "KCHEMPNFPKA": 1.7000000476837158,
    "rewardId": 242022,
    "JFFFOMHBPLN": [],
    "ICABJCHOBEB": 1,
    "HPALHCFNJBP": 1,
    "OLPOMMPDJND": 1033
  },
  {
    "id": 23,
    "monsterId": 28040702,
    "itemId": 131022,
    "hp": 110,
    "LKPCJGDOJNE": [2030, 1001],
    "KPCLNLBBODM": 1001,
    "NFGJMNDCHIJ": 30,
    "BCJCKKCDOGM": [1.0, 2.0],
    "PLDGBIILKKF": [20, 40],
    "AKAGADCKCJD": [20.0, 30.0],
    "EFIKECMBCCG": [3.0, 5.0],
    "ADJBEMILEGG": 3.0,
    "KCHEMPNFPKA": 1.7000000476837158,
    "rewardId": 242023,
    "JFFFOMHBPLN": [],
    "ICABJCHOBEB": 1,
    "HPALHCFNJBP": 1,
    "OLPOMMPDJND": 1034
  },
  {
    "id": 24,
    "monsterId": 28040801,
    "itemId": 131023,
    "hp": 60,
    "LKPCJGDOJNE": [2001, 1003],
    "KPCLNLBBODM": 1001,
    "NFGJMNDCHIJ": 25,
    "BCJCKKCDOGM": [0.800000011920929, 2.0],
    "PLDGBIILKKF": [20, 40],
    "AKAGADCKCJD": [30.0, 35.0],
    "EFIKECMBCCG": [3.0, 4.0],
    "ADJBEMILEGG": 2.799999952316284,
    "KCHEMPNFPKA": 1.2000000476837158,
    "rewardId": 242024,
    "JFFFOMHBPLN": [],
    "ICABJCHOBEB": 2,
    "HPALHCFNJBP": 1,
    "OLPOMMPDJND": 1035
  },
  {
    "id": 25,
    "monsterId": 28040802,
    "itemId": 131024,
    "hp": 123,
    "LKPCJGDOJNE": [2001, 2003, 1004],
    "KPCLNLBBODM": 1001,
    "NFGJMNDCHIJ": 25,
    "BCJCKKCDOGM": [0.800000011920929, 2.0],
    "PLDGBIILKKF": [20, 40],
    "AKAGADCKCJD": [30.0, 35.0],
    "EFIKECMBCCG": [4.0, 5.0],
    "ADJBEMILEGG": 2.799999952316284,
    "KCHEMPNFPKA": 1.2000000476837158,
    "rewardId": 242025,
    "JFFFOMHBPLN": [],
    "ICABJCHOBEB": 1,
    "HPALHCFNJBP": 1,
    "OLPOMMPDJND": 1036
  },
  {
    "id": 26,
    "monsterId": 28040803,
    "itemId": 131025,
    "hp": 60,
    "LKPCJGDOJNE": [2001, 1003],
    "KPCLNLBBODM": 1001,
    "NFGJMNDCHIJ": 25,
    "BCJCKKCDOGM": [0.800000011920929, 2.0],
    "PLDGBIILKKF": [20, 40],
    "AKAGADCKCJD": [30.0, 35.0],
    "EFIKECMBCCG": [3.0, 4.0],
    "ADJBEMILEGG": 2.799999952316284,
    "KCHEMPNFPKA": 1.2000000476837158,
    "rewardId": 242026,
    "JFFFOMHBPLN": [],
    "ICABJCHOBEB": 2,
    "HPALHCFNJBP": 1,
    "OLPOMMPDJND": 1037
  },
  {
    "id": 27,
    "monsterId": 28040804,
    "itemId": 131026,
    "hp": 60,
    "LKPCJGDOJNE": [2001, 1003],
    "KPCLNLBBODM": 1001,
    "NFGJMNDCHIJ": 25,
    "BCJCKKCDOGM": [0.800000011920929, 2.0],
    "PLDGBIILKKF": [20, 40],
    "AKAGADCKCJD": [30.0, 35.0],
    "EFIKECMBCCG": [3.0, 4.0],
    "ADJBEMILEGG": 2.799999952316284,
    "KCHEMPNFPKA": 1.2000000476837158,
    "rewardId": 242027,
    "JFFFOMHBPLN": [],
    "ICABJCHOBEB": 2,
    "HPALHCFNJBP": 1,
    "OLPOMMPDJND": 1038
  },
  {
    "id": 28,
    "monsterId": 28040901,
    "itemId": 131027,
    "hp": 71,
    "LKPCJGDOJNE": [2011],
    "KPCLNLBBODM": 1001,
    "NFGJMNDCHIJ": 28,
    "BCJCKKCDOGM": [1.0, 2.0],
    "PLDGBIILKKF": [15, 35],
    "AKAGADCKCJD": [30.0, 35.0],
    "EFIKECMBCCG": [2.0, 3.0],
    "ADJBEMILEGG": 2.799999952316284,
    "KCHEMPNFPKA": 1.2000000476837158,
    "rewardId": 242028,
    "JFFFOMHBPLN": [],
    "ICABJCHOBEB": 3,
    "HPALHCFNJBP": 1,
    "OLPOMMPDJND": 1039
  },
  {
    "id": 29,
    "monsterId": 28040902,
    "itemId": 131028,
    "hp": 71,
    "LKPCJGDOJNE": [2011],
    "KPCLNLBBODM": 1001,
    "NFGJMNDCHIJ": 28,
    "BCJCKKCDOGM": [1.0, 2.0],
    "PLDGBIILKKF": [15, 35],
    "AKAGADCKCJD": [30.0, 35.0],
    "EFIKECMBCCG": [2.0, 3.0],
    "ADJBEMILEGG": 2.799999952316284,
    "KCHEMPNFPKA": 1.2000000476837158,
    "rewardId": 242029,
    "JFFFOMHBPLN": [],
    "ICABJCHOBEB": 3,
    "HPALHCFNJBP": 1,
    "OLPOMMPDJND": 1040
  },
  {
    "id": 1001,
    "monsterId": 28040201,
    "itemId": 379001,
    "hp": 120,
    "LKPCJGDOJNE": [2020],
    "KPCLNLBBODM": 1001,
    "NFGJMNDCHIJ": 28,
    "BCJCKKCDOGM": [1.0, 2.0],
    "PLDGBIILKKF": [10, 30],
    "AKAGADCKCJD": [25.0, 30.0],
    "EFIKECMBCCG": [2.0, 8.0],
    "ADJBEMILEGG": 2.4000000953674316,
    "KCHEMPNFPKA": 1.0,
    "rewardId": 243001,
    "JFFFOMHBPLN": [],
    "LJKDKIFAKKM": 1,
    "ICABJCHOBEB": 1,
    "HPALHCFNJBP": 2,
    "OLPOMMPDJND": 1013
  },
  {
    "id": 1002,
    "monsterId": 28040202,
    "itemId": 379002,
    "hp": 120,
    "LKPCJGDOJNE": [2020],
    "KPCLNLBBODM": 1001,
    "NFGJMNDCHIJ": 28,
    "BCJCKKCDOGM": [1.0, 2.0],
    "PLDGBIILKKF": [10, 30],
    "AKAGADCKCJD": [25.0, 30.0],
    "EFIKECMBCCG": [2.0, 8.0],
    "ADJBEMILEGG": 2.4000000953674316,
    "KCHEMPNFPKA": 1.0,
    "rewardId": 243002,
    "JFFFOMHBPLN": [],
    "LJKDKIFAKKM": 2,
    "ICABJCHOBEB": 1,
    "HPALHCFNJBP": 2,
    "OLPOMMPDJND": 1014
  },
  {
    "id": 1003,
    "monsterId": 28040203,
    "itemId": 379003,
    "hp": 120,
    "LKPCJGDOJNE": [2020],
    "KPCLNLBBODM": 1001,
    "NFGJMNDCHIJ": 28,
    "BCJCKKCDOGM": [1.0, 2.0],
    "PLDGBIILKKF": [10, 30],
    "AKAGADCKCJD": [25.0, 30.0],
    "EFIKECMBCCG": [2.0, 8.0],
    "ADJBEMILEGG": 2.4000000953674316,
    "KCHEMPNFPKA": 1.0,
    "rewardId": 243003,
    "JFFFOMHBPLN": [],
    "LJKDKIFAKKM": 3,
    "ICABJCHOBEB": 1,
    "HPALHCFNJBP": 2,
    "OLPOMMPDJND": 1015
  },
  {
    "id": 1004,
    "monsterId": 28040204,
    "itemId": 379004,
    "hp": 120,
    "LKPCJGDOJNE": [2020],
    "KPCLNLBBODM": 1001,
    "NFGJMNDCHIJ": 28,
    "BCJCKKCDOGM": [1.0, 2.0],
    "PLDGBIILKKF": [10, 30],
    "AKAGADCKCJD": [25.0, 30.0],
    "EFIKECMBCCG": [2.0, 8.0],
    "ADJBEMILEGG": 2.4000000953674316,
    "KCHEMPNFPKA": 1.0,
    "rewardId": 243004,
    "JFFFOMHBPLN": [],
    "LJKDKIFAKKM": 4,
    "ICABJCHOBEB": 1,
    "HPALHCFNJBP": 2,
    "OLPOMMPDJND": 1016
  },
  {
    "id": 1005,
    "monsterId": 28040205,
    "itemId": 379005,
    "hp": 180,
    "LKPCJGDOJNE": [2021],
    "KPCLNLBBODM": 1001,
    "NFGJMNDCHIJ": 24,
    "BCJCKKCDOGM": [0.5, 1.0],
    "PLDGBIILKKF": [10, 30],
    "AKAGADCKCJD": [25.0, 40.0],
    "EFIKECMBCCG": [2.0, 8.0],
    "ADJBEMILEGG": 2.0,
    "KCHEMPNFPKA": 1.2000000476837158,
    "rewardId": 243005,
    "JFFFOMHBPLN": [],
    "LJKDKIFAKKM": 5,
    "ICABJCHOBEB": 1,
    "HPALHCFNJBP": 2,
    "OLPOMMPDJND": 1017
  },
  {
    "id": 1006,
    "monsterId": 28040206,
    "itemId": 379006,
    "hp": 180,
    "LKPCJGDOJNE": [2021],
    "KPCLNLBBODM": 1001,
    "NFGJMNDCHIJ": 24,
    "BCJCKKCDOGM": [0.5, 1.0],
    "PLDGBIILKKF": [10, 30],
    "AKAGADCKCJD": [25.0, 40.0],
    "EFIKECMBCCG": [2.0, 8.0],
    "ADJBEMILEGG": 2.0,
    "KCHEMPNFPKA": 1.2000000476837158,
    "rewardId": 243006,
    "JFFFOMHBPLN": [],
    "LJKDKIFAKKM": 6,
    "ICABJCHOBEB": 1,
    "HPALHCFNJBP": 2,
    "OLPOMMPDJND": 1018
  },
  {
    "id": 1007,
    "monsterId": 28040301,
    "itemId": 379007,
    "hp": 125,
    "LKPCJGDOJNE": [2022],
    "KPCLNLBBODM": 1001,
    "NFGJMNDCHIJ": 24,
    "BCJCKKCDOGM": [1.0, 2.0],
    "PLDGBIILKKF": [15, 30],
    "AKAGADCKCJD": [25.0, 40.0],
    "EFIKECMBCCG": [2.0, 8.0],
    "ADJBEMILEGG": 3.0,
    "KCHEMPNFPKA": 1.2000000476837158,
    "rewardId": 243007,
    "JFFFOMHBPLN": [],
    "LJKDKIFAKKM": 7,
    "ICABJCHOBEB": 1,
    "HPALHCFNJBP": 2,
    "OLPOMMPDJND": 1019
  },
  {
    "id": 1008,
    "monsterId": 28040302,
    "itemId": 379008,
    "hp": 125,
    "LKPCJGDOJNE": [2022],
    "KPCLNLBBODM": 1001,
    "NFGJMNDCHIJ": 24,
    "BCJCKKCDOGM": [1.0, 2.0],
    "PLDGBIILKKF": [15, 30],
    "AKAGADCKCJD": [25.0, 40.0],
    "EFIKECMBCCG": [2.0, 8.0],
    "ADJBEMILEGG": 3.0,
    "KCHEMPNFPKA": 1.2000000476837158,
    "rewardId": 243008,
    "JFFFOMHBPLN": [],
    "LJKDKIFAKKM": 8,
    "ICABJCHOBEB": 1,
    "HPALHCFNJBP": 2,
    "OLPOMMPDJND": 1020
  },
  {
    "id": 1009,
    "monsterId": 28040303,
    "itemId": 379009,
    "hp": 125,
    "LKPCJGDOJNE": [2022],
    "KPCLNLBBODM": 1001,
    "NFGJMNDCHIJ": 24,
    "BCJCKKCDOGM": [1.0, 2.0],
    "PLDGBIILKKF": [15, 30],
    "AKAGADCKCJD": [25.0, 40.0],
    "EFIKECMBCCG": [2.0, 8.0],
    "ADJBEMILEGG": 3.0,
    "KCHEMPNFPKA": 1.2000000476837158,
    "rewardId": 243009,
    "JFFFOMHBPLN": [],
    "LJKDKIFAKKM": 9,
    "ICABJCHOBEB": 1,
    "HPALHCFNJBP": 2,
    "OLPOMMPDJND": 1021
  },
  {
    "id": 1010,
    "monsterId": 28040304,
    "itemId": 379010,
    "hp": 196,
    "LKPCJGDOJNE": [2023],
    "KPCLNLBBODM": 1001,
    "NFGJMNDCHIJ": 24,
    "BCJCKKCDOGM": [0.5, 1.0],
    "PLDGBIILKKF": [15, 30],
    "AKAGADCKCJD": [25.0, 40.0],
    "EFIKECMBCCG": [2.0, 8.0],
    "ADJBEMILEGG": 3.0,
    "KCHEMPNFPKA": 1.5,
    "rewardId": 243010,
    "JFFFOMHBPLN": [],
    "LJKDKIFAKKM": 10,
    "ICABJCHOBEB": 1,
    "HPALHCFNJBP": 2,
    "OLPOMMPDJND": 1022
  },
  {
    "id": 1011,
    "monsterId": 28040305,
    "itemId": 379011,
    "hp": 175,
    "LKPCJGDOJNE": [2024, 2001, 1000],
    "KPCLNLBBODM": 1001,
    "NFGJMNDCHIJ": 20,
    "BCJCKKCDOGM": [0.5, 1.0],
    "PLDGBIILKKF": [15, 30],
    "AKAGADCKCJD": [25.0, 40.0],
    "EFIKECMBCCG": [2.0, 8.0],
    "ADJBEMILEGG": 3.0,
    "KCHEMPNFPKA": 1.5,
    "rewardId": 243011,
    "JFFFOMHBPLN": [],
    "LJKDKIFAKKM": 11,
    "ICABJCHOBEB": 1,
    "HPALHCFNJBP": 2,
    "OLPOMMPDJND": 1023
  },
  {
    "id": 1012,
    "monsterId": 28040401,
    "itemId": 379012,
    "hp": 180,
    "LKPCJGDOJNE": [2025],
    "KPCLNLBBODM": 1001,
    "NFGJMNDCHIJ": 20,
    "BCJCKKCDOGM": [1.0, 2.0],
    "PLDGBIILKKF": [20, 40],
    "AKAGADCKCJD": [40.0, 50.0],
    "EFIKECMBCCG": [2.0, 8.0],
    "ADJBEMILEGG": 2.4000000953674316,
    "KCHEMPNFPKA": 1.7000000476837158,
    "rewardId": 243012,
    "JFFFOMHBPLN": [],
    "LJKDKIFAKKM": 12,
    "ICABJCHOBEB": 1,
    "HPALHCFNJBP": 2,
    "OLPOMMPDJND": 1024
  },
  {
    "id": 1013,
    "monsterId": 28040402,
    "itemId": 379013,
    "hp": 180,
    "LKPCJGDOJNE": [2025],
    "KPCLNLBBODM": 1001,
    "NFGJMNDCHIJ": 20,
    "BCJCKKCDOGM": [1.0, 2.0],
    "PLDGBIILKKF": [20, 40],
    "AKAGADCKCJD": [40.0, 50.0],
    "EFIKECMBCCG": [2.0, 8.0],
    "ADJBEMILEGG": 2.4000000953674316,
    "KCHEMPNFPKA": 1.7000000476837158,
    "rewardId": 243013,
    "JFFFOMHBPLN": [],
    "LJKDKIFAKKM": 13,
    "ICABJCHOBEB": 1,
    "HPALHCFNJBP": 2,
    "OLPOMMPDJND": 1025
  },
  {
    "id": 1014,
    "monsterId": 28040501,
    "itemId": 379014,
    "hp": 140,
    "LKPCJGDOJNE": [2026],
    "KPCLNLBBODM": 1001,
    "NFGJMNDCHIJ": 28,
    "BCJCKKCDOGM": [1.0, 2.0],
    "PLDGBIILKKF": [20, 40],
    "AKAGADCKCJD": [10.0, 20.0],
    "EFIKECMBCCG": [2.0, 8.0],
    "ADJBEMILEGG": 2.4000000953674316,
    "KCHEMPNFPKA": 1.0,
    "rewardId": 243014,
    "JFFFOMHBPLN": [],
    "LJKDKIFAKKM": 14,
    "ICABJCHOBEB": 1,
    "HPALHCFNJBP": 2,
    "OLPOMMPDJND": 1026
  },
  {
    "id": 1015,
    "monsterId": 28040502,
    "itemId": 379015,
    "hp": 140,
    "LKPCJGDOJNE": [2026],
    "KPCLNLBBODM": 1001,
    "NFGJMNDCHIJ": 28,
    "BCJCKKCDOGM": [1.0, 2.0],
    "PLDGBIILKKF": [20, 40],
    "AKAGADCKCJD": [10.0, 20.0],
    "EFIKECMBCCG": [2.0, 8.0],
    "ADJBEMILEGG": 2.4000000953674316,
    "KCHEMPNFPKA": 1.0,
    "rewardId": 243015,
    "JFFFOMHBPLN": [],
    "LJKDKIFAKKM": 15,
    "ICABJCHOBEB": 1,
    "HPALHCFNJBP": 2,
    "OLPOMMPDJND": 1027
  },
  {
    "id": 1016,
    "monsterId": 28040503,
    "itemId": 379016,
    "hp": 140,
    "LKPCJGDOJNE": [2026],
    "KPCLNLBBODM": 1001,
    "NFGJMNDCHIJ": 28,
    "BCJCKKCDOGM": [1.0, 2.0],
    "PLDGBIILKKF": [20, 40],
    "AKAGADCKCJD": [10.0, 20.0],
    "EFIKECMBCCG": [2.0, 8.0],
    "ADJBEMILEGG": 2.0,
    "KCHEMPNFPKA": 1.0,
    "rewardId": 243016,
    "JFFFOMHBPLN": [],
    "LJKDKIFAKKM": 16,
    "ICABJCHOBEB": 1,
    "HPALHCFNJBP": 2,
    "OLPOMMPDJND": 1028
  },
  {
    "id": 1017,
    "monsterId": 28040504,
    "itemId": 379017,
    "hp": 88,
    "LKPCJGDOJNE": [2027, 2002, 1000],
    "KPCLNLBBODM": 1001,
    "NFGJMNDCHIJ": 20,
    "BCJCKKCDOGM": [0.5, 1.0],
    "PLDGBIILKKF": [20, 40],
    "AKAGADCKCJD": [20.0, 30.0],
    "EFIKECMBCCG": [2.0, 8.0],
    "ADJBEMILEGG": 2.0,
    "KCHEMPNFPKA": 1.0,
    "rewardId": 243017,
    "JFFFOMHBPLN": [],
    "LJKDKIFAKKM": 17,
    "ICABJCHOBEB": 1,
    "HPALHCFNJBP": 2,
    "OLPOMMPDJND": 1029
  },
  {
    "id": 1018,
    "monsterId": 28040505,
    "itemId": 379018,
    "hp": 88,
    "LKPCJGDOJNE": [2027, 2002, 1000],
    "KPCLNLBBODM": 1001,
    "NFGJMNDCHIJ": 20,
    "BCJCKKCDOGM": [0.5, 1.0],
    "PLDGBIILKKF": [20, 40],
    "AKAGADCKCJD": [20.0, 30.0],
    "EFIKECMBCCG": [2.0, 8.0],
    "ADJBEMILEGG": 2.0,
    "KCHEMPNFPKA": 1.2000000476837158,
    "rewardId": 243018,
    "JFFFOMHBPLN": [],
    "LJKDKIFAKKM": 18,
    "ICABJCHOBEB": 1,
    "HPALHCFNJBP": 2,
    "OLPOMMPDJND": 1030
  },
  {
    "id": 1019,
    "monsterId": 28040506,
    "itemId": 379019,
    "hp": 88,
    "LKPCJGDOJNE": [2028, 2000, 1000],
    "KPCLNLBBODM": 1001,
    "NFGJMNDCHIJ": 20,
    "BCJCKKCDOGM": [1.0, 2.0],
    "PLDGBIILKKF": [15, 30],
    "AKAGADCKCJD": [25.0, 40.0],
    "EFIKECMBCCG": [2.0, 8.0],
    "ADJBEMILEGG": 2.0,
    "KCHEMPNFPKA": 1.2000000476837158,
    "rewardId": 243019,
    "JFFFOMHBPLN": [],
    "LJKDKIFAKKM": 19,
    "ICABJCHOBEB": 1,
    "HPALHCFNJBP": 2
  },
  {
    "id": 1020,
    "monsterId": 28040601,
    "itemId": 379020,
    "hp": 255,
    "LKPCJGDOJNE": [2029],
    "KPCLNLBBODM": 1001,
    "NFGJMNDCHIJ": 28,
    "BCJCKKCDOGM": [0.0, 0.5],
    "PLDGBIILKKF": [50, 80],
    "AKAGADCKCJD": [5.0, 10.0],
    "EFIKECMBCCG": [2.0, 8.0],
    "ADJBEMILEGG": 3.0,
    "KCHEMPNFPKA": 1.7000000476837158,
    "rewardId": 243020,
    "JFFFOMHBPLN": [],
    "LJKDKIFAKKM": 20,
    "ICABJCHOBEB": 1,
    "HPALHCFNJBP": 2,
    "OLPOMMPDJND": 1031
  },
  {
    "id": 1021,
    "monsterId": 28040602,
    "itemId": 379021,
    "hp": 255,
    "LKPCJGDOJNE": [2029],
    "KPCLNLBBODM": 1001,
    "NFGJMNDCHIJ": 28,
    "BCJCKKCDOGM": [0.0, 0.5],
    "PLDGBIILKKF": [50, 80],
    "AKAGADCKCJD": [5.0, 10.0],
    "EFIKECMBCCG": [2.0, 8.0],
    "ADJBEMILEGG": 3.0,
    "KCHEMPNFPKA": 1.7000000476837158,
    "rewardId": 243021,
    "JFFFOMHBPLN": [],
    "LJKDKIFAKKM": 21,
    "ICABJCHOBEB": 1,
    "HPALHCFNJBP": 2,
    "OLPOMMPDJND": 1032
  },
  {
    "id": 1022,
    "monsterId": 28040701,
    "itemId": 379022,
    "hp": 110,
    "LKPCJGDOJNE": [2031, 1002],
    "KPCLNLBBODM": 1001,
    "NFGJMNDCHIJ": 28,
    "BCJCKKCDOGM": [1.0, 2.0],
    "PLDGBIILKKF": [20, 40],
    "AKAGADCKCJD": [20.0, 30.0],
    "EFIKECMBCCG": [2.0, 8.0],
    "ADJBEMILEGG": 3.0,
    "KCHEMPNFPKA": 1.7000000476837158,
    "rewardId": 243022,
    "JFFFOMHBPLN": [],
    "LJKDKIFAKKM": 22,
    "ICABJCHOBEB": 1,
    "HPALHCFNJBP": 2,
    "OLPOMMPDJND": 1033
  },
  {
    "id": 1023,
    "monsterId": 28040702,
    "itemId": 379023,
    "hp": 125,
    "LKPCJGDOJNE": [2031, 1002],
    "KPCLNLBBODM": 1001,
    "NFGJMNDCHIJ": 28,
    "BCJCKKCDOGM": [1.0, 2.0],
    "PLDGBIILKKF": [20, 40],
    "AKAGADCKCJD": [20.0, 30.0],
    "EFIKECMBCCG": [2.0, 8.0],
    "ADJBEMILEGG": 3.0,
    "KCHEMPNFPKA": 1.7000000476837158,
    "rewardId": 243023,
    "JFFFOMHBPLN": [],
    "LJKDKIFAKKM": 23,
    "ICABJCHOBEB": 1,
    "HPALHCFNJBP": 2,
    "OLPOMMPDJND": 1034
  },
  {
    "id": 1024,
    "monsterId": 28040801,
    "itemId": 379024,
    "hp": 90,
    "LKPCJGDOJNE": [2005, 1005],
    "KPCLNLBBODM": 1001,
    "NFGJMNDCHIJ": 25,
    "BCJCKKCDOGM": [0.800000011920929, 2.0],
    "PLDGBIILKKF": [20, 40],
    "AKAGADCKCJD": [30.0, 35.0],
    "EFIKECMBCCG": [3.0, 4.0],
    "ADJBEMILEGG": 2.799999952316284,
    "KCHEMPNFPKA": 1.2000000476837158,
    "rewardId": 243024,
    "JFFFOMHBPLN": [],
    "LJKDKIFAKKM": 24,
    "ICABJCHOBEB": 2,
    "HPALHCFNJBP": 2,
    "OLPOMMPDJND": 1035
  },
  {
    "id": 1025,
    "monsterId": 28040802,
    "itemId": 379025,
    "hp": 159,
    "LKPCJGDOJNE": [2001, 2004, 1004],
    "KPCLNLBBODM": 1001,
    "NFGJMNDCHIJ": 25,
    "BCJCKKCDOGM": [0.800000011920929, 2.0],
    "PLDGBIILKKF": [20, 40],
    "AKAGADCKCJD": [30.0, 35.0],
    "EFIKECMBCCG": [4.0, 5.0],
    "ADJBEMILEGG": 2.799999952316284,
    "KCHEMPNFPKA": 1.2000000476837158,
    "rewardId": 243025,
    "JFFFOMHBPLN": [],
    "LJKDKIFAKKM": 25,
    "ICABJCHOBEB": 1,
    "HPALHCFNJBP": 2,
    "OLPOMMPDJND": 1036
  },
  {
    "id": 1026,
    "monsterId": 28040803,
    "itemId": 379026,
    "hp": 90,
    "LKPCJGDOJNE": [2005, 1005],
    "KPCLNLBBODM": 1001,
    "NFGJMNDCHIJ": 25,
    "BCJCKKCDOGM": [0.800000011920929, 2.0],
    "PLDGBIILKKF": [20, 40],
    "AKAGADCKCJD": [30.0, 35.0],
    "EFIKECMBCCG": [3.0, 4.0],
    "ADJBEMILEGG": 2.799999952316284,
    "KCHEMPNFPKA": 1.2000000476837158,
    "rewardId": 243026,
    "JFFFOMHBPLN": [],
    "LJKDKIFAKKM": 26,
    "ICABJCHOBEB": 2,
    "HPALHCFNJBP": 2,
    "OLPOMMPDJND": 1037
  },
  {
    "id": 1027,
    "monsterId": 28040804,
    "itemId": 379027,
    "hp": 90,
    "LKPCJGDOJNE": [2005, 1005],
    "KPCLNLBBODM": 1001,
    "NFGJMNDCHIJ": 25,
    "BCJCKKCDOGM": [0.800000011920929, 2.0],
    "PLDGBIILKKF": [20, 40],
    "AKAGADCKCJD": [30.0, 35.0],
    "EFIKECMBCCG": [3.0, 4.0],
    "ADJBEMILEGG": 2.799999952316284,
    "KCHEMPNFPKA": 1.2000000476837158,
    "rewardId": 243027,
    "JFFFOMHBPLN": [],
    "LJKDKIFAKKM": 27,
    "ICABJCHOBEB": 2,
    "HPALHCFNJBP": 2,
    "OLPOMMPDJND": 1038
  },
  {
    "id": 1028,
    "monsterId": 28040901,
    "itemId": 379028,
    "hp": 117,
    "LKPCJGDOJNE": [2021],
    "KPCLNLBBODM": 1001,
    "NFGJMNDCHIJ": 28,
    "BCJCKKCDOGM": [1.0, 2.0],
    "PLDGBIILKKF": [15, 35],
    "AKAGADCKCJD": [30.0, 35.0],
    "EFIKECMBCCG": [2.0, 3.0],
    "ADJBEMILEGG": 2.799999952316284,
    "KCHEMPNFPKA": 1.2000000476837158,
    "rewardId": 243028,
    "JFFFOMHBPLN": [],
    "LJKDKIFAKKM": 28,
    "ICABJCHOBEB": 3,
    "HPALHCFNJBP": 2,
    "OLPOMMPDJND": 1039
  },
  {
    "id": 1029,
    "monsterId": 28040902,
    "itemId": 379029,
    "hp": 117,
    "LKPCJGDOJNE": [2021],
    "KPCLNLBBODM": 1001,
    "NFGJMNDCHIJ": 28,
    "BCJCKKCDOGM": [1.0, 2.0],
    "PLDGBIILKKF": [15, 35],
    "AKAGADCKCJD": [30.0, 35.0],
    "EFIKECMBCCG": [2.0, 3.0],
    "ADJBEMILEGG": 2.799999952316284,
    "KCHEMPNFPKA": 1.2000000476837158,
    "rewardId": 243029,
    "JFFFOMHBPLN": [],
    "LJKDKIFAKKM": 29,
    "ICABJCHOBEB": 3,
    "HPALHCFNJBP": 2,
    "OLPOMMPDJND": 1040
  }
]
