[
  {
    "id": 1,
    "IIKJJLJJCNB": 1,
    "DIELFJDCBFK": 26090191,
    "POGAHMCLGCP": 36090190,
    "EOMGAJDMJDP": 10,
    "DAHJBHOIBDG": [11, 12, 13],
    "configId": 10001023,
    "OJMGDFDFIIF": 20.0,
    "KICAAAAMFMP": "ART/UI/Atlas/Activity/FungusFighter/UI_Icon_Fungus_Un_Gamma_Water",
    "IFLCMDCAKJM": "ART/UI/Atlas/Activity/FungusFighter/UI_Icon_Fungus_Partner_Un_Gamma_Water",
    "MLCAAHPIFAF": "ART/UI/Atlas/Activity/FungusFighter/UI_SmallIcon_Fungus_Partner_Un_Gamma_Water",
    "ICJDAHFFLLC": "ART/UI/Atlas/Activity/FungusFighter/UI_SmallIcon_Fungus_Partner_Un_Gamma_Water",
    "EIMLLLDCODF": "ART/UI/Atlas/BuffElement/UI_Buff_Item_Recovery_HpAdd",
    "OMAKCCNDHKM": 2425774475,
    "IEOPJILFFEA": [768447910, 2759587173, 3790687436],
    "OEHDFPPHCHN": [1534533746, 2184427094, 1470403961],
    "infoDescTextMapHash": 3955528592,
    "CJILJKJDAGO": 391638292,
    "ODCJAHNOPLI": 1759306193
  },
  {
    "id": 2,
    "IIKJJLJJCNB": 3,
    "DIELFJDCBFK": 26090291,
    "POGAHMCLGCP": 36090290,
    "DAHJBHOIBDG": [21, 22, 23],
    "configId": 10001024,
    "OJMGDFDFIIF": 15.0,
    "KICAAAAMFMP": "ART/UI/Atlas/Activity/FungusFighter/UI_Icon_Fungus_Un_Delta_Grass",
    "IFLCMDCAKJM": "ART/UI/Atlas/Activity/FungusFighter/UI_Icon_Fungus_Partner_Un_Delta_Grass",
    "MLCAAHPIFAF": "ART/UI/Atlas/Activity/FungusFighter/UI_SmallIcon_Fungus_Partner_Un_Delta_Grass",
    "ICJDAHFFLLC": "ART/UI/Atlas/Activity/FungusFighter/UI_SmallIcon_Fungus_Partner_Un_Delta_Grass",
    "EIMLLLDCODF": "ART/UI/Atlas/BuffElement/UI_Buff_Item_Atk_Nomal",
    "OMAKCCNDHKM": 3915725003,
    "IEOPJILFFEA": [4185318134, 50141317, 2988505668],
    "OEHDFPPHCHN": [229571106, 1553453038, 3795227753],
    "infoDescTextMapHash": 866972920,
    "CJILJKJDAGO": 1868971380,
    "ODCJAHNOPLI": 1143883825
  },
  {
    "id": 3,
    "IIKJJLJJCNB": 4,
    "DIELFJDCBFK": 26090391,
    "POGAHMCLGCP": 36090390,
    "DAHJBHOIBDG": [31, 32, 33],
    "configId": 10001025,
    "OJMGDFDFIIF": 20.0,
    "KICAAAAMFMP": "ART/UI/Atlas/Activity/FungusFighter/UI_Icon_Fungus_Un_Delta_Wind",
    "IFLCMDCAKJM": "ART/UI/Atlas/Activity/FungusFighter/UI_Icon_Fungus_Partner_Un_Delta_Wind",
    "MLCAAHPIFAF": "ART/UI/Atlas/Activity/FungusFighter/UI_SmallIcon_Fungus_Partner_Un_Delta_Wind",
    "ICJDAHFFLLC": "ART/UI/Atlas/Activity/FungusFighter/UI_SmallIcon_Fungus_Partner_Un_Delta_Wind",
    "EIMLLLDCODF": "ART/UI/Atlas/BuffElement/UI_Buff_Item_Other_SPRise",
    "OMAKCCNDHKM": 2151887411,
    "IEOPJILFFEA": [2977947238, 1086238229, 3582324796],
    "OEHDFPPHCHN": [4072825386, 1097336318, 2748393345],
    "infoDescTextMapHash": 4251462424,
    "CJILJKJDAGO": 2579696932,
    "ODCJAHNOPLI": 3407411649
  },
  {
    "id": 4,
    "IIKJJLJJCNB": 5,
    "DIELFJDCBFK": 26090491,
    "POGAHMCLGCP": 36090490,
    "DAHJBHOIBDG": [41, 42, 43],
    "configId": 10001026,
    "OJMGDFDFIIF": 15.0,
    "KICAAAAMFMP": "ART/UI/Atlas/Activity/FungusFighter/UI_Icon_Fungus_Trois_Epsilon_Electric",
    "IFLCMDCAKJM": "ART/UI/Atlas/Activity/FungusFighter/UI_Icon_Fungus_Partner_Trois_Epsilon_Electric",
    "MLCAAHPIFAF": "ART/UI/Atlas/Activity/FungusFighter/UI_SmallIcon_Fungus_Partner_Trois_Epsilon_Electric",
    "ICJDAHFFLLC": "ART/UI/Atlas/Activity/FungusFighter/UI_SmallIcon_Fungus_Partner_Trois_Epsilon_Electric",
    "EIMLLLDCODF": "ART/UI/Atlas/BuffElement/UI_Buff_Item_Atk_Nomal",
    "OMAKCCNDHKM": 200052859,
    "IEOPJILFFEA": [1804134766, 2364601925, 2750275300],
    "OEHDFPPHCHN": [1796501282, 2911710982, 1007499633],
    "infoDescTextMapHash": 2015190264,
    "CJILJKJDAGO": 842419724,
    "ODCJAHNOPLI": 587538193
  },
  {
    "id": 5,
    "IIKJJLJJCNB": 2,
    "DIELFJDCBFK": 26090591,
    "POGAHMCLGCP": 36090590,
    "DAHJBHOIBDG": [51, 52, 53],
    "configId": 10001027,
    "OJMGDFDFIIF": 15.0,
    "KICAAAAMFMP": "ART/UI/Atlas/Activity/FungusFighter/UI_Icon_Fungus_Trois_Alpha_Ice",
    "IFLCMDCAKJM": "ART/UI/Atlas/Activity/FungusFighter/UI_Icon_Fungus_Partner_Trois_Alpha_Ice",
    "MLCAAHPIFAF": "ART/UI/Atlas/Activity/FungusFighter/UI_SmallIcon_Fungus_Partner_Trois_Alpha_Ice",
    "ICJDAHFFLLC": "ART/UI/Atlas/Activity/FungusFighter/UI_SmallIcon_Fungus_Partner_Trois_Alpha_Ice",
    "EIMLLLDCODF": "ART/UI/Atlas/BuffElement/UI_Buff_Item_Atk_Nomal",
    "OMAKCCNDHKM": 4252639307,
    "IEOPJILFFEA": [531136302, 2879645821, 4257621484],
    "OEHDFPPHCHN": [3239057842, 400171622, 2419942209],
    "infoDescTextMapHash": 3367376720,
    "CJILJKJDAGO": 979842860,
    "ODCJAHNOPLI": 1425386481
  },
  {
    "id": 6,
    "IIKJJLJJCNB": 4,
    "DIELFJDCBFK": 26090691,
    "POGAHMCLGCP": 36090690,
    "DAHJBHOIBDG": [61, 62, 63],
    "configId": 10001028,
    "OJMGDFDFIIF": 20.0,
    "KICAAAAMFMP": "ART/UI/Atlas/Activity/FungusFighter/UI_Icon_Fungus_Trois_Gamma_Fire",
    "IFLCMDCAKJM": "ART/UI/Atlas/Activity/FungusFighter/UI_Icon_Fungus_Partner_Trois_Gamma_Fire",
    "MLCAAHPIFAF": "ART/UI/Atlas/Activity/FungusFighter/UI_SmallIcon_Fungus_Partner_Trois_Gamma_Fire",
    "ICJDAHFFLLC": "ART/UI/Atlas/Activity/FungusFighter/UI_SmallIcon_Fungus_Partner_Trois_Gamma_Fire",
    "EIMLLLDCODF": "ART/UI/Atlas/BuffElement/UI_Buff_Item_Def_Add",
    "OMAKCCNDHKM": 1585594075,
    "IEOPJILFFEA": [3764169278, 4145155669, 3989556692],
    "OEHDFPPHCHN": [2239612210, 3148780326, 2345375137],
    "infoDescTextMapHash": 60581816,
    "CJILJKJDAGO": 657605988,
    "ODCJAHNOPLI": 2985916641
  },
  {
    "id": 7,
    "IIKJJLJJCNB": 3,
    "DIELFJDCBFK": 26090791,
    "POGAHMCLGCP": 36090790,
    "DAHJBHOIBDG": [71, 72, 73],
    "configId": 10001029,
    "OJMGDFDFIIF": 15.0,
    "KICAAAAMFMP": "ART/UI/Atlas/Activity/FungusFighter/UI_Icon_Fungus_Deux_Alpha_Fire",
    "IFLCMDCAKJM": "ART/UI/Atlas/Activity/FungusFighter/UI_Icon_Fungus_Partner_Deux_Alpha_Fire",
    "MLCAAHPIFAF": "ART/UI/Atlas/Activity/FungusFighter/UI_SmallIcon_Fungus_Partner_Deux_Alpha_Fire",
    "ICJDAHFFLLC": "ART/UI/Atlas/Activity/FungusFighter/UI_SmallIcon_Fungus_Partner_Deux_Alpha_Fire",
    "EIMLLLDCODF": "ART/UI/Atlas/BuffElement/UI_Buff_Item_Atk_Nomal",
    "OMAKCCNDHKM": 3846312307,
    "IEOPJILFFEA": [1698586942, 542758021, 3621815692],
    "OEHDFPPHCHN": [3410101130, 1055945126, 2986761697],
    "infoDescTextMapHash": 1373774536,
    "CJILJKJDAGO": 3087584868,
    "ODCJAHNOPLI": 993391217
  },
  {
    "id": 8,
    "IIKJJLJJCNB": 5,
    "DIELFJDCBFK": 26090891,
    "POGAHMCLGCP": 36090890,
    "DAHJBHOIBDG": [81, 82, 83],
    "configId": 10001030,
    "OJMGDFDFIIF": 20.0,
    "KICAAAAMFMP": "ART/UI/Atlas/Activity/FungusFighter/UI_Icon_Fungus_Deux_Epsilon_Wind",
    "IFLCMDCAKJM": "ART/UI/Atlas/Activity/FungusFighter/UI_Icon_Fungus_Partner_Deux_Epsilon_Wind",
    "MLCAAHPIFAF": "ART/UI/Atlas/Activity/FungusFighter/UI_SmallIcon_Fungus_Partner_Deux_Epsilon_Wind",
    "ICJDAHFFLLC": "ART/UI/Atlas/Activity/FungusFighter/UI_SmallIcon_Fungus_Partner_Deux_Epsilon_Wind",
    "EIMLLLDCODF": "ART/UI/Atlas/BuffElement/UI_Buff_Item_Recovery_HpAdd",
    "OMAKCCNDHKM": 2329329491,
    "IEOPJILFFEA": [1333636302, 2516632357, 3329351052],
    "OEHDFPPHCHN": [1920819010, 2337967846, 1366749617],
    "infoDescTextMapHash": 2735503408,
    "CJILJKJDAGO": 1541131628,
    "ODCJAHNOPLI": 3687196673
  },
  {
    "id": 9,
    "IIKJJLJJCNB": 2,
    "DIELFJDCBFK": 26090991,
    "POGAHMCLGCP": 36090990,
    "DAHJBHOIBDG": [91, 92, 93],
    "configId": 10001031,
    "OJMGDFDFIIF": 15.0,
    "KICAAAAMFMP": "ART/UI/Atlas/Activity/FungusFighter/UI_Icon_Fungus_Deux_Beta_Rock",
    "IFLCMDCAKJM": "ART/UI/Atlas/Activity/FungusFighter/UI_Icon_Fungus_Partner_Deux_Beta_Rock",
    "MLCAAHPIFAF": "ART/UI/Atlas/Activity/FungusFighter/UI_SmallIcon_Fungus_Partner_Deux_Beta_Rock",
    "ICJDAHFFLLC": "ART/UI/Atlas/Activity/FungusFighter/UI_SmallIcon_Fungus_Partner_Deux_Beta_Rock",
    "EIMLLLDCODF": "ART/UI/Atlas/BuffElement/UI_Buff_Item_Def_Add",
    "OMAKCCNDHKM": 4108039739,
    "IEOPJILFFEA": [1188822150, 3923378845, 2635151036],
    "OEHDFPPHCHN": [3632123474, 3696743430, 2084439761],
    "infoDescTextMapHash": 3816517032,
    "CJILJKJDAGO": 4260569468,
    "ODCJAHNOPLI": 2663020561
  },
  {
    "id": 10,
    "IIKJJLJJCNB": 1,
    "DIELFJDCBFK": 26091091,
    "POGAHMCLGCP": 36091090,
    "DAHJBHOIBDG": [101, 102, 103],
    "configId": 10001032,
    "OJMGDFDFIIF": 20.0,
    "KICAAAAMFMP": "ART/UI/Atlas/Activity/FungusFighter/UI_Icon_Fungus_Deux_Delta_Electric",
    "IFLCMDCAKJM": "ART/UI/Atlas/Activity/FungusFighter/UI_Icon_Fungus_Partner_Deux_Delta_Electric",
    "MLCAAHPIFAF": "ART/UI/Atlas/Activity/FungusFighter/UI_SmallIcon_Fungus_Partner_Deux_Delta_Electric",
    "ICJDAHFFLLC": "ART/UI/Atlas/Activity/FungusFighter/UI_SmallIcon_Fungus_Partner_Deux_Delta_Electric",
    "EIMLLLDCODF": "ART/UI/Atlas/BuffElement/UI_Buff_Item_Other_SPRise",
    "OMAKCCNDHKM": 1493708283,
    "IEOPJILFFEA": [2439369518, 4196515285, 1140024028],
    "OEHDFPPHCHN": [1055845122, 892934334, 473376577],
    "infoDescTextMapHash": 3116763680,
    "CJILJKJDAGO": 245042972,
    "ODCJAHNOPLI": 2515088121
  }
]
