[
  {
    "id": 110101,
    "itemId": 334000,
    "LGAJJNOCCFB": 1101,
    "PAJFPMBIOMF": "GCG_CARD_FACE_GOLD",
    "BDAGLFGPDHK": 218001,
    "OECFCLCHHEA": [],
    "nameTextMapHash": 3010413875,
    "descTextMapHash": 78147148
  },
  {
    "id": 110201,
    "itemId": 334023,
    "LGAJJNOCCFB": 1102,
    "PAJFPMBIOMF": "GCG_CARD_FACE_GOLD",
    "BDAGLFGPDHK": 218139,
    "OECFCLCHHEA": [],
    "nameTextMapHash": 2437109955,
    "descTextMapHash": 247888940
  },
  {
    "id": 110301,
    "itemId": 334001,
    "LGAJJNOCCFB": 1103,
    "PAJFPMBIOMF": "GCG_CARD_FACE_GOLD",
    "BDAGLFGPDHK": 218002,
    "OECFCLCHHEA": [],
    "nameTextMapHash": 4035620611,
    "descTextMapHash": 1564340500
  },
  {
    "id": 110401,
    "itemId": 334002,
    "LGAJJNOCCFB": 1104,
    "PAJFPMBIOMF": "GCG_CARD_FACE_GOLD",
    "BDAGLFGPDHK": 218003,
    "OECFCLCHHEA": [],
    "nameTextMapHash": 308715979,
    "descTextMapHash": 4163554060
  },
  {
    "id": 110501,
    "itemId": 334003,
    "LGAJJNOCCFB": 1105,
    "PAJFPMBIOMF": "GCG_CARD_FACE_GOLD",
    "BDAGLFGPDHK": 218004,
    "OECFCLCHHEA": [],
    "nameTextMapHash": 1195591451,
    "descTextMapHash": 2994128852
  },
  {
    "id": 110601,
    "itemId": 334030,
    "LGAJJNOCCFB": 1106,
    "PAJFPMBIOMF": "GCG_CARD_FACE_GOLD",
    "BDAGLFGPDHK": 218154,
    "OECFCLCHHEA": [],
    "nameTextMapHash": 739966827,
    "descTextMapHash": 2173118372
  },
  {
    "id": 120101,
    "itemId": 334025,
    "LGAJJNOCCFB": 1201,
    "PAJFPMBIOMF": "GCG_CARD_FACE_GOLD",
    "BDAGLFGPDHK": 218143,
    "OECFCLCHHEA": [],
    "nameTextMapHash": 3939953179,
    "descTextMapHash": 2182756388
  },
  {
    "id": 120201,
    "itemId": 334004,
    "LGAJJNOCCFB": 1202,
    "PAJFPMBIOMF": "GCG_CARD_FACE_GOLD",
    "BDAGLFGPDHK": 218005,
    "OECFCLCHHEA": [],
    "nameTextMapHash": 2959045571,
    "descTextMapHash": 1183367564
  },
  {
    "id": 120301,
    "itemId": 334005,
    "LGAJJNOCCFB": 1203,
    "PAJFPMBIOMF": "GCG_CARD_FACE_GOLD",
    "BDAGLFGPDHK": 218006,
    "OECFCLCHHEA": [],
    "nameTextMapHash": 1436995603,
    "descTextMapHash": 957473860
  },
  {
    "id": 120501,
    "itemId": 334031,
    "LGAJJNOCCFB": 1205,
    "PAJFPMBIOMF": "GCG_CARD_FACE_GOLD",
    "BDAGLFGPDHK": 218150,
    "OECFCLCHHEA": [],
    "nameTextMapHash": 1240798459,
    "descTextMapHash": 893367948
  },
  {
    "id": 120601,
    "itemId": 334033,
    "LGAJJNOCCFB": 1206,
    "PAJFPMBIOMF": "GCG_CARD_FACE_GOLD",
    "BDAGLFGPDHK": 218155,
    "OECFCLCHHEA": [],
    "nameTextMapHash": 1410770907,
    "descTextMapHash": 526450708
  },
  {
    "id": 130101,
    "itemId": 334006,
    "LGAJJNOCCFB": 1301,
    "PAJFPMBIOMF": "GCG_CARD_FACE_GOLD",
    "BDAGLFGPDHK": 218007,
    "OECFCLCHHEA": [],
    "nameTextMapHash": 33839459,
    "descTextMapHash": 2518720724
  },
  {
    "id": 130201,
    "itemId": 334007,
    "LGAJJNOCCFB": 1302,
    "PAJFPMBIOMF": "GCG_CARD_FACE_GOLD",
    "BDAGLFGPDHK": 218008,
    "OECFCLCHHEA": [],
    "nameTextMapHash": 3964201227,
    "descTextMapHash": 3439491548
  },
  {
    "id": 130301,
    "itemId": 334008,
    "LGAJJNOCCFB": 1303,
    "PAJFPMBIOMF": "GCG_CARD_FACE_GOLD",
    "BDAGLFGPDHK": 218009,
    "OECFCLCHHEA": [],
    "nameTextMapHash": 401032875,
    "descTextMapHash": 1657912316
  },
  {
    "id": 130501,
    "itemId": 334010,
    "LGAJJNOCCFB": 1305,
    "PAJFPMBIOMF": "GCG_CARD_FACE_GOLD",
    "BDAGLFGPDHK": 218011,
    "OECFCLCHHEA": [],
    "nameTextMapHash": 2682590427,
    "descTextMapHash": 431317396
  },
  {
    "id": 130601,
    "itemId": 334029,
    "LGAJJNOCCFB": 1306,
    "PAJFPMBIOMF": "GCG_CARD_FACE_GOLD",
    "BDAGLFGPDHK": 218149,
    "OECFCLCHHEA": [],
    "nameTextMapHash": 556184227,
    "descTextMapHash": 1678291692
  },
  {
    "id": 140101,
    "itemId": 334011,
    "LGAJJNOCCFB": 1401,
    "PAJFPMBIOMF": "GCG_CARD_FACE_GOLD",
    "BDAGLFGPDHK": 218012,
    "OECFCLCHHEA": [],
    "nameTextMapHash": 2232334595,
    "descTextMapHash": 2764641916
  },
  {
    "id": 140201,
    "itemId": 334012,
    "LGAJJNOCCFB": 1402,
    "PAJFPMBIOMF": "GCG_CARD_FACE_GOLD",
    "BDAGLFGPDHK": 218013,
    "OECFCLCHHEA": [],
    "nameTextMapHash": 2581496499,
    "descTextMapHash": 2870151212
  },
  {
    "id": 140301,
    "itemId": 334013,
    "LGAJJNOCCFB": 1403,
    "PAJFPMBIOMF": "GCG_CARD_FACE_GOLD",
    "BDAGLFGPDHK": 218014,
    "OECFCLCHHEA": [],
    "nameTextMapHash": 1420909147,
    "descTextMapHash": 4263622788
  },
  {
    "id": 140401,
    "itemId": 334024,
    "LGAJJNOCCFB": 1404,
    "PAJFPMBIOMF": "GCG_CARD_FACE_GOLD",
    "BDAGLFGPDHK": 218140,
    "OECFCLCHHEA": [],
    "nameTextMapHash": 2189672875,
    "descTextMapHash": 2602562740
  },
  {
    "id": 140501,
    "itemId": 334028,
    "LGAJJNOCCFB": 1405,
    "PAJFPMBIOMF": "GCG_CARD_FACE_GOLD",
    "BDAGLFGPDHK": 218148,
    "OECFCLCHHEA": [],
    "nameTextMapHash": 4206967411,
    "descTextMapHash": 370212156
  },
  {
    "id": 140601,
    "itemId": 334032,
    "LGAJJNOCCFB": 1406,
    "PAJFPMBIOMF": "GCG_CARD_FACE_GOLD",
    "BDAGLFGPDHK": 218151,
    "OECFCLCHHEA": [],
    "nameTextMapHash": 3109527011,
    "descTextMapHash": 1633074300
  },
  {
    "id": 150101,
    "itemId": 334014,
    "LGAJJNOCCFB": 1501,
    "PAJFPMBIOMF": "GCG_CARD_FACE_GOLD",
    "BDAGLFGPDHK": 218015,
    "OECFCLCHHEA": [],
    "nameTextMapHash": 869911539,
    "descTextMapHash": 1750550948
  },
  {
    "id": 150201,
    "itemId": 334015,
    "LGAJJNOCCFB": 1502,
    "PAJFPMBIOMF": "GCG_CARD_FACE_GOLD",
    "BDAGLFGPDHK": 218016,
    "OECFCLCHHEA": [],
    "nameTextMapHash": 1289668811,
    "descTextMapHash": 2583953788
  },
  {
    "id": 160101,
    "itemId": 334016,
    "LGAJJNOCCFB": 1601,
    "PAJFPMBIOMF": "GCG_CARD_FACE_GOLD",
    "BDAGLFGPDHK": 218017,
    "OECFCLCHHEA": [],
    "nameTextMapHash": 3502472467,
    "descTextMapHash": 3429201788
  },
  {
    "id": 160201,
    "itemId": 334017,
    "LGAJJNOCCFB": 1602,
    "PAJFPMBIOMF": "GCG_CARD_FACE_GOLD",
    "BDAGLFGPDHK": 218018,
    "OECFCLCHHEA": [],
    "nameTextMapHash": 3359956467,
    "descTextMapHash": 3971221060
  },
  {
    "id": 160501,
    "itemId": 334034,
    "LGAJJNOCCFB": 1605,
    "PAJFPMBIOMF": "GCG_CARD_FACE_GOLD",
    "BDAGLFGPDHK": 218156,
    "OECFCLCHHEA": [],
    "nameTextMapHash": 1699006291,
    "descTextMapHash": 3213436236
  },
  {
    "id": 170101,
    "itemId": 334018,
    "LGAJJNOCCFB": 1701,
    "PAJFPMBIOMF": "GCG_CARD_FACE_GOLD",
    "BDAGLFGPDHK": 218019,
    "OECFCLCHHEA": [],
    "nameTextMapHash": 854437851,
    "descTextMapHash": 3882430940
  },
  {
    "id": 170201,
    "itemId": 334035,
    "LGAJJNOCCFB": 1702,
    "PAJFPMBIOMF": "GCG_CARD_FACE_GOLD",
    "BDAGLFGPDHK": 218157,
    "OECFCLCHHEA": [],
    "nameTextMapHash": 256536371,
    "descTextMapHash": 233838708
  },
  {
    "id": 220101,
    "itemId": 334019,
    "LGAJJNOCCFB": 2201,
    "PAJFPMBIOMF": "GCG_CARD_FACE_GOLD",
    "BDAGLFGPDHK": 218020,
    "OECFCLCHHEA": [],
    "nameTextMapHash": 1781384187,
    "descTextMapHash": 4264282852
  },
  {
    "id": 220201,
    "itemId": 334026,
    "LGAJJNOCCFB": 2202,
    "PAJFPMBIOMF": "GCG_CARD_FACE_GOLD",
    "BDAGLFGPDHK": 218145,
    "OECFCLCHHEA": [],
    "nameTextMapHash": 2827233475,
    "descTextMapHash": 2601605628
  },
  {
    "id": 230101,
    "itemId": 334020,
    "LGAJJNOCCFB": 2301,
    "PAJFPMBIOMF": "GCG_CARD_FACE_GOLD",
    "BDAGLFGPDHK": 218021,
    "OECFCLCHHEA": [],
    "nameTextMapHash": 357170715,
    "descTextMapHash": 869762236
  },
  {
    "id": 250101,
    "itemId": 334021,
    "LGAJJNOCCFB": 2501,
    "PAJFPMBIOMF": "GCG_CARD_FACE_GOLD",
    "BDAGLFGPDHK": 218022,
    "OECFCLCHHEA": [],
    "nameTextMapHash": 770944515,
    "descTextMapHash": 3452571212
  },
  {
    "id": 260101,
    "itemId": 334022,
    "LGAJJNOCCFB": 2601,
    "PAJFPMBIOMF": "GCG_CARD_FACE_GOLD",
    "BDAGLFGPDHK": 218023,
    "OECFCLCHHEA": [],
    "nameTextMapHash": 233392779,
    "descTextMapHash": 2972847428
  },
  {
    "id": 270101,
    "itemId": 334027,
    "LGAJJNOCCFB": 2701,
    "PAJFPMBIOMF": "GCG_CARD_FACE_GOLD",
    "BDAGLFGPDHK": 218147,
    "OECFCLCHHEA": [],
    "nameTextMapHash": 2480757491,
    "descTextMapHash": 2117547628
  },
  {
    "id": 2110111,
    "itemId": 334500,
    "LGAJJNOCCFB": 211011,
    "PAJFPMBIOMF": "GCG_CARD_FACE_GOLD",
    "HNOOOGEKPGL": "GCG_PROFICIENCY_REWARD",
    "OECFCLCHHEA": [10],
    "nameTextMapHash": 2458735499,
    "descTextMapHash": 987049124
  },
  {
    "id": 2110211,
    "itemId": 334523,
    "LGAJJNOCCFB": 211021,
    "PAJFPMBIOMF": "GCG_CARD_FACE_GOLD",
    "HNOOOGEKPGL": "GCG_PROFICIENCY_REWARD",
    "OECFCLCHHEA": [10],
    "nameTextMapHash": 66494035,
    "descTextMapHash": 3127664196
  },
  {
    "id": 2110311,
    "itemId": 334501,
    "LGAJJNOCCFB": 211031,
    "PAJFPMBIOMF": "GCG_CARD_FACE_GOLD",
    "HNOOOGEKPGL": "GCG_PROFICIENCY_REWARD",
    "OECFCLCHHEA": [10],
    "nameTextMapHash": 3260750867,
    "descTextMapHash": 1378421020
  },
  {
    "id": 2110411,
    "itemId": 334502,
    "LGAJJNOCCFB": 211041,
    "PAJFPMBIOMF": "GCG_CARD_FACE_GOLD",
    "HNOOOGEKPGL": "GCG_PROFICIENCY_REWARD",
    "OECFCLCHHEA": [10],
    "nameTextMapHash": 4047073427,
    "descTextMapHash": 1605519468
  },
  {
    "id": 2110511,
    "itemId": 334503,
    "LGAJJNOCCFB": 211051,
    "PAJFPMBIOMF": "GCG_CARD_FACE_GOLD",
    "HNOOOGEKPGL": "GCG_PROFICIENCY_REWARD",
    "OECFCLCHHEA": [10],
    "nameTextMapHash": 2586257603,
    "descTextMapHash": 4105252844
  },
  {
    "id": 2110611,
    "itemId": 334530,
    "LGAJJNOCCFB": 211061,
    "PAJFPMBIOMF": "GCG_CARD_FACE_GOLD",
    "HNOOOGEKPGL": "GCG_PROFICIENCY_REWARD",
    "OECFCLCHHEA": [10],
    "nameTextMapHash": 1366300083,
    "descTextMapHash": 3809305172
  },
  {
    "id": 2120111,
    "itemId": 334525,
    "LGAJJNOCCFB": 212011,
    "PAJFPMBIOMF": "GCG_CARD_FACE_GOLD",
    "HNOOOGEKPGL": "GCG_PROFICIENCY_REWARD",
    "OECFCLCHHEA": [10],
    "nameTextMapHash": 2964505499,
    "descTextMapHash": 2986440388
  },
  {
    "id": 2120211,
    "itemId": 334504,
    "LGAJJNOCCFB": 212021,
    "PAJFPMBIOMF": "GCG_CARD_FACE_GOLD",
    "HNOOOGEKPGL": "GCG_PROFICIENCY_REWARD",
    "OECFCLCHHEA": [10],
    "nameTextMapHash": 3518314419,
    "descTextMapHash": 2014445020
  },
  {
    "id": 2120311,
    "itemId": 334505,
    "LGAJJNOCCFB": 212031,
    "PAJFPMBIOMF": "GCG_CARD_FACE_GOLD",
    "HNOOOGEKPGL": "GCG_PROFICIENCY_REWARD",
    "OECFCLCHHEA": [10],
    "nameTextMapHash": 3621885979,
    "descTextMapHash": 2589307684
  },
  {
    "id": 2120511,
    "itemId": 334531,
    "LGAJJNOCCFB": 212051,
    "PAJFPMBIOMF": "GCG_CARD_FACE_GOLD",
    "HNOOOGEKPGL": "GCG_PROFICIENCY_REWARD",
    "OECFCLCHHEA": [10],
    "nameTextMapHash": 1012478467,
    "descTextMapHash": 2598524644
  },
  {
    "id": 2120611,
    "itemId": 334533,
    "LGAJJNOCCFB": 212061,
    "PAJFPMBIOMF": "GCG_CARD_FACE_GOLD",
    "HNOOOGEKPGL": "GCG_PROFICIENCY_REWARD",
    "OECFCLCHHEA": [10],
    "nameTextMapHash": 2189121787,
    "descTextMapHash": 1254543644
  },
  {
    "id": 2130111,
    "itemId": 334506,
    "LGAJJNOCCFB": 213011,
    "PAJFPMBIOMF": "GCG_CARD_FACE_GOLD",
    "HNOOOGEKPGL": "GCG_PROFICIENCY_REWARD",
    "OECFCLCHHEA": [10],
    "nameTextMapHash": 2796446363,
    "descTextMapHash": 2938462412
  },
  {
    "id": 2130211,
    "itemId": 334507,
    "LGAJJNOCCFB": 213021,
    "PAJFPMBIOMF": "GCG_CARD_FACE_GOLD",
    "HNOOOGEKPGL": "GCG_PROFICIENCY_REWARD",
    "OECFCLCHHEA": [10],
    "nameTextMapHash": 4028580011,
    "descTextMapHash": 3576923044
  },
  {
    "id": 2130311,
    "itemId": 334508,
    "LGAJJNOCCFB": 213031,
    "PAJFPMBIOMF": "GCG_CARD_FACE_GOLD",
    "HNOOOGEKPGL": "GCG_PROFICIENCY_REWARD",
    "OECFCLCHHEA": [10],
    "nameTextMapHash": 239546099,
    "descTextMapHash": 3753286172
  },
  {
    "id": 2130511,
    "itemId": 334510,
    "LGAJJNOCCFB": 213051,
    "PAJFPMBIOMF": "GCG_CARD_FACE_GOLD",
    "HNOOOGEKPGL": "GCG_PROFICIENCY_REWARD",
    "OECFCLCHHEA": [10],
    "nameTextMapHash": 3625723507,
    "descTextMapHash": 2120840356
  },
  {
    "id": 2130611,
    "itemId": 334529,
    "LGAJJNOCCFB": 213061,
    "PAJFPMBIOMF": "GCG_CARD_FACE_GOLD",
    "HNOOOGEKPGL": "GCG_PROFICIENCY_REWARD",
    "OECFCLCHHEA": [10],
    "nameTextMapHash": 2130875907,
    "descTextMapHash": 2161733628
  },
  {
    "id": 2140111,
    "itemId": 334511,
    "LGAJJNOCCFB": 214011,
    "PAJFPMBIOMF": "GCG_CARD_FACE_GOLD",
    "HNOOOGEKPGL": "GCG_PROFICIENCY_REWARD",
    "OECFCLCHHEA": [10],
    "nameTextMapHash": 3645782099,
    "descTextMapHash": 1859727052
  },
  {
    "id": 2140211,
    "itemId": 334512,
    "LGAJJNOCCFB": 214021,
    "PAJFPMBIOMF": "GCG_CARD_FACE_GOLD",
    "HNOOOGEKPGL": "GCG_PROFICIENCY_REWARD",
    "OECFCLCHHEA": [10],
    "nameTextMapHash": 2869093227,
    "descTextMapHash": 2012033716
  },
  {
    "id": 2140311,
    "itemId": 334513,
    "LGAJJNOCCFB": 214031,
    "PAJFPMBIOMF": "GCG_CARD_FACE_GOLD",
    "HNOOOGEKPGL": "GCG_PROFICIENCY_REWARD",
    "OECFCLCHHEA": [10],
    "nameTextMapHash": 3355615771,
    "descTextMapHash": 1532907316
  },
  {
    "id": 2140411,
    "itemId": 334524,
    "LGAJJNOCCFB": 214041,
    "PAJFPMBIOMF": "GCG_CARD_FACE_GOLD",
    "HNOOOGEKPGL": "GCG_PROFICIENCY_REWARD",
    "OECFCLCHHEA": [10],
    "nameTextMapHash": 2892272243,
    "descTextMapHash": 2716655492
  },
  {
    "id": 2140511,
    "itemId": 334528,
    "LGAJJNOCCFB": 214051,
    "PAJFPMBIOMF": "GCG_CARD_FACE_GOLD",
    "HNOOOGEKPGL": "GCG_PROFICIENCY_REWARD",
    "OECFCLCHHEA": [10],
    "nameTextMapHash": 511423003,
    "descTextMapHash": 406265908
  },
  {
    "id": 2140611,
    "itemId": 334532,
    "LGAJJNOCCFB": 214061,
    "PAJFPMBIOMF": "GCG_CARD_FACE_GOLD",
    "HNOOOGEKPGL": "GCG_PROFICIENCY_REWARD",
    "OECFCLCHHEA": [10],
    "nameTextMapHash": 3213164027,
    "descTextMapHash": 1381983508
  },
  {
    "id": 2150111,
    "itemId": 334514,
    "LGAJJNOCCFB": 215011,
    "PAJFPMBIOMF": "GCG_CARD_FACE_GOLD",
    "HNOOOGEKPGL": "GCG_PROFICIENCY_REWARD",
    "OECFCLCHHEA": [10],
    "nameTextMapHash": 650101603,
    "descTextMapHash": 3638401004
  },
  {
    "id": 2150211,
    "itemId": 334515,
    "LGAJJNOCCFB": 215021,
    "PAJFPMBIOMF": "GCG_CARD_FACE_GOLD",
    "HNOOOGEKPGL": "GCG_PROFICIENCY_REWARD",
    "OECFCLCHHEA": [10],
    "nameTextMapHash": 24456347,
    "descTextMapHash": 471424324
  },
  {
    "id": 2160111,
    "itemId": 334516,
    "LGAJJNOCCFB": 216011,
    "PAJFPMBIOMF": "GCG_CARD_FACE_GOLD",
    "HNOOOGEKPGL": "GCG_PROFICIENCY_REWARD",
    "OECFCLCHHEA": [10],
    "nameTextMapHash": 2847341987,
    "descTextMapHash": 4217118316
  },
  {
    "id": 2160211,
    "itemId": 334517,
    "LGAJJNOCCFB": 216021,
    "PAJFPMBIOMF": "GCG_CARD_FACE_GOLD",
    "HNOOOGEKPGL": "GCG_PROFICIENCY_REWARD",
    "OECFCLCHHEA": [10],
    "nameTextMapHash": 2638304211,
    "descTextMapHash": 3518871444
  },
  {
    "id": 2160511,
    "itemId": 334534,
    "LGAJJNOCCFB": 216051,
    "PAJFPMBIOMF": "GCG_CARD_FACE_GOLD",
    "HNOOOGEKPGL": "GCG_PROFICIENCY_REWARD",
    "OECFCLCHHEA": [10],
    "nameTextMapHash": 3678489435,
    "descTextMapHash": 1251656420
  },
  {
    "id": 2170111,
    "itemId": 334518,
    "LGAJJNOCCFB": 217011,
    "PAJFPMBIOMF": "GCG_CARD_FACE_GOLD",
    "HNOOOGEKPGL": "GCG_PROFICIENCY_REWARD",
    "OECFCLCHHEA": [10],
    "nameTextMapHash": 3770505595,
    "descTextMapHash": 2234614268
  },
  {
    "id": 2170211,
    "itemId": 334535,
    "LGAJJNOCCFB": 217021,
    "PAJFPMBIOMF": "GCG_CARD_FACE_GOLD",
    "HNOOOGEKPGL": "GCG_PROFICIENCY_REWARD",
    "OECFCLCHHEA": [10],
    "nameTextMapHash": 2910014419,
    "descTextMapHash": 679156412
  },
  {
    "id": 2220111,
    "itemId": 334519,
    "LGAJJNOCCFB": 222011,
    "PAJFPMBIOMF": "GCG_CARD_FACE_GOLD",
    "HNOOOGEKPGL": "GCG_PROFICIENCY_REWARD",
    "OECFCLCHHEA": [10],
    "nameTextMapHash": 2705637499,
    "descTextMapHash": 539652388
  },
  {
    "id": 2220211,
    "itemId": 334526,
    "LGAJJNOCCFB": 222021,
    "PAJFPMBIOMF": "GCG_CARD_FACE_GOLD",
    "HNOOOGEKPGL": "GCG_PROFICIENCY_REWARD",
    "OECFCLCHHEA": [10],
    "nameTextMapHash": 3951191459,
    "descTextMapHash": 4257832172
  },
  {
    "id": 2230111,
    "itemId": 334520,
    "LGAJJNOCCFB": 223011,
    "PAJFPMBIOMF": "GCG_CARD_FACE_GOLD",
    "HNOOOGEKPGL": "GCG_PROFICIENCY_REWARD",
    "OECFCLCHHEA": [10],
    "nameTextMapHash": 3267593643,
    "descTextMapHash": 2764010196
  },
  {
    "id": 2250111,
    "itemId": 334521,
    "LGAJJNOCCFB": 225011,
    "PAJFPMBIOMF": "GCG_CARD_FACE_GOLD",
    "HNOOOGEKPGL": "GCG_PROFICIENCY_REWARD",
    "OECFCLCHHEA": [10],
    "nameTextMapHash": 1539564339,
    "descTextMapHash": 2635012396
  },
  {
    "id": 2260111,
    "itemId": 334522,
    "LGAJJNOCCFB": 226011,
    "PAJFPMBIOMF": "GCG_CARD_FACE_GOLD",
    "HNOOOGEKPGL": "GCG_PROFICIENCY_REWARD",
    "OECFCLCHHEA": [10],
    "nameTextMapHash": 3652574067,
    "descTextMapHash": 2537875556
  },
  {
    "id": 2270111,
    "itemId": 334527,
    "LGAJJNOCCFB": 227011,
    "PAJFPMBIOMF": "GCG_CARD_FACE_GOLD",
    "HNOOOGEKPGL": "GCG_PROFICIENCY_REWARD",
    "OECFCLCHHEA": [10],
    "nameTextMapHash": 2810396779,
    "descTextMapHash": 1527709772
  },
  {
    "id": 3111011,
    "itemId": 335000,
    "LGAJJNOCCFB": 311101,
    "PAJFPMBIOMF": "GCG_CARD_FACE_GOLD",
    "BDAGLFGPDHK": 218047,
    "OECFCLCHHEA": [],
    "nameTextMapHash": 2878199235,
    "descTextMapHash": 1734909268
  },
  {
    "id": 3111021,
    "itemId": 335001,
    "LGAJJNOCCFB": 311102,
    "PAJFPMBIOMF": "GCG_CARD_FACE_GOLD",
    "BDAGLFGPDHK": 218048,
    "OECFCLCHHEA": [],
    "nameTextMapHash": 3477618683,
    "descTextMapHash": 42461692
  },
  {
    "id": 3111031,
    "itemId": 335002,
    "LGAJJNOCCFB": 311103,
    "PAJFPMBIOMF": "GCG_CARD_FACE_GOLD",
    "BDAGLFGPDHK": 218049,
    "OECFCLCHHEA": [],
    "nameTextMapHash": 2251697355,
    "descTextMapHash": 3540955428
  },
  {
    "id": 3112011,
    "itemId": 335003,
    "LGAJJNOCCFB": 311201,
    "PAJFPMBIOMF": "GCG_CARD_FACE_GOLD",
    "BDAGLFGPDHK": 218050,
    "OECFCLCHHEA": [],
    "nameTextMapHash": 305937875,
    "descTextMapHash": 1658908508
  },
  {
    "id": 3112021,
    "itemId": 335004,
    "LGAJJNOCCFB": 311202,
    "PAJFPMBIOMF": "GCG_CARD_FACE_GOLD",
    "BDAGLFGPDHK": 218051,
    "OECFCLCHHEA": [],
    "nameTextMapHash": 863998435,
    "descTextMapHash": 1169219516
  },
  {
    "id": 3112031,
    "itemId": 335005,
    "LGAJJNOCCFB": 311203,
    "PAJFPMBIOMF": "GCG_CARD_FACE_GOLD",
    "BDAGLFGPDHK": 218052,
    "OECFCLCHHEA": [],
    "nameTextMapHash": 1511741595,
    "descTextMapHash": 1168818300
  },
  {
    "id": 3113011,
    "itemId": 335006,
    "LGAJJNOCCFB": 311301,
    "PAJFPMBIOMF": "GCG_CARD_FACE_GOLD",
    "BDAGLFGPDHK": 218053,
    "OECFCLCHHEA": [],
    "nameTextMapHash": 2970162443,
    "descTextMapHash": 3967427196
  },
  {
    "id": 3113021,
    "itemId": 335007,
    "LGAJJNOCCFB": 311302,
    "PAJFPMBIOMF": "GCG_CARD_FACE_GOLD",
    "BDAGLFGPDHK": 218054,
    "OECFCLCHHEA": [],
    "nameTextMapHash": 363308403,
    "descTextMapHash": 1352441556
  },
  {
    "id": 3113031,
    "itemId": 335008,
    "LGAJJNOCCFB": 311303,
    "PAJFPMBIOMF": "GCG_CARD_FACE_GOLD",
    "BDAGLFGPDHK": 218055,
    "OECFCLCHHEA": [],
    "nameTextMapHash": 3560632363,
    "descTextMapHash": 2400989820
  },
  {
    "id": 3114011,
    "itemId": 335009,
    "LGAJJNOCCFB": 311401,
    "PAJFPMBIOMF": "GCG_CARD_FACE_GOLD",
    "BDAGLFGPDHK": 218056,
    "OECFCLCHHEA": [],
    "nameTextMapHash": 3176608635,
    "descTextMapHash": 1581911156
  },
  {
    "id": 3114021,
    "itemId": 335010,
    "LGAJJNOCCFB": 311402,
    "PAJFPMBIOMF": "GCG_CARD_FACE_GOLD",
    "BDAGLFGPDHK": 218057,
    "OECFCLCHHEA": [],
    "nameTextMapHash": 1746375075,
    "descTextMapHash": 685889044
  },
  {
    "id": 3114031,
    "itemId": 335011,
    "LGAJJNOCCFB": 311403,
    "PAJFPMBIOMF": "GCG_CARD_FACE_GOLD",
    "BDAGLFGPDHK": 218058,
    "OECFCLCHHEA": [],
    "nameTextMapHash": 3766794195,
    "descTextMapHash": 3498902916
  },
  {
    "id": 3115011,
    "itemId": 335012,
    "LGAJJNOCCFB": 311501,
    "PAJFPMBIOMF": "GCG_CARD_FACE_GOLD",
    "BDAGLFGPDHK": 218059,
    "OECFCLCHHEA": [],
    "nameTextMapHash": 436964795,
    "descTextMapHash": 3727900436
  },
  {
    "id": 3115021,
    "itemId": 335013,
    "LGAJJNOCCFB": 311502,
    "PAJFPMBIOMF": "GCG_CARD_FACE_GOLD",
    "BDAGLFGPDHK": 218060,
    "OECFCLCHHEA": [],
    "nameTextMapHash": 3229267,
    "descTextMapHash": 4294526932
  },
  {
    "id": 3115031,
    "itemId": 335014,
    "LGAJJNOCCFB": 311503,
    "PAJFPMBIOMF": "GCG_CARD_FACE_GOLD",
    "BDAGLFGPDHK": 218061,
    "OECFCLCHHEA": [],
    "nameTextMapHash": 1706059395,
    "descTextMapHash": 2304796700
  },
  {
    "id": 3115051,
    "itemId": 335037,
    "LGAJJNOCCFB": 311505,
    "PAJFPMBIOMF": "GCG_CARD_FACE_GOLD",
    "BDAGLFGPDHK": 218158,
    "OECFCLCHHEA": [],
    "nameTextMapHash": 1449829555,
    "descTextMapHash": 2245198628
  },
  {
    "id": 3120011,
    "itemId": 335015,
    "LGAJJNOCCFB": 312001,
    "PAJFPMBIOMF": "GCG_CARD_FACE_GOLD",
    "BDAGLFGPDHK": 218062,
    "OECFCLCHHEA": [],
    "nameTextMapHash": 4011200563,
    "descTextMapHash": 378142116
  },
  {
    "id": 3120021,
    "itemId": 335016,
    "LGAJJNOCCFB": 312002,
    "PAJFPMBIOMF": "GCG_CARD_FACE_GOLD",
    "BDAGLFGPDHK": 218063,
    "OECFCLCHHEA": [],
    "nameTextMapHash": 3651745771,
    "descTextMapHash": 971499132
  },
  {
    "id": 3120031,
    "itemId": 335017,
    "LGAJJNOCCFB": 312003,
    "PAJFPMBIOMF": "GCG_CARD_FACE_GOLD",
    "BDAGLFGPDHK": 218064,
    "OECFCLCHHEA": [],
    "nameTextMapHash": 79656747,
    "descTextMapHash": 3557937908
  },
  {
    "id": 3120041,
    "itemId": 335018,
    "LGAJJNOCCFB": 312004,
    "PAJFPMBIOMF": "GCG_CARD_FACE_GOLD",
    "BDAGLFGPDHK": 218065,
    "OECFCLCHHEA": [],
    "nameTextMapHash": 4287776475,
    "descTextMapHash": 2545593492
  },
  {
    "id": 3120051,
    "itemId": 335019,
    "LGAJJNOCCFB": 312005,
    "PAJFPMBIOMF": "GCG_CARD_FACE_GOLD",
    "BDAGLFGPDHK": 218066,
    "OECFCLCHHEA": [],
    "nameTextMapHash": 2123895835,
    "descTextMapHash": 2603827844
  },
  {
    "id": 3120061,
    "itemId": 335020,
    "LGAJJNOCCFB": 312006,
    "PAJFPMBIOMF": "GCG_CARD_FACE_GOLD",
    "BDAGLFGPDHK": 218067,
    "OECFCLCHHEA": [],
    "nameTextMapHash": 3471815539,
    "descTextMapHash": 3606390892
  },
  {
    "id": 3120071,
    "itemId": 335035,
    "LGAJJNOCCFB": 312007,
    "PAJFPMBIOMF": "GCG_CARD_FACE_GOLD",
    "BDAGLFGPDHK": 218152,
    "OECFCLCHHEA": [],
    "nameTextMapHash": 2235526891,
    "descTextMapHash": 470704636
  },
  {
    "id": 3120091,
    "itemId": 335036,
    "LGAJJNOCCFB": 312009,
    "PAJFPMBIOMF": "GCG_CARD_FACE_GOLD",
    "BDAGLFGPDHK": 218153,
    "OECFCLCHHEA": [],
    "nameTextMapHash": 2644534259,
    "descTextMapHash": 433944804
  },
  {
    "id": 3121011,
    "itemId": 335021,
    "LGAJJNOCCFB": 312101,
    "PAJFPMBIOMF": "GCG_CARD_FACE_GOLD",
    "BDAGLFGPDHK": 218068,
    "OECFCLCHHEA": [],
    "nameTextMapHash": 440510067,
    "descTextMapHash": 1537802924
  },
  {
    "id": 3121021,
    "itemId": 335022,
    "LGAJJNOCCFB": 312102,
    "PAJFPMBIOMF": "GCG_CARD_FACE_GOLD",
    "BDAGLFGPDHK": 218069,
    "OECFCLCHHEA": [],
    "nameTextMapHash": 679363787,
    "descTextMapHash": 3109555732
  },
  {
    "id": 3122011,
    "itemId": 335023,
    "LGAJJNOCCFB": 312201,
    "PAJFPMBIOMF": "GCG_CARD_FACE_GOLD",
    "BDAGLFGPDHK": 218070,
    "OECFCLCHHEA": [],
    "nameTextMapHash": 775669203,
    "descTextMapHash": 1874479820
  },
  {
    "id": 3122021,
    "itemId": 335024,
    "LGAJJNOCCFB": 312202,
    "PAJFPMBIOMF": "GCG_CARD_FACE_GOLD",
    "BDAGLFGPDHK": 218071,
    "OECFCLCHHEA": [],
    "nameTextMapHash": 4065140395,
    "descTextMapHash": 3108266180
  },
  {
    "id": 3123011,
    "itemId": 335025,
    "LGAJJNOCCFB": 312301,
    "PAJFPMBIOMF": "GCG_CARD_FACE_GOLD",
    "BDAGLFGPDHK": 218072,
    "OECFCLCHHEA": [],
    "nameTextMapHash": 1350461435,
    "descTextMapHash": 1861997540
  },
  {
    "id": 3123021,
    "itemId": 335026,
    "LGAJJNOCCFB": 312302,
    "PAJFPMBIOMF": "GCG_CARD_FACE_GOLD",
    "BDAGLFGPDHK": 218073,
    "OECFCLCHHEA": [],
    "nameTextMapHash": 3997018691,
    "descTextMapHash": 3030193140
  },
  {
    "id": 3124011,
    "itemId": 335027,
    "LGAJJNOCCFB": 312401,
    "PAJFPMBIOMF": "GCG_CARD_FACE_GOLD",
    "BDAGLFGPDHK": 218074,
    "OECFCLCHHEA": [],
    "nameTextMapHash": 2931461395,
    "descTextMapHash": 3087962132
  },
  {
    "id": 3124021,
    "itemId": 335028,
    "LGAJJNOCCFB": 312402,
    "PAJFPMBIOMF": "GCG_CARD_FACE_GOLD",
    "BDAGLFGPDHK": 218075,
    "OECFCLCHHEA": [],
    "nameTextMapHash": 1035247451,
    "descTextMapHash": 3981342044
  },
  {
    "id": 3125011,
    "itemId": 335029,
    "LGAJJNOCCFB": 312501,
    "PAJFPMBIOMF": "GCG_CARD_FACE_GOLD",
    "BDAGLFGPDHK": 218076,
    "OECFCLCHHEA": [],
    "nameTextMapHash": 276548003,
    "descTextMapHash": 2640412460
  },
  {
    "id": 3125021,
    "itemId": 335030,
    "LGAJJNOCCFB": 312502,
    "PAJFPMBIOMF": "GCG_CARD_FACE_GOLD",
    "BDAGLFGPDHK": 218077,
    "OECFCLCHHEA": [],
    "nameTextMapHash": 3729841739,
    "descTextMapHash": 1678113748
  },
  {
    "id": 3126011,
    "itemId": 335031,
    "LGAJJNOCCFB": 312601,
    "PAJFPMBIOMF": "GCG_CARD_FACE_GOLD",
    "BDAGLFGPDHK": 218078,
    "OECFCLCHHEA": [],
    "nameTextMapHash": 2190237595,
    "descTextMapHash": 1937614204
  },
  {
    "id": 3126021,
    "itemId": 335032,
    "LGAJJNOCCFB": 312602,
    "PAJFPMBIOMF": "GCG_CARD_FACE_GOLD",
    "BDAGLFGPDHK": 218079,
    "OECFCLCHHEA": [],
    "nameTextMapHash": 597119043,
    "descTextMapHash": 3416809652
  },
  {
    "id": 3127011,
    "itemId": 335033,
    "LGAJJNOCCFB": 312701,
    "PAJFPMBIOMF": "GCG_CARD_FACE_GOLD",
    "BDAGLFGPDHK": 218080,
    "OECFCLCHHEA": [],
    "nameTextMapHash": 1230736403,
    "descTextMapHash": 2039751284
  },
  {
    "id": 3127021,
    "itemId": 335034,
    "LGAJJNOCCFB": 312702,
    "PAJFPMBIOMF": "GCG_CARD_FACE_GOLD",
    "BDAGLFGPDHK": 218081,
    "OECFCLCHHEA": [],
    "nameTextMapHash": 2342796651,
    "descTextMapHash": 3530577228
  },
  {
    "id": 3210011,
    "itemId": 336000,
    "LGAJJNOCCFB": 321001,
    "PAJFPMBIOMF": "GCG_CARD_FACE_GOLD",
    "BDAGLFGPDHK": 218082,
    "OECFCLCHHEA": [],
    "nameTextMapHash": 2907630963,
    "descTextMapHash": 2434400148
  },
  {
    "id": 3210021,
    "itemId": 336001,
    "LGAJJNOCCFB": 321002,
    "PAJFPMBIOMF": "GCG_CARD_FACE_GOLD",
    "BDAGLFGPDHK": 218083,
    "OECFCLCHHEA": [],
    "nameTextMapHash": 3165828891,
    "descTextMapHash": 495635932
  },
  {
    "id": 3210031,
    "itemId": 336002,
    "LGAJJNOCCFB": 321003,
    "PAJFPMBIOMF": "GCG_CARD_FACE_GOLD",
    "BDAGLFGPDHK": 218084,
    "OECFCLCHHEA": [],
    "nameTextMapHash": 3793926219,
    "descTextMapHash": 546824652
  },
  {
    "id": 3210041,
    "itemId": 336003,
    "LGAJJNOCCFB": 321004,
    "PAJFPMBIOMF": "GCG_CARD_FACE_GOLD",
    "BDAGLFGPDHK": 218085,
    "OECFCLCHHEA": [],
    "nameTextMapHash": 3091970907,
    "descTextMapHash": 1589951812
  },
  {
    "id": 3210051,
    "itemId": 336004,
    "LGAJJNOCCFB": 321005,
    "PAJFPMBIOMF": "GCG_CARD_FACE_GOLD",
    "BDAGLFGPDHK": 218086,
    "OECFCLCHHEA": [],
    "nameTextMapHash": 1305122547,
    "descTextMapHash": 2379333732
  },
  {
    "id": 3210061,
    "itemId": 336005,
    "LGAJJNOCCFB": 321006,
    "PAJFPMBIOMF": "GCG_CARD_FACE_GOLD",
    "BDAGLFGPDHK": 218087,
    "OECFCLCHHEA": [],
    "nameTextMapHash": 44649979,
    "descTextMapHash": 4187950036
  },
  {
    "id": 3210081,
    "itemId": 336020,
    "LGAJJNOCCFB": 321008,
    "PAJFPMBIOMF": "GCG_CARD_FACE_GOLD",
    "BDAGLFGPDHK": 218159,
    "OECFCLCHHEA": [],
    "nameTextMapHash": 1298514515,
    "descTextMapHash": 3737574268
  },
  {
    "id": 3220011,
    "itemId": 336006,
    "LGAJJNOCCFB": 322001,
    "PAJFPMBIOMF": "GCG_CARD_FACE_GOLD",
    "BDAGLFGPDHK": 218088,
    "OECFCLCHHEA": [],
    "nameTextMapHash": 3964803219,
    "descTextMapHash": 2491892388
  },
  {
    "id": 3220021,
    "itemId": 336007,
    "LGAJJNOCCFB": 322002,
    "PAJFPMBIOMF": "GCG_CARD_FACE_GOLD",
    "BDAGLFGPDHK": 218089,
    "OECFCLCHHEA": [],
    "nameTextMapHash": 2348903451,
    "descTextMapHash": 547237444
  },
  {
    "id": 3220031,
    "itemId": 336008,
    "LGAJJNOCCFB": 322003,
    "PAJFPMBIOMF": "GCG_CARD_FACE_GOLD",
    "BDAGLFGPDHK": 218090,
    "OECFCLCHHEA": [],
    "nameTextMapHash": 4010173443,
    "descTextMapHash": 3813518684
  },
  {
    "id": 3220041,
    "itemId": 336009,
    "LGAJJNOCCFB": 322004,
    "PAJFPMBIOMF": "GCG_CARD_FACE_GOLD",
    "BDAGLFGPDHK": 218091,
    "OECFCLCHHEA": [],
    "nameTextMapHash": 536282499,
    "descTextMapHash": 952296732
  },
  {
    "id": 3220051,
    "itemId": 336010,
    "LGAJJNOCCFB": 322005,
    "PAJFPMBIOMF": "GCG_CARD_FACE_GOLD",
    "BDAGLFGPDHK": 218092,
    "OECFCLCHHEA": [],
    "nameTextMapHash": 1886482555,
    "descTextMapHash": 3117559676
  },
  {
    "id": 3220061,
    "itemId": 336011,
    "LGAJJNOCCFB": 322006,
    "PAJFPMBIOMF": "GCG_CARD_FACE_GOLD",
    "BDAGLFGPDHK": 218093,
    "OECFCLCHHEA": [],
    "nameTextMapHash": 924556475,
    "descTextMapHash": 3613285428
  },
  {
    "id": 3220071,
    "itemId": 336012,
    "LGAJJNOCCFB": 322007,
    "PAJFPMBIOMF": "GCG_CARD_FACE_GOLD",
    "BDAGLFGPDHK": 218094,
    "OECFCLCHHEA": [],
    "nameTextMapHash": 1535859851,
    "descTextMapHash": 4135517772
  },
  {
    "id": 3220081,
    "itemId": 336013,
    "LGAJJNOCCFB": 322008,
    "PAJFPMBIOMF": "GCG_CARD_FACE_GOLD",
    "BDAGLFGPDHK": 218095,
    "OECFCLCHHEA": [],
    "nameTextMapHash": 308042739,
    "descTextMapHash": 2434597396
  },
  {
    "id": 3220091,
    "itemId": 336014,
    "LGAJJNOCCFB": 322009,
    "PAJFPMBIOMF": "GCG_CARD_FACE_GOLD",
    "BDAGLFGPDHK": 218096,
    "OECFCLCHHEA": [],
    "nameTextMapHash": 3985408643,
    "descTextMapHash": 2619885100
  },
  {
    "id": 3220101,
    "itemId": 336015,
    "LGAJJNOCCFB": 322010,
    "PAJFPMBIOMF": "GCG_CARD_FACE_GOLD",
    "BDAGLFGPDHK": 218097,
    "OECFCLCHHEA": [],
    "nameTextMapHash": 356834139,
    "descTextMapHash": 3813469196
  },
  {
    "id": 3220111,
    "itemId": 336016,
    "LGAJJNOCCFB": 322011,
    "PAJFPMBIOMF": "GCG_CARD_FACE_GOLD",
    "BDAGLFGPDHK": 218098,
    "OECFCLCHHEA": [],
    "nameTextMapHash": 3897871515,
    "descTextMapHash": 3098844580
  },
  {
    "id": 3220121,
    "itemId": 336017,
    "LGAJJNOCCFB": 322012,
    "PAJFPMBIOMF": "GCG_CARD_FACE_GOLD",
    "BDAGLFGPDHK": 218099,
    "OECFCLCHHEA": [],
    "nameTextMapHash": 1099199659,
    "descTextMapHash": 3472397780
  },
  {
    "id": 3230011,
    "itemId": 336018,
    "LGAJJNOCCFB": 323001,
    "PAJFPMBIOMF": "GCG_CARD_FACE_GOLD",
    "BDAGLFGPDHK": 218100,
    "OECFCLCHHEA": [],
    "nameTextMapHash": 2802477723,
    "descTextMapHash": 283698316
  },
  {
    "id": 3230021,
    "itemId": 336019,
    "LGAJJNOCCFB": 323002,
    "PAJFPMBIOMF": "GCG_CARD_FACE_GOLD",
    "BDAGLFGPDHK": 218101,
    "OECFCLCHHEA": [],
    "nameTextMapHash": 4024954403,
    "descTextMapHash": 3242991284
  },
  {
    "id": 3311011,
    "itemId": 337000,
    "LGAJJNOCCFB": 331101,
    "PAJFPMBIOMF": "GCG_CARD_FACE_GOLD",
    "BDAGLFGPDHK": 218102,
    "OECFCLCHHEA": [],
    "nameTextMapHash": 1381565955,
    "descTextMapHash": 1547300620
  },
  {
    "id": 3311021,
    "itemId": 337001,
    "LGAJJNOCCFB": 331102,
    "PAJFPMBIOMF": "GCG_CARD_FACE_GOLD",
    "BDAGLFGPDHK": 218103,
    "OECFCLCHHEA": [],
    "nameTextMapHash": 2238801491,
    "descTextMapHash": 3836833524
  },
  {
    "id": 3312011,
    "itemId": 337002,
    "LGAJJNOCCFB": 331201,
    "PAJFPMBIOMF": "GCG_CARD_FACE_GOLD",
    "BDAGLFGPDHK": 218104,
    "OECFCLCHHEA": [],
    "nameTextMapHash": 1958433987,
    "descTextMapHash": 2089541628
  },
  {
    "id": 3312021,
    "itemId": 337003,
    "LGAJJNOCCFB": 331202,
    "PAJFPMBIOMF": "GCG_CARD_FACE_GOLD",
    "BDAGLFGPDHK": 218105,
    "OECFCLCHHEA": [],
    "nameTextMapHash": 1912528915,
    "descTextMapHash": 1145507092
  },
  {
    "id": 3313011,
    "itemId": 337004,
    "LGAJJNOCCFB": 331301,
    "PAJFPMBIOMF": "GCG_CARD_FACE_GOLD",
    "BDAGLFGPDHK": 218106,
    "OECFCLCHHEA": [],
    "nameTextMapHash": 2826394163,
    "descTextMapHash": 1595324012
  },
  {
    "id": 3313021,
    "itemId": 337005,
    "LGAJJNOCCFB": 331302,
    "PAJFPMBIOMF": "GCG_CARD_FACE_GOLD",
    "BDAGLFGPDHK": 218107,
    "OECFCLCHHEA": [],
    "nameTextMapHash": 3314978099,
    "descTextMapHash": 1347365060
  },
  {
    "id": 3314011,
    "itemId": 337006,
    "LGAJJNOCCFB": 331401,
    "PAJFPMBIOMF": "GCG_CARD_FACE_GOLD",
    "BDAGLFGPDHK": 218108,
    "OECFCLCHHEA": [],
    "nameTextMapHash": 1406388723,
    "descTextMapHash": 881533668
  },
  {
    "id": 3314021,
    "itemId": 337007,
    "LGAJJNOCCFB": 331402,
    "PAJFPMBIOMF": "GCG_CARD_FACE_GOLD",
    "BDAGLFGPDHK": 218109,
    "OECFCLCHHEA": [],
    "nameTextMapHash": 264108763,
    "descTextMapHash": 1641017388
  },
  {
    "id": 3315011,
    "itemId": 337008,
    "LGAJJNOCCFB": 331501,
    "PAJFPMBIOMF": "GCG_CARD_FACE_GOLD",
    "BDAGLFGPDHK": 218110,
    "OECFCLCHHEA": [],
    "nameTextMapHash": 3099509531,
    "descTextMapHash": 3774937276
  },
  {
    "id": 3315021,
    "itemId": 337009,
    "LGAJJNOCCFB": 331502,
    "PAJFPMBIOMF": "GCG_CARD_FACE_GOLD",
    "BDAGLFGPDHK": 218111,
    "OECFCLCHHEA": [],
    "nameTextMapHash": 1236870907,
    "descTextMapHash": 213436884
  },
  {
    "id": 3316011,
    "itemId": 337010,
    "LGAJJNOCCFB": 331601,
    "PAJFPMBIOMF": "GCG_CARD_FACE_GOLD",
    "BDAGLFGPDHK": 218112,
    "OECFCLCHHEA": [],
    "nameTextMapHash": 3796706563,
    "descTextMapHash": 3862592284
  },
  {
    "id": 3316021,
    "itemId": 337011,
    "LGAJJNOCCFB": 331602,
    "PAJFPMBIOMF": "GCG_CARD_FACE_GOLD",
    "BDAGLFGPDHK": 218113,
    "OECFCLCHHEA": [],
    "nameTextMapHash": 1600109675,
    "descTextMapHash": 1324939180
  },
  {
    "id": 3317011,
    "itemId": 337012,
    "LGAJJNOCCFB": 331701,
    "PAJFPMBIOMF": "GCG_CARD_FACE_GOLD",
    "BDAGLFGPDHK": 218114,
    "OECFCLCHHEA": [],
    "nameTextMapHash": 3962382259,
    "descTextMapHash": 1434413468
  },
  {
    "id": 3317021,
    "itemId": 337013,
    "LGAJJNOCCFB": 331702,
    "PAJFPMBIOMF": "GCG_CARD_FACE_GOLD",
    "BDAGLFGPDHK": 218115,
    "OECFCLCHHEA": [],
    "nameTextMapHash": 842681115,
    "descTextMapHash": 3957892860
  },
  {
    "id": 3320011,
    "itemId": 337014,
    "LGAJJNOCCFB": 332001,
    "PAJFPMBIOMF": "GCG_CARD_FACE_GOLD",
    "BDAGLFGPDHK": 218116,
    "OECFCLCHHEA": [],
    "nameTextMapHash": 509094323,
    "descTextMapHash": 332106004
  },
  {
    "id": 3320021,
    "itemId": 337015,
    "LGAJJNOCCFB": 332002,
    "PAJFPMBIOMF": "GCG_CARD_FACE_GOLD",
    "BDAGLFGPDHK": 218117,
    "OECFCLCHHEA": [],
    "nameTextMapHash": 2859920747,
    "descTextMapHash": 560454692
  },
  {
    "id": 3320031,
    "itemId": 337016,
    "LGAJJNOCCFB": 332003,
    "PAJFPMBIOMF": "GCG_CARD_FACE_GOLD",
    "BDAGLFGPDHK": 218118,
    "OECFCLCHHEA": [],
    "nameTextMapHash": 2365060267,
    "descTextMapHash": 3395517492
  },
  {
    "id": 3320041,
    "itemId": 337017,
    "LGAJJNOCCFB": 332004,
    "PAJFPMBIOMF": "GCG_CARD_FACE_GOLD",
    "BDAGLFGPDHK": 218119,
    "OECFCLCHHEA": [],
    "nameTextMapHash": 1808217779,
    "descTextMapHash": 579847180
  },
  {
    "id": 3320051,
    "itemId": 337018,
    "LGAJJNOCCFB": 332005,
    "PAJFPMBIOMF": "GCG_CARD_FACE_GOLD",
    "BDAGLFGPDHK": 218120,
    "OECFCLCHHEA": [],
    "nameTextMapHash": 192254963,
    "descTextMapHash": 2167926852
  },
  {
    "id": 3320061,
    "itemId": 337019,
    "LGAJJNOCCFB": 332006,
    "PAJFPMBIOMF": "GCG_CARD_FACE_GOLD",
    "BDAGLFGPDHK": 218121,
    "OECFCLCHHEA": [],
    "nameTextMapHash": 3020852043,
    "descTextMapHash": 663448156
  },
  {
    "id": 3320071,
    "itemId": 337020,
    "LGAJJNOCCFB": 332007,
    "PAJFPMBIOMF": "GCG_CARD_FACE_GOLD",
    "BDAGLFGPDHK": 218122,
    "OECFCLCHHEA": [],
    "nameTextMapHash": 2185969715,
    "descTextMapHash": 527630884
  },
  {
    "id": 3320081,
    "itemId": 337021,
    "LGAJJNOCCFB": 332008,
    "PAJFPMBIOMF": "GCG_CARD_FACE_GOLD",
    "BDAGLFGPDHK": 218123,
    "OECFCLCHHEA": [],
    "nameTextMapHash": 4155571059,
    "descTextMapHash": 3381643276
  },
  {
    "id": 3320091,
    "itemId": 337022,
    "LGAJJNOCCFB": 332009,
    "PAJFPMBIOMF": "GCG_CARD_FACE_GOLD",
    "BDAGLFGPDHK": 218124,
    "OECFCLCHHEA": [],
    "nameTextMapHash": 3861729627,
    "descTextMapHash": 15698764
  },
  {
    "id": 3320101,
    "itemId": 337023,
    "LGAJJNOCCFB": 332010,
    "PAJFPMBIOMF": "GCG_CARD_FACE_GOLD",
    "BDAGLFGPDHK": 218125,
    "OECFCLCHHEA": [],
    "nameTextMapHash": 2958957051,
    "descTextMapHash": 2063217924
  },
  {
    "id": 3320111,
    "itemId": 337024,
    "LGAJJNOCCFB": 332011,
    "PAJFPMBIOMF": "GCG_CARD_FACE_GOLD",
    "BDAGLFGPDHK": 218126,
    "OECFCLCHHEA": [],
    "nameTextMapHash": 1142605995,
    "descTextMapHash": 3477838276
  },
  {
    "id": 3320121,
    "itemId": 337025,
    "LGAJJNOCCFB": 332012,
    "PAJFPMBIOMF": "GCG_CARD_FACE_GOLD",
    "BDAGLFGPDHK": 218127,
    "OECFCLCHHEA": [],
    "nameTextMapHash": 1714592051,
    "descTextMapHash": 1703622836
  },
  {
    "id": 3320131,
    "itemId": 337026,
    "LGAJJNOCCFB": 332013,
    "PAJFPMBIOMF": "GCG_CARD_FACE_GOLD",
    "BDAGLFGPDHK": 218128,
    "OECFCLCHHEA": [],
    "nameTextMapHash": 3260710443,
    "descTextMapHash": 2849384260
  },
  {
    "id": 3320141,
    "itemId": 337027,
    "LGAJJNOCCFB": 332014,
    "PAJFPMBIOMF": "GCG_CARD_FACE_GOLD",
    "BDAGLFGPDHK": 218129,
    "OECFCLCHHEA": [],
    "nameTextMapHash": 3150837395,
    "descTextMapHash": 458639388
  },
  {
    "id": 3320151,
    "itemId": 337028,
    "LGAJJNOCCFB": 332015,
    "PAJFPMBIOMF": "GCG_CARD_FACE_GOLD",
    "BDAGLFGPDHK": 218130,
    "OECFCLCHHEA": [],
    "nameTextMapHash": 707820923,
    "descTextMapHash": 791527412
  },
  {
    "id": 3330011,
    "itemId": 337029,
    "LGAJJNOCCFB": 333001,
    "PAJFPMBIOMF": "GCG_CARD_FACE_GOLD",
    "BDAGLFGPDHK": 218131,
    "OECFCLCHHEA": [],
    "nameTextMapHash": 3626997827,
    "descTextMapHash": 971813812
  },
  {
    "id": 3330021,
    "itemId": 337030,
    "LGAJJNOCCFB": 333002,
    "PAJFPMBIOMF": "GCG_CARD_FACE_GOLD",
    "BDAGLFGPDHK": 218132,
    "OECFCLCHHEA": [],
    "nameTextMapHash": 3413698403,
    "descTextMapHash": 1106533348
  },
  {
    "id": 3330031,
    "itemId": 337031,
    "LGAJJNOCCFB": 333003,
    "PAJFPMBIOMF": "GCG_CARD_FACE_GOLD",
    "BDAGLFGPDHK": 218133,
    "OECFCLCHHEA": [],
    "nameTextMapHash": 1112289131,
    "descTextMapHash": 2181954724
  },
  {
    "id": 3330041,
    "itemId": 337032,
    "LGAJJNOCCFB": 333004,
    "PAJFPMBIOMF": "GCG_CARD_FACE_GOLD",
    "BDAGLFGPDHK": 218134,
    "OECFCLCHHEA": [],
    "nameTextMapHash": 2186425475,
    "descTextMapHash": 269004188
  },
  {
    "id": 3330051,
    "itemId": 337033,
    "LGAJJNOCCFB": 333005,
    "PAJFPMBIOMF": "GCG_CARD_FACE_GOLD",
    "BDAGLFGPDHK": 218135,
    "OECFCLCHHEA": [],
    "nameTextMapHash": 3556240947,
    "descTextMapHash": 3971344228
  },
  {
    "id": 3330061,
    "itemId": 337034,
    "LGAJJNOCCFB": 333006,
    "PAJFPMBIOMF": "GCG_CARD_FACE_GOLD",
    "BDAGLFGPDHK": 218136,
    "OECFCLCHHEA": [],
    "nameTextMapHash": 3558720523,
    "descTextMapHash": 3839071396
  },
  {
    "id": 3330071,
    "itemId": 337035,
    "LGAJJNOCCFB": 333007,
    "PAJFPMBIOMF": "GCG_CARD_FACE_GOLD",
    "BDAGLFGPDHK": 218137,
    "OECFCLCHHEA": [],
    "nameTextMapHash": 2064111963,
    "descTextMapHash": 4102995740
  },
  {
    "id": 3330081,
    "itemId": 337036,
    "LGAJJNOCCFB": 333008,
    "PAJFPMBIOMF": "GCG_CARD_FACE_GOLD",
    "BDAGLFGPDHK": 218138,
    "OECFCLCHHEA": [],
    "nameTextMapHash": 4003505331,
    "descTextMapHash": 938494156
  }
]
