[
  {
    "id": 1,
    "PGMJJPOGCNA": 171071907
  },
  {
    "id": 2,
    "PGMJJPOGCNA": 1061035051
  },
  {
    "id": 3,
    "unlockCond": "DUEL_LEVEL",
    "FLPAAGNFLII": 3,
    "PGMJJPOGCNA": 1773509819
  },
  {
    "id": 4,
    "unlockCond": "DUEL_LEVEL",
    "FLPAAGNFLII": 3,
    "PGMJJPOGCNA": 3642687843
  },
  {
    "id": 5,
    "unlockCond": "DUEL_LEVEL",
    "FLPAAGNFLII": 5,
    "PGMJJPOGCNA": 1489486907
  },
  {
    "id": 6,
    "unlockCond": "DUEL_LEVEL",
    "FLPAAGNFLII": 5,
    "PGMJJPOGCNA": 665882659
  },
  {
    "id": 7,
    "unlockCond": "DUEL_LEVEL",
    "FLPAAGNFLII": 7,
    "PGMJJPOGCNA": 2041915275
  },
  {
    "id": 8,
    "unlockCond": "DUEL_LEVEL",
    "FLPAAGNFLII": 7,
    "PGMJJPOGCNA": 1117366971
  },
  {
    "id": 9,
    "unlockCond": "DUEL_LEVEL",
    "FLPAAGNFLII": 10,
    "PGMJJPOGCNA": 1051809523
  },
  {
    "id": 10,
    "unlockCond": "DUEL_LEVEL",
    "FLPAAGNFLII": 10,
    "PGMJJPOGCNA": 3896187699
  }
]
