[
  {
    "itemId": 339000,
    "AAGLKHDLCIL": "Gcg_CardBack_01",
    "nameTextMapHash": 676923036,
    "descTextMapHash": 353954381,
    "PGMJJPOGCNA": 907024502,
    "order": 1,
    "BNCBJNIKJJN": 5955048444008668827,
    "KHADFNBKCIM": 17137945794185388821
  },
  {
    "id": 101,
    "itemId": 339001,
    "AAGLKHDLCIL": "Gcg_CardBack_Mengde",
    "nameTextMapHash": 224657260,
    "descTextMapHash": 3046963981,
    "PGMJJPOGCNA": 2711962022,
    "order": 2,
    "BNCBJNIKJJN": 8400781260855660634,
    "KHADFNBKCIM": 12934817420903946015
  },
  {
    "id": 102,
    "itemId": 339002,
    "AAGLKHDLCIL": "Gcg_CardBack_Liyue",
    "nameTextMapHash": 227656852,
    "descTextMapHash": 3099182813,
    "PGMJJPOGCNA": 2950676230,
    "order": 3,
    "BNCBJNIKJJN": 2162461715491897557,
    "KHADFNBKCIM": 946521606882035825
  },
  {
    "id": 103,
    "itemId": 339003,
    "AAGLKHDLCIL": "Gcg_CardBack_Inazuma",
    "nameTextMapHash": 3154003388,
    "descTextMapHash": 3705895181,
    "PGMJJPOGCNA": 3615340158,
    "order": 4,
    "BNCBJNIKJJN": 7741974315803207026,
    "KHADFNBKCIM": 7543895705586279157
  },
  {
    "id": 104,
    "itemId": 339004,
    "AAGLKHDLCIL": "Gcg_CardBack_Sumeru",
    "nameTextMapHash": 175694524,
    "descTextMapHash": 2496909349,
    "PGMJJPOGCNA": 3414498742,
    "order": 5,
    "BNCBJNIKJJN": 13086920283368280245,
    "KHADFNBKCIM": 4271844482978085241
  },
  {
    "id": 109,
    "itemId": 339009,
    "AAGLKHDLCIL": "Gcg_CardBack_LevelReward",
    "nameTextMapHash": 1303503172,
    "descTextMapHash": 1003684749,
    "PGMJJPOGCNA": 2100138046,
    "order": 6,
    "BNCBJNIKJJN": 12529666304738467772,
    "KHADFNBKCIM": 16291427696082876402
  },
  {
    "id": 110,
    "itemId": 339010,
    "AAGLKHDLCIL": "Gcg_CardBack_HandbookReward",
    "nameTextMapHash": 109851876,
    "descTextMapHash": 3234695645,
    "PGMJJPOGCNA": 3134801854,
    "order": 7,
    "BNCBJNIKJJN": 5414235285501997935,
    "KHADFNBKCIM": 456922116975439242
  },
  {
    "id": 111,
    "itemId": 339011,
    "AAGLKHDLCIL": "Gcg_CardBack_CrystalChunk",
    "nameTextMapHash": 3885169068,
    "descTextMapHash": 1779428085,
    "PGMJJPOGCNA": 3807053326,
    "order": 8,
    "BNCBJNIKJJN": 728510257260810500,
    "KHADFNBKCIM": 10330911359376665631
  },
  {
    "id": 112,
    "itemId": 339012,
    "AAGLKHDLCIL": "Gcg_CardBack_MagicalCrystalChunk",
    "nameTextMapHash": 1269391412,
    "descTextMapHash": 930269213,
    "PGMJJPOGCNA": 3798046198,
    "order": 9,
    "BNCBJNIKJJN": 7978520093627840327,
    "KHADFNBKCIM": 18067219207634859760
  },
  {
    "id": 113,
    "itemId": 339013,
    "AAGLKHDLCIL": "Gcg_CardBack_AmethystLump",
    "nameTextMapHash": 3084691172,
    "descTextMapHash": 2011411341,
    "PGMJJPOGCNA": 2626177846,
    "order": 10,
    "BNCBJNIKJJN": 4065480724821063734,
    "KHADFNBKCIM": 11461293823358058568
  },
  {
    "id": 114,
    "itemId": 339014,
    "AAGLKHDLCIL": "Gcg_CardBack_FlamingFlowerStamen",
    "nameTextMapHash": 1082255468,
    "descTextMapHash": 2948085421,
    "PGMJJPOGCNA": 3235168350,
    "order": 11,
    "BNCBJNIKJJN": 5355399110285537242,
    "KHADFNBKCIM": 7156094550485655906
  },
  {
    "id": 115,
    "itemId": 339015,
    "AAGLKHDLCIL": "Gcg_CardBack_MistFlowerCorolla",
    "nameTextMapHash": 2745316188,
    "descTextMapHash": 3905600909,
    "PGMJJPOGCNA": 2639877110,
    "order": 12,
    "BNCBJNIKJJN": 7955234963937979997,
    "KHADFNBKCIM": 17551227748477288777
  },
  {
    "id": 116,
    "itemId": 339016,
    "AAGLKHDLCIL": "Gcg_CardBack_ElectroCrystal",
    "nameTextMapHash": 3797431100,
    "descTextMapHash": 1816489677,
    "PGMJJPOGCNA": 86614022,
    "order": 13,
    "BNCBJNIKJJN": 7015149431546231814,
    "KHADFNBKCIM": 350713544469908220
  },
  {
    "id": 117,
    "itemId": 339017,
    "AAGLKHDLCIL": "Gcg_CardBack_DandelionSeed",
    "nameTextMapHash": 856244868,
    "descTextMapHash": 388291885,
    "PGMJJPOGCNA": 1748351190,
    "order": 14,
    "BNCBJNIKJJN": 3907336587166315354,
    "KHADFNBKCIM": 17904172385502980206
  },
  {
    "id": 118,
    "itemId": 339018,
    "AAGLKHDLCIL": "Gcg_CardBack_Cecilia",
    "nameTextMapHash": 1506195860,
    "descTextMapHash": 388552781,
    "PGMJJPOGCNA": 3637100366,
    "order": 15,
    "BNCBJNIKJJN": 9329051223372775342,
    "KHADFNBKCIM": 16765756899808728928
  },
  {
    "id": 119,
    "itemId": 339019,
    "AAGLKHDLCIL": "Gcg_CardBack_GlazeLily",
    "nameTextMapHash": 432382212,
    "descTextMapHash": 2053528661,
    "PGMJJPOGCNA": 154721118,
    "order": 16,
    "BNCBJNIKJJN": 13839908362556897712,
    "KHADFNBKCIM": 13476174288848302462
  },
  {
    "id": 120,
    "itemId": 339020,
    "AAGLKHDLCIL": "Gcg_CardBack_Dendrobium",
    "nameTextMapHash": 454618260,
    "descTextMapHash": 3270400653,
    "PGMJJPOGCNA": 52960310,
    "order": 17,
    "BNCBJNIKJJN": 8666691502161323654,
    "KHADFNBKCIM": 2946787137023744804
  },
  {
    "id": 121,
    "itemId": 339021,
    "AAGLKHDLCIL": "Gcg_CardBack_Dvalin",
    "nameTextMapHash": 2768624492,
    "descTextMapHash": 376179413,
    "PGMJJPOGCNA": 3221107606,
    "KEPJJCJIPEN": true,
    "order": 18,
    "BNCBJNIKJJN": 13403849367134704728,
    "KHADFNBKCIM": 3371523125816103683
  }
]
