[
  {
    "id": 1,
    "pos": [17.520000457763672, 0.0, 21.5],
    "KJGKAIBAKFP": -115.5,
    "OKEFAEDONCG": "POINT_MOTION_SIT",
    "LDILPCEPAEE": ["SUPPORT_CALL", "SUPPORT_NONE"]
  },
  {
    "id": 2,
    "pos": [18.149999618530273, 0.0, 20.600000381469727],
    "KJGKAIBAKFP": -89.30000305175781,
    "OKEFAEDONCG": "POINT_MOTION_STAND",
    "LDILPCEPAEE": ["SUPPORT_CALL", "SUPPORT_NONE"]
  },
  {
    "id": 3,
    "pos": [15.720000267028809, 0.0, 20.799999237060547],
    "KJGKAIBAKFP": 78.66000366210938,
    "OKEFAEDONCG": "POINT_MOTION_SIT",
    "LDILPCEPAEE": ["SUPPORT_CALL", "SUPPORT_NONE"]
  },
  {
    "id": 4,
    "pos": [30.799999237060547, 0.0, 8.800000190734863],
    "KJGKAIBAKFP": -6.699999809265137,
    "OKEFAEDONCG": "POINT_MOTION_SIT",
    "LDILPCEPAEE": ["SUPPORT_CALL", "SUPPORT_NONE"]
  },
  {
    "id": 5,
    "pos": [30.0, 0.0, 8.699999809265137],
    "KJGKAIBAKFP": -18.200000762939453,
    "OKEFAEDONCG": "POINT_MOTION_STAND",
    "LDILPCEPAEE": ["SUPPORT_CALL", "SUPPORT_NONE"]
  },
  {
    "id": 6,
    "pos": [30.100000381469727, 0.0, 11.0],
    "KJGKAIBAKFP": 172.0,
    "OKEFAEDONCG": "POINT_MOTION_SIT",
    "LDILPCEPAEE": ["SUPPORT_CALL", "SUPPORT_NONE"]
  },
  {
    "id": 7,
    "pos": [-0.7699999809265137, 1.2999999523162842, 11.470000267028809],
    "KJGKAIBAKFP": 180.0,
    "LDILPCEPAEE": ["SUPPORT_NONE", "SUPPORT_NONE"]
  },
  {
    "id": 101,
    "pos": [8.4399995803833, 0.0, 6.869999885559082],
    "KJGKAIBAKFP": 118.4000015258789,
    "OKEFAEDONCG": "POINT_MOTION_SIT",
    "LDILPCEPAEE": ["SUPPORT_CALL", "SUPPORT_NONE"]
  },
  {
    "id": 102,
    "pos": [10.359999656677246, 0.0, 6.800000190734863],
    "KJGKAIBAKFP": -91.75,
    "OKEFAEDONCG": "POINT_MOTION_SIT",
    "LDILPCEPAEE": ["SUPPORT_CALL", "SUPPORT_NONE"]
  },
  {
    "id": 111,
    "pos": [8.100000381469727, 0.0, 6.0],
    "KJGKAIBAKFP": 65.30000305175781,
    "OKEFAEDONCG": "POINT_MOTION_STAND",
    "LDILPCEPAEE": ["SUPPORT_CALL", "SUPPORT_NONE"]
  },
  {
    "id": 201,
    "pos": [9.930000305175781, 0.0, 12.15999984741211],
    "KJGKAIBAKFP": 110.0999984741211,
    "OKEFAEDONCG": "POINT_MOTION_SIT",
    "LDILPCEPAEE": ["SUPPORT_CALL", "SUPPORT_NONE"]
  },
  {
    "id": 202,
    "pos": [10.989999771118164, 0.0, 13.170000076293945],
    "KJGKAIBAKFP": -162.8000030517578,
    "OKEFAEDONCG": "POINT_MOTION_SIT",
    "LDILPCEPAEE": ["SUPPORT_CALL", "SUPPORT_NONE"]
  },
  {
    "id": 203,
    "pos": [11.569999694824219, 0.0, 11.350000381469727],
    "KJGKAIBAKFP": -54.599998474121094,
    "OKEFAEDONCG": "POINT_MOTION_SIT",
    "LDILPCEPAEE": ["SUPPORT_CALL", "SUPPORT_NONE"]
  },
  {
    "id": 211,
    "pos": [12.09000015258789, 0.0, 12.899999618530273],
    "KJGKAIBAKFP": -124.19999694824219,
    "OKEFAEDONCG": "POINT_MOTION_STAND",
    "LDILPCEPAEE": ["SUPPORT_CALL", "SUPPORT_NONE"]
  },
  {
    "id": 301,
    "pos": [14.300000190734863, 0.0, 7.659999847412109],
    "KJGKAIBAKFP": 90.0999984741211,
    "OKEFAEDONCG": "POINT_MOTION_SIT",
    "LDILPCEPAEE": ["SUPPORT_CALL", "SUPPORT_NONE"]
  },
  {
    "id": 302,
    "pos": [15.699999809265137, 0.0, 6.75],
    "KJGKAIBAKFP": -3.200000047683716,
    "OKEFAEDONCG": "POINT_MOTION_SIT",
    "LDILPCEPAEE": ["SUPPORT_CALL", "SUPPORT_NONE"]
  },
  {
    "id": 303,
    "pos": [15.789999961853027, 0.0, 8.449999809265137],
    "KJGKAIBAKFP": -172.6999969482422,
    "OKEFAEDONCG": "POINT_MOTION_SIT",
    "LDILPCEPAEE": ["SUPPORT_CALL", "SUPPORT_NONE"]
  },
  {
    "id": 311,
    "pos": [14.699999809265137, 0.0, 8.75],
    "KJGKAIBAKFP": 147.1999969482422,
    "OKEFAEDONCG": "POINT_MOTION_STAND",
    "LDILPCEPAEE": ["SUPPORT_CALL", "SUPPORT_NONE"]
  },
  {
    "id": 401,
    "pos": [21.850000381469727, 0.0, 12.100000381469727],
    "KJGKAIBAKFP": -50.79999923706055,
    "OKEFAEDONCG": "POINT_MOTION_SIT",
    "LDILPCEPAEE": ["SUPPORT_CALL", "SUPPORT_NONE"]
  },
  {
    "id": 402,
    "pos": [20.0, 0.0, 12.760000228881836],
    "KJGKAIBAKFP": 97.37999725341797,
    "OKEFAEDONCG": "POINT_MOTION_SIT",
    "LDILPCEPAEE": ["SUPPORT_CALL", "SUPPORT_NONE"]
  },
  {
    "id": 411,
    "pos": [22.386999130249023, 0.0, 12.937999725341797],
    "KJGKAIBAKFP": 230.75999450683594,
    "OKEFAEDONCG": "POINT_MOTION_STAND",
    "LDILPCEPAEE": ["SUPPORT_CALL", "SUPPORT_NONE"]
  },
  {
    "id": 511,
    "pos": [13.579999923706055, 5.0, 13.170000076293945],
    "KJGKAIBAKFP": 164.3300018310547,
    "OKEFAEDONCG": "POINT_MOTION_STAND",
    "LDILPCEPAEE": ["SUPPORT_CALL", "SUPPORT_NONE"]
  },
  {
    "id": 512,
    "pos": [22.329999923706055, 5.0, 14.260000228881836],
    "KJGKAIBAKFP": 3.812000036239624,
    "OKEFAEDONCG": "POINT_MOTION_STAND",
    "LDILPCEPAEE": ["SUPPORT_CALL", "SUPPORT_NONE"]
  }
]
