[
  {
    "id": 1,
    "ANAMDHGNCEJ": [101, 102, 201, 203],
    "PHMANODCJEL": [301, 303, 1, 3],
    "JAIEDJNADAA": 1,
    "DIIMJDJDOEJ": 4
  },
  {
    "id": 2,
    "ANAMDHGNCEJ": [101, 102, 301, 303],
    "PHMANODCJEL": [401, 402, 111, 411],
    "JAIEDJNADAA": 2,
    "DIIMJDJDOEJ": 1
  },
  {
    "id": 3,
    "ANAMDHGNCEJ": [201, 203, 301, 303],
    "PHMANODCJEL": [401, 402, 4, 6],
    "JAIEDJNADAA": 1,
    "DIIMJDJDOEJ": 1
  },
  {
    "id": 4,
    "ANAMDHGNCEJ": [101, 102, 301, 303],
    "PHMANODCJEL": [201, 203, 401, 402],
    "JAIEDJNADAA": 2,
    "DIIMJDJDOEJ": 4
  },
  {
    "id": 5,
    "ANAMDHGNCEJ": [201, 203, 301, 303],
    "PHMANODCJEL": [101, 402, 4, 6],
    "JAIEDJNADAA": 1,
    "DIIMJDJDOEJ": 1
  },
  {
    "id": 6,
    "ANAMDHGNCEJ": [101, 102, 301, 303],
    "PHMANODCJEL": [201, 402, 1, 3],
    "JAIEDJNADAA": 2,
    "DIIMJDJDOEJ": 4
  }
]
