[
  {
    "id": 1,
    "PEFLCFFJCGN": true,
    "NBDPPAIGLEH": "Gcg_Table_Md_Battle",
    "KPBDNLIMPGK": "Gcg_Table_Md_Battle_Mobile"
  },
  {
    "id": 2,
    "PEFLCFFJCGN": true,
    "NBDPPAIGLEH": "Gcg_Table_Md_Dice",
    "KPBDNLIMPGK": "Gcg_Table_Md_Dice"
  },
  {
    "id": 3,
    "NBDPPAIGLEH": "Gcg_Table_Ly_Battle",
    "KPBDNLIMPGK": "Gcg_Table_Ly_Battle_Mobile"
  },
  {
    "id": 4,
    "NBDPPAIGLEH": "Gcg_Table_Ly_Dice",
    "KPBDNLIMPGK": "Gcg_Table_Ly_Dice"
  },
  {
    "id": 5,
    "NBDPPAIGLEH": "Gcg_Table_Dq_Battle",
    "KPBDNLIMPGK": "Gcg_Table_Dq_Battle_Mobile"
  },
  {
    "id": 6,
    "NBDPPAIGLEH": "Gcg_Table_Dq_Dice",
    "KPBDNLIMPGK": "Gcg_Table_Dq_Dice"
  },
  {
    "id": 7,
    "NBDPPAIGLEH": "Gcg_Table_Xm_Battle",
    "KPBDNLIMPGK": "Gcg_Table_Xm_Battle_Mobile"
  },
  {
    "id": 8,
    "NBDPPAIGLEH": "Gcg_Table_Xm_Dice",
    "KPBDNLIMPGK": "Gcg_Table_Xm_Dice"
  }
]
