[
  {
    "id": 1,
    "openDay": 1,
    "galleryId": 24001,
    "NNDAJIEDILA": 20150121,
    "GHNILABGOHJ": [12015301, 12015302, 12015303],
    "CDKGOKNHOGK": [1000, 2000, 3000],
    "levelNameTextMapHash": 1851173796,
    "levelDescTextMapHash": 1693954602,
    "GIDDHBFFPJL": 3199211908,
    "KPFMGCJNDEL": 20.0,
    "IGBLMOIIPNE": 40.0
  },
  {
    "id": 2,
    "openDay": 3,
    "galleryId": 24002,
    "NNDAJIEDILA": 20150122,
    "GHNILABGOHJ": [12015304, 12015305, 12015306],
    "CDKGOKNHOGK": [1000, 2000, 3000],
    "levelNameTextMapHash": 3258017388,
    "levelDescTextMapHash": 52956962,
    "GIDDHBFFPJL": 1284707460,
    "KPFMGCJNDEL": 20.0,
    "IGBLMOIIPNE": 40.0
  },
  {
    "id": 3,
    "openDay": 4,
    "galleryId": 24003,
    "NNDAJIEDILA": 20150123,
    "GHNILABGOHJ": [12015307, 12015308, 12015309],
    "CDKGOKNHOGK": [1000, 2000, 3000],
    "levelNameTextMapHash": 1808087220,
    "levelDescTextMapHash": 1440950282,
    "GIDDHBFFPJL": 2124649892,
    "KPFMGCJNDEL": 20.0,
    "IGBLMOIIPNE": 40.0
  },
  {
    "id": 4,
    "openDay": 5,
    "galleryId": 24004,
    "NNDAJIEDILA": 20150124,
    "GHNILABGOHJ": [12015310, 12015311, 12015312],
    "CDKGOKNHOGK": [1000, 2000, 3000],
    "levelNameTextMapHash": 2009113748,
    "levelDescTextMapHash": 2283298362,
    "GIDDHBFFPJL": 123279988,
    "KPFMGCJNDEL": 20.0,
    "IGBLMOIIPNE": 40.0
  },
  {
    "id": 5,
    "openDay": 6,
    "galleryId": 24005,
    "NNDAJIEDILA": 20150125,
    "GHNILABGOHJ": [12015313, 12015314, 12015315],
    "CDKGOKNHOGK": [1000, 2000, 3000],
    "levelNameTextMapHash": 2255241308,
    "levelDescTextMapHash": 2933359778,
    "GIDDHBFFPJL": 651496844,
    "KPFMGCJNDEL": 20.0,
    "IGBLMOIIPNE": 40.0
  },
  {
    "id": 6,
    "openDay": 7,
    "galleryId": 24006,
    "NNDAJIEDILA": 20150126,
    "GHNILABGOHJ": [12015316, 12015317, 12015318],
    "CDKGOKNHOGK": [1000, 2000, 3000],
    "levelNameTextMapHash": 196300924,
    "levelDescTextMapHash": 4185213362,
    "GIDDHBFFPJL": 526922644,
    "KPFMGCJNDEL": 20.0,
    "IGBLMOIIPNE": 40.0
  },
  {
    "id": 7,
    "openDay": 8,
    "galleryId": 24007,
    "NNDAJIEDILA": 20150127,
    "GHNILABGOHJ": [12015319, 12015320, 12015321],
    "CDKGOKNHOGK": [1000, 2000, 3000],
    "levelNameTextMapHash": 2244961036,
    "levelDescTextMapHash": 2092900866,
    "GIDDHBFFPJL": 3032812092,
    "KPFMGCJNDEL": 20.0,
    "IGBLMOIIPNE": 40.0
  }
]
