[
  {
    "levelId": 101,
    "galleryId": 46001,
    "LNHCDOPNAIL": [22, 23, 40, 33],
    "HJGFJBAHHCD": [40, 40, 10, 10],
    "MJHIOJBLCLP": [6053, 6047],
    "JMIEOMEOPDD": "25410401:115,24040301:45,24040201:45"
  },
  {
    "levelId": 102,
    "galleryId": 46002,
    "LNHCDOPNAIL": [25, 38, 40, 42],
    "HJGFJBAHHCD": [40, 40, 10, 10],
    "MJHIOJBLCLP": [6062, 6056],
    "JMIEOMEOPDD": "23010101:135,25410301:100,25030201:20,25010701:20,25030301:20,25020201:20,25030201:20,25070101:20"
  },
  {
    "levelId": 103,
    "galleryId": 46003,
    "LNHCDOPNAIL": [29, 39, 42, 43],
    "HJGFJBAHHCD": [40, 40, 10, 10],
    "MJHIOJBLCLP": [6052, 6056],
    "JMIEOMEOPDD": "25410401:70,25310101:50,25210103:20,25210302:20,25210401:20,25210201:20,25010201:20,25060101:20,25010501:20,25010401:20"
  },
  {
    "levelId": 104,
    "galleryId": 46004,
    "LNHCDOPNAIL": [25, 27, 35, 42],
    "HJGFJBAHHCD": [40, 40, 10, 10],
    "MJHIOJBLCLP": [6062, 6006],
    "JMIEOMEOPDD": "25410301:60,25310201:50,25210101:20,25210503:20,25010301:20,25010601:20,25210302:20,25210102:20,25210202:20"
  },
  {
    "levelId": 105,
    "galleryId": 46005,
    "LNHCDOPNAIL": [26, 25, 35, 28],
    "HJGFJBAHHCD": [40, 40, 10, 10],
    "MJHIOJBLCLP": [6041, 6045],
    "JMIEOMEOPDD": "26040103:190,26040104:190,26010101:60,20010601:25"
  },
  {
    "levelId": 106,
    "galleryId": 46006,
    "LNHCDOPNAIL": [27, 26, 40, 36],
    "HJGFJBAHHCD": [40, 40, 10, 10],
    "MJHIOJBLCLP": [6037, 6002],
    "JMIEOMEOPDD": "25100201:70,25100101:70,25080101:25,25080201:25,25080301:25"
  },
  {
    "levelId": 107,
    "galleryId": 46007,
    "LNHCDOPNAIL": [23, 22, 41, 33],
    "HJGFJBAHHCD": [40, 40, 10, 10],
    "MJHIOJBLCLP": [6060, 6039],
    "JMIEOMEOPDD": "26120201:40,26120301:40,26120401:40,26090601:15,26090801:15,26090901:15,26090101:15,26090301:15,26090501:15"
  },
  {
    "levelId": 108,
    "galleryId": 46008,
    "LNHCDOPNAIL": [22, 26, 29, 43],
    "HJGFJBAHHCD": [40, 40, 10, 10],
    "MJHIOJBLCLP": [6039, 6033],
    "JMIEOMEOPDD": "21040101:80,21010701:15,21030203:20,21010502:15,20011301:25,21020202:35"
  },
  {
    "levelId": 109,
    "galleryId": 46009,
    "LNHCDOPNAIL": [44, 34, 31, 41],
    "HJGFJBAHHCD": [40, 40, 10, 10],
    "MJHIOJBLCLP": [6058, 6059],
    "JMIEOMEOPDD": "25410201:60,23010501:60,25070101:20,25210102:20,25210103:20,25010401:20,25010501:20,25210303:20,25060101:20,25210202:20"
  },
  {
    "levelId": 110,
    "galleryId": 46010,
    "LNHCDOPNAIL": [26, 25, 31, 35],
    "HJGFJBAHHCD": [40, 40, 10, 10],
    "MJHIOJBLCLP": [6022, 6037],
    "JMIEOMEOPDD": "24030101:160,24030201:190,24020101:45,24020201:45,24020401:45"
  },
  {
    "levelId": 111,
    "galleryId": 46011,
    "LNHCDOPNAIL": [22, 27, 41, 30],
    "HJGFJBAHHCD": [40, 40, 10, 10],
    "MJHIOJBLCLP": [6012, 6006],
    "JMIEOMEOPDD": "25310301:50,25310201:50,24040201:45,24040301:45,25210101:20,25210201:20,25210402:20,25210203:20"
  },
  {
    "levelId": 112,
    "galleryId": 46012,
    "LNHCDOPNAIL": [32, 30, 37, 41],
    "HJGFJBAHHCD": [40, 40, 10, 10],
    "MJHIOJBLCLP": [6012, 6026],
    "JMIEOMEOPDD": "21040201:130,21040101:130,21020301:35,21020201:35,21011201:15,21010402:15"
  }
]
