[
  {
    "Id": 1,
    "questId": 4005513,
    "HLPMIABOPIE": [40054, 40055],
    "openDay": 1,
    "OEFDBEGNCFB": 1526969065,
    "nameTextMapHash": 4246395715,
    "descTextMapHash": 531992512,
    "EBMCMGDOHEP": []
  },
  {
    "Id": 2,
    "questId": 4005610,
    "HLPMIABOPIE": [40056],
    "openDay": 3,
    "OEFDBEGNCFB": 2302801137,
    "nameTextMapHash": 1188096139,
    "descTextMapHash": 2291208320,
    "preQuestId": 40055,
    "EBMCMGDOHEP": []
  },
  {
    "Id": 3,
    "questId": 4005714,
    "HLPMIABOPIE": [40057],
    "openDay": 5,
    "OEFDBEGNCFB": 430098841,
    "nameTextMapHash": 1829173803,
    "descTextMapHash": 2085341544,
    "preQuestId": 40056,
    "EBMCMGDOHEP": []
  },
  {
    "Id": 4,
    "questId": 4005914,
    "HLPMIABOPIE": [40058, 40059],
    "openDay": 7,
    "OEFDBEGNCFB": 2423663561,
    "nameTextMapHash": 1726838371,
    "descTextMapHash": 1729004976,
    "preQuestId": 40057,
    "EBMCMGDOHEP": []
  },
  {
    "Id": 5,
    "questId": 7227827,
    "HLPMIABOPIE": [72278],
    "MEHHEHBGHGH": "LUNA_RITE_QUEST_TYPE_BIGWORLD",
    "openDay": 1,
    "OEFDBEGNCFB": 1866553625,
    "nameTextMapHash": 1651326803,
    "descTextMapHash": 1578112256,
    "preQuestId": 40055,
    "EBMCMGDOHEP": []
  },
  {
    "Id": 6,
    "questId": 7227919,
    "HLPMIABOPIE": [72279],
    "MEHHEHBGHGH": "LUNA_RITE_QUEST_TYPE_BIGWORLD",
    "openDay": 3,
    "OEFDBEGNCFB": 355819209,
    "nameTextMapHash": 44788507,
    "descTextMapHash": 4290954736,
    "preQuestId": 40056,
    "EBMCMGDOHEP": []
  },
  {
    "Id": 7,
    "questId": 7228018,
    "HLPMIABOPIE": [72280],
    "MEHHEHBGHGH": "LUNA_RITE_QUEST_TYPE_BIGWORLD",
    "openDay": 5,
    "OEFDBEGNCFB": 1982040337,
    "nameTextMapHash": 2308126907,
    "descTextMapHash": 3618309360,
    "preQuestId": 40057,
    "EBMCMGDOHEP": []
  },
  {
    "Id": 8,
    "questId": 7228118,
    "HLPMIABOPIE": [72281],
    "MEHHEHBGHGH": "LUNA_RITE_QUEST_TYPE_BIGWORLD",
    "openDay": 7,
    "OEFDBEGNCFB": 2586315249,
    "nameTextMapHash": 1696764451,
    "descTextMapHash": 3754030264,
    "preQuestId": 40059,
    "EBMCMGDOHEP": []
  }
]
