[
  {
    "stageID": 1,
    "DELGGFGMFAN": "SITUATION_TYPE_COMMON_TRANSPORT",
    "MEDMJECCOHP": [3],
    "EIIHMEHJIEO": [1, 3],
    "AINPNILLGKG": "LOADING_AREA_CITY",
    "picPath": "UI_LoadingPic_MengDe"
  },
  {
    "stageID": 2,
    "DELGGFGMFAN": "SITUATION_TYPE_COMMON_TRANSPORT",
    "MEDMJECCOHP": [3],
    "EIIHMEHJIEO": [1, 2, 3, 4],
    "AINPNILLGKG": "LOADING_AREA_OUTDOOR",
    "picPath": "UI_LoadingPic_MengDe"
  },
  {
    "stageID": 3,
    "DELGGFGMFAN": "SITUATION_TYPE_COMMON_TRANSPORT",
    "MEDMJECCOHP": [3],
    "EIIHMEHJIEO": [7],
    "AINPNILLGKG": "LOADING_AREA_CITY",
    "picPath": "UI_LoadingPic_LiYue"
  },
  {
    "stageID": 4,
    "DELGGFGMFAN": "SITUATION_TYPE_COMMON_TRANSPORT",
    "MEDMJECCOHP": [3],
    "EIIHMEHJIEO": [5, 6, 7, 8, 9],
    "AINPNILLGKG": "LOADING_AREA_OUTDOOR",
    "picPath": "UI_LoadingPic_LiYue"
  },
  {
    "stageID": 5,
    "DELGGFGMFAN": "SITUATION_TYPE_ENTER_QUEST_DUNGEON",
    "MEDMJECCOHP": [],
    "EIIHMEHJIEO": [],
    "picPath": "UI_LoadingPic_Dungeon"
  },
  {
    "stageID": 6,
    "DELGGFGMFAN": "SITUATION_TYPE_ENTER_DAILY_DUNGEON",
    "MEDMJECCOHP": [],
    "EIIHMEHJIEO": [],
    "picPath": "UI_LoadingPic_Dungeon"
  },
  {
    "stageID": 7,
    "DELGGFGMFAN": "SITUATION_TYPE_ENTER_TOWER",
    "MEDMJECCOHP": [],
    "EIIHMEHJIEO": [],
    "picPath": "UI_LoadingPic_Dungeon"
  },
  {
    "stageID": 8,
    "DELGGFGMFAN": "SITUATION_TYPE_ENTER_ROOM",
    "MEDMJECCOHP": [],
    "EIIHMEHJIEO": [],
    "picPath": ""
  },
  {
    "stageID": 9,
    "DELGGFGMFAN": "SITUATION_TYPE_LOGIN",
    "MEDMJECCOHP": [],
    "EIIHMEHJIEO": [],
    "picPath": ""
  },
  {
    "stageID": 10,
    "DELGGFGMFAN": "SITUATION_TYPE_LOGOUT",
    "MEDMJECCOHP": [],
    "EIIHMEHJIEO": [],
    "picPath": ""
  },
  {
    "stageID": 11,
    "DELGGFGMFAN": "SITUATION_TYPE_REVIVE",
    "MEDMJECCOHP": [],
    "EIIHMEHJIEO": [],
    "picPath": ""
  },
  {
    "stageID": 12,
    "DELGGFGMFAN": "SITUATION_TYPE_COMMON_TRANSPORT",
    "MEDMJECCOHP": [3],
    "EIIHMEHJIEO": [10],
    "picPath": "UI_LoadingPic_Dragonspine"
  },
  {
    "stageID": 13,
    "DELGGFGMFAN": "SITUATION_TYPE_ENTER_HOMEWORLD",
    "MEDMJECCOHP": [],
    "EIIHMEHJIEO": [],
    "picPath": "UI_LoadingPic_Homeworld"
  },
  {
    "stageID": 14,
    "DELGGFGMFAN": "SITUATION_TYPE_ENTER_ISLAND",
    "MEDMJECCOHP": [],
    "EIIHMEHJIEO": [],
    "picPath": "UI_LoadingPic_GoldenAppleIsles"
  },
  {
    "stageID": 15,
    "DELGGFGMFAN": "SITUATION_TYPE_COMMON_TRANSPORT",
    "MEDMJECCOHP": [3],
    "EIIHMEHJIEO": [11],
    "AINPNILLGKG": "LOADING_AREA_CITY",
    "picPath": "UI_LoadingPic_Inazuma"
  },
  {
    "stageID": 16,
    "DELGGFGMFAN": "SITUATION_TYPE_COMMON_TRANSPORT",
    "MEDMJECCOHP": [3],
    "EIIHMEHJIEO": [11],
    "AINPNILLGKG": "LOADING_AREA_OUTDOOR",
    "picPath": "UI_LoadingPic_Inazuma"
  },
  {
    "stageID": 17,
    "DELGGFGMFAN": "SITUATION_TYPE_COMMON_TRANSPORT",
    "MEDMJECCOHP": [3],
    "EIIHMEHJIEO": [12],
    "picPath": "UI_LoadingPic_Inazuma"
  },
  {
    "stageID": 18,
    "DELGGFGMFAN": "SITUATION_TYPE_COMMON_TRANSPORT",
    "MEDMJECCOHP": [3],
    "EIIHMEHJIEO": [13],
    "picPath": "UI_LoadingPic_Inazuma"
  },
  {
    "stageID": 19,
    "DELGGFGMFAN": "SITUATION_TYPE_COMMON_TRANSPORT",
    "MEDMJECCOHP": [3],
    "EIIHMEHJIEO": [17],
    "picPath": "UI_LoadingPic_Inazuma"
  },
  {
    "stageID": 20,
    "DELGGFGMFAN": "SITUATION_TYPE_COMMON_TRANSPORT",
    "MEDMJECCOHP": [3],
    "EIIHMEHJIEO": [14],
    "picPath": "UI_LoadingPic_Inazuma"
  },
  {
    "stageID": 21,
    "DELGGFGMFAN": "SITUATION_TYPE_COMMON_TRANSPORT",
    "MEDMJECCOHP": [3],
    "EIIHMEHJIEO": [18],
    "picPath": "UI_LoadingPic_Inazuma"
  },
  {
    "stageID": 22,
    "DELGGFGMFAN": "SITUATION_TYPE_COMMON_TRANSPORT",
    "MEDMJECCOHP": [5],
    "EIIHMEHJIEO": [200],
    "picPath": "UI_LoadingPic_Enkanomiya"
  },
  {
    "stageID": 23,
    "DELGGFGMFAN": "SITUATION_TYPE_COMMON_TRANSPORT",
    "MEDMJECCOHP": [7],
    "EIIHMEHJIEO": [210],
    "picPath": "UI_LoadingPic_MichiaeMatsuri"
  },
  {
    "stageID": 24,
    "DELGGFGMFAN": "SITUATION_TYPE_COMMON_TRANSPORT",
    "MEDMJECCOHP": [3],
    "EIIHMEHJIEO": [19],
    "picPath": "UI_LoadingPic_TheChasm"
  },
  {
    "stageID": 25,
    "DELGGFGMFAN": "SITUATION_TYPE_COMMON_TRANSPORT",
    "MEDMJECCOHP": [6],
    "EIIHMEHJIEO": [300],
    "picPath": "UI_LoadingPic_TheChasm"
  },
  {
    "stageID": 26,
    "DELGGFGMFAN": "SITUATION_TYPE_ENTER_GCG_NORMAL",
    "MEDMJECCOHP": [],
    "EIIHMEHJIEO": [],
    "picPath": "UI_LoadingPic_Homeworld"
  },
  {
    "stageID": 28,
    "DELGGFGMFAN": "SITUATION_TYPE_COMMON_TRANSPORT",
    "MEDMJECCOHP": [9],
    "EIIHMEHJIEO": [400, 401, 402, 403],
    "picPath": "UI_LoadingPic_GoldenAppleIsles"
  },
  {
    "stageID": 29,
    "DELGGFGMFAN": "SITUATION_TYPE_COMMON_TRANSPORT",
    "MEDMJECCOHP": [3],
    "EIIHMEHJIEO": [20],
    "AINPNILLGKG": "LOADING_AREA_OUTDOOR",
    "picPath": "UI_LoadingPic_Sumeru"
  },
  {
    "stageID": 30,
    "DELGGFGMFAN": "SITUATION_TYPE_COMMON_TRANSPORT",
    "MEDMJECCOHP": [3],
    "EIIHMEHJIEO": [21],
    "AINPNILLGKG": "LOADING_AREA_OUTDOOR",
    "picPath": "UI_LoadingPic_Sumeru"
  },
  {
    "stageID": 31,
    "DELGGFGMFAN": "SITUATION_TYPE_COMMON_TRANSPORT",
    "MEDMJECCOHP": [3],
    "EIIHMEHJIEO": [22],
    "AINPNILLGKG": "LOADING_AREA_OUTDOOR",
    "picPath": "UI_LoadingPic_Sumeru"
  },
  {
    "stageID": 32,
    "DELGGFGMFAN": "SITUATION_TYPE_COMMON_TRANSPORT",
    "MEDMJECCOHP": [3],
    "EIIHMEHJIEO": [23],
    "AINPNILLGKG": "LOADING_AREA_OUTDOOR",
    "picPath": "UI_LoadingPic_Sumeru"
  },
  {
    "stageID": 33,
    "DELGGFGMFAN": "SITUATION_TYPE_COMMON_TRANSPORT",
    "MEDMJECCOHP": [3],
    "EIIHMEHJIEO": [24],
    "AINPNILLGKG": "LOADING_AREA_OUTDOOR",
    "picPath": "UI_LoadingPic_Sumeru"
  },
  {
    "stageID": 34,
    "DELGGFGMFAN": "SITUATION_TYPE_COMMON_TRANSPORT",
    "MEDMJECCOHP": [3],
    "EIIHMEHJIEO": [25],
    "AINPNILLGKG": "LOADING_AREA_OUTDOOR",
    "picPath": "UI_LoadingPic_Sumeru"
  },
  {
    "stageID": 35,
    "DELGGFGMFAN": "SITUATION_TYPE_COMMON_TRANSPORT",
    "MEDMJECCOHP": [3],
    "EIIHMEHJIEO": [20, 21, 24],
    "AINPNILLGKG": "LOADING_AREA_CITY",
    "picPath": "UI_LoadingPic_Sumeru"
  },
  {
    "stageID": 36,
    "DELGGFGMFAN": "SITUATION_TYPE_COMMON_TRANSPORT",
    "MEDMJECCOHP": [3],
    "EIIHMEHJIEO": [29],
    "picPath": "UI_LoadingPic_Sumeru"
  },
  {
    "stageID": 37,
    "DELGGFGMFAN": "SITUATION_TYPE_COMMON_TRANSPORT",
    "MEDMJECCOHP": [3],
    "EIIHMEHJIEO": [26],
    "picPath": "UI_LoadingPic_Deshret"
  },
  {
    "stageID": 38,
    "DELGGFGMFAN": "SITUATION_TYPE_COMMON_TRANSPORT",
    "MEDMJECCOHP": [3],
    "EIIHMEHJIEO": [27],
    "picPath": "UI_LoadingPic_Deshret"
  },
  {
    "stageID": 39,
    "DELGGFGMFAN": "SITUATION_TYPE_COMMON_TRANSPORT",
    "MEDMJECCOHP": [3],
    "EIIHMEHJIEO": [28],
    "picPath": "UI_LoadingPic_Deshret"
  },
  {
    "stageID": 40,
    "DELGGFGMFAN": "SITUATION_TYPE_ENTER_GCG_CATPUB",
    "MEDMJECCOHP": [],
    "EIIHMEHJIEO": [],
    "picPath": ""
  },
  {
    "stageID": 41,
    "DELGGFGMFAN": "SITUATION_TYPE_ENTER_GCG_PVE",
    "MEDMJECCOHP": [],
    "EIIHMEHJIEO": [],
    "picPath": ""
  },
  {
    "stageID": 42,
    "DELGGFGMFAN": "SITUATION_TYPE_ENTER_GCG_AI",
    "MEDMJECCOHP": [],
    "EIIHMEHJIEO": [],
    "picPath": ""
  },
  {
    "stageID": 43,
    "DELGGFGMFAN": "SITUATION_TYPE_ENTER_GCG_PVP",
    "MEDMJECCOHP": [],
    "EIIHMEHJIEO": [],
    "picPath": ""
  },
  {
    "stageID": 44,
    "DELGGFGMFAN": "SITUATION_TYPE_ENTER_GCG_FESTIVAL",
    "MEDMJECCOHP": [],
    "EIIHMEHJIEO": [],
    "picPath": ""
  },
  {
    "stageID": 45,
    "DELGGFGMFAN": "SITUATION_TYPE_ENTER_GCG_FESTIVAL",
    "MEDMJECCOHP": [],
    "EIIHMEHJIEO": [],
    "picPath": ""
  },
  {
    "stageID": 46,
    "DELGGFGMFAN": "SITUATION_TYPE_ENTER_GCG_FESTIVAL",
    "MEDMJECCOHP": [],
    "EIIHMEHJIEO": [],
    "picPath": ""
  },
  {
    "stageID": 47,
    "DELGGFGMFAN": "SITUATION_TYPE_COMMON_TRANSPORT",
    "MEDMJECCOHP": [3],
    "EIIHMEHJIEO": [32],
    "picPath": "UI_LoadingPic_Deshret"
  },
  {
    "stageID": 48,
    "DELGGFGMFAN": "SITUATION_TYPE_COMMON_TRANSPORT",
    "MEDMJECCOHP": [3],
    "EIIHMEHJIEO": [30],
    "picPath": "UI_LoadingPic_Deshret"
  },
  {
    "stageID": 49,
    "DELGGFGMFAN": "SITUATION_TYPE_COMMON_TRANSPORT",
    "MEDMJECCOHP": [3],
    "EIIHMEHJIEO": [31],
    "picPath": "UI_LoadingPic_Deshret"
  }
]
