[
  {
    "Id": 1,
    "NBEHLEJPEEO": "LUNA_RITE_REGION_TYPE_LIYUE",
    "openDay": 1,
    "INKJPMPNALE": 1200713,
    "MPOOKNNOHCJ": [1200701, 1200702, 1200703, 1200704],
    "regionCenter": [786.0, 0.0, 1670.0],
    "OOFJDKPOCPG": 7041573762923684970,
    "regionRadius": 500.0,
    "HHJHCMIPDBJ": 2007201,
    "EJGPCDJPPDM": 2007301,
    "OHEOOLEHDJG": 10,
    "CKODMEADJMK": 5
  },
  {
    "Id": 2,
    "NBEHLEJPEEO": "LUNA_RITE_REGION_TYPE_MENGDE",
    "openDay": 5,
    "INKJPMPNALE": 1200714,
    "MPOOKNNOHCJ": [1200705, 1200706, 1200707, 1200708],
    "regionCenter": [2580.0, 0.0, -1361.0],
    "OOFJDKPOCPG": 2205936137024876333,
    "regionRadius": 250.0,
    "HHJHCMIPDBJ": 2007202,
    "EJGPCDJPPDM": 2007302,
    "OHEOOLEHDJG": 10,
    "CKODMEADJMK": 5
  },
  {
    "Id": 3,
    "NBEHLEJPEEO": "LUNA_RITE_REGION_TYPE_DRAGONSPINE",
    "openDay": 9,
    "INKJPMPNALE": 1200715,
    "MPOOKNNOHCJ": [1200709, 1200710, 1200711, 1200712],
    "regionCenter": [1377.0, 0.0, -654.0],
    "OOFJDKPOCPG": 15723661344698231204,
    "regionRadius": 1000.0,
    "HHJHCMIPDBJ": 2007203,
    "EJGPCDJPPDM": 2007303,
    "OHEOOLEHDJG": 10,
    "CKODMEADJMK": 5
  }
]
