[
  {
    "id": 101,
    "nameTextMapHash": 2173510696,
    "titleID": 1001,
    "specialNameLabID": 1001,
    "icon": "UI_MonsterIcon_Slime_Grass_02"
  },
  {
    "id": 102,
    "nameTextMapHash": 220962224,
    "titleID": 1011,
    "specialNameLabID": 1001,
    "icon": "UI_MonsterIcon_Slime_Grass_03"
  },
  {
    "id": 103,
    "nameTextMapHash": 1511587408,
    "titleID": 1002,
    "specialNameLabID": 1001,
    "icon": "UI_MonsterIcon_Slime_Wind_02"
  },
  {
    "id": 104,
    "nameTextMapHash": 1527751472,
    "titleID": 1021,
    "specialNameLabID": 1001,
    "icon": "UI_MonsterIcon_Slime_Wind_03"
  },
  {
    "id": 105,
    "nameTextMapHash": 960731328,
    "titleID": 1003,
    "specialNameLabID": 1001,
    "icon": "UI_MonsterIcon_Slime_Electric_02"
  },
  {
    "id": 106,
    "nameTextMapHash": 2835495304,
    "titleID": 1031,
    "specialNameLabID": 1001,
    "icon": "UI_MonsterIcon_Slime_Electric_03"
  },
  {
    "id": 107,
    "nameTextMapHash": 3389920104,
    "titleID": 1032,
    "specialNameLabID": 1001,
    "icon": "UI_MonsterIcon_Slime_Electric_03_Positive"
  },
  {
    "id": 108,
    "nameTextMapHash": 678013664,
    "titleID": 1004,
    "specialNameLabID": 1001,
    "icon": "UI_MonsterIcon_Slime_Ice_02"
  },
  {
    "id": 109,
    "nameTextMapHash": 2368926680,
    "titleID": 1041,
    "specialNameLabID": 1001,
    "icon": "UI_MonsterIcon_Slime_Ice_03"
  },
  {
    "id": 110,
    "nameTextMapHash": 1266302080,
    "titleID": 1005,
    "specialNameLabID": 1001,
    "icon": "UI_MonsterIcon_Slime_Water_02"
  },
  {
    "id": 111,
    "nameTextMapHash": 1883787496,
    "titleID": 1051,
    "specialNameLabID": 1001,
    "icon": "UI_MonsterIcon_Slime_Water_03"
  },
  {
    "id": 112,
    "nameTextMapHash": 3113209704,
    "titleID": 1006,
    "specialNameLabID": 1001,
    "icon": "UI_MonsterIcon_Slime_Fire_02"
  },
  {
    "id": 113,
    "nameTextMapHash": 3104668424,
    "titleID": 1061,
    "specialNameLabID": 1001,
    "icon": "UI_MonsterIcon_Slime_Fire_03"
  },
  {
    "id": 114,
    "nameTextMapHash": 1304425088,
    "titleID": 1007,
    "specialNameLabID": 1001,
    "icon": "UI_MonsterIcon_Slime_Rock_02"
  },
  {
    "id": 115,
    "nameTextMapHash": 2254956112,
    "titleID": 1071,
    "specialNameLabID": 1001,
    "icon": "UI_MonsterIcon_Slime_Rock_03"
  },
  {
    "id": 116,
    "nameTextMapHash": 544132088,
    "titleID": 1051,
    "specialNameLabID": 1001,
    "icon": "UI_MonsterIcon_Slime_Fire_02"
  },
  {
    "id": 117,
    "nameTextMapHash": 1415099112,
    "titleID": 1051,
    "specialNameLabID": 1001,
    "icon": "UI_MonsterIcon_Slime_Fire_03"
  },
  {
    "id": 118,
    "nameTextMapHash": 3935438856,
    "titleID": 1051,
    "specialNameLabID": 1001,
    "icon": "UI_MonsterIcon_Slime_Rock_02"
  },
  {
    "id": 119,
    "nameTextMapHash": 2540711056,
    "titleID": 1051,
    "specialNameLabID": 1001,
    "icon": "UI_MonsterIcon_Slime_Rock_03"
  },
  {
    "id": 201,
    "nameTextMapHash": 352893312,
    "titleID": 1201,
    "specialNameLabID": 1201,
    "icon": "UI_MonsterIcon_Elemental_Wind_01"
  },
  {
    "id": 401,
    "nameTextMapHash": 2576416432,
    "titleID": 2001,
    "specialNameLabID": 2001,
    "icon": "UI_MonsterIcon_Effigy_Electric"
  },
  {
    "id": 402,
    "nameTextMapHash": 1388893264,
    "titleID": 2002,
    "specialNameLabID": 2002,
    "icon": "UI_MonsterIcon_Effigy_Wind"
  },
  {
    "id": 403,
    "nameTextMapHash": 1590609280,
    "titleID": 2003,
    "specialNameLabID": 2003,
    "icon": "UI_MonsterIcon_Effigy_Rock"
  },
  {
    "id": 404,
    "nameTextMapHash": 2176969488,
    "titleID": 2004,
    "specialNameLabID": 2004,
    "icon": "UI_MonsterIcon_Effigy_Water"
  },
  {
    "id": 405,
    "nameTextMapHash": 937574560,
    "titleID": 2005,
    "specialNameLabID": 2005,
    "icon": "UI_MonsterIcon_Effigy_Ice"
  },
  {
    "id": 406,
    "nameTextMapHash": 374969768,
    "titleID": 2006,
    "specialNameLabID": 2006,
    "icon": "UI_MonsterIcon_Effigy_Fire"
  },
  {
    "id": 407,
    "nameTextMapHash": 2841278344,
    "titleID": 2007,
    "specialNameLabID": 2007,
    "icon": "UI_MonsterIcon_Effigy_Grass"
  },
  {
    "id": 501,
    "nameTextMapHash": 1194478280,
    "titleID": 2201,
    "specialNameLabID": 2201,
    "icon": "UI_MonsterIcon_Oceanid"
  },
  {
    "id": 502,
    "nameTextMapHash": 3750306112,
    "titleID": 2221,
    "specialNameLabID": 2221,
    "icon": "UI_MonsterIcon_Oceanid_Underling"
  },
  {
    "id": 503,
    "nameTextMapHash": 1411333056,
    "titleID": 2222,
    "specialNameLabID": 2221,
    "icon": "UI_MonsterIcon_Oceanid_Underling"
  },
  {
    "id": 504,
    "nameTextMapHash": 3859189664,
    "titleID": 2223,
    "specialNameLabID": 2221,
    "icon": "UI_MonsterIcon_Oceanid_Underling"
  },
  {
    "id": 505,
    "nameTextMapHash": 1517871784,
    "titleID": 2224,
    "specialNameLabID": 2221,
    "icon": "UI_MonsterIcon_Oceanid_Underling"
  },
  {
    "id": 506,
    "nameTextMapHash": 2454508744,
    "titleID": 2225,
    "specialNameLabID": 2221,
    "icon": "UI_MonsterIcon_Oceanid_Underling"
  },
  {
    "id": 507,
    "nameTextMapHash": 2695145104,
    "titleID": 2226,
    "specialNameLabID": 2221,
    "icon": "UI_MonsterIcon_Oceanid_Underling"
  },
  {
    "id": 508,
    "nameTextMapHash": 2270056128,
    "titleID": 2227,
    "specialNameLabID": 2221,
    "icon": "UI_MonsterIcon_Oceanid_Underling"
  },
  {
    "id": 509,
    "nameTextMapHash": 1727202056,
    "titleID": 2228,
    "specialNameLabID": 2221,
    "icon": "UI_MonsterIcon_Oceanid_Underling"
  },
  {
    "id": 601,
    "nameTextMapHash": 3055427504,
    "titleID": 1111,
    "specialNameLabID": 1111,
    "icon": "UI_MonsterIcon_Sylph_Water_01"
  },
  {
    "id": 602,
    "nameTextMapHash": 1129726256,
    "titleID": 1112,
    "specialNameLabID": 1111,
    "icon": "UI_MonsterIcon_Sylph_Rock_01"
  },
  {
    "id": 603,
    "nameTextMapHash": 1685659344,
    "titleID": 1113,
    "specialNameLabID": 1111,
    "icon": "UI_MonsterIcon_Sylph_Wind_01"
  },
  {
    "id": 604,
    "nameTextMapHash": 1061667664,
    "titleID": 1114,
    "specialNameLabID": 1111,
    "icon": "UI_MonsterIcon_Sylph_Ice_01"
  },
  {
    "id": 605,
    "nameTextMapHash": 4056559040,
    "titleID": 1115,
    "specialNameLabID": 1111,
    "icon": "UI_MonsterIcon_Sylph_Electric_01"
  },
  {
    "id": 606,
    "nameTextMapHash": 3663897528,
    "titleID": 1116,
    "specialNameLabID": 1111,
    "icon": "UI_MonsterIcon_Sylph_Fire_01"
  },
  {
    "id": 607,
    "nameTextMapHash": 2872478496,
    "titleID": 1117,
    "specialNameLabID": 1111,
    "icon": "UI_MonsterIcon_Sylph_Grass_01"
  },
  {
    "id": 701,
    "nameTextMapHash": 3258515928,
    "titleID": 2202,
    "specialNameLabID": 2202,
    "icon": "UI_MonsterIcon_Raijin"
  },
  {
    "id": 10101,
    "nameTextMapHash": 2823299104,
    "titleID": 3001,
    "specialNameLabID": 3001,
    "icon": "UI_MonsterIcon_Hili_None_01"
  },
  {
    "id": 10102,
    "nameTextMapHash": 1502883680,
    "titleID": 3001,
    "specialNameLabID": 3001,
    "icon": "UI_MonsterIcon_Hili_None_01"
  },
  {
    "id": 10103,
    "nameTextMapHash": 2491960152,
    "titleID": 3001,
    "specialNameLabID": 3001,
    "icon": "UI_MonsterIcon_Hili_None_01"
  },
  {
    "id": 10104,
    "nameTextMapHash": 3261111696,
    "titleID": 3011,
    "specialNameLabID": 3001,
    "icon": "UI_MonsterIcon_Hili_None_01"
  },
  {
    "id": 10105,
    "nameTextMapHash": 41061376,
    "titleID": 3011,
    "specialNameLabID": 3001,
    "icon": "UI_MonsterIcon_Hili_Fire_Range"
  },
  {
    "id": 10106,
    "nameTextMapHash": 4024598056,
    "titleID": 3001,
    "specialNameLabID": 3001,
    "icon": "UI_MonsterIcon_Hili_Fire_Range"
  },
  {
    "id": 10107,
    "nameTextMapHash": 3251673344,
    "titleID": 3001,
    "specialNameLabID": 3001,
    "icon": "UI_MonsterIcon_Hili_Fire_Range"
  },
  {
    "id": 10109,
    "nameTextMapHash": 2598026680,
    "titleID": 3011,
    "specialNameLabID": 3001,
    "icon": "UI_MonsterIcon_Hili_Ice_Range"
  },
  {
    "id": 10110,
    "nameTextMapHash": 2963928784,
    "titleID": 3011,
    "specialNameLabID": 3001,
    "icon": "UI_MonsterIcon_Hili_Electric_Range"
  },
  {
    "id": 10112,
    "nameTextMapHash": 1779087448,
    "titleID": 3001,
    "specialNameLabID": 3001,
    "icon": "UI_MonsterIcon_Hili_None_01"
  },
  {
    "id": 10113,
    "nameTextMapHash": 2456790112,
    "titleID": 3001,
    "specialNameLabID": 3001,
    "icon": "UI_MonsterIcon_Hili_Ice_Range"
  },
  {
    "id": 10114,
    "nameTextMapHash": 3034104928,
    "titleID": 3001,
    "specialNameLabID": 3001,
    "icon": "UI_MonsterIcon_Hili_None_01"
  },
  {
    "id": 10115,
    "nameTextMapHash": 1868726720,
    "titleID": 3090,
    "specialNameLabID": 3090,
    "icon": "UI_MonsterIcon_Hili_Wei"
  },
  {
    "id": 10116,
    "nameTextMapHash": 2167729272,
    "titleID": 3001,
    "specialNameLabID": 3001,
    "icon": "UI_MonsterIcon_Hili_Electric_Range"
  },
  {
    "id": 10201,
    "nameTextMapHash": 2998946096,
    "titleID": 3101,
    "specialNameLabID": 3101,
    "icon": "UI_MonsterIcon_Brute_None_01"
  },
  {
    "id": 10202,
    "nameTextMapHash": 2414837496,
    "titleID": 3102,
    "specialNameLabID": 3101,
    "icon": "UI_MonsterIcon_Brute_None_01"
  },
  {
    "id": 10203,
    "nameTextMapHash": 1611076776,
    "titleID": 3103,
    "specialNameLabID": 3101,
    "icon": "UI_MonsterIcon_Brute_None_01"
  },
  {
    "id": 10204,
    "nameTextMapHash": 3926747992,
    "titleID": 3112,
    "specialNameLabID": 3112,
    "icon": "UI_MonsterIcon_Brute_Ice_01"
  },
  {
    "id": 10205,
    "nameTextMapHash": 1204583624,
    "titleID": 3111,
    "specialNameLabID": 3111,
    "icon": "UI_MonsterIcon_Brute_Rock_None"
  },
  {
    "id": 10206,
    "nameTextMapHash": 3749655912,
    "titleID": 3104,
    "specialNameLabID": 3101,
    "icon": "UI_MonsterIcon_Brute_None_01"
  },
  {
    "id": 10207,
    "nameTextMapHash": 3382922248,
    "titleID": 3105,
    "specialNameLabID": 3101,
    "icon": "UI_MonsterIcon_Brute_None_01"
  },
  {
    "id": 10208,
    "nameTextMapHash": 805439664,
    "titleID": 3113,
    "specialNameLabID": 3113,
    "icon": "UI_MonsterIcon_Brute_Electric_01"
  },
  {
    "id": 10301,
    "nameTextMapHash": 1980056728,
    "titleID": 3201,
    "specialNameLabID": 3201,
    "icon": "UI_MonsterIcon_Shaman_Water_01"
  },
  {
    "id": 10302,
    "nameTextMapHash": 1473826984,
    "titleID": 3202,
    "specialNameLabID": 3202,
    "icon": "UI_MonsterIcon_Shaman_Grass_01"
  },
  {
    "id": 10303,
    "nameTextMapHash": 10553112,
    "titleID": 3203,
    "specialNameLabID": 3203,
    "icon": "UI_MonsterIcon_Shaman_Wind_01"
  },
  {
    "id": 10304,
    "nameTextMapHash": 3338079384,
    "titleID": 3204,
    "specialNameLabID": 3204,
    "icon": "UI_MonsterIcon_Shaman_Rock_01"
  },
  {
    "id": 10305,
    "nameTextMapHash": 1785924728,
    "titleID": 3205,
    "specialNameLabID": 3205,
    "icon": "UI_MonsterIcon_Shaman_Ice_01"
  },
  {
    "id": 10306,
    "nameTextMapHash": 1596748696,
    "titleID": 3206,
    "specialNameLabID": 3206,
    "icon": "UI_MonsterIcon_Shaman_Electric_01"
  },
  {
    "id": 10401,
    "nameTextMapHash": 3952856048,
    "titleID": 3301,
    "specialNameLabID": 3301,
    "icon": "UI_MonsterIcon_Hilistray_Wind"
  },
  {
    "id": 10402,
    "nameTextMapHash": 2508757576,
    "titleID": 3302,
    "specialNameLabID": 3301,
    "icon": "UI_MonsterIcon_Hilistray_Water"
  },
  {
    "id": 20101,
    "nameTextMapHash": 2415438104,
    "titleID": 4001,
    "specialNameLabID": 4001,
    "icon": "UI_MonsterIcon_Abyss_Fire_01"
  },
  {
    "id": 20102,
    "nameTextMapHash": 1321463096,
    "titleID": 4002,
    "specialNameLabID": 4001,
    "icon": "UI_MonsterIcon_Abyss_Ice_01"
  },
  {
    "id": 20103,
    "nameTextMapHash": 2267848368,
    "titleID": 4003,
    "specialNameLabID": 4001,
    "icon": "UI_MonsterIcon_Abyss_Water_01"
  },
  {
    "id": 20104,
    "nameTextMapHash": 1299643312,
    "titleID": 4004,
    "specialNameLabID": 4001,
    "icon": "UI_MonsterIcon_Abyss_Electric_01"
  },
  {
    "id": 20201,
    "nameTextMapHash": 2159496136,
    "titleID": 4011,
    "specialNameLabID": 4011,
    "icon": "UI_MonsterIcon_Invoker_Herald_Water_01"
  },
  {
    "id": 20202,
    "nameTextMapHash": 1561834088,
    "titleID": 4012,
    "specialNameLabID": 4011,
    "icon": "UI_MonsterIcon_Invoker_Herald_Ice"
  },
  {
    "id": 20301,
    "nameTextMapHash": 626343048,
    "titleID": 4021,
    "specialNameLabID": 4021,
    "icon": "UI_MonsterIcon_Invoker_Deacon_Electric_01"
  },
  {
    "id": 20302,
    "nameTextMapHash": 1167557096,
    "titleID": 4022,
    "specialNameLabID": 4021,
    "icon": "UI_MonsterIcon_Invoker_Deacon_Fire"
  },
  {
    "id": 20401,
    "nameTextMapHash": 4040204456,
    "titleID": 4031,
    "specialNameLabID": 4031,
    "icon": "UI_MonsterIcon_Hound_Kanis_Rock"
  },
  {
    "id": 20402,
    "nameTextMapHash": 717375112,
    "titleID": 4031,
    "specialNameLabID": 4031,
    "icon": "UI_MonsterIcon_Hound_Kanis_Electric"
  },
  {
    "id": 20501,
    "nameTextMapHash": 2930642328,
    "titleID": 4032,
    "specialNameLabID": 4031,
    "icon": "UI_MonsterIcon_Hound_Riftstalker_Rock"
  },
  {
    "id": 20502,
    "nameTextMapHash": 2530429496,
    "titleID": 4032,
    "specialNameLabID": 4031,
    "icon": "UI_MonsterIcon_Hound_Riftstalker_Electric"
  },
  {
    "id": 20601,
    "nameTextMapHash": 2218442544,
    "titleID": 4041,
    "specialNameLabID": 4041,
    "icon": "UI_MonsterIcon_Hound_Planelurker"
  },
  {
    "id": 20701,
    "nameTextMapHash": 3775538896,
    "titleID": 4051,
    "specialNameLabID": 4051,
    "icon": "UI_MonsterIcon_ForlornVessel_Strong_Warbanner_Fire"
  },
  {
    "id": 20702,
    "nameTextMapHash": 1930273248,
    "titleID": 4051,
    "specialNameLabID": 4052,
    "icon": "UI_MonsterIcon_ForlornVessel_Strong_Lance_Water"
  },
  {
    "id": 20703,
    "nameTextMapHash": 784327392,
    "titleID": 4051,
    "specialNameLabID": 4053,
    "icon": "UI_MonsterIcon_ForlornVessel_Strong_Chargebow_Ice"
  },
  {
    "id": 20801,
    "nameTextMapHash": 3259944648,
    "titleID": 4061,
    "specialNameLabID": 4061,
    "icon": "UI_MonsterIcon_Darkwraith_Strong_Wind"
  },
  {
    "id": 20802,
    "nameTextMapHash": 2575257792,
    "titleID": 4062,
    "specialNameLabID": 4061,
    "icon": "UI_MonsterIcon_Darkwraith_Fat_Rock"
  },
  {
    "id": 20901,
    "nameTextMapHash": 4127518744,
    "titleID": 123,
    "specialNameLabID": 4031,
    "icon": "UI_MonsterIcon_Darkwraith_Strong_Wind"
  },
  {
    "id": 21001,
    "nameTextMapHash": 1414866248,
    "titleID": 4071,
    "specialNameLabID": 4071,
    "icon": "UI_MonsterIcon_Invoker_Archdeacon"
  },
  {
    "id": 21002,
    "nameTextMapHash": 1373576872,
    "titleID": 4071,
    "specialNameLabID": 4071,
    "icon": "UI_MonsterIcon_Invoker_Archdeacon"
  },
  {
    "id": 21003,
    "nameTextMapHash": 3745350432,
    "titleID": 4071,
    "specialNameLabID": 4071,
    "icon": "UI_MonsterIcon_Invoker_Archdeacon"
  },
  {
    "id": 21004,
    "nameTextMapHash": 3477599544,
    "titleID": 4071,
    "specialNameLabID": 4071,
    "icon": "UI_MonsterIcon_Invoker_Archdeacon"
  },
  {
    "id": 21005,
    "nameTextMapHash": 1840128168,
    "titleID": 4071,
    "specialNameLabID": 4071,
    "icon": "UI_MonsterIcon_Invoker_Archdeacon"
  },
  {
    "id": 30101,
    "nameTextMapHash": 995929064,
    "titleID": 5111,
    "specialNameLabID": 5001,
    "icon": "UI_MonsterIcon_Skirmisher_Male_Fat_SprayGun_Ice_01"
  },
  {
    "id": 30102,
    "nameTextMapHash": 12762888,
    "titleID": 5112,
    "specialNameLabID": 5001,
    "icon": "UI_MonsterIcon_Skirmisher_Male_Fat_SprayGun_Water_01"
  },
  {
    "id": 30103,
    "nameTextMapHash": 1919409584,
    "titleID": 5121,
    "specialNameLabID": 5001,
    "icon": "UI_MonsterIcon_Skirmisher_Male_Strong_GreatHammer_Electric_01"
  },
  {
    "id": 30104,
    "nameTextMapHash": 3627495392,
    "titleID": 5101,
    "specialNameLabID": 5001,
    "icon": "UI_MonsterIcon_Skirmisher_Male_Standard_Staff_Rock_01"
  },
  {
    "id": 30105,
    "nameTextMapHash": 1426306032,
    "titleID": 5122,
    "specialNameLabID": 5001,
    "icon": "UI_MonsterIcon_Skirmisher_Male_Strong_Gloves_Wind_01"
  },
  {
    "id": 30106,
    "nameTextMapHash": 1434878968,
    "titleID": 5102,
    "specialNameLabID": 5001,
    "icon": "UI_MonsterIcon_Skirmisher_Male_Standard_Rifle_Fire_01"
  },
  {
    "id": 30201,
    "nameTextMapHash": 3750143024,
    "titleID": 5001,
    "specialNameLabID": 5001,
    "icon": "UI_MonsterIcon_Fatuus_Fire_01"
  },
  {
    "id": 30301,
    "nameTextMapHash": 1010609776,
    "titleID": 5002,
    "specialNameLabID": 5002,
    "icon": "UI_MonsterIcon_Fatuus_Summoner_01"
  },
  {
    "id": 30401,
    "nameTextMapHash": 4010466472,
    "titleID": 5003,
    "specialNameLabID": 5002,
    "icon": "UI_MonsterIcon_Fatuus_Mage_Ice_01"
  },
  {
    "id": 30501,
    "nameTextMapHash": 1709717640,
    "titleID": 5004,
    "specialNameLabID": 5002,
    "icon": "UI_MonsterIcon_Fatuus_Maiden_Water"
  },
  {
    "id": 40101,
    "nameTextMapHash": 1418628360,
    "titleID": 6001,
    "specialNameLabID": 6001,
    "icon": "UI_MonsterIcon_Defender_Noner_01"
  },
  {
    "id": 40102,
    "nameTextMapHash": 4243053360,
    "titleID": 6002,
    "specialNameLabID": 6002,
    "icon": "UI_MonsterIcon_Formathr_None"
  },
  {
    "id": 40103,
    "nameTextMapHash": 399632552,
    "titleID": 6003,
    "specialNameLabID": 6003,
    "icon": "UI_MonsterIcon_Konungmathr"
  },
  {
    "id": 40104,
    "nameTextMapHash": 2345695136,
    "titleID": 6004,
    "specialNameLabID": 6004,
    "icon": "UI_MonsterIcon_Nithhoggr_None"
  },
  {
    "id": 40201,
    "nameTextMapHash": 2360166000,
    "titleID": 6011,
    "specialNameLabID": 6011,
    "icon": "UI_MonsterIcon_Apparatus_Enigma_BionicDrone"
  },
  {
    "id": 40202,
    "nameTextMapHash": 2106038440,
    "titleID": 6012,
    "specialNameLabID": 6011,
    "icon": "UI_MonsterIcon_Apparatus_Enigma_BionicFlora"
  },
  {
    "id": 40203,
    "nameTextMapHash": 2390298952,
    "titleID": 6013,
    "specialNameLabID": 6011,
    "icon": "UI_MonsterIcon_Apparatus_Enigma_BionicInsecta"
  },
  {
    "id": 40204,
    "nameTextMapHash": 545245072,
    "titleID": 6014,
    "specialNameLabID": 6011,
    "icon": "UI_MonsterIcon_Apparatus_Enigma_BionicNettler"
  },
  {
    "id": 40211,
    "nameTextMapHash": 4062249480,
    "titleID": 6101,
    "specialNameLabID": 6101,
    "icon": "UI_MonsterIcon_Apparatus_Perpetual"
  },
  {
    "id": 40301,
    "nameTextMapHash": 1874960408,
    "titleID": 6005,
    "specialNameLabID": 6005,
    "icon": "UI_MonsterIcon_Gargoyle"
  },
  {
    "id": 40302,
    "nameTextMapHash": 745177296,
    "titleID": 6006,
    "specialNameLabID": 6005,
    "icon": "UI_MonsterIcon_Gargoyle"
  },
  {
    "id": 40303,
    "nameTextMapHash": 392391024,
    "titleID": 6007,
    "specialNameLabID": 6007,
    "icon": "UI_MonsterIcon_Gargoyle_Fafnir"
  },
  {
    "id": 40401,
    "nameTextMapHash": 3640705344,
    "titleID": 6111,
    "specialNameLabID": 6111,
    "icon": "UI_MonsterIcon_Monolith_Ordinator"
  },
  {
    "id": 40402,
    "nameTextMapHash": 3433160376,
    "titleID": 6112,
    "specialNameLabID": 6111,
    "icon": "UI_MonsterIcon_Monolith_Ordinator"
  },
  {
    "id": 40403,
    "nameTextMapHash": 960036488,
    "titleID": 6113,
    "specialNameLabID": 6111,
    "icon": "UI_MonsterIcon_Monolith_Ordinator"
  },
  {
    "id": 40501,
    "nameTextMapHash": 1856265352,
    "titleID": 6121,
    "specialNameLabID": 6121,
    "icon": "UI_MonsterIcon_Monolith_Starchild"
  },
  {
    "id": 48101,
    "nameTextMapHash": 3995841000,
    "titleID": 6111,
    "specialNameLabID": 6111,
    "icon": "UI_MonsterIcon_Monolith_Ordinator"
  },
  {
    "id": 48102,
    "nameTextMapHash": 1952925880,
    "titleID": 6111,
    "specialNameLabID": 6111,
    "icon": "UI_MonsterIcon_Monolith_Ordinator"
  },
  {
    "id": 48103,
    "nameTextMapHash": 2001019136,
    "titleID": 6111,
    "specialNameLabID": 6111,
    "icon": "UI_MonsterIcon_Monolith_Ordinator"
  },
  {
    "id": 48104,
    "nameTextMapHash": 973459312,
    "titleID": 6111,
    "specialNameLabID": 6111,
    "icon": "UI_MonsterIcon_Monolith_Ordinator"
  },
  {
    "id": 48105,
    "nameTextMapHash": 391056656,
    "titleID": 6111,
    "specialNameLabID": 6111,
    "icon": "UI_MonsterIcon_Monolith_Ordinator"
  },
  {
    "id": 48106,
    "nameTextMapHash": 693132112,
    "titleID": 6111,
    "specialNameLabID": 6111,
    "icon": "UI_MonsterIcon_Monolith_Ordinator"
  },
  {
    "id": 48107,
    "nameTextMapHash": 706010336,
    "titleID": 6111,
    "specialNameLabID": 6111,
    "icon": "UI_MonsterIcon_Monolith_Ordinator"
  },
  {
    "id": 48108,
    "nameTextMapHash": 3289322152,
    "titleID": 6111,
    "specialNameLabID": 6111,
    "icon": "UI_MonsterIcon_Monolith_Ordinator"
  },
  {
    "id": 48109,
    "nameTextMapHash": 4171513648,
    "titleID": 6111,
    "specialNameLabID": 6111,
    "icon": "UI_MonsterIcon_Monolith_Ordinator"
  },
  {
    "id": 48110,
    "nameTextMapHash": 146399424,
    "titleID": 6111,
    "specialNameLabID": 6111,
    "icon": "UI_MonsterIcon_Monolith_Ordinator"
  },
  {
    "id": 48111,
    "nameTextMapHash": 444889392,
    "titleID": 6111,
    "specialNameLabID": 6111,
    "icon": "UI_MonsterIcon_Monolith_Ordinator"
  },
  {
    "id": 49201,
    "nameTextMapHash": 1647913616,
    "titleID": 6111,
    "specialNameLabID": 6111,
    "icon": "UI_MonsterIcon_Monolith_Ordinator"
  },
  {
    "id": 49202,
    "nameTextMapHash": 2117269760,
    "titleID": 6112,
    "specialNameLabID": 6111,
    "icon": "UI_MonsterIcon_Monolith_Ordinator"
  },
  {
    "id": 49203,
    "nameTextMapHash": 652910120,
    "titleID": 6113,
    "specialNameLabID": 6111,
    "icon": "UI_MonsterIcon_Monolith_Ordinator"
  },
  {
    "id": 49901,
    "nameTextMapHash": 1390139448,
    "titleID": 6113,
    "specialNameLabID": 6111,
    "icon": "UI_MonsterIcon_Monolith_Ordinator"
  },
  {
    "id": 50101,
    "nameTextMapHash": 2720944320,
    "titleID": 7005,
    "specialNameLabID": 7005,
    "icon": "UI_MonsterIcon_Thoarder_Male_NoWeapon_01"
  },
  {
    "id": 50102,
    "nameTextMapHash": 3059200712,
    "titleID": 7001,
    "specialNameLabID": 7001,
    "icon": "UI_MonsterIcon_Thoarder_Male_Rogue_01"
  },
  {
    "id": 50103,
    "nameTextMapHash": 1087023424,
    "titleID": 7121,
    "specialNameLabID": 7001,
    "icon": "UI_MonsterIcon_Thoarder_Male_Chemist_Fire_01"
  },
  {
    "id": 50104,
    "nameTextMapHash": 3798548888,
    "titleID": 7122,
    "specialNameLabID": 7001,
    "icon": "UI_MonsterIcon_Thoarder_Male_Chemist_Water_01"
  },
  {
    "id": 50105,
    "nameTextMapHash": 1521590128,
    "titleID": 7123,
    "specialNameLabID": 7001,
    "icon": "UI_MonsterIcon_Thoarder_Male_Chemist_Electric_01"
  },
  {
    "id": 50106,
    "nameTextMapHash": 361009392,
    "titleID": 7124,
    "specialNameLabID": 7001,
    "icon": "UI_MonsterIcon_Thoarder_Male_Chemist_Ice_01"
  },
  {
    "id": 50107,
    "nameTextMapHash": 3123684272,
    "titleID": 7111,
    "specialNameLabID": 7001,
    "icon": "UI_MonsterIcon_Thoarder_Male_Rogue_Fat_01"
  },
  {
    "id": 50201,
    "nameTextMapHash": 3627181320,
    "titleID": 7006,
    "specialNameLabID": 7006,
    "icon": "UI_MonsterIcon_Thoarder_Male_Crossbow_01"
  },
  {
    "id": 50202,
    "nameTextMapHash": 3413949720,
    "titleID": 7002,
    "specialNameLabID": 7001,
    "icon": "UI_MonsterIcon_Thoarder_Male_Hunter_01"
  },
  {
    "id": 50301,
    "nameTextMapHash": 531388104,
    "titleID": 7007,
    "specialNameLabID": 7007,
    "icon": "UI_MonsterIcon_Thoarder_Male_Shovel_01"
  },
  {
    "id": 50302,
    "nameTextMapHash": 28706096,
    "titleID": 7003,
    "specialNameLabID": 7001,
    "icon": "UI_MonsterIcon_Thoarder_Male_Rogue_Fat_02"
  },
  {
    "id": 50303,
    "nameTextMapHash": 1603081168,
    "titleID": 7112,
    "specialNameLabID": 7001,
    "icon": "UI_MonsterIcon_Thoarder_Male_Sailor_01"
  },
  {
    "id": 50401,
    "nameTextMapHash": 1914087968,
    "titleID": 7008,
    "specialNameLabID": 7008,
    "icon": "UI_MonsterIcon_Thoarder_Female_Hatchet_01"
  },
  {
    "id": 50501,
    "nameTextMapHash": 1541768712,
    "titleID": 7011,
    "specialNameLabID": 7011,
    "icon": "UI_MonsterIcon_Millelith_Male_01"
  },
  {
    "id": 50502,
    "nameTextMapHash": 4161693360,
    "titleID": 7012,
    "specialNameLabID": 7011,
    "icon": "UI_MonsterIcon_Millelith_Male_02"
  },
  {
    "id": 50503,
    "nameTextMapHash": 1175126584,
    "titleID": 7151,
    "specialNameLabID": 7151,
    "icon": "UI_MonsterIcon_Aahigaru_Male_01"
  },
  {
    "id": 50504,
    "nameTextMapHash": 1300846616,
    "titleID": 7152,
    "specialNameLabID": 7151,
    "icon": "UI_MonsterIcon_AahigaruTaisho_Male_01"
  },
  {
    "id": 50505,
    "nameTextMapHash": 2581117880,
    "titleID": 7153,
    "specialNameLabID": 7151,
    "icon": "UI_MonsterIcon_Millelith_Male_02"
  },
  {
    "id": 50601,
    "nameTextMapHash": 557874744,
    "titleID": 7131,
    "specialNameLabID": 7001,
    "icon": "UI_MonsterIcon_Thoarder_MuscleMan_Boxer_01"
  },
  {
    "id": 50701,
    "nameTextMapHash": 2325739152,
    "titleID": 7132,
    "specialNameLabID": 7001,
    "icon": "UI_MonsterIcon_Thoarder_MuscleMan_Miner_01"
  },
  {
    "id": 50702,
    "nameTextMapHash": 4260216696,
    "titleID": 7006,
    "specialNameLabID": 7006,
    "icon": "UI_MonsterIcon_Thoarder_MuscleMan_Miner_01"
  },
  {
    "id": 50801,
    "nameTextMapHash": 2854295616,
    "titleID": 7141,
    "specialNameLabID": 7141,
    "icon": "UI_MonsterIcon_Samurai_Ronin_01"
  },
  {
    "id": 50802,
    "nameTextMapHash": 2410706536,
    "titleID": 7142,
    "specialNameLabID": 7141,
    "icon": "UI_MonsterIcon_Samurai_Ronin_02"
  },
  {
    "id": 50803,
    "nameTextMapHash": 628782592,
    "titleID": 7143,
    "specialNameLabID": 7141,
    "icon": "UI_MonsterIcon_Samurai_Ronin_03"
  },
  {
    "id": 50804,
    "nameTextMapHash": 2183303536,
    "titleID": 7146,
    "specialNameLabID": 7151,
    "icon": "UI_MonsterIcon_Samurai_Hatamoto_01"
  },
  {
    "id": 50901,
    "nameTextMapHash": 1759704776,
    "titleID": 7201,
    "specialNameLabID": 7201,
    "icon": "UI_MonsterIcon_Samurai_Ningyo"
  },
  {
    "id": 50902,
    "nameTextMapHash": 1312052256,
    "titleID": 10018,
    "specialNameLabID": 7201,
    "icon": "UI_MonsterIcon_Samurai_Ningyo_Wind"
  },
  {
    "id": 50903,
    "nameTextMapHash": 2743685832,
    "titleID": 10019,
    "specialNameLabID": 7201,
    "icon": "UI_MonsterIcon_Samurai_Ningyo_Ice"
  },
  {
    "id": 50904,
    "nameTextMapHash": 2823011544,
    "titleID": 10020,
    "specialNameLabID": 7201,
    "icon": "UI_MonsterIcon_Samurai_Ningyo_Mask"
  },
  {
    "id": 51001,
    "nameTextMapHash": 756201560,
    "titleID": 7144,
    "specialNameLabID": 7141,
    "icon": "UI_MonsterIcon_Samurai_Kairagi_01"
  },
  {
    "id": 51002,
    "nameTextMapHash": 2117605600,
    "titleID": 7145,
    "specialNameLabID": 7141,
    "icon": "UI_MonsterIcon_Samurai_Kairagi_02"
  },
  {
    "id": 51003,
    "nameTextMapHash": 3213672968,
    "titleID": 7147,
    "specialNameLabID": 7147,
    "icon": "UI_MonsterIcon_Samurai_Kairagi_01"
  },
  {
    "id": 51004,
    "nameTextMapHash": 3794652600,
    "titleID": 7148,
    "specialNameLabID": 7148,
    "icon": "UI_MonsterIcon_Samurai_Kairagi_02"
  },
  {
    "id": 51101,
    "nameTextMapHash": 1974811384,
    "titleID": 7335,
    "specialNameLabID": 7335,
    "icon": "UI_MonsterIcon_Eremite_Male_Strong_Katar"
  },
  {
    "id": 51102,
    "nameTextMapHash": 212096752,
    "titleID": 7334,
    "specialNameLabID": 7334,
    "icon": "UI_MonsterIcon_Eremite_Female_Standard_Longbow"
  },
  {
    "id": 51103,
    "nameTextMapHash": 1475388712,
    "titleID": 7336,
    "specialNameLabID": 7336,
    "icon": "UI_MonsterIcon_Samurai_Kairagi_05"
  },
  {
    "id": 51104,
    "nameTextMapHash": 2282634880,
    "titleID": 7337,
    "specialNameLabID": 7337,
    "icon": "UI_MonsterIcon_Samurai_Kairagi_05"
  },
  {
    "id": 52101,
    "nameTextMapHash": 4033438760,
    "titleID": 7301,
    "specialNameLabID": 7301,
    "icon": "UI_MonsterIcon_Eremite_Female_Hatchet"
  },
  {
    "id": 52102,
    "nameTextMapHash": 570914008,
    "titleID": 7302,
    "specialNameLabID": 7301,
    "icon": "UI_MonsterIcon_Eremite_Male_Standard_Crossbow"
  },
  {
    "id": 52103,
    "nameTextMapHash": 208498888,
    "titleID": 7303,
    "specialNameLabID": 7301,
    "icon": "UI_MonsterIcon_Eremite_Male_Standard_Pole"
  },
  {
    "id": 52104,
    "nameTextMapHash": 941545672,
    "titleID": 7304,
    "specialNameLabID": 7301,
    "icon": "UI_MonsterIcon_Eremite_MuscleMan_Gloves"
  },
  {
    "id": 52105,
    "nameTextMapHash": 2346894216,
    "titleID": 7305,
    "specialNameLabID": 7301,
    "icon": "UI_MonsterIcon_Eremite_MuscleMan_Simitar"
  },
  {
    "id": 52106,
    "nameTextMapHash": 2817463448,
    "titleID": 7201,
    "specialNameLabID": 7001,
    "icon": "UI_MonsterIcon_Thoarder_Male_Rogue_01"
  },
  {
    "id": 53101,
    "nameTextMapHash": 2370874928,
    "titleID": 7311,
    "specialNameLabID": 7311,
    "icon": "UI_MonsterIcon_Eremite_Female_Slim_PushDagger"
  },
  {
    "id": 53102,
    "nameTextMapHash": 3916342008,
    "titleID": 7321,
    "specialNameLabID": 7321,
    "icon": "UI_MonsterIcon_Eremite_Male_Standard_Glaive"
  },
  {
    "id": 53103,
    "nameTextMapHash": 3814441896,
    "titleID": 7331,
    "specialNameLabID": 7331,
    "icon": "UI_MonsterIcon_Eremite_Male_Standard_Polearm"
  },
  {
    "id": 54101,
    "nameTextMapHash": 3908443880,
    "titleID": 7332,
    "specialNameLabID": 7332,
    "icon": "UI_MonsterIcon_Eremite_Male_Strong_Katar"
  },
  {
    "id": 54102,
    "nameTextMapHash": 4217422888,
    "titleID": 7333,
    "specialNameLabID": 7333,
    "icon": "UI_MonsterIcon_Eremite_Female_Standard_Longbow"
  },
  {
    "id": 54103,
    "nameTextMapHash": 2089267960,
    "titleID": 7338,
    "specialNameLabID": 7338,
    "icon": "UI_MonsterIcon_Eremite_Female_Standard_Oracle"
  },
  {
    "id": 54104,
    "nameTextMapHash": 1917817184,
    "titleID": 7339,
    "specialNameLabID": 7339,
    "icon": "UI_MonsterIcon_Eremite_Female_Standard_Dancer"
  },
  {
    "id": 60101,
    "nameTextMapHash": 883066616,
    "titleID": 2101,
    "specialNameLabID": 2101,
    "icon": "UI_MonsterIcon_Mimik_Ice"
  },
  {
    "id": 60102,
    "nameTextMapHash": 516009168,
    "titleID": 2102,
    "specialNameLabID": 2101,
    "icon": "UI_MonsterIcon_Mimik_Fire"
  },
  {
    "id": 60103,
    "nameTextMapHash": 235094848,
    "titleID": 2103,
    "specialNameLabID": 2101,
    "icon": "UI_MonsterIcon_Mimik_Electric"
  },
  {
    "id": 60201,
    "nameTextMapHash": 1058177408,
    "titleID": 2111,
    "specialNameLabID": 2111,
    "icon": "UI_MonsterIcon_Regisvine_Ice"
  },
  {
    "id": 60202,
    "nameTextMapHash": 184117072,
    "titleID": 2112,
    "specialNameLabID": 2112,
    "icon": "UI_MonsterIcon_Regisvine_Fire"
  },
  {
    "id": 60203,
    "nameTextMapHash": 3366866392,
    "titleID": 2113,
    "specialNameLabID": 2113,
    "icon": "UI_MonsterIcon_Regisvine_Electric"
  },
  {
    "id": 60301,
    "nameTextMapHash": 2176598456,
    "titleID": 8001,
    "specialNameLabID": 8001,
    "icon": "UI_MonsterIcon_Wyrm_Rock"
  },
  {
    "id": 60401,
    "nameTextMapHash": 94524776,
    "titleID": 8002,
    "specialNameLabID": 8002,
    "icon": "UI_MonsterIcon_Drake_Rock"
  },
  {
    "id": 60501,
    "nameTextMapHash": 1057217072,
    "titleID": 8003,
    "specialNameLabID": 8003,
    "icon": "UI_MonsterIcon_Drake_Primo_Rock"
  },
  {
    "id": 60502,
    "nameTextMapHash": 2889994600,
    "titleID": 8003,
    "specialNameLabID": 8003,
    "icon": "UI_MonsterIcon_Drake_Primo_Rock"
  },
  {
    "id": 60503,
    "nameTextMapHash": 2849885272,
    "titleID": 8003,
    "specialNameLabID": 8003,
    "icon": "UI_MonsterIcon_Drake_Primo_Rock"
  },
  {
    "id": 60504,
    "nameTextMapHash": 118494128,
    "titleID": 8003,
    "specialNameLabID": 8003,
    "icon": "UI_MonsterIcon_Drake_Primo_Rock"
  },
  {
    "id": 60506,
    "nameTextMapHash": 2607892752,
    "titleID": 8004,
    "specialNameLabID": 8004,
    "icon": "UI_MonsterIcon_Drake_Deepsea_Water"
  },
  {
    "id": 60507,
    "nameTextMapHash": 1409593464,
    "titleID": 8005,
    "specialNameLabID": 8004,
    "icon": "UI_MonsterIcon_Drake_Deepsea_Ice"
  },
  {
    "id": 60508,
    "nameTextMapHash": 780741856,
    "titleID": 8006,
    "specialNameLabID": 8004,
    "icon": "UI_MonsterIcon_Drake_Deepsea_Electric"
  },
  {
    "id": 60509,
    "nameTextMapHash": 3368753712,
    "titleID": 8004,
    "specialNameLabID": 8004,
    "icon": "UI_MonsterIcon_Drake_Deepsea_Water"
  },
  {
    "id": 60510,
    "nameTextMapHash": 2861452928,
    "titleID": 8005,
    "specialNameLabID": 8004,
    "icon": "UI_MonsterIcon_Drake_Deepsea_Ice"
  },
  {
    "id": 60511,
    "nameTextMapHash": 3992097400,
    "titleID": 8006,
    "specialNameLabID": 8004,
    "icon": "UI_MonsterIcon_Drake_Deepsea_Electric"
  },
  {
    "id": 60601,
    "nameTextMapHash": 2662118744,
    "titleID": 1101,
    "specialNameLabID": 1101,
    "icon": "UI_MonsterIcon_Cicin_Thunder_01"
  },
  {
    "id": 60602,
    "nameTextMapHash": 5464472,
    "titleID": 1102,
    "specialNameLabID": 1102,
    "icon": "UI_MonsterIcon_Cicin_Water_01"
  },
  {
    "id": 60603,
    "nameTextMapHash": 1902456384,
    "titleID": 1103,
    "specialNameLabID": 1103,
    "icon": "UI_MonsterIcon_Cicin_Ice_01"
  },
  {
    "id": 60801,
    "nameTextMapHash": 4026370056,
    "titleID": 8011,
    "specialNameLabID": 10001,
    "icon": "UI_MonsterIcon_Cicin_Ice_01"
  },
  {
    "id": 60901,
    "nameTextMapHash": 2148393144,
    "titleID": 8021,
    "specialNameLabID": 8021,
    "icon": "UI_MonsterIcon_Fungus_Un_Gamma_Water"
  },
  {
    "id": 60902,
    "nameTextMapHash": 1307880752,
    "titleID": 8022,
    "specialNameLabID": 8021,
    "icon": "UI_MonsterIcon_Fungus_Un_Delta_Grass"
  },
  {
    "id": 60903,
    "nameTextMapHash": 3688247560,
    "titleID": 8023,
    "specialNameLabID": 8021,
    "icon": "UI_MonsterIcon_Fungus_Un_Delta_Wind"
  },
  {
    "id": 60904,
    "nameTextMapHash": 4191543160,
    "titleID": 8024,
    "specialNameLabID": 8022,
    "icon": "UI_MonsterIcon_Fungus_Trois_Epsilon_Electric"
  },
  {
    "id": 60905,
    "nameTextMapHash": 4127966472,
    "titleID": 8025,
    "specialNameLabID": 8022,
    "icon": "UI_MonsterIcon_Fungus_Trois_Alpha_Ice"
  },
  {
    "id": 60906,
    "nameTextMapHash": 1899331960,
    "titleID": 8026,
    "specialNameLabID": 8022,
    "icon": "UI_MonsterIcon_Fungus_Trois_Gamma_Fire"
  },
  {
    "id": 60907,
    "nameTextMapHash": 3502126912,
    "titleID": 8027,
    "specialNameLabID": 8023,
    "icon": "UI_MonsterIcon_Fungus_Deux_Alpha_Fire"
  },
  {
    "id": 60908,
    "nameTextMapHash": 2124724528,
    "titleID": 8028,
    "specialNameLabID": 8023,
    "icon": "UI_MonsterIcon_Fungus_Deux_Epsilon_Wind"
  },
  {
    "id": 60909,
    "nameTextMapHash": 2193662336,
    "titleID": 8029,
    "specialNameLabID": 8023,
    "icon": "UI_MonsterIcon_Fungus_Deux_Beta_Rock"
  },
  {
    "id": 60910,
    "nameTextMapHash": 3419745752,
    "titleID": 8030,
    "specialNameLabID": 8023,
    "icon": "UI_MonsterIcon_Fungus_Deux_Delta_Electric"
  },
  {
    "id": 61001,
    "nameTextMapHash": 2762852304,
    "titleID": 8054,
    "specialNameLabID": 8054,
    "icon": "UI_MonsterIcon_Gator_Sacred_Water"
  },
  {
    "id": 61002,
    "nameTextMapHash": 3698647272,
    "titleID": 8055,
    "specialNameLabID": 8055,
    "icon": "UI_MonsterIcon_Panther_Sacred_Grass"
  },
  {
    "id": 61003,
    "nameTextMapHash": 471079112,
    "titleID": 8051,
    "specialNameLabID": 8051,
    "icon": "UI_MonsterIcon_Vulture_Sacred_Fire"
  },
  {
    "id": 61004,
    "nameTextMapHash": 2093292568,
    "titleID": 8052,
    "specialNameLabID": 8052,
    "icon": "UI_MonsterIcon_Scorpion_Sacred_Electric"
  },
  {
    "id": 61005,
    "nameTextMapHash": 2495079336,
    "titleID": 8053,
    "specialNameLabID": 8053,
    "icon": "UI_MonsterIcon_Chrysopelea_Sacred_Wind"
  },
  {
    "id": 61101,
    "nameTextMapHash": 1551254368,
    "titleID": 8041,
    "specialNameLabID": 8041,
    "icon": "UI_MonsterIcon_Fungus_Raptor"
  },
  {
    "id": 61201,
    "nameTextMapHash": 3206484936,
    "titleID": 8031,
    "specialNameLabID": 8031,
    "icon": "UI_MonsterIcon_Fungus_Amanita_Unu_Anudatta_Grass"
  },
  {
    "id": 61202,
    "nameTextMapHash": 3547346360,
    "titleID": 8032,
    "specialNameLabID": 8031,
    "icon": "UI_MonsterIcon_Fungus_Amanita_Unu_Svarita_Ice"
  },
  {
    "id": 61203,
    "nameTextMapHash": 3396957208,
    "titleID": 8033,
    "specialNameLabID": 8031,
    "icon": "UI_MonsterIcon_Fungus_Amanita_Du_Anudatta_Water"
  },
  {
    "id": 61204,
    "nameTextMapHash": 46325200,
    "titleID": 8034,
    "specialNameLabID": 8031,
    "icon": "UI_MonsterIcon_Fungus_Amanita_Du_Udatta_Rock"
  },
  {
    "id": 61301,
    "nameTextMapHash": 4140228680,
    "titleID": 8045,
    "specialNameLabID": 8045,
    "icon": "UI_MonsterIcon_Sandworm"
  },
  {
    "id": 90101,
    "nameTextMapHash": 390703016,
    "titleID": 101,
    "specialNameLabID": 101,
    "icon": "UI_MonsterIcon_Dvalin"
  },
  {
    "id": 90201,
    "nameTextMapHash": 1869267944,
    "titleID": 111,
    "specialNameLabID": 111,
    "icon": "UI_MonsterIcon_LupiBoreas"
  },
  {
    "id": 90301,
    "nameTextMapHash": 2530909488,
    "titleID": 121,
    "specialNameLabID": 121,
    "icon": "UI_MonsterIcon_Tartaglia"
  },
  {
    "id": 90401,
    "nameTextMapHash": 3423290768,
    "titleID": 131,
    "specialNameLabID": 131,
    "icon": "UI_MonsterIcon_Dahaka"
  },
  {
    "id": 90501,
    "nameTextMapHash": 1726738920,
    "titleID": 141,
    "specialNameLabID": 141,
    "icon": "UI_MonsterIcon_LaSignora"
  },
  {
    "id": 90601,
    "nameTextMapHash": 1928397248,
    "titleID": 151,
    "specialNameLabID": 151,
    "icon": "UI_MonsterIcon_Shougun_Mitakenarukami"
  },
  {
    "id": 90602,
    "nameTextMapHash": 976885856,
    "titleID": 153,
    "specialNameLabID": 153,
    "icon": "UI_MonsterIcon_Shougun_Mitakenarukami"
  },
  {
    "id": 90701,
    "nameTextMapHash": 2221926632,
    "titleID": 161,
    "specialNameLabID": 161,
    "icon": "UI_MonsterIcon_Nada"
  },
  {
    "id": 90801,
    "nameTextMapHash": 3115382544,
    "titleID": 171,
    "specialNameLabID": 171,
    "icon": "UI_MonsterIcon_Apep"
  },
  {
    "id": 90802,
    "nameTextMapHash": 1638498832,
    "titleID": 171,
    "specialNameLabID": 171,
    "icon": "UI_MonsterIcon_Hili_None_01"
  },
  {
    "id": 90803,
    "nameTextMapHash": 1151284056,
    "titleID": 171,
    "specialNameLabID": 171,
    "icon": "UI_MonsterIcon_Hili_None_01"
  },
  {
    "id": 90804,
    "nameTextMapHash": 1258525040,
    "titleID": 171,
    "specialNameLabID": 171,
    "icon": "UI_MonsterIcon_Hili_None_01"
  },
  {
    "id": 90805,
    "nameTextMapHash": 1663159512,
    "titleID": 171,
    "specialNameLabID": 171,
    "icon": "UI_MonsterIcon_Hili_None_01"
  },
  {
    "id": 90806,
    "nameTextMapHash": 4179505856,
    "titleID": 171,
    "specialNameLabID": 171,
    "icon": "UI_MonsterIcon_Hili_None_01"
  },
  {
    "id": 90807,
    "nameTextMapHash": 1154097192,
    "titleID": 171,
    "specialNameLabID": 171,
    "icon": "UI_MonsterIcon_Hili_None_01"
  }
]
