[
  {
    "activityID": 5050,
    "descTextMapHash": 3613924880,
    "NENIIKJIHHA": 2947979886,
    "DLKPEKCCONL": 3778764695,
    "rewardPreviewID": 32701,
    "OLHHMAKCMDO": 202102,
    "BFIADEPDOLL": [],
    "AANFAKEKBLC": [],
    "PBKJMOELHDB": 7003007,
    "pushTipsID": 10009,
    "OPJFDMAJCFD": [],
    "MFDOHEBPHMA": [],
    "DFBABLHHOBI": [],
    "COEKHHIDDND": [
      {
        "desc": ""
      },
      {
        "desc": ""
      },
      {
        "desc": ""
      }
    ]
  },
  {
    "activityID": 2008,
    "descTextMapHash": 3502215888,
    "NENIIKJIHHA": 2455330254,
    "DLKPEKCCONL": 3413189295,
    "rewardPreviewID": 32801,
    "OLHHMAKCMDO": 202102,
    "BFIADEPDOLL": [],
    "AANFAKEKBLC": [],
    "pushTipsID": 10010,
    "OPJFDMAJCFD": [],
    "MFDOHEBPHMA": [],
    "DFBABLHHOBI": [],
    "COEKHHIDDND": [
      {
        "desc": ""
      },
      {
        "desc": ""
      },
      {
        "desc": ""
      }
    ]
  },
  {
    "activityID": 5051,
    "descTextMapHash": 890544616,
    "NENIIKJIHHA": 764763430,
    "DLKPEKCCONL": 1642172191,
    "rewardPreviewID": 33301,
    "OLHHMAKCMDO": 200711,
    "BFIADEPDOLL": [],
    "AANFAKEKBLC": [],
    "PBKJMOELHDB": 4003102,
    "pushTipsID": 11005,
    "OPJFDMAJCFD": [],
    "MFDOHEBPHMA": [],
    "DFBABLHHOBI": [],
    "COEKHHIDDND": [
      {
        "desc": ""
      },
      {
        "desc": ""
      },
      {
        "desc": ""
      }
    ]
  },
  {
    "activityID": 5052,
    "descTextMapHash": 2128192368,
    "NENIIKJIHHA": 2088299710,
    "DLKPEKCCONL": 3266929583,
    "rewardPreviewID": 32901,
    "OLHHMAKCMDO": 1100801,
    "BFIADEPDOLL": [],
    "AANFAKEKBLC": [],
    "PBKJMOELHDB": 7066101,
    "OPJFDMAJCFD": [],
    "MFDOHEBPHMA": [],
    "DFBABLHHOBI": [],
    "COEKHHIDDND": [
      {
        "desc": ""
      },
      {
        "desc": ""
      },
      {
        "desc": ""
      }
    ]
  },
  {
    "activityID": 5055,
    "descTextMapHash": 2297639280,
    "NENIIKJIHHA": 335290462,
    "DLKPEKCCONL": 4003122079,
    "BFIADEPDOLL": [],
    "AANFAKEKBLC": [],
    "OPJFDMAJCFD": [],
    "MFDOHEBPHMA": [],
    "DFBABLHHOBI": [],
    "COEKHHIDDND": [
      {
        "desc": ""
      },
      {
        "desc": ""
      },
      {
        "desc": ""
      }
    ]
  },
  {
    "activityID": 5058,
    "descTextMapHash": 2112099504,
    "NENIIKJIHHA": 1841946878,
    "DLKPEKCCONL": 1472432935,
    "rewardPreviewID": 33304,
    "OLHHMAKCMDO": 101609,
    "BFIADEPDOLL": [],
    "AANFAKEKBLC": [],
    "PBKJMOELHDB": 7165904,
    "pushTipsID": 6039,
    "OPJFDMAJCFD": [],
    "MFDOHEBPHMA": [],
    "DFBABLHHOBI": [],
    "COEKHHIDDND": [
      {
        "desc": ""
      },
      {
        "desc": ""
      },
      {
        "desc": ""
      }
    ]
  },
  {
    "activityID": 2010,
    "descTextMapHash": 3316593152,
    "NENIIKJIHHA": 3507761150,
    "DLKPEKCCONL": 2469097983,
    "rewardPreviewID": 33305,
    "OLHHMAKCMDO": 102510,
    "BFIADEPDOLL": [],
    "AANFAKEKBLC": [],
    "PBKJMOELHDB": 1101505,
    "OPJFDMAJCFD": [11009, 11013, 11014, 11015],
    "MFDOHEBPHMA": [],
    "DFBABLHHOBI": [],
    "COEKHHIDDND": [
      {
        "desc": ""
      },
      {
        "desc": ""
      },
      {
        "desc": ""
      }
    ]
  },
  {
    "activityID": 5062,
    "descTextMapHash": 3087946216,
    "NENIIKJIHHA": 1325772086,
    "DLKPEKCCONL": 2994661887,
    "rewardPreviewID": 33314,
    "OLHHMAKCMDO": 1101505,
    "BFIADEPDOLL": [],
    "AANFAKEKBLC": [],
    "PBKJMOELHDB": 7050205,
    "pushTipsID": 11026,
    "OPJFDMAJCFD": [],
    "MFDOHEBPHMA": [],
    "DFBABLHHOBI": [],
    "COEKHHIDDND": [
      {
        "desc": ""
      },
      {
        "desc": ""
      },
      {
        "desc": ""
      }
    ]
  },
  {
    "activityID": 5065,
    "descTextMapHash": 669288176,
    "NENIIKJIHHA": 1741498918,
    "DLKPEKCCONL": 2447121647,
    "rewardPreviewID": 33341,
    "OLHHMAKCMDO": 102510,
    "BFIADEPDOLL": [],
    "AANFAKEKBLC": [],
    "PBKJMOELHDB": 7166207,
    "pushTipsID": 11029,
    "OPJFDMAJCFD": [],
    "MFDOHEBPHMA": [],
    "DFBABLHHOBI": [],
    "COEKHHIDDND": [
      {
        "desc": ""
      },
      {
        "desc": ""
      },
      {
        "desc": ""
      }
    ]
  },
  {
    "activityID": 5066,
    "descTextMapHash": 2588604904,
    "NENIIKJIHHA": 2840044350,
    "DLKPEKCCONL": 3439719415,
    "rewardPreviewID": 33343,
    "BFIADEPDOLL": [],
    "AANFAKEKBLC": [],
    "PBKJMOELHDB": 7166302,
    "OPJFDMAJCFD": [],
    "MFDOHEBPHMA": [],
    "DFBABLHHOBI": [],
    "COEKHHIDDND": [
      {
        "desc": ""
      },
      {
        "desc": ""
      },
      {
        "desc": ""
      }
    ]
  },
  {
    "activityID": 5067,
    "descTextMapHash": 988118240,
    "NENIIKJIHHA": 2147799606,
    "DLKPEKCCONL": 2998466839,
    "rewardPreviewID": 33344,
    "OLHHMAKCMDO": 102510,
    "BFIADEPDOLL": [],
    "AANFAKEKBLC": [],
    "PBKJMOELHDB": 7166402,
    "pushTipsID": 11036,
    "OPJFDMAJCFD": [],
    "MFDOHEBPHMA": [],
    "DFBABLHHOBI": [],
    "COEKHHIDDND": [
      {
        "desc": ""
      },
      {
        "desc": ""
      },
      {
        "desc": ""
      }
    ]
  },
  {
    "activityID": 2012,
    "descTextMapHash": 1980784824,
    "NENIIKJIHHA": 3579825366,
    "DLKPEKCCONL": 3248685335,
    "rewardPreviewID": 33345,
    "OLHHMAKCMDO": 201310,
    "BFIADEPDOLL": [],
    "AANFAKEKBLC": [],
    "OPJFDMAJCFD": [],
    "MFDOHEBPHMA": [
      12033, 12034, 12035, 12040, 12041, 12042, 12020, 12021, 12022, 12023,
      12024
    ],
    "DFBABLHHOBI": [],
    "COEKHHIDDND": [
      {
        "desc": ""
      },
      {
        "desc": ""
      },
      {
        "desc": ""
      }
    ]
  },
  {
    "activityID": 5068,
    "descTextMapHash": 4038239592,
    "NENIIKJIHHA": 1494276190,
    "DLKPEKCCONL": 307881487,
    "rewardPreviewID": 33342,
    "OLHHMAKCMDO": 201310,
    "BFIADEPDOLL": [72724, 71811],
    "AANFAKEKBLC": [71811],
    "PBKJMOELHDB": 7268302,
    "OPJFDMAJCFD": [],
    "MFDOHEBPHMA": [],
    "DFBABLHHOBI": [],
    "COEKHHIDDND": [
      {
        "desc": ""
      },
      {
        "desc": ""
      },
      {
        "desc": ""
      }
    ]
  },
  {
    "activityID": 5072,
    "descTextMapHash": 1802449760,
    "NENIIKJIHHA": 4144500574,
    "DLKPEKCCONL": 2609834719,
    "rewardPreviewID": 33346,
    "OLHHMAKCMDO": 201310,
    "BFIADEPDOLL": [],
    "AANFAKEKBLC": [],
    "PBKJMOELHDB": 7268407,
    "pushTipsID": 11031,
    "OPJFDMAJCFD": [],
    "MFDOHEBPHMA": [],
    "DFBABLHHOBI": [],
    "COEKHHIDDND": [
      {
        "desc": ""
      },
      {
        "desc": ""
      },
      {
        "desc": ""
      }
    ]
  },
  {
    "activityID": 5079,
    "descTextMapHash": 2897744712,
    "NENIIKJIHHA": 2832709958,
    "DLKPEKCCONL": 311526159,
    "rewardPreviewID": 33349,
    "BFIADEPDOLL": [],
    "AANFAKEKBLC": [],
    "OPJFDMAJCFD": [],
    "MFDOHEBPHMA": [],
    "DFBABLHHOBI": [],
    "COEKHHIDDND": [
      {
        "JODHHAADGJN": 5079028,
        "desc": "UI_ACTIVITY_CHASM_CHALLENGE_PRECOND"
      },
      {
        "desc": ""
      },
      {
        "desc": ""
      }
    ]
  },
  {
    "activityID": 5080,
    "descTextMapHash": 2322631320,
    "NENIIKJIHHA": 129883518,
    "DLKPEKCCONL": 14362551,
    "rewardPreviewID": 33347,
    "OLHHMAKCMDO": 7280705,
    "BFIADEPDOLL": [],
    "AANFAKEKBLC": [],
    "PBKJMOELHDB": 7269402,
    "pushTipsID": 6058,
    "OPJFDMAJCFD": [],
    "MFDOHEBPHMA": [],
    "DFBABLHHOBI": [],
    "COEKHHIDDND": [
      {
        "desc": ""
      },
      {
        "desc": ""
      },
      {
        "desc": ""
      }
    ]
  },
  {
    "activityID": 2013,
    "descTextMapHash": 950500832,
    "NENIIKJIHHA": 3967506214,
    "DLKPEKCCONL": 2318570351,
    "rewardPreviewID": 33348,
    "OLHHMAKCMDO": 102510,
    "BFIADEPDOLL": [],
    "AANFAKEKBLC": [],
    "OPJFDMAJCFD": [],
    "MFDOHEBPHMA": [],
    "DFBABLHHOBI": [],
    "COEKHHIDDND": [
      {
        "desc": ""
      },
      {
        "desc": ""
      },
      {
        "desc": ""
      }
    ]
  },
  {
    "activityID": 2014,
    "descTextMapHash": 2944607712,
    "NENIIKJIHHA": 2451625702,
    "DLKPEKCCONL": 150992887,
    "rewardPreviewID": 33359,
    "OLHHMAKCMDO": 200212,
    "BFIADEPDOLL": [10500, 10501, 10502],
    "AANFAKEKBLC": [],
    "PBKJMOELHDB": 4006415,
    "OPJFDMAJCFD": [],
    "MFDOHEBPHMA": [],
    "DFBABLHHOBI": [],
    "COEKHHIDDND": [
      {
        "desc": ""
      },
      {
        "desc": ""
      },
      {
        "desc": ""
      }
    ]
  },
  {
    "activityID": 5082,
    "descTextMapHash": 2228569488,
    "NENIIKJIHHA": 3032919286,
    "DLKPEKCCONL": 2381332071,
    "rewardPreviewID": 33355,
    "OLHHMAKCMDO": 39604,
    "BFIADEPDOLL": [],
    "AANFAKEKBLC": [],
    "PBKJMOELHDB": 7051404,
    "OPJFDMAJCFD": [],
    "MFDOHEBPHMA": [],
    "DFBABLHHOBI": [],
    "COEKHHIDDND": [
      {
        "desc": ""
      },
      {
        "desc": ""
      },
      {
        "desc": ""
      }
    ]
  },
  {
    "activityID": 5083,
    "descTextMapHash": 1248251136,
    "NENIIKJIHHA": 419271054,
    "DLKPEKCCONL": 2693240455,
    "rewardPreviewID": 33354,
    "OLHHMAKCMDO": 4006415,
    "BFIADEPDOLL": [],
    "AANFAKEKBLC": [],
    "PBKJMOELHDB": 7051701,
    "pushTipsID": 6067,
    "OPJFDMAJCFD": [],
    "MFDOHEBPHMA": [],
    "DFBABLHHOBI": [],
    "COEKHHIDDND": [
      {
        "desc": ""
      },
      {
        "desc": ""
      },
      {
        "desc": ""
      }
    ]
  },
  {
    "activityID": 5084,
    "descTextMapHash": 1826432928,
    "NENIIKJIHHA": 2564895862,
    "DLKPEKCCONL": 2009313135,
    "rewardPreviewID": 33353,
    "OLHHMAKCMDO": 4006407,
    "BFIADEPDOLL": [],
    "AANFAKEKBLC": [],
    "OPJFDMAJCFD": [],
    "MFDOHEBPHMA": [],
    "DFBABLHHOBI": [],
    "COEKHHIDDND": [
      {
        "desc": ""
      },
      {
        "desc": ""
      },
      {
        "desc": ""
      }
    ]
  },
  {
    "activityID": 5085,
    "descTextMapHash": 1149448192,
    "NENIIKJIHHA": 3164498510,
    "DLKPEKCCONL": 3242410287,
    "rewardPreviewID": 33352,
    "OLHHMAKCMDO": 39604,
    "BFIADEPDOLL": [464, 465, 466],
    "AANFAKEKBLC": [],
    "PBKJMOELHDB": 7051207,
    "OPJFDMAJCFD": [],
    "MFDOHEBPHMA": [],
    "DFBABLHHOBI": [],
    "COEKHHIDDND": [
      {
        "desc": ""
      },
      {
        "desc": ""
      },
      {
        "desc": ""
      }
    ]
  },
  {
    "activityID": 5087,
    "descTextMapHash": 934330456,
    "NENIIKJIHHA": 2961478182,
    "DLKPEKCCONL": 2551744279,
    "rewardPreviewID": 33362,
    "BFIADEPDOLL": [],
    "AANFAKEKBLC": [],
    "PBKJMOELHDB": 7365101,
    "pushTipsID": 6060,
    "OPJFDMAJCFD": [],
    "MFDOHEBPHMA": [],
    "DFBABLHHOBI": [],
    "COEKHHIDDND": [
      {
        "desc": ""
      },
      {
        "desc": ""
      },
      {
        "desc": ""
      }
    ]
  },
  {
    "activityID": 2015,
    "descTextMapHash": 1180306632,
    "NENIIKJIHHA": 513450638,
    "DLKPEKCCONL": 680457463,
    "rewardPreviewID": 33363,
    "OLHHMAKCMDO": 31101,
    "BFIADEPDOLL": [3000, 3001, 3002, 3003, 3004],
    "AANFAKEKBLC": [],
    "PBKJMOELHDB": 7350014,
    "OPJFDMAJCFD": [],
    "MFDOHEBPHMA": [],
    "DFBABLHHOBI": [],
    "COEKHHIDDND": [
      {
        "desc": ""
      },
      {
        "desc": ""
      },
      {
        "desc": ""
      }
    ]
  },
  {
    "activityID": 5090,
    "descTextMapHash": 364985024,
    "NENIIKJIHHA": 1224531574,
    "DLKPEKCCONL": 4012609855,
    "rewardPreviewID": 33365,
    "OLHHMAKCMDO": 39604,
    "BFIADEPDOLL": [],
    "AANFAKEKBLC": [],
    "PBKJMOELHDB": 7365001,
    "pushTipsID": 6063,
    "OPJFDMAJCFD": [],
    "MFDOHEBPHMA": [],
    "DFBABLHHOBI": [],
    "COEKHHIDDND": [
      {
        "desc": ""
      },
      {
        "desc": ""
      },
      {
        "desc": ""
      }
    ]
  },
  {
    "activityID": 5091,
    "descTextMapHash": 2144105168,
    "NENIIKJIHHA": 1821354486,
    "DLKPEKCCONL": 2407982055,
    "rewardPreviewID": 33364,
    "BFIADEPDOLL": [],
    "AANFAKEKBLC": [],
    "PBKJMOELHDB": 7367401,
    "pushTipsID": 11084,
    "OPJFDMAJCFD": [],
    "MFDOHEBPHMA": [],
    "DFBABLHHOBI": [],
    "COEKHHIDDND": [
      {
        "desc": ""
      },
      {
        "desc": ""
      },
      {
        "desc": ""
      }
    ]
  },
  {
    "activityID": 2016,
    "descTextMapHash": 2055146824,
    "NENIIKJIHHA": 808569118,
    "DLKPEKCCONL": 1181416655,
    "rewardPreviewID": 33369,
    "BFIADEPDOLL": [],
    "AANFAKEKBLC": [],
    "OPJFDMAJCFD": [],
    "MFDOHEBPHMA": [],
    "DFBABLHHOBI": [],
    "COEKHHIDDND": [
      {
        "desc": ""
      },
      {
        "desc": ""
      },
      {
        "desc": ""
      }
    ]
  },
  {
    "activityID": 5095,
    "descTextMapHash": 4105116560,
    "NENIIKJIHHA": 4251264374,
    "DLKPEKCCONL": 1682329263,
    "rewardPreviewID": 33368,
    "BFIADEPDOLL": [],
    "AANFAKEKBLC": [],
    "PBKJMOELHDB": 7066401,
    "pushTipsID": 6086,
    "OPJFDMAJCFD": [],
    "MFDOHEBPHMA": [],
    "DFBABLHHOBI": [],
    "COEKHHIDDND": [
      {
        "desc": ""
      },
      {
        "desc": ""
      },
      {
        "desc": ""
      }
    ]
  },
  {
    "activityID": 5096,
    "descTextMapHash": 2306942672,
    "NENIIKJIHHA": 1749135902,
    "DLKPEKCCONL": 301346087,
    "rewardPreviewID": 33367,
    "BFIADEPDOLL": [3000, 3001, 3002, 3003, 3004, 3005, 3006],
    "AANFAKEKBLC": [],
    "PBKJMOELHDB": 7367501,
    "pushTipsID": 6095,
    "OPJFDMAJCFD": [],
    "MFDOHEBPHMA": [],
    "DFBABLHHOBI": [8007],
    "COEKHHIDDND": [
      {
        "desc": ""
      },
      {
        "desc": ""
      },
      {
        "desc": ""
      }
    ]
  },
  {
    "activityID": 2017,
    "descTextMapHash": 1127558520,
    "NENIIKJIHHA": 386758302,
    "DLKPEKCCONL": 2136382431,
    "rewardPreviewID": 33378,
    "OLHHMAKCMDO": 102510,
    "BFIADEPDOLL": [3024, 3025, 3022, 3028, 3026, 12031],
    "AANFAKEKBLC": [],
    "PBKJMOELHDB": 4008109,
    "OPJFDMAJCFD": [],
    "MFDOHEBPHMA": [],
    "DFBABLHHOBI": [],
    "COEKHHIDDND": [
      {
        "desc": ""
      },
      {
        "desc": ""
      },
      {
        "desc": ""
      }
    ]
  },
  {
    "activityID": 5099,
    "descTextMapHash": 628884608,
    "NENIIKJIHHA": 1644820174,
    "DLKPEKCCONL": 1475306879,
    "rewardPreviewID": 33376,
    "BFIADEPDOLL": [],
    "AANFAKEKBLC": [],
    "OPJFDMAJCFD": [],
    "MFDOHEBPHMA": [],
    "DFBABLHHOBI": [],
    "COEKHHIDDND": [
      {
        "desc": ""
      },
      {
        "desc": ""
      },
      {
        "desc": ""
      }
    ]
  },
  {
    "activityID": 5107,
    "descTextMapHash": 222357992,
    "NENIIKJIHHA": 2866240318,
    "DLKPEKCCONL": 1304621647,
    "rewardPreviewID": 33377,
    "BFIADEPDOLL": [],
    "AANFAKEKBLC": [],
    "pushTipsID": 12082,
    "OPJFDMAJCFD": [],
    "MFDOHEBPHMA": [],
    "DFBABLHHOBI": [],
    "COEKHHIDDND": [
      {
        "desc": ""
      },
      {
        "desc": ""
      },
      {
        "desc": ""
      }
    ]
  },
  {
    "activityID": 5108,
    "descTextMapHash": 1033275288,
    "NENIIKJIHHA": 3328563830,
    "DLKPEKCCONL": 2438825343,
    "rewardPreviewID": 33342,
    "OLHHMAKCMDO": 201310,
    "BFIADEPDOLL": [71811, 12010, 12011, 12012, 12013, 11010, 11011, 11012],
    "AANFAKEKBLC": [],
    "PBKJMOELHDB": 7250102,
    "OPJFDMAJCFD": [],
    "MFDOHEBPHMA": [],
    "DFBABLHHOBI": [],
    "COEKHHIDDND": [
      {
        "desc": ""
      },
      {
        "desc": ""
      },
      {
        "desc": ""
      }
    ]
  },
  {
    "activityID": 5112,
    "descTextMapHash": 4173413216,
    "NENIIKJIHHA": 1862229918,
    "DLKPEKCCONL": 2946525631,
    "rewardPreviewID": 33379,
    "OLHHMAKCMDO": 39604,
    "BFIADEPDOLL": [],
    "AANFAKEKBLC": [],
    "PBKJMOELHDB": 7368401,
    "OPJFDMAJCFD": [],
    "MFDOHEBPHMA": [],
    "DFBABLHHOBI": [],
    "COEKHHIDDND": [
      {
        "desc": ""
      },
      {
        "desc": ""
      },
      {
        "desc": ""
      }
    ]
  },
  {
    "activityID": 2018,
    "descTextMapHash": 310068632,
    "NENIIKJIHHA": 1402179734,
    "DLKPEKCCONL": 2732611383,
    "rewardPreviewID": 33382,
    "OLHHMAKCMDO": 201310,
    "BFIADEPDOLL": [12009, 12025, 12026],
    "AANFAKEKBLC": [],
    "PBKJMOELHDB": 4008913,
    "pushTipsID": 6100,
    "OPJFDMAJCFD": [],
    "MFDOHEBPHMA": [],
    "DFBABLHHOBI": [],
    "COEKHHIDDND": [
      {
        "desc": ""
      },
      {
        "desc": ""
      },
      {
        "desc": ""
      }
    ]
  },
  {
    "activityID": 5116,
    "descTextMapHash": 4216849160,
    "NENIIKJIHHA": 2744616126,
    "DLKPEKCCONL": 786872815,
    "rewardPreviewID": 33383,
    "BFIADEPDOLL": [],
    "AANFAKEKBLC": [],
    "pushTipsID": 6099,
    "OPJFDMAJCFD": [],
    "MFDOHEBPHMA": [],
    "DFBABLHHOBI": [],
    "COEKHHIDDND": [
      {
        "desc": ""
      },
      {
        "desc": ""
      },
      {
        "desc": ""
      }
    ]
  },
  {
    "activityID": 2019,
    "descTextMapHash": 1634357152,
    "NENIIKJIHHA": 2718250286,
    "DLKPEKCCONL": 2287880239,
    "rewardPreviewID": 33387,
    "OLHHMAKCMDO": 102510,
    "BFIADEPDOLL": [11009, 11013, 11014, 11015, 11018, 11019, 11026],
    "AANFAKEKBLC": [],
    "OPJFDMAJCFD": [],
    "MFDOHEBPHMA": [],
    "DFBABLHHOBI": [],
    "COEKHHIDDND": [
      {
        "desc": ""
      },
      {
        "desc": ""
      },
      {
        "desc": ""
      }
    ]
  },
  {
    "activityID": 5117,
    "descTextMapHash": 594001384,
    "NENIIKJIHHA": 3876221670,
    "DLKPEKCCONL": 2735227151,
    "rewardPreviewID": 33384,
    "OLHHMAKCMDO": 201310,
    "BFIADEPDOLL": [12040, 12041, 12042],
    "AANFAKEKBLC": [],
    "pushTipsID": 13002,
    "OPJFDMAJCFD": [],
    "MFDOHEBPHMA": [],
    "DFBABLHHOBI": [],
    "COEKHHIDDND": [
      {
        "desc": ""
      },
      {
        "desc": ""
      },
      {
        "desc": ""
      }
    ]
  },
  {
    "activityID": 5118,
    "descTextMapHash": 2388784768,
    "NENIIKJIHHA": 858948462,
    "DLKPEKCCONL": 2116608695,
    "rewardPreviewID": 33386,
    "OLHHMAKCMDO": 201310,
    "BFIADEPDOLL": [],
    "AANFAKEKBLC": [],
    "PBKJMOELHDB": 7273001,
    "OPJFDMAJCFD": [],
    "MFDOHEBPHMA": [],
    "DFBABLHHOBI": [],
    "COEKHHIDDND": [
      {
        "desc": ""
      },
      {
        "desc": ""
      },
      {
        "desc": ""
      }
    ]
  },
  {
    "activityID": 2020,
    "descTextMapHash": 745406872,
    "NENIIKJIHHA": 4050044158,
    "DLKPEKCCONL": 28425871,
    "rewardPreviewID": 33388,
    "OLHHMAKCMDO": 39604,
    "BFIADEPDOLL": [
      3024, 3025, 3022, 3028, 3026, 11040, 11041, 11042, 11044, 11043, 11045
    ],
    "AANFAKEKBLC": [],
    "PBKJMOELHDB": 4009707,
    "OPJFDMAJCFD": [],
    "MFDOHEBPHMA": [],
    "DFBABLHHOBI": [],
    "COEKHHIDDND": [
      {
        "desc": ""
      },
      {
        "desc": ""
      },
      {
        "desc": ""
      }
    ]
  },
  {
    "activityID": 5120,
    "descTextMapHash": 1340664720,
    "NENIIKJIHHA": 694901846,
    "DLKPEKCCONL": 931834647,
    "rewardPreviewID": 33391,
    "OLHHMAKCMDO": 201310,
    "BFIADEPDOLL": [],
    "AANFAKEKBLC": [],
    "OPJFDMAJCFD": [],
    "MFDOHEBPHMA": [],
    "DFBABLHHOBI": [],
    "COEKHHIDDND": [
      {
        "desc": ""
      },
      {
        "desc": ""
      },
      {
        "desc": ""
      }
    ]
  },
  {
    "activityID": 5123,
    "descTextMapHash": 3327883576,
    "NENIIKJIHHA": 3248720294,
    "DLKPEKCCONL": 3223007703,
    "rewardPreviewID": 33344,
    "OLHHMAKCMDO": 102510,
    "BFIADEPDOLL": [],
    "AANFAKEKBLC": [],
    "PBKJMOELHDB": 7368901,
    "pushTipsID": 11036,
    "OPJFDMAJCFD": [],
    "MFDOHEBPHMA": [],
    "DFBABLHHOBI": [],
    "COEKHHIDDND": [
      {
        "desc": ""
      },
      {
        "desc": ""
      },
      {
        "desc": ""
      }
    ]
  },
  {
    "activityID": 5125,
    "descTextMapHash": 1232575336,
    "NENIIKJIHHA": 4214625358,
    "DLKPEKCCONL": 2789969511,
    "rewardPreviewID": 33390,
    "BFIADEPDOLL": [],
    "AANFAKEKBLC": [],
    "PBKJMOELHDB": 7052702,
    "OPJFDMAJCFD": [],
    "MFDOHEBPHMA": [],
    "DFBABLHHOBI": [],
    "COEKHHIDDND": [
      {
        "desc": ""
      },
      {
        "desc": ""
      },
      {
        "desc": ""
      }
    ]
  },
  {
    "activityID": 5126,
    "descTextMapHash": 2415970672,
    "NENIIKJIHHA": 2239845086,
    "DLKPEKCCONL": 54629335,
    "BFIADEPDOLL": [],
    "AANFAKEKBLC": [],
    "OPJFDMAJCFD": [],
    "MFDOHEBPHMA": [],
    "DFBABLHHOBI": [],
    "COEKHHIDDND": [
      {
        "desc": ""
      },
      {
        "desc": ""
      },
      {
        "desc": ""
      }
    ]
  },
  {
    "activityID": 2021,
    "descTextMapHash": 797695728,
    "NENIIKJIHHA": 172312862,
    "DLKPEKCCONL": 4038056599,
    "rewardPreviewID": 33395,
    "BFIADEPDOLL": [],
    "AANFAKEKBLC": [],
    "OPJFDMAJCFD": [],
    "MFDOHEBPHMA": [],
    "DFBABLHHOBI": [],
    "COEKHHIDDND": [
      {
        "desc": ""
      },
      {
        "desc": ""
      },
      {
        "desc": ""
      }
    ]
  },
  {
    "activityID": 5128,
    "descTextMapHash": 3442209456,
    "NENIIKJIHHA": 203275342,
    "DLKPEKCCONL": 204740279,
    "rewardPreviewID": 33392,
    "OLHHMAKCMDO": 102510,
    "BFIADEPDOLL": [],
    "AANFAKEKBLC": [],
    "OPJFDMAJCFD": [],
    "MFDOHEBPHMA": [],
    "DFBABLHHOBI": [],
    "COEKHHIDDND": [
      {
        "desc": ""
      },
      {
        "desc": ""
      },
      {
        "desc": ""
      }
    ]
  },
  {
    "activityID": 5129,
    "descTextMapHash": 1245821464,
    "NENIIKJIHHA": 34111246,
    "DLKPEKCCONL": 76343967,
    "rewardPreviewID": 33362,
    "BFIADEPDOLL": [],
    "AANFAKEKBLC": [],
    "PBKJMOELHDB": 7350901,
    "pushTipsID": 13041,
    "OPJFDMAJCFD": [],
    "MFDOHEBPHMA": [],
    "DFBABLHHOBI": [],
    "COEKHHIDDND": [
      {
        "desc": ""
      },
      {
        "desc": ""
      },
      {
        "desc": ""
      }
    ]
  },
  {
    "activityID": 5132,
    "descTextMapHash": 2986894448,
    "NENIIKJIHHA": 1131314926,
    "DLKPEKCCONL": 2364708943,
    "rewardPreviewID": 33393,
    "BFIADEPDOLL": [],
    "AANFAKEKBLC": [],
    "OPJFDMAJCFD": [],
    "MFDOHEBPHMA": [],
    "DFBABLHHOBI": [],
    "COEKHHIDDND": [
      {
        "desc": ""
      },
      {
        "desc": ""
      },
      {
        "desc": ""
      }
    ]
  },
  {
    "activityID": 5119,
    "descTextMapHash": 2970193432,
    "NENIIKJIHHA": 2237342390,
    "DLKPEKCCONL": 914371175,
    "rewardPreviewID": 33399,
    "OLHHMAKCMDO": 7066523,
    "BFIADEPDOLL": [],
    "AANFAKEKBLC": [],
    "OPJFDMAJCFD": [],
    "MFDOHEBPHMA": [],
    "DFBABLHHOBI": [],
    "COEKHHIDDND": [
      {
        "desc": ""
      },
      {
        "desc": ""
      },
      {
        "desc": ""
      }
    ]
  }
]
