[
  {
    "id": 1,
    "offeringId": 2,
    "CPCINJJMABA": 20
  },
  {
    "id": 2,
    "offeringId": 2,
    "CPCINJJMABA": 30
  },
  {
    "id": 3,
    "offeringId": 2,
    "CPCINJJMABA": 40
  },
  {
    "id": 4,
    "offeringId": 2,
    "CPCINJJMABA": 50
  },
  {
    "id": 5,
    "offeringId": 5,
    "CPCINJJMABA": 20
  },
  {
    "id": 6,
    "offeringId": 5,
    "CPCINJJMABA": 30
  },
  {
    "id": 7,
    "offeringId": 5,
    "CPCINJJMABA": 40
  },
  {
    "id": 8,
    "offeringId": 5,
    "CPCINJJMABA": 50
  }
]
