[
  {
    "NMCOJGEKGPH": 1000021,
    "HDJJIIFJOCH": 3429433536
  },
  {
    "NMCOJGEKGPH": 1000022,
    "HDJJIIFJOCH": 677074616
  },
  {
    "NMCOJGEKGPH": 1000023,
    "HDJJIIFJOCH": 1826408184
  },
  {
    "NMCOJGEKGPH": 1000024,
    "HDJJIIFJOCH": 3913739864
  },
  {
    "NMCOJGEKGPH": 1000025,
    "HDJJIIFJOCH": 4228851984
  },
  {
    "NMCOJGEKGPH": 1000026,
    "HDJJIIFJOCH": 4017913920
  },
  {
    "NMCOJGEKGPH": 1000027,
    "HDJJIIFJOCH": 3148022744
  },
  {
    "NMCOJGEKGPH": 1000028,
    "HDJJIIFJOCH": 2421485296
  },
  {
    "NMCOJGEKGPH": 1000029,
    "HDJJIIFJOCH": 2999139016
  },
  {
    "NMCOJGEKGPH": 1000030,
    "HDJJIIFJOCH": 2860557576
  },
  {
    "NMCOJGEKGPH": 1000031,
    "HDJJIIFJOCH": 358935744
  },
  {
    "NMCOJGEKGPH": 1000032,
    "HDJJIIFJOCH": 2438499712
  },
  {
    "NMCOJGEKGPH": 1000033,
    "HDJJIIFJOCH": 331442176
  },
  {
    "NMCOJGEKGPH": 1000034,
    "HDJJIIFJOCH": 1961872640
  },
  {
    "NMCOJGEKGPH": 1000035,
    "HDJJIIFJOCH": 2876068080
  }
]
