[
  {
    "id": 1001,
    "MGAPGMFEDEO": 1,
    "CECKCOGFKKI": [
      {
        "FLKNKLONLNO": [33002, 33003],
        "FNMJEGAOOBA": [33001]
      },
      {
        "FLKNKLONLNO": [33005],
        "FNMJEGAOOBA": [33006]
      },
      {
        "FLKNKLONLNO": [33012],
        "FNMJEGAOOBA": []
      }
    ]
  },
  {
    "id": 1002,
    "MGAPGMFEDEO": 1,
    "CECKCOGFKKI": [
      {
        "FLKNKLONLNO": [33002, 33008],
        "FNMJEGAOOBA": [33001]
      },
      {
        "FLKNKLONLNO": [33009, 33016, 33017],
        "FNMJEGAOOBA": [33050, 33029, 33049]
      },
      {
        "FLKNKLONLNO": [33011, 33047],
        "FNMJEGAOOBA": []
      }
    ]
  },
  {
    "id": 1003,
    "MGAPGMFEDEO": 1,
    "CECKCOGFKKI": [
      {
        "FLKNKLONLNO": [33008, 33012],
        "FNMJEGAOOBA": [33006, 33043]
      },
      {
        "FLKNKLONLNO": [33047],
        "FNMJEGAOOBA": [33030, 33044, 33041, 33048]
      },
      {
        "FLKNKLONLNO": [33019, 33027],
        "FNMJEGAOOBA": []
      }
    ]
  },
  {
    "id": 1004,
    "MGAPGMFEDEO": 1,
    "CECKCOGFKKI": [
      {
        "FLKNKLONLNO": [33004, 33007, 33017],
        "FNMJEGAOOBA": []
      },
      {
        "FLKNKLONLNO": [33045, 33022, 33023],
        "FNMJEGAOOBA": [33048, 33021]
      },
      {
        "FLKNKLONLNO": [33034],
        "FNMJEGAOOBA": []
      }
    ]
  },
  {
    "id": 1005,
    "MGAPGMFEDEO": 1,
    "CECKCOGFKKI": [
      {
        "FLKNKLONLNO": [33003, 33020, 33022],
        "FNMJEGAOOBA": []
      },
      {
        "FLKNKLONLNO": [33046],
        "FNMJEGAOOBA": [33021, 33024]
      },
      {
        "FLKNKLONLNO": [33013, 33028, 33025],
        "FNMJEGAOOBA": []
      }
    ]
  },
  {
    "id": 1006,
    "MGAPGMFEDEO": 1,
    "CECKCOGFKKI": [
      {
        "FLKNKLONLNO": [33060],
        "FNMJEGAOOBA": [33037, 33038]
      },
      {
        "FLKNKLONLNO": [],
        "FNMJEGAOOBA": [33031, 33030, 33041, 33042]
      },
      {
        "FLKNKLONLNO": [33039, 33040],
        "FNMJEGAOOBA": [33071]
      }
    ]
  },
  {
    "id": 1007,
    "MGAPGMFEDEO": 1,
    "CECKCOGFKKI": [
      {
        "FLKNKLONLNO": [33019, 33020],
        "FNMJEGAOOBA": [33021]
      },
      {
        "FLKNKLONLNO": [33059],
        "FNMJEGAOOBA": [33024, 33029, 33049, 33048, 33050]
      },
      {
        "FLKNKLONLNO": [],
        "FNMJEGAOOBA": [33065]
      }
    ]
  },
  {
    "id": 1008,
    "MGAPGMFEDEO": 1,
    "CECKCOGFKKI": [
      {
        "FLKNKLONLNO": [33018],
        "FNMJEGAOOBA": [33035, 33054, 33055, 33056]
      },
      {
        "FLKNKLONLNO": [33034],
        "FNMJEGAOOBA": [33057, 33058]
      },
      {
        "FLKNKLONLNO": [33014, 33015],
        "FNMJEGAOOBA": []
      }
    ]
  },
  {
    "id": 1009,
    "MGAPGMFEDEO": 1,
    "CECKCOGFKKI": [
      {
        "FLKNKLONLNO": [33005, 33060],
        "FNMJEGAOOBA": [33006]
      },
      {
        "FLKNKLONLNO": [33032, 33033, 33012, 33059],
        "FNMJEGAOOBA": [33070]
      },
      {
        "FLKNKLONLNO": [33028, 33034],
        "FNMJEGAOOBA": [33071]
      }
    ]
  },
  {
    "id": 1010,
    "MGAPGMFEDEO": 1,
    "CECKCOGFKKI": [
      {
        "FLKNKLONLNO": [33002, 33003],
        "FNMJEGAOOBA": [33062]
      },
      {
        "FLKNKLONLNO": [33022, 33023],
        "FNMJEGAOOBA": []
      },
      {
        "FLKNKLONLNO": [],
        "FNMJEGAOOBA": [33063]
      }
    ]
  },
  {
    "id": 1011,
    "MGAPGMFEDEO": 1,
    "CECKCOGFKKI": [
      {
        "FLKNKLONLNO": [],
        "FNMJEGAOOBA": [33030, 33031]
      },
      {
        "FLKNKLONLNO": [],
        "FNMJEGAOOBA": [33029, 33024]
      },
      {
        "FLKNKLONLNO": [33036],
        "FNMJEGAOOBA": [33065]
      }
    ]
  },
  {
    "id": 1012,
    "MGAPGMFEDEO": 1,
    "CECKCOGFKKI": [
      {
        "FLKNKLONLNO": [33060],
        "FNMJEGAOOBA": []
      },
      {
        "FLKNKLONLNO": [],
        "FNMJEGAOOBA": [33070]
      },
      {
        "FLKNKLONLNO": [],
        "FNMJEGAOOBA": [33071]
      }
    ]
  },
  {
    "id": 1013,
    "MGAPGMFEDEO": 1,
    "CECKCOGFKKI": [
      {
        "FLKNKLONLNO": [],
        "FNMJEGAOOBA": [33074, 33075]
      },
      {
        "FLKNKLONLNO": [],
        "FNMJEGAOOBA": [33076]
      },
      {
        "FLKNKLONLNO": [33077],
        "FNMJEGAOOBA": []
      }
    ]
  },
  {
    "id": 1014,
    "MGAPGMFEDEO": 1,
    "CECKCOGFKKI": [
      {
        "FLKNKLONLNO": [],
        "FNMJEGAOOBA": [33078, 33079]
      },
      {
        "FLKNKLONLNO": [],
        "FNMJEGAOOBA": [33080, 33081]
      },
      {
        "FLKNKLONLNO": [33082, 33083],
        "FNMJEGAOOBA": []
      }
    ]
  },
  {
    "id": 1015,
    "MGAPGMFEDEO": 1,
    "CECKCOGFKKI": [
      {
        "FLKNKLONLNO": [33003, 33004],
        "FNMJEGAOOBA": []
      },
      {
        "FLKNKLONLNO": [],
        "FNMJEGAOOBA": [33084, 33085]
      },
      {
        "FLKNKLONLNO": [],
        "FNMJEGAOOBA": [33080, 33081]
      }
    ]
  },
  {
    "id": 1016,
    "MGAPGMFEDEO": 1,
    "CECKCOGFKKI": [
      {
        "FLKNKLONLNO": [33032, 33033, 33060],
        "FNMJEGAOOBA": []
      },
      {
        "FLKNKLONLNO": [33059],
        "FNMJEGAOOBA": [33070]
      },
      {
        "FLKNKLONLNO": [],
        "FNMJEGAOOBA": [33071]
      }
    ]
  },
  {
    "id": 1017,
    "MGAPGMFEDEO": 1,
    "CECKCOGFKKI": [
      {
        "FLKNKLONLNO": [33018],
        "FNMJEGAOOBA": []
      },
      {
        "FLKNKLONLNO": [],
        "FNMJEGAOOBA": [33035, 33054, 33055, 33056]
      },
      {
        "FLKNKLONLNO": [33028],
        "FNMJEGAOOBA": []
      }
    ]
  },
  {
    "id": 1018,
    "MGAPGMFEDEO": 1,
    "CECKCOGFKKI": [
      {
        "FLKNKLONLNO": [33002, 33003],
        "FNMJEGAOOBA": [33001]
      },
      {
        "FLKNKLONLNO": [33005],
        "FNMJEGAOOBA": [33006]
      },
      {
        "FLKNKLONLNO": [33061, 33072, 33073],
        "FNMJEGAOOBA": []
      }
    ]
  },
  {
    "id": 1019,
    "MGAPGMFEDEO": 1,
    "CECKCOGFKKI": [
      {
        "FLKNKLONLNO": [33002, 33008],
        "FNMJEGAOOBA": [33001]
      },
      {
        "FLKNKLONLNO": [33009, 33016, 33017, 33047],
        "FNMJEGAOOBA": [33050, 33029, 33049]
      },
      {
        "FLKNKLONLNO": [33061, 33072, 33073],
        "FNMJEGAOOBA": []
      }
    ]
  },
  {
    "id": 1020,
    "MGAPGMFEDEO": 1,
    "CECKCOGFKKI": [
      {
        "FLKNKLONLNO": [33008, 33012],
        "FNMJEGAOOBA": [33006, 33043]
      },
      {
        "FLKNKLONLNO": [33047],
        "FNMJEGAOOBA": [33030, 33044, 33041, 33048]
      },
      {
        "FLKNKLONLNO": [33162, 33088],
        "FNMJEGAOOBA": []
      }
    ]
  },
  {
    "id": 1021,
    "MGAPGMFEDEO": 1,
    "CECKCOGFKKI": [
      {
        "FLKNKLONLNO": [33004, 33007, 33017],
        "FNMJEGAOOBA": []
      },
      {
        "FLKNKLONLNO": [33045, 33022, 33023],
        "FNMJEGAOOBA": [33048, 33021]
      },
      {
        "FLKNKLONLNO": [33162, 33088],
        "FNMJEGAOOBA": []
      }
    ]
  },
  {
    "id": 1022,
    "MGAPGMFEDEO": 1,
    "CECKCOGFKKI": [
      {
        "FLKNKLONLNO": [33003, 33020, 33022],
        "FNMJEGAOOBA": []
      },
      {
        "FLKNKLONLNO": [33046],
        "FNMJEGAOOBA": [33021, 33024]
      },
      {
        "FLKNKLONLNO": [33163],
        "FNMJEGAOOBA": []
      }
    ]
  },
  {
    "id": 1023,
    "MGAPGMFEDEO": 1,
    "CECKCOGFKKI": [
      {
        "FLKNKLONLNO": [33060],
        "FNMJEGAOOBA": [33037, 33038]
      },
      {
        "FLKNKLONLNO": [],
        "FNMJEGAOOBA": [33031, 33030, 33041, 33042]
      },
      {
        "FLKNKLONLNO": [33061, 33072, 33073],
        "FNMJEGAOOBA": []
      }
    ]
  },
  {
    "id": 1024,
    "MGAPGMFEDEO": 1,
    "CECKCOGFKKI": [
      {
        "FLKNKLONLNO": [33019, 33020],
        "FNMJEGAOOBA": [33021]
      },
      {
        "FLKNKLONLNO": [33059],
        "FNMJEGAOOBA": [33024, 33029, 33049, 33048, 33050]
      },
      {
        "FLKNKLONLNO": [33066, 33067, 33068, 33069],
        "FNMJEGAOOBA": []
      }
    ]
  },
  {
    "id": 1025,
    "MGAPGMFEDEO": 1,
    "CECKCOGFKKI": [
      {
        "FLKNKLONLNO": [33018],
        "FNMJEGAOOBA": [33035, 33054, 33055, 33056]
      },
      {
        "FLKNKLONLNO": [33034],
        "FNMJEGAOOBA": [33057, 33058]
      },
      {
        "FLKNKLONLNO": [33061, 33072, 33073],
        "FNMJEGAOOBA": []
      }
    ]
  },
  {
    "id": 1026,
    "MGAPGMFEDEO": 1,
    "CECKCOGFKKI": [
      {
        "FLKNKLONLNO": [33005, 33060],
        "FNMJEGAOOBA": [33006]
      },
      {
        "FLKNKLONLNO": [33032, 33033, 33012, 33059],
        "FNMJEGAOOBA": [33070]
      },
      {
        "FLKNKLONLNO": [33061, 33072, 33073],
        "FNMJEGAOOBA": []
      }
    ]
  },
  {
    "id": 1027,
    "MGAPGMFEDEO": 1,
    "CECKCOGFKKI": [
      {
        "FLKNKLONLNO": [33002, 33003],
        "FNMJEGAOOBA": [33062]
      },
      {
        "FLKNKLONLNO": [33022, 33023],
        "FNMJEGAOOBA": [33063]
      },
      {
        "FLKNKLONLNO": [33061],
        "FNMJEGAOOBA": []
      }
    ]
  },
  {
    "id": 1028,
    "MGAPGMFEDEO": 1,
    "CECKCOGFKKI": [
      {
        "FLKNKLONLNO": [],
        "FNMJEGAOOBA": [33064]
      },
      {
        "FLKNKLONLNO": [],
        "FNMJEGAOOBA": [33065]
      },
      {
        "FLKNKLONLNO": [33066, 33067, 33068, 33069],
        "FNMJEGAOOBA": []
      }
    ]
  },
  {
    "id": 1029,
    "MGAPGMFEDEO": 1,
    "CECKCOGFKKI": [
      {
        "FLKNKLONLNO": [],
        "FNMJEGAOOBA": [33070]
      },
      {
        "FLKNKLONLNO": [33059],
        "FNMJEGAOOBA": []
      },
      {
        "FLKNKLONLNO": [33061, 33072, 33073],
        "FNMJEGAOOBA": []
      }
    ]
  },
  {
    "id": 1030,
    "MGAPGMFEDEO": 1,
    "CECKCOGFKKI": [
      {
        "FLKNKLONLNO": [],
        "FNMJEGAOOBA": [33074, 33075]
      },
      {
        "FLKNKLONLNO": [],
        "FNMJEGAOOBA": [33076]
      },
      {
        "FLKNKLONLNO": [33061, 33072, 33073],
        "FNMJEGAOOBA": []
      }
    ]
  },
  {
    "id": 1031,
    "MGAPGMFEDEO": 1,
    "CECKCOGFKKI": [
      {
        "FLKNKLONLNO": [],
        "FNMJEGAOOBA": [33078, 33079]
      },
      {
        "FLKNKLONLNO": [],
        "FNMJEGAOOBA": [33080, 33081]
      },
      {
        "FLKNKLONLNO": [33061, 33072, 33073],
        "FNMJEGAOOBA": []
      }
    ]
  },
  {
    "id": 1032,
    "MGAPGMFEDEO": 1,
    "CECKCOGFKKI": [
      {
        "FLKNKLONLNO": [],
        "FNMJEGAOOBA": [33084, 33085]
      },
      {
        "FLKNKLONLNO": [33086, 33087],
        "FNMJEGAOOBA": []
      },
      {
        "FLKNKLONLNO": [33061, 33072, 33073],
        "FNMJEGAOOBA": []
      }
    ]
  },
  {
    "id": 1033,
    "MGAPGMFEDEO": 1,
    "CECKCOGFKKI": [
      {
        "FLKNKLONLNO": [33032, 33033, 33060],
        "FNMJEGAOOBA": []
      },
      {
        "FLKNKLONLNO": [33060, 33059],
        "FNMJEGAOOBA": [33070]
      },
      {
        "FLKNKLONLNO": [33061, 33072, 33073],
        "FNMJEGAOOBA": []
      }
    ]
  },
  {
    "id": 1034,
    "MGAPGMFEDEO": 1,
    "CECKCOGFKKI": [
      {
        "FLKNKLONLNO": [33018],
        "FNMJEGAOOBA": []
      },
      {
        "FLKNKLONLNO": [],
        "FNMJEGAOOBA": [33035, 33054, 33055, 33056]
      },
      {
        "FLKNKLONLNO": [33066, 33067, 33068, 33069],
        "FNMJEGAOOBA": []
      }
    ]
  },
  {
    "id": 1035,
    "MGAPGMFEDEO": 1,
    "CECKCOGFKKI": [
      {
        "FLKNKLONLNO": [33060],
        "FNMJEGAOOBA": [33037, 33038]
      },
      {
        "FLKNKLONLNO": [],
        "FNMJEGAOOBA": [33031, 33030, 33041, 33042]
      },
      {
        "FLKNKLONLNO": [33072],
        "FNMJEGAOOBA": []
      }
    ]
  },
  {
    "id": 1036,
    "MGAPGMFEDEO": 1,
    "CECKCOGFKKI": [
      {
        "FLKNKLONLNO": [33018],
        "FNMJEGAOOBA": [33035, 33054, 33055, 33056]
      },
      {
        "FLKNKLONLNO": [33034],
        "FNMJEGAOOBA": [33057, 33058]
      },
      {
        "FLKNKLONLNO": [33072],
        "FNMJEGAOOBA": []
      }
    ]
  },
  {
    "id": 1037,
    "CECKCOGFKKI": [
      {
        "FLKNKLONLNO": [33127, 33128, 33090],
        "FNMJEGAOOBA": []
      },
      {
        "FLKNKLONLNO": [33130, 33091],
        "FNMJEGAOOBA": []
      },
      {
        "FLKNKLONLNO": [33135],
        "FNMJEGAOOBA": []
      }
    ]
  },
  {
    "id": 1038,
    "CECKCOGFKKI": [
      {
        "FLKNKLONLNO": [33127, 33132, 33090],
        "FNMJEGAOOBA": []
      },
      {
        "FLKNKLONLNO": [33133, 33139, 33105, 33094, 33104, 33171],
        "FNMJEGAOOBA": []
      },
      {
        "FLKNKLONLNO": [33134, 33156],
        "FNMJEGAOOBA": []
      }
    ]
  },
  {
    "id": 1039,
    "CECKCOGFKKI": [
      {
        "FLKNKLONLNO": [33132, 33135, 33091, 33101],
        "FNMJEGAOOBA": []
      },
      {
        "FLKNKLONLNO": [33095, 33102, 33099, 33103],
        "FNMJEGAOOBA": []
      },
      {
        "FLKNKLONLNO": [33141, 33146, 33156],
        "FNMJEGAOOBA": []
      }
    ]
  },
  {
    "id": 1040,
    "CECKCOGFKKI": [
      {
        "FLKNKLONLNO": [33129, 33131, 33139],
        "FNMJEGAOOBA": []
      },
      {
        "FLKNKLONLNO": [33154, 33143, 33144, 33103, 33092],
        "FNMJEGAOOBA": []
      },
      {
        "FLKNKLONLNO": [33150],
        "FNMJEGAOOBA": []
      }
    ]
  },
  {
    "id": 1041,
    "CECKCOGFKKI": [
      {
        "FLKNKLONLNO": [33128, 33142, 33143],
        "FNMJEGAOOBA": []
      },
      {
        "FLKNKLONLNO": [33155, 33092, 33093],
        "FNMJEGAOOBA": []
      },
      {
        "FLKNKLONLNO": [33136, 33147, 33145],
        "FNMJEGAOOBA": []
      }
    ]
  },
  {
    "id": 1042,
    "CECKCOGFKKI": [
      {
        "FLKNKLONLNO": [33158, 33096, 33097],
        "FNMJEGAOOBA": []
      },
      {
        "FLKNKLONLNO": [33096, 33095, 33099, 33100],
        "FNMJEGAOOBA": []
      },
      {
        "FLKNKLONLNO": [33152, 33153, 33117],
        "FNMJEGAOOBA": []
      }
    ]
  },
  {
    "id": 1043,
    "CECKCOGFKKI": [
      {
        "FLKNKLONLNO": [33141, 33142, 33092],
        "FNMJEGAOOBA": []
      },
      {
        "FLKNKLONLNO": [33157, 33093, 33094, 33104, 33103, 33105],
        "FNMJEGAOOBA": []
      },
      {
        "FLKNKLONLNO": [33115],
        "FNMJEGAOOBA": []
      }
    ]
  },
  {
    "id": 1044,
    "CECKCOGFKKI": [
      {
        "FLKNKLONLNO": [33140, 33106, 33107, 33108, 33109],
        "FNMJEGAOOBA": []
      },
      {
        "FLKNKLONLNO": [33150, 33110, 33111],
        "FNMJEGAOOBA": []
      },
      {
        "FLKNKLONLNO": [33137, 33138],
        "FNMJEGAOOBA": []
      }
    ]
  },
  {
    "id": 1045,
    "CECKCOGFKKI": [
      {
        "FLKNKLONLNO": [33130, 33158, 33091],
        "FNMJEGAOOBA": []
      },
      {
        "FLKNKLONLNO": [33148, 33149, 33135, 33116],
        "FNMJEGAOOBA": []
      },
      {
        "FLKNKLONLNO": [33117, 33147, 33150],
        "FNMJEGAOOBA": []
      }
    ]
  },
  {
    "id": 1046,
    "CECKCOGFKKI": [
      {
        "FLKNKLONLNO": [33127, 33128, 33112],
        "FNMJEGAOOBA": []
      },
      {
        "FLKNKLONLNO": [33143, 33144],
        "FNMJEGAOOBA": []
      },
      {
        "FLKNKLONLNO": [33113],
        "FNMJEGAOOBA": []
      }
    ]
  },
  {
    "id": 1047,
    "CECKCOGFKKI": [
      {
        "FLKNKLONLNO": [33095, 33096],
        "FNMJEGAOOBA": []
      },
      {
        "FLKNKLONLNO": [33094, 33093],
        "FNMJEGAOOBA": []
      },
      {
        "FLKNKLONLNO": [33151, 33115],
        "FNMJEGAOOBA": []
      }
    ]
  },
  {
    "id": 1048,
    "CECKCOGFKKI": [
      {
        "FLKNKLONLNO": [33158],
        "FNMJEGAOOBA": []
      },
      {
        "FLKNKLONLNO": [33116],
        "FNMJEGAOOBA": []
      },
      {
        "FLKNKLONLNO": [33117],
        "FNMJEGAOOBA": []
      }
    ]
  },
  {
    "id": 1049,
    "CECKCOGFKKI": [
      {
        "FLKNKLONLNO": [33118, 33119],
        "FNMJEGAOOBA": []
      },
      {
        "FLKNKLONLNO": [33120],
        "FNMJEGAOOBA": []
      },
      {
        "FLKNKLONLNO": [33159],
        "FNMJEGAOOBA": []
      }
    ]
  },
  {
    "id": 1050,
    "CECKCOGFKKI": [
      {
        "FLKNKLONLNO": [33121, 33122],
        "FNMJEGAOOBA": []
      },
      {
        "FLKNKLONLNO": [33123, 33124],
        "FNMJEGAOOBA": []
      },
      {
        "FLKNKLONLNO": [33160, 33161],
        "FNMJEGAOOBA": []
      }
    ]
  },
  {
    "id": 1051,
    "CECKCOGFKKI": [
      {
        "FLKNKLONLNO": [33128, 33129],
        "FNMJEGAOOBA": []
      },
      {
        "FLKNKLONLNO": [33125, 33126],
        "FNMJEGAOOBA": []
      },
      {
        "FLKNKLONLNO": [33123, 33124],
        "FNMJEGAOOBA": []
      }
    ]
  },
  {
    "id": 1052,
    "CECKCOGFKKI": [
      {
        "FLKNKLONLNO": [33148, 33149, 33158],
        "FNMJEGAOOBA": []
      },
      {
        "FLKNKLONLNO": [33157, 33116],
        "FNMJEGAOOBA": []
      },
      {
        "FLKNKLONLNO": [33117],
        "FNMJEGAOOBA": []
      }
    ]
  },
  {
    "id": 1053,
    "CECKCOGFKKI": [
      {
        "FLKNKLONLNO": [33140],
        "FNMJEGAOOBA": []
      },
      {
        "FLKNKLONLNO": [33106, 33107, 33108, 33109],
        "FNMJEGAOOBA": []
      },
      {
        "FLKNKLONLNO": [33147],
        "FNMJEGAOOBA": []
      }
    ]
  },
  {
    "id": 1054,
    "CECKCOGFKKI": [
      {
        "FLKNKLONLNO": [33127, 33128, 33090],
        "FNMJEGAOOBA": []
      },
      {
        "FLKNKLONLNO": [33130, 33091],
        "FNMJEGAOOBA": []
      },
      {
        "FLKNKLONLNO": [33061, 33072, 33073],
        "FNMJEGAOOBA": []
      }
    ]
  },
  {
    "id": 1055,
    "CECKCOGFKKI": [
      {
        "FLKNKLONLNO": [33127, 33132, 33156, 33090],
        "FNMJEGAOOBA": []
      },
      {
        "FLKNKLONLNO": [33133, 33139, 33105, 33094, 33104, 33171],
        "FNMJEGAOOBA": []
      },
      {
        "FLKNKLONLNO": [33061, 33072, 33073],
        "FNMJEGAOOBA": []
      }
    ]
  },
  {
    "id": 1056,
    "CECKCOGFKKI": [
      {
        "FLKNKLONLNO": [33132, 33135, 33156, 33091, 33101],
        "FNMJEGAOOBA": []
      },
      {
        "FLKNKLONLNO": [33095, 33102, 33099, 33103],
        "FNMJEGAOOBA": []
      },
      {
        "FLKNKLONLNO": [33162, 33088],
        "FNMJEGAOOBA": []
      }
    ]
  },
  {
    "id": 1057,
    "CECKCOGFKKI": [
      {
        "FLKNKLONLNO": [33129, 33131, 33139],
        "FNMJEGAOOBA": []
      },
      {
        "FLKNKLONLNO": [33154, 33143, 33144, 33103, 33092],
        "FNMJEGAOOBA": []
      },
      {
        "FLKNKLONLNO": [33162, 33088],
        "FNMJEGAOOBA": []
      }
    ]
  },
  {
    "id": 1058,
    "CECKCOGFKKI": [
      {
        "FLKNKLONLNO": [33128, 33142, 33143],
        "FNMJEGAOOBA": []
      },
      {
        "FLKNKLONLNO": [33155, 33092, 33093],
        "FNMJEGAOOBA": []
      },
      {
        "FLKNKLONLNO": [33163],
        "FNMJEGAOOBA": []
      }
    ]
  },
  {
    "id": 1059,
    "CECKCOGFKKI": [
      {
        "FLKNKLONLNO": [33158, 33097, 33098],
        "FNMJEGAOOBA": []
      },
      {
        "FLKNKLONLNO": [33096, 33095, 33099, 33100],
        "FNMJEGAOOBA": []
      },
      {
        "FLKNKLONLNO": [33061, 33072, 33073],
        "FNMJEGAOOBA": []
      }
    ]
  },
  {
    "id": 1060,
    "CECKCOGFKKI": [
      {
        "FLKNKLONLNO": [33141, 33142, 33092],
        "FNMJEGAOOBA": []
      },
      {
        "FLKNKLONLNO": [33157, 33093, 33094, 33103, 33104, 33105],
        "FNMJEGAOOBA": []
      },
      {
        "FLKNKLONLNO": [33066, 33067, 33068, 33069],
        "FNMJEGAOOBA": []
      }
    ]
  },
  {
    "id": 1061,
    "CECKCOGFKKI": [
      {
        "FLKNKLONLNO": [33140, 33106, 33107, 33108, 33109],
        "FNMJEGAOOBA": []
      },
      {
        "FLKNKLONLNO": [33150, 33110, 33111],
        "FNMJEGAOOBA": []
      },
      {
        "FLKNKLONLNO": [33061, 33072, 33073],
        "FNMJEGAOOBA": []
      }
    ]
  },
  {
    "id": 1062,
    "CECKCOGFKKI": [
      {
        "FLKNKLONLNO": [33130, 33158, 33091],
        "FNMJEGAOOBA": []
      },
      {
        "FLKNKLONLNO": [33148, 33149, 33135, 33116],
        "FNMJEGAOOBA": []
      },
      {
        "FLKNKLONLNO": [33061, 33072, 33073],
        "FNMJEGAOOBA": []
      }
    ]
  },
  {
    "id": 1063,
    "CECKCOGFKKI": [
      {
        "FLKNKLONLNO": [33127, 33128, 33112],
        "FNMJEGAOOBA": []
      },
      {
        "FLKNKLONLNO": [33143, 33144, 33113],
        "FNMJEGAOOBA": []
      },
      {
        "FLKNKLONLNO": [33061],
        "FNMJEGAOOBA": []
      }
    ]
  },
  {
    "id": 1064,
    "CECKCOGFKKI": [
      {
        "FLKNKLONLNO": [33137],
        "FNMJEGAOOBA": []
      },
      {
        "FLKNKLONLNO": [33115],
        "FNMJEGAOOBA": []
      },
      {
        "FLKNKLONLNO": [33066, 33067, 33068, 33069],
        "FNMJEGAOOBA": []
      }
    ]
  },
  {
    "id": 1065,
    "CECKCOGFKKI": [
      {
        "FLKNKLONLNO": [33116],
        "FNMJEGAOOBA": []
      },
      {
        "FLKNKLONLNO": [33117],
        "FNMJEGAOOBA": []
      },
      {
        "FLKNKLONLNO": [33061, 33072, 33073],
        "FNMJEGAOOBA": []
      }
    ]
  },
  {
    "id": 1066,
    "CECKCOGFKKI": [
      {
        "FLKNKLONLNO": [33118, 33119],
        "FNMJEGAOOBA": []
      },
      {
        "FLKNKLONLNO": [33120],
        "FNMJEGAOOBA": []
      },
      {
        "FLKNKLONLNO": [33061, 33072, 33073],
        "FNMJEGAOOBA": []
      }
    ]
  },
  {
    "id": 1067,
    "CECKCOGFKKI": [
      {
        "FLKNKLONLNO": [33121, 33122],
        "FNMJEGAOOBA": []
      },
      {
        "FLKNKLONLNO": [33123, 33124],
        "FNMJEGAOOBA": []
      },
      {
        "FLKNKLONLNO": [33061, 33072, 33073],
        "FNMJEGAOOBA": []
      }
    ]
  },
  {
    "id": 1068,
    "CECKCOGFKKI": [
      {
        "FLKNKLONLNO": [33125, 33126],
        "FNMJEGAOOBA": []
      },
      {
        "FLKNKLONLNO": [33162, 33163],
        "FNMJEGAOOBA": []
      },
      {
        "FLKNKLONLNO": [33061, 33072, 33073],
        "FNMJEGAOOBA": []
      }
    ]
  },
  {
    "id": 1069,
    "CECKCOGFKKI": [
      {
        "FLKNKLONLNO": [33148, 33149, 33158, 33157],
        "FNMJEGAOOBA": []
      },
      {
        "FLKNKLONLNO": [33158, 33157, 33116],
        "FNMJEGAOOBA": []
      },
      {
        "FLKNKLONLNO": [33061, 33072, 33073],
        "FNMJEGAOOBA": []
      }
    ]
  },
  {
    "id": 1070,
    "CECKCOGFKKI": [
      {
        "FLKNKLONLNO": [33140],
        "FNMJEGAOOBA": []
      },
      {
        "FLKNKLONLNO": [33106, 33107, 33108, 33109],
        "FNMJEGAOOBA": []
      },
      {
        "FLKNKLONLNO": [33066, 33067, 33068, 33069],
        "FNMJEGAOOBA": []
      }
    ]
  },
  {
    "id": 1071,
    "CECKCOGFKKI": [
      {
        "FLKNKLONLNO": [33158, 33097, 33098],
        "FNMJEGAOOBA": []
      },
      {
        "FLKNKLONLNO": [33096, 33095, 33099, 33100],
        "FNMJEGAOOBA": []
      },
      {
        "FLKNKLONLNO": [33072],
        "FNMJEGAOOBA": []
      }
    ]
  },
  {
    "id": 1072,
    "CECKCOGFKKI": [
      {
        "FLKNKLONLNO": [33140, 33106, 33107, 33108, 33109],
        "FNMJEGAOOBA": []
      },
      {
        "FLKNKLONLNO": [33150, 33110, 33111],
        "FNMJEGAOOBA": []
      },
      {
        "FLKNKLONLNO": [33072],
        "FNMJEGAOOBA": []
      }
    ]
  },
  {
    "id": 1073,
    "MGAPGMFEDEO": 1,
    "CECKCOGFKKI": [
      {
        "FLKNKLONLNO": [33002, 33008],
        "FNMJEGAOOBA": [33001]
      },
      {
        "FLKNKLONLNO": [33009, 33017, 33164, 33165, 33016],
        "FNMJEGAOOBA": [33029]
      },
      {
        "FLKNKLONLNO": [33011, 33047],
        "FNMJEGAOOBA": []
      }
    ]
  },
  {
    "id": 1074,
    "MGAPGMFEDEO": 1,
    "CECKCOGFKKI": [
      {
        "FLKNKLONLNO": [33008, 33012],
        "FNMJEGAOOBA": [33006, 33043]
      },
      {
        "FLKNKLONLNO": [33047, 33164, 33166],
        "FNMJEGAOOBA": [33030, 33044, 33041]
      },
      {
        "FLKNKLONLNO": [33019, 33027],
        "FNMJEGAOOBA": []
      }
    ]
  },
  {
    "id": 1075,
    "MGAPGMFEDEO": 1,
    "CECKCOGFKKI": [
      {
        "FLKNKLONLNO": [33004, 33007, 33017],
        "FNMJEGAOOBA": []
      },
      {
        "FLKNKLONLNO": [33045, 33022, 33023, 33166, 33167],
        "FNMJEGAOOBA": [33021]
      },
      {
        "FLKNKLONLNO": [33034],
        "FNMJEGAOOBA": []
      }
    ]
  },
  {
    "id": 1076,
    "MGAPGMFEDEO": 1,
    "CECKCOGFKKI": [
      {
        "FLKNKLONLNO": [33003, 33020, 33022],
        "FNMJEGAOOBA": []
      },
      {
        "FLKNKLONLNO": [33046, 33165, 33167],
        "FNMJEGAOOBA": [33021, 33024]
      },
      {
        "FLKNKLONLNO": [33013, 33028, 33025],
        "FNMJEGAOOBA": []
      }
    ]
  },
  {
    "id": 1077,
    "MGAPGMFEDEO": 1,
    "CECKCOGFKKI": [
      {
        "FLKNKLONLNO": [33060],
        "FNMJEGAOOBA": [33037, 33038]
      },
      {
        "FLKNKLONLNO": [33168, 33169, 33170],
        "FNMJEGAOOBA": [33031, 33030, 33041, 33042]
      },
      {
        "FLKNKLONLNO": [33039, 33040],
        "FNMJEGAOOBA": [33071]
      }
    ]
  },
  {
    "id": 1078,
    "MGAPGMFEDEO": 1,
    "CECKCOGFKKI": [
      {
        "FLKNKLONLNO": [33019, 33020],
        "FNMJEGAOOBA": [33021]
      },
      {
        "FLKNKLONLNO": [33059, 33168, 33169, 33170],
        "FNMJEGAOOBA": [33024, 33029]
      },
      {
        "FLKNKLONLNO": [],
        "FNMJEGAOOBA": [33065]
      }
    ]
  },
  {
    "id": 1079,
    "MGAPGMFEDEO": 1,
    "CECKCOGFKKI": [
      {
        "FLKNKLONLNO": [33018],
        "FNMJEGAOOBA": [33035, 33054, 33055, 33056]
      },
      {
        "FLKNKLONLNO": [33034, 33169, 33170],
        "FNMJEGAOOBA": [33057, 33058]
      },
      {
        "FLKNKLONLNO": [33014, 33015],
        "FNMJEGAOOBA": []
      }
    ]
  },
  {
    "id": 1080,
    "MGAPGMFEDEO": 1,
    "CECKCOGFKKI": [
      {
        "FLKNKLONLNO": [33005, 33060],
        "FNMJEGAOOBA": [33006]
      },
      {
        "FLKNKLONLNO": [33032, 33033, 33012, 33059, 33169, 33170],
        "FNMJEGAOOBA": [33070]
      },
      {
        "FLKNKLONLNO": [33028, 33034],
        "FNMJEGAOOBA": [33071]
      }
    ]
  },
  {
    "id": 1081,
    "MGAPGMFEDEO": 1,
    "CECKCOGFKKI": [
      {
        "FLKNKLONLNO": [33032, 33033, 33060],
        "FNMJEGAOOBA": []
      },
      {
        "FLKNKLONLNO": [33059, 33169, 33170],
        "FNMJEGAOOBA": [33070]
      },
      {
        "FLKNKLONLNO": [],
        "FNMJEGAOOBA": [33071]
      }
    ]
  },
  {
    "id": 1082,
    "CECKCOGFKKI": [
      {
        "FLKNKLONLNO": [33141, 33142, 33092],
        "FNMJEGAOOBA": []
      },
      {
        "FLKNKLONLNO": [33157, 33093, 33094],
        "FNMJEGAOOBA": []
      },
      {
        "FLKNKLONLNO": [33066, 33067, 33068, 33069],
        "FNMJEGAOOBA": []
      }
    ]
  },
  {
    "id": 1083,
    "MGAPGMFEDEO": 1,
    "CECKCOGFKKI": [
      {
        "FLKNKLONLNO": [33005, 33060],
        "FNMJEGAOOBA": [33006]
      },
      {
        "FLKNKLONLNO": [33032, 33033, 33012, 33059, 33168, 33169, 33170],
        "FNMJEGAOOBA": [33070]
      },
      {
        "FLKNKLONLNO": [33061, 33072, 33073],
        "FNMJEGAOOBA": []
      }
    ]
  },
  {
    "id": 1084,
    "MGAPGMFEDEO": 1,
    "CECKCOGFKKI": [
      {
        "FLKNKLONLNO": [33002, 33003],
        "FNMJEGAOOBA": [33062]
      },
      {
        "FLKNKLONLNO": [33022, 33023, 33169, 33170],
        "FNMJEGAOOBA": [33063]
      },
      {
        "FLKNKLONLNO": [33172],
        "FNMJEGAOOBA": []
      }
    ]
  },
  {
    "id": 1085,
    "MGAPGMFEDEO": 1,
    "CECKCOGFKKI": [
      {
        "FLKNKLONLNO": [],
        "FNMJEGAOOBA": [33064]
      },
      {
        "FLKNKLONLNO": [33168, 33169, 33170],
        "FNMJEGAOOBA": [33065]
      },
      {
        "FLKNKLONLNO": [33173, 33174, 33175, 33176],
        "FNMJEGAOOBA": []
      }
    ]
  },
  {
    "id": 1086,
    "MGAPGMFEDEO": 1,
    "CECKCOGFKKI": [
      {
        "FLKNKLONLNO": [],
        "FNMJEGAOOBA": [33070]
      },
      {
        "FLKNKLONLNO": [33059, 33169, 33170],
        "FNMJEGAOOBA": []
      },
      {
        "FLKNKLONLNO": [33172, 33177, 33178],
        "FNMJEGAOOBA": []
      }
    ]
  },
  {
    "id": 1087,
    "MGAPGMFEDEO": 1,
    "CECKCOGFKKI": [
      {
        "FLKNKLONLNO": [],
        "FNMJEGAOOBA": [33074, 33075]
      },
      {
        "FLKNKLONLNO": [33169, 33170],
        "FNMJEGAOOBA": [33076]
      },
      {
        "FLKNKLONLNO": [33172, 33177, 33178],
        "FNMJEGAOOBA": []
      }
    ]
  },
  {
    "id": 1088,
    "MGAPGMFEDEO": 1,
    "CECKCOGFKKI": [
      {
        "FLKNKLONLNO": [],
        "FNMJEGAOOBA": [33084, 33085]
      },
      {
        "FLKNKLONLNO": [33086, 33087, 33164, 33165],
        "FNMJEGAOOBA": []
      },
      {
        "FLKNKLONLNO": [33172, 33177, 33178],
        "FNMJEGAOOBA": []
      }
    ]
  },
  {
    "id": 1089,
    "MGAPGMFEDEO": 1,
    "CECKCOGFKKI": [
      {
        "FLKNKLONLNO": [],
        "FNMJEGAOOBA": [33074, 33075]
      },
      {
        "FLKNKLONLNO": [33169, 33170],
        "FNMJEGAOOBA": [33076]
      },
      {
        "FLKNKLONLNO": [33077],
        "FNMJEGAOOBA": []
      }
    ]
  },
  {
    "id": 1090,
    "MGAPGMFEDEO": 1,
    "CECKCOGFKKI": [
      {
        "FLKNKLONLNO": [33018],
        "FNMJEGAOOBA": []
      },
      {
        "FLKNKLONLNO": [33170],
        "FNMJEGAOOBA": [33035, 33054, 33055, 33056]
      },
      {
        "FLKNKLONLNO": [33028],
        "FNMJEGAOOBA": []
      }
    ]
  },
  {
    "id": 1091,
    "MGAPGMFEDEO": 1,
    "CECKCOGFKKI": [
      {
        "FLKNKLONLNO": [33002, 33003],
        "FNMJEGAOOBA": [33001]
      },
      {
        "FLKNKLONLNO": [33005, 33169],
        "FNMJEGAOOBA": [33006]
      },
      {
        "FLKNKLONLNO": [33012],
        "FNMJEGAOOBA": []
      }
    ]
  }
]
