[
  {
    "id": 1101,
    "HEJIMHFFCMJ": "ART/UI/Atlas/GCG/CardIcon/UI_Gcg_DiceS_Frost",
    "KGBBBLHFPMF": 1.2000000476837158,
    "JHBJFMGINCL": 1659555184
  },
  {
    "id": 1102,
    "HEJIMHFFCMJ": "ART/UI/Atlas/GCG/CardIcon/UI_Gcg_DiceS_Water",
    "KGBBBLHFPMF": 1.2000000476837158,
    "JHBJFMGINCL": 3390662848
  },
  {
    "id": 1103,
    "HEJIMHFFCMJ": "ART/UI/Atlas/GCG/CardIcon/UI_Gcg_DiceS_Fire",
    "KGBBBLHFPMF": 1.2000000476837158,
    "JHBJFMGINCL": 3735709064
  },
  {
    "id": 1104,
    "HEJIMHFFCMJ": "ART/UI/Atlas/GCG/CardIcon/UI_Gcg_DiceS_Elect",
    "KGBBBLHFPMF": 1.2000000476837158,
    "JHBJFMGINCL": 2732920576
  },
  {
    "id": 1105,
    "HEJIMHFFCMJ": "ART/UI/Atlas/GCG/CardIcon/UI_Gcg_DiceS_Wind",
    "KGBBBLHFPMF": 1.2000000476837158,
    "JHBJFMGINCL": 2461188736
  },
  {
    "id": 1106,
    "HEJIMHFFCMJ": "ART/UI/Atlas/GCG/CardIcon/UI_Gcg_DiceS_Roach",
    "KGBBBLHFPMF": 1.2000000476837158,
    "JHBJFMGINCL": 2692580400
  },
  {
    "id": 1107,
    "HEJIMHFFCMJ": "ART/UI/Atlas/GCG/CardIcon/UI_Gcg_DiceS_Grass",
    "KGBBBLHFPMF": 1.2000000476837158,
    "JHBJFMGINCL": 3596267960
  },
  {
    "id": 1108,
    "HEJIMHFFCMJ": "ART/UI/Atlas/GCG/CardIcon/UI_Gcg_DiceS_Same",
    "KGBBBLHFPMF": 1.2000000476837158,
    "JHBJFMGINCL": 1666406200
  },
  {
    "id": 1109,
    "HEJIMHFFCMJ": "ART/UI/Atlas/GCG/CardIcon/UI_Gcg_DiceS_Diff",
    "KGBBBLHFPMF": 1.2000000476837158,
    "JHBJFMGINCL": 2941585304
  },
  {
    "id": 1110,
    "HEJIMHFFCMJ": "ART/UI/Atlas/GCG/CardIcon/UI_Gcg_DiceS_Energy",
    "KGBBBLHFPMF": 1.2000000476837158,
    "JHBJFMGINCL": 1185790448
  },
  {
    "id": 1111,
    "HEJIMHFFCMJ": "ART/UI/Atlas/GCG/CardIcon/UI_Gcg_DiceS_Any",
    "KGBBBLHFPMF": 1.2000000476837158,
    "JHBJFMGINCL": 157787480
  },
  {
    "id": 2100,
    "HEJIMHFFCMJ": "ART/UI/Atlas/GCG/BuffIcon/UI_Gcg_Buff_Common_Element_Physics",
    "KGBBBLHFPMF": 1.2000000476837158,
    "JHBJFMGINCL": 2185633152
  },
  {
    "id": 2101,
    "HEJIMHFFCMJ": "ART/UI/Atlas/GCG/BuffIcon/UI_Gcg_Buff_Common_Element_Ice",
    "KGBBBLHFPMF": 1.2000000476837158,
    "JHBJFMGINCL": 3837620192
  },
  {
    "id": 2102,
    "HEJIMHFFCMJ": "ART/UI/Atlas/GCG/BuffIcon/UI_Gcg_Buff_Common_Element_Water",
    "KGBBBLHFPMF": 1.2000000476837158,
    "JHBJFMGINCL": 4024267616
  },
  {
    "id": 2103,
    "HEJIMHFFCMJ": "ART/UI/Atlas/GCG/BuffIcon/UI_Gcg_Buff_Common_Element_Fire",
    "KGBBBLHFPMF": 1.2000000476837158,
    "JHBJFMGINCL": 2442492600
  },
  {
    "id": 2104,
    "HEJIMHFFCMJ": "ART/UI/Atlas/GCG/BuffIcon/UI_Gcg_Buff_Common_Element_Electric",
    "KGBBBLHFPMF": 1.2000000476837158,
    "JHBJFMGINCL": 1013022264
  },
  {
    "id": 2105,
    "HEJIMHFFCMJ": "ART/UI/Atlas/GCG/BuffIcon/UI_Gcg_Buff_Common_Element_Wind",
    "KGBBBLHFPMF": 1.2000000476837158,
    "JHBJFMGINCL": 1628780664
  },
  {
    "id": 2106,
    "HEJIMHFFCMJ": "ART/UI/Atlas/GCG/BuffIcon/UI_Gcg_Buff_Common_Element_Rock",
    "KGBBBLHFPMF": 1.2000000476837158,
    "JHBJFMGINCL": 983343304
  },
  {
    "id": 2107,
    "HEJIMHFFCMJ": "ART/UI/Atlas/GCG/BuffIcon/UI_Gcg_Buff_Common_Element_Grass",
    "KGBBBLHFPMF": 1.2000000476837158,
    "JHBJFMGINCL": 3103775776
  },
  {
    "id": 3002,
    "HEJIMHFFCMJ": "ART/UI/Atlas/GCG/TagIcon/UI_Gcg_Tag_Card_Talent",
    "KGBBBLHFPMF": 1.2000000476837158,
    "JHBJFMGINCL": 3912781728
  },
  {
    "id": 3005,
    "HEJIMHFFCMJ": "ART/UI/Atlas/GCG/TagIcon/UI_Gcg_Tag_Card_Talent",
    "KGBBBLHFPMF": 1.2000000476837158,
    "JHBJFMGINCL": 3981059576
  },
  {
    "id": 3003,
    "HEJIMHFFCMJ": "ART/UI/Atlas/GCG/TagIcon/UI_Gcg_Tag_Card_Weapon",
    "KGBBBLHFPMF": 1.2000000476837158,
    "JHBJFMGINCL": 1764602328
  },
  {
    "id": 3004,
    "HEJIMHFFCMJ": "ART/UI/Atlas/GCG/TagIcon/UI_Gcg_Tag_Card_Relic",
    "KGBBBLHFPMF": 1.2000000476837158,
    "JHBJFMGINCL": 4114153560
  },
  {
    "id": 3006,
    "HEJIMHFFCMJ": "ART/UI/Atlas/GCG/TagIcon/UI_Gcg_Tag_Card_Talent",
    "KGBBBLHFPMF": 1.2000000476837158,
    "JHBJFMGINCL": 168463584
  },
  {
    "id": 3104,
    "HEJIMHFFCMJ": "ART/UI/Atlas/GCG/TagIcon/UI_Gcg_Tag_Card_Location",
    "KGBBBLHFPMF": 1.2000000476837158,
    "JHBJFMGINCL": 1685345824
  },
  {
    "id": 3103,
    "HEJIMHFFCMJ": "ART/UI/Atlas/GCG/TagIcon/UI_Gcg_Tag_Card_Ally",
    "KGBBBLHFPMF": 1.2000000476837158,
    "JHBJFMGINCL": 3530768240
  },
  {
    "id": 3102,
    "HEJIMHFFCMJ": "ART/UI/Atlas/GCG/TagIcon/UI_Gcg_Tag_Card_Item",
    "KGBBBLHFPMF": 1.2000000476837158,
    "JHBJFMGINCL": 1035287848
  },
  {
    "id": 3105,
    "HEJIMHFFCMJ": "ART/UI/Atlas/GCG/TagIcon/UI_Gcg_Tag_Card_Ally",
    "KGBBBLHFPMF": 1.2000000476837158,
    "JHBJFMGINCL": 364805272
  },
  {
    "id": 3101,
    "HEJIMHFFCMJ": "ART/UI/Atlas/GCG/TagIcon/UI_Gcg_Tag_Card_Food",
    "KGBBBLHFPMF": 1.2000000476837158,
    "JHBJFMGINCL": 208174184
  },
  {
    "id": 3201,
    "HEJIMHFFCMJ": "ART/UI/Atlas/GCG/TagIcon/UI_Gcg_Tag_Weapon_Catalyst",
    "KGBBBLHFPMF": 1.2000000476837158,
    "JHBJFMGINCL": 1434541664
  },
  {
    "id": 3202,
    "HEJIMHFFCMJ": "ART/UI/Atlas/GCG/TagIcon/UI_Gcg_Tag_Weapon_Bow",
    "KGBBBLHFPMF": 1.2000000476837158,
    "JHBJFMGINCL": 4099325376
  },
  {
    "id": 3203,
    "HEJIMHFFCMJ": "ART/UI/Atlas/GCG/TagIcon/UI_Gcg_Tag_Weapon_Claymore",
    "KGBBBLHFPMF": 1.2000000476837158,
    "JHBJFMGINCL": 3013292200
  },
  {
    "id": 3204,
    "HEJIMHFFCMJ": "ART/UI/Atlas/GCG/TagIcon/UI_Gcg_Tag_Weapon_Polearm",
    "KGBBBLHFPMF": 1.2000000476837158,
    "JHBJFMGINCL": 248663744
  },
  {
    "id": 3205,
    "HEJIMHFFCMJ": "ART/UI/Atlas/GCG/TagIcon/UI_Gcg_Tag_Weapon_Sword",
    "KGBBBLHFPMF": 1.2000000476837158,
    "JHBJFMGINCL": 1228327888
  },
  {
    "id": 3401,
    "HEJIMHFFCMJ": "ART/UI/Atlas/GCG/TagIcon/UI_Gcg_Tag_Faction_Mondstadt",
    "KGBBBLHFPMF": 1.2000000476837158,
    "JHBJFMGINCL": 3262226488
  },
  {
    "id": 3402,
    "HEJIMHFFCMJ": "ART/UI/Atlas/GCG/TagIcon/UI_Gcg_Tag_Faction_Liyue",
    "KGBBBLHFPMF": 1.2000000476837158,
    "JHBJFMGINCL": 4219459152
  },
  {
    "id": 3403,
    "HEJIMHFFCMJ": "ART/UI/Atlas/GCG/TagIcon/UI_Gcg_Tag_Faction_Inazuma",
    "KGBBBLHFPMF": 1.2000000476837158,
    "JHBJFMGINCL": 1510033000
  },
  {
    "id": 3404,
    "HEJIMHFFCMJ": "ART/UI/Atlas/GCG/TagIcon/UI_Gcg_Tag_Faction_Sumeru",
    "KGBBBLHFPMF": 1.2000000476837158,
    "JHBJFMGINCL": 3181999496
  },
  {
    "id": 3501,
    "HEJIMHFFCMJ": "ART/UI/Atlas/GCG/TagIcon/UI_Gcg_Tag_Faction_Fatui",
    "KGBBBLHFPMF": 1.2000000476837158,
    "JHBJFMGINCL": 1286468776
  },
  {
    "id": 3503,
    "HEJIMHFFCMJ": "ART/UI/Atlas/GCG/TagIcon/UI_Gcg_Tag_Faction_Monster",
    "KGBBBLHFPMF": 1.2000000476837158,
    "JHBJFMGINCL": 269289384
  },
  {
    "id": 4001,
    "HEJIMHFFCMJ": "ART/UI/Atlas/GCG/BuffIcon/UI_Gcg_Buff_Common_Atk_Self",
    "KGBBBLHFPMF": 1.2000000476837158,
    "JHBJFMGINCL": 62859040
  },
  {
    "id": 4002,
    "HEJIMHFFCMJ": "ART/UI/Atlas/GCG/BuffIcon/UI_Gcg_Buff_Common_Atk_Up",
    "KGBBBLHFPMF": 1.2000000476837158,
    "JHBJFMGINCL": 4257737792
  },
  {
    "id": 4003,
    "HEJIMHFFCMJ": "ART/UI/Atlas/GCG/BuffIcon/UI_Gcg_Buff_Common_Barrier",
    "KGBBBLHFPMF": 1.2000000476837158,
    "JHBJFMGINCL": 1136209264
  },
  {
    "id": 4004,
    "HEJIMHFFCMJ": "ART/UI/Atlas/GCG/BuffIcon/UI_Gcg_Buff_Common_Food",
    "KGBBBLHFPMF": 1.2000000476837158,
    "JHBJFMGINCL": 1114013656
  },
  {
    "id": 4005,
    "HEJIMHFFCMJ": "ART/UI/Atlas/GCG/BuffIcon/UI_Gcg_Buff_Common_Frozen",
    "KGBBBLHFPMF": 1.2000000476837158,
    "JHBJFMGINCL": 210548912
  },
  {
    "id": 4006,
    "HEJIMHFFCMJ": "ART/UI/Atlas/GCG/BuffIcon/UI_Gcg_Buff_Common_Heal",
    "KGBBBLHFPMF": 1.2000000476837158,
    "JHBJFMGINCL": 1162604632
  },
  {
    "id": 4007,
    "HEJIMHFFCMJ": "ART/UI/Atlas/GCG/BuffIcon/UI_Gcg_Buff_Common_Shield",
    "KGBBBLHFPMF": 1.2000000476837158,
    "JHBJFMGINCL": 1652812448
  },
  {
    "id": 4008,
    "HEJIMHFFCMJ": "ART/UI/Atlas/GCG/BuffIcon/UI_Gcg_Buff_Common_Special",
    "KGBBBLHFPMF": 1.2000000476837158,
    "JHBJFMGINCL": 379057224
  },
  {
    "id": 4101,
    "HEJIMHFFCMJ": "ART/UI/Atlas/GCG/BuffIcon/UI_Gcg_Buff_Kaeya_E",
    "KGBBBLHFPMF": 1.2000000476837158,
    "JHBJFMGINCL": 2545012656
  },
  {
    "id": 4102,
    "HEJIMHFFCMJ": "ART/UI/Atlas/GCG/BuffIcon/UI_Gcg_Buff_Mona_E",
    "KGBBBLHFPMF": 1.2000000476837158,
    "JHBJFMGINCL": 2074227464
  },
  {
    "id": 4103,
    "HEJIMHFFCMJ": "ART/UI/Atlas/GCG/BuffIcon/UI_Gcg_Buff_Noel_E",
    "KGBBBLHFPMF": 1.2000000476837158,
    "JHBJFMGINCL": 497250328
  },
  {
    "id": 4104,
    "HEJIMHFFCMJ": "ART/UI/Atlas/GCG/BuffIcon/UI_Gcg_Buff_Razor_E",
    "KGBBBLHFPMF": 1.2000000476837158,
    "JHBJFMGINCL": 3379482336
  },
  {
    "id": 4105,
    "HEJIMHFFCMJ": "ART/UI/Atlas/GCG/BuffIcon/UI_Gcg_Buff_Xiangling_E",
    "KGBBBLHFPMF": 1.2000000476837158,
    "JHBJFMGINCL": 2145544400
  },
  {
    "id": 4106,
    "HEJIMHFFCMJ": "ART/UI/Atlas/GCG/BuffIcon/UI_Gcg_Buff_Yoimiya_E",
    "KGBBBLHFPMF": 1.2000000476837158,
    "JHBJFMGINCL": 4180350288
  }
]
