[
  {
    "Default": {
      "$type": "ConfigAbility",
      "abilityName": "Slime_Water_02_ElementState",
      "modifiers": {
        "ElementState": {
          "modifierName": "",
          "elementType": "Water",
          "bonusCriticalHurt": 25.0,
          "isElementDurabilityMutable": false,
          "onBeingHit": [
            {
              "$type": "Predicated",
              "targetPredicates": [
                {
                  "$type": "KPIBLFBHELB",
                  "abilityState": "ElementFreeze"
                }
              ],
              "failActions": [
                {
                  "$type": "ApplyModifier",
                  "otherTargets": {
                    "$type": "SelectTargetsByShape",
                    "shapeName": "CircleR1H2",
                    "campTargetType": "AllExceptSelf",
                    "OBHNBNDMPFN": 1.0
                  },
                  "predicates": [
                    {
                      "$type": "ByEntityTypes",
                      "entityTypes": ["Equip"],
                      "reject": true
                    }
                  ],
                  "modifierName": "Slime_Water_02_WetModifier_BeHit"
                },
                {
                  "$type": "FireEffect",
                  "healLimitedByCasterMaxHPRatio": "Eff_Monster_Slime_Water_Pressed",
                  "born": {
                    "$type": "FLIPADNBJJF",
                    "direction": {
                      "$type": "NFGKOJBHMLL"
                    },
                    "BJCIHELGKLP": true
                  },
                  "effectTempleteID": -1.0
                }
              ]
            }
          ]
        },
        "Slime_Water_02_WetModifier_BeHit": {
          "modifierName": "",
          "duration": 10.0,
          "elementType": "Water",
          "bonusCriticalHurt": 25.0
        }
      },
      "onAdded": [
        {
          "$type": "ApplyModifier",
          "modifierName": "ElementState"
        }
      ]
    }
  },
  {
    "Default": {
      "$type": "ConfigAbility",
      "abilityName": "Slime_Water_03_ElementState",
      "modifiers": {
        "ElementState": {
          "modifierName": "",
          "elementType": "Water",
          "bonusCriticalHurt": 50.0,
          "isElementDurabilityMutable": false,
          "onBeingHit": [
            {
              "$type": "Predicated",
              "targetPredicates": [
                {
                  "$type": "KPIBLFBHELB",
                  "abilityState": "ElementFreeze"
                }
              ],
              "failActions": [
                {
                  "$type": "ApplyModifier",
                  "otherTargets": {
                    "$type": "SelectTargetsByShape",
                    "shapeName": "CircleR2H4",
                    "campTargetType": "AllExceptSelf",
                    "OBHNBNDMPFN": 1.0
                  },
                  "predicates": [
                    {
                      "$type": "ByEntityTypes",
                      "entityTypes": ["Equip"],
                      "reject": true
                    }
                  ],
                  "modifierName": "Slime_Water_03_WetModifier_BeHit"
                },
                {
                  "$type": "FireEffect",
                  "healLimitedByCasterMaxHPRatio": "Eff_Monster_Slime_Water_Pressed",
                  "born": {
                    "$type": "FLIPADNBJJF",
                    "direction": {
                      "$type": "NFGKOJBHMLL"
                    },
                    "BJCIHELGKLP": true
                  },
                  "effectTempleteID": -1.0
                }
              ]
            }
          ]
        },
        "Slime_Water_03_WetModifier_BeHit": {
          "modifierName": "",
          "duration": 10.0,
          "elementType": "Water",
          "bonusCriticalHurt": 50.0
        }
      },
      "onAdded": [
        {
          "$type": "ApplyModifier",
          "modifierName": "ElementState"
        }
      ]
    }
  },
  {
    "Default": {
      "$type": "ConfigAbility",
      "abilityName": "Slime_Water_02_Wet",
      "modifiers": {
        "Slime_Water_02_WetModifier": {
          "modifierName": "",
          "duration": 10.0,
          "elementType": "Water",
          "bonusCriticalHurt": 25.0
        }
      },
      "onAbilityStart": [
        {
          "$type": "ApplyModifier",
          "otherTargets": {
            "$type": "SelectTargetsByShape",
            "shapeName": "CircleR1H2",
            "campTargetType": "AllExceptSelf",
            "OBHNBNDMPFN": 1.0
          },
          "predicates": [
            {
              "$type": "ByEntityTypes",
              "entityTypes": ["Equip"],
              "reject": true
            }
          ],
          "modifierName": "Slime_Water_02_WetModifier"
        },
        {
          "$type": "FireEffect",
          "healLimitedByCasterMaxHPRatio": "Eff_Monster_Slime_Water_Pressed_Ground",
          "effectTempleteID": -1.0
        }
      ]
    }
  },
  {
    "Default": {
      "$type": "ConfigAbility",
      "abilityName": "Slime_Water_03_Wet",
      "modifiers": {
        "Slime_Water_03_WetModifier": {
          "modifierName": "",
          "duration": 10.0,
          "elementType": "Water",
          "bonusCriticalHurt": 50.0
        }
      },
      "onAbilityStart": [
        {
          "$type": "ApplyModifier",
          "otherTargets": {
            "$type": "SelectTargetsByShape",
            "shapeName": "CircleR2H4",
            "campTargetType": "AllExceptSelf",
            "OBHNBNDMPFN": 1.0
          },
          "predicates": [
            {
              "$type": "ByEntityTypes",
              "entityTypes": ["Equip"],
              "reject": true
            }
          ],
          "modifierName": "Slime_Water_03_WetModifier"
        },
        {
          "$type": "FireEffect",
          "healLimitedByCasterMaxHPRatio": "Eff_Monster_Slime_Water_Pressed_Ground",
          "effectTempleteID": -1.0
        }
      ]
    }
  },
  {
    "Default": {
      "$type": "ConfigAbility",
      "abilityName": "Slime_Water_02_Dead",
      "modifiers": {
        "Slime_Water_02_Dead_WetModifier": {
          "modifierName": "",
          "duration": 15.0,
          "elementType": "Water",
          "bonusCriticalHurt": 50.0
        }
      },
      "onAbilityStart": [
        {
          "$type": "ApplyModifier",
          "otherTargets": {
            "$type": "SelectTargetsByShape",
            "shapeName": "CircleR1H2",
            "campTargetType": "AllExceptSelf",
            "OBHNBNDMPFN": 1.0
          },
          "predicates": [
            {
              "$type": "ByEntityTypes",
              "entityTypes": ["Equip"],
              "reject": true
            }
          ],
          "modifierName": "Slime_Water_02_Dead_WetModifier"
        },
        {
          "$type": "FireEffect",
          "healLimitedByCasterMaxHPRatio": "Eff_Monster_Slime_Water_Die",
          "effectTempleteID": -1.0
        }
      ]
    }
  },
  {
    "Default": {
      "$type": "ConfigAbility",
      "abilityName": "Slime_Water_03_Dead",
      "modifiers": {
        "Slime_Water_03_Dead_WetModifier": {
          "modifierName": "",
          "duration": 15.0,
          "elementType": "Water",
          "bonusCriticalHurt": 100.0
        }
      },
      "onAbilityStart": [
        {
          "$type": "ApplyModifier",
          "otherTargets": {
            "$type": "SelectTargetsByShape",
            "shapeName": "CircleR2H4",
            "campTargetType": "AllExceptSelf",
            "OBHNBNDMPFN": 1.0
          },
          "predicates": [
            {
              "$type": "ByEntityTypes",
              "entityTypes": ["Equip"],
              "reject": true
            }
          ],
          "modifierName": "Slime_Water_03_Dead_WetModifier"
        },
        {
          "$type": "FireEffect",
          "healLimitedByCasterMaxHPRatio": "Eff_Monster_Slime_Water_Die",
          "effectTempleteID": -1.0
        }
      ]
    }
  },
  {
    "Default": {
      "$type": "ConfigAbility",
      "abilityName": "Slime_Water_02_NormalAtk",
      "modifiers": {
        "NormalAttack": {
          "modifierName": "",
          "bonusCriticalHurt": 100.0,
          "onAttackLanded": [
            {
              "$type": "FireEffect",
              "predicates": [
                {
                  "$type": "LCCMCDGDKGI",
                  "attackTags": ["Slime_Water_02_NormalAtk"]
                }
              ],
              "healLimitedByCasterMaxHPRatio": "Eff_Monster_Slime_Water_Pressed",
              "born": {
                "$type": "ConfigBornBySelf",
                "offset": {
                  "x": 0.0,
                  "y": 1.2000000476837158,
                  "z": 0.6000000238418579
                },
                "direction": {
                  "$type": "IHINHODOMIN"
                },
                "BJCIHELGKLP": true
              },
              "effectTempleteID": -1.0
            }
          ]
        }
      },
      "onAbilityStart": [
        {
          "$type": "TriggerAttackEvent",
          "attackEvent": {
            "attackPattern": {
              "$type": "ConfigAttackCircle",
              "triggerType": "TriggerNoRepeat",
              "born": {
                "$type": "ConfigBornBySelf",
                "offset": {
                  "x": 0.0,
                  "y": 0.5,
                  "z": 0.5
                }
              },
              "BAPAHIOBNCL": 150.0,
              "radius": 0.75
            },
            "attackInfo": {
              "attackTag": "Slime_Water_02_NormalAtk",
              "attenuationTag": "",
              "attenuationGroup": "default",
              "attackProperty": {
                "damagePercentage": 1.0,
                "damagePercentageRatio": 0.0,
                "elementType": "Water",
                "bonusCriticalHurt": 25.0,
                "strikeType": "Blunt",
                "enBreak": 60.0,
                "attackType": "Melee"
              },
              "hitPattern": {
                "onHitEffectName": "default",
                "hitImpulseType": "LV2"
              }
            }
          },
          "targetType": "Enemy"
        },
        {
          "$type": "ApplyModifier",
          "predicates": [
            {
              "$type": "KDJFMOGPKCP",
              "CIMNBKFMPGD": "Water"
            }
          ],
          "modifierName": "NormalAttack"
        }
      ]
    }
  },
  {
    "Default": {
      "$type": "ConfigAbility",
      "abilityName": "Slime_Water_03_NormalAtk",
      "onAbilityStart": [
        {
          "$type": "TriggerAttackEvent",
          "attackEvent": {
            "attackPattern": {
              "$type": "ConfigAttackCircle",
              "triggerType": "TriggerNoRepeat",
              "born": {
                "$type": "ConfigBornBySelf",
                "offset": {
                  "x": 0.0,
                  "y": 0.0,
                  "z": 0.5
                }
              },
              "BAPAHIOBNCL": 150.0,
              "radius": 1.5
            },
            "attackInfo": {
              "attackTag": "Slime_Water_03_NormalAtk",
              "attenuationTag": "",
              "attenuationGroup": "default",
              "attackProperty": {
                "damagePercentage": 0.5,
                "damagePercentageRatio": 0.0,
                "elementType": "Water",
                "bonusCriticalHurt": 50.0,
                "strikeType": "Blunt",
                "enBreak": 80.0,
                "attackType": "Melee"
              },
              "hitPattern": {
                "onHitEffectName": "default",
                "hitImpulseType": "LV4",
                "hitHaltTimeScale": 0.009999999776482582
              }
            }
          },
          "targetType": "Enemy"
        }
      ]
    }
  },
  {
    "Default": {
      "$type": "ConfigAbility",
      "abilityName": "Slime_Water_JumpGround_castShadow",
      "modifiers": {
        "Slime_Water_JumpAtk_WetModifier": {
          "modifierName": "",
          "duration": 15.0,
          "elementType": "Water",
          "bonusCriticalHurt": 50.0
        }
      },
      "onAbilityStart": [
        {
          "$type": "ApplyModifier",
          "otherTargets": {
            "$type": "SelectTargetsByShape",
            "shapeName": "CircleR1H2",
            "campTargetType": "AllExceptSelf",
            "OBHNBNDMPFN": 1.0
          },
          "predicates": [
            {
              "$type": "ByEntityTypes",
              "entityTypes": ["Equip"],
              "reject": true
            }
          ],
          "modifierName": "Slime_Water_JumpAtk_WetModifier"
        },
        {
          "$type": "ActCameraShake",
          "cameraShake": {
            "shakeType": "CustomVector",
            "shakeRange": 0.05999999865889549,
            "shakeTime": 0.15000000596046448,
            "shakeDir": {
              "y": 1.0
            }
          }
        }
      ]
    }
  },
  {
    "Default": {
      "$type": "ConfigAbility",
      "abilityName": "Slime_Water_JumpGround_Alert",
      "abilityMixins": [
        {
          "$type": "AttachToNormalizedTimeMixin",
          "stateID": "JumpAttack",
          "modifierName": "JumpCollider",
          "normalizeStart": 0.3449999988079071,
          "normalizeEnd": 0.7400000095367432
        }
      ],
      "modifiers": {
        "JumpGround_Alert": {
          "modifierName": "",
          "duration": 1.0,
          "bonusCriticalHurt": 100.0,
          "onAdded": [
            {
              "$type": "FireEffect",
              "healLimitedByCasterMaxHPRatio": "Eff_Monster_Slime_Fire_JumpGround_Alert",
              "born": {
                "$type": "FLLCINGJBPD"
              },
              "effectTempleteID": -1.0
            }
          ]
        },
        "JumpCollider": {
          "modifierName": "",
          "bonusCriticalHurt": 100.0,
          "modifierMixins": [
            {
              "$type": "AttachActionToModifierMixin",
              "onAdded": [
                {
                  "$type": "TriggerSetCastShadow"
                },
                {
                  "$type": "EnablePushColliderName",
                  "pushColliderNames": ["PushCollider"]
                }
              ],
              "onRemoved": [
                {
                  "$type": "TriggerSetCastShadow",
                  "castShadow": true
                },
                {
                  "$type": "EnablePushColliderName",
                  "pushColliderNames": ["PushCollider"],
                  "setEnable": true
                }
              ]
            }
          ]
        }
      },
      "onAbilityStart": [
        {
          "$type": "ApplyModifier",
          "modifierName": "JumpGround_Alert"
        }
      ]
    }
  },
  {
    "Default": {
      "$type": "ConfigAbility",
      "abilityName": "Slime_Water_JumpGround_Attack",
      "modifiers": {
        "Slime_Water_JumpAtk_WetModifier": {
          "modifierName": "",
          "duration": 15.0,
          "elementType": "Water",
          "bonusCriticalHurt": 50.0
        },
        "UNIQUE_MonsterEliteAffix_DefaultState": {
          "modifierName": "",
          "isUnique": true,
          "bonusCriticalHurt": 100.0,
          "onAdded": [
            {
              "$type": "UseSkillEliteSet",
              "skillEliteSetID": 1
            }
          ]
        }
      },
      "onAdded": [
        {
          "$type": "ApplyModifier",
          "predicates": [
            {
              "$type": "ByTargetGlobalValue",
              "key": "_ELITEAFFIX_TAG",
              "ratio": 0.0,
              "compareType": "NoneOrEqual"
            }
          ],
          "modifierName": "UNIQUE_MonsterEliteAffix_DefaultState"
        }
      ],
      "onAbilityStart": [
        {
          "$type": "ApplyModifier",
          "otherTargets": {
            "$type": "SelectTargetsByShape",
            "shapeName": "CircleR2H4",
            "campTargetType": "AllExceptSelf",
            "OBHNBNDMPFN": 1.0
          },
          "predicates": [
            {
              "$type": "ByEntityTypes",
              "entityTypes": ["Equip"],
              "reject": true
            }
          ],
          "modifierName": "Slime_Water_JumpAtk_WetModifier"
        },
        {
          "$type": "TriggerAttackEvent",
          "attackEvent": {
            "attackPattern": {
              "$type": "ConfigAttackCircle",
              "triggerType": "TriggerNoRepeat",
              "born": {
                "$type": "ConfigBornBySelf",
                "offset": {
                  "x": 0.0,
                  "y": 0.0,
                  "z": 0.0
                }
              },
              "height": 1.5,
              "radius": 2.0
            },
            "attackInfo": {
              "attackTag": "",
              "attenuationTag": "",
              "attenuationGroup": "default",
              "attackProperty": {
                "damagePercentage": 1.0,
                "damagePercentageRatio": 0.0,
                "elementType": "Water",
                "bonusCriticalHurt": 50.0,
                "strikeType": "Blunt",
                "enBreak": 200.0
              },
              "hitPattern": {
                "onHitEffectName": "default",
                "hitImpulseType": "LV5",
                "hitHaltTimeScale": 0.009999999776482582
              },
              "forceCameraShake": true,
              "cameraShake": {
                "shakeType": "CustomVector",
                "shakeRange": 0.11999999731779099,
                "shakeTime": 0.15000000596046448,
                "shakeDistance": 25.0,
                "shakeDir": {
                  "y": -1.0
                }
              }
            }
          },
          "targetType": "Enemy"
        }
      ]
    }
  },
  {
    "Default": {
      "$type": "ConfigAbility",
      "abilityName": "Slime_Water_Bubble",
      "onAbilityStart": [
        {
          "$type": "TriggerBullet",
          "predicates": [
            {
              "$type": "KDJFMOGPKCP",
              "CIMNBKFMPGD": "Water"
            }
          ],
          "bulletID": 42001003,
          "born": {
            "$type": "ConfigBornByAttachPoint",
            "offset": {
              "x": 0.0,
              "y": 1.5,
              "z": 0.0
            },
            "direction": {
              "$type": "HFKFLHCBMLB",
              "LLOEMEPIBII": "Horizontal",
              "maxAngle": 60.0
            },
            "attachPointName": "RootNode"
          }
        }
      ]
    }
  },
  {
    "Default": {
      "$type": "ConfigAbility",
      "abilityName": "Slime_Water_Bubble_Loop",
      "modifiers": {
        "UNIQUE_Bubble_Loop": {
          "modifierName": "",
          "isUnique": true,
          "elementType": "Water",
          "bonusCriticalHurt": 50.0,
          "onAdded": [
            {
              "$type": "AttachEffect",
              "healLimitedByCasterMaxHPRatio": "Eff_Monster_Slime_Water_Bubble_Missle",
              "effectTempleteID": -1.0
            }
          ],
          "onRemoved": [
            {
              "$type": "KillSelf"
            }
          ],
          "onBeingHit": [
            {
              "$type": "TriggerAbility",
              "predicates": [
                {
                  "$type": "BEHBKFCIGKL",
                  "FKPIPALEEEJ": 0.0
                }
              ],
              "abilityName": "Slime_Water_Bubble_Explode"
            }
          ]
        }
      },
      "onAdded": [
        {
          "$type": "AttachModifier",
          "modifierName": "UNIQUE_Bubble_Loop"
        },
        {
          "$type": "AddGlobalValue",
          "ratio": 1.0,
          "key": "_SLIME_WATER_BUBBLE",
          "useLimitRange": true,
          "maxValue": 1.0,
          "minValue": 0.0
        }
      ]
    }
  },
  {
    "Default": {
      "$type": "ConfigAbility",
      "abilityName": "Slime_Water_Bubble_Bounce_Loop",
      "modifiers": {
        "UNIQUE_Bubble_Bounce_Loop": {
          "modifierName": "",
          "isUnique": true,
          "elementType": "Water",
          "bonusCriticalHurt": 50.0,
          "onAdded": [
            {
              "$type": "AttachEffect",
              "healLimitedByCasterMaxHPRatio": "Eff_Monster_Slime_Water_Bubble_Missle",
              "effectTempleteID": -1.0
            }
          ],
          "onRemoved": [
            {
              "$type": "KillSelf"
            }
          ],
          "onBeingHit": [
            {
              "$type": "TriggerAbility",
              "predicates": [
                {
                  "$type": "BEHBKFCIGKL",
                  "FKPIPALEEEJ": 0.0
                }
              ],
              "abilityName": "Slime_Water_Bubble_Explode"
            }
          ]
        }
      },
      "onAdded": [
        {
          "$type": "AttachModifier",
          "modifierName": "UNIQUE_Bubble_Bounce_Loop"
        },
        {
          "$type": "AddGlobalValue",
          "ratio": 1.0,
          "key": "_SLIME_WATER_BUBBLE_BOUNCE",
          "useLimitRange": true,
          "maxValue": 1.0,
          "minValue": 0.0
        }
      ]
    }
  },
  {
    "Default": {
      "$type": "ConfigAbility",
      "abilityName": "Slime_Water_Bubble_Float_Loop",
      "modifiers": {
        "UNIQUE_Bubble_Float_Loop": {
          "modifierName": "",
          "isUnique": true,
          "elementType": "Water",
          "bonusCriticalHurt": 50.0,
          "onAdded": [
            {
              "$type": "AttachEffect",
              "healLimitedByCasterMaxHPRatio": "Eff_Monster_Slime_Water_Bubble_Missle",
              "effectTempleteID": -1.0
            }
          ],
          "onRemoved": [
            {
              "$type": "KillSelf"
            }
          ],
          "onBeingHit": [
            {
              "$type": "TriggerAbility",
              "predicates": [
                {
                  "$type": "BEHBKFCIGKL",
                  "FKPIPALEEEJ": 0.0
                }
              ],
              "abilityName": "Slime_Water_Bubble_Explode"
            }
          ]
        }
      },
      "onAdded": [
        {
          "$type": "AttachModifier",
          "modifierName": "UNIQUE_Bubble_Float_Loop"
        }
      ]
    }
  },
  {
    "Default": {
      "$type": "ConfigAbility",
      "abilityName": "Slime_Water_Bubble_Explode",
      "onAbilityStart": [
        {
          "$type": "RemoveUniqueModifier",
          "modifierName": "UNIQUE_Bubble_Loop"
        },
        {
          "$type": "RemoveUniqueModifier",
          "modifierName": "UNIQUE_Bubble_Bounce_Loop"
        },
        {
          "$type": "RemoveUniqueModifier",
          "modifierName": "UNIQUE_Bubble_Float_Loop"
        },
        {
          "$type": "FireEffect",
          "healLimitedByCasterMaxHPRatio": "Eff_Monster_Slime_Water_Bubble_Missle_AS",
          "born": {
            "$type": "ConfigBornByAttachPoint",
            "attachPointName": "RootNode"
          },
          "effectTempleteID": -1.0
        },
        {
          "$type": "Predicated",
          "targetPredicates": [
            {
              "$type": "ByTargetGlobalValue",
              "key": "_BUBBLE_EXPLODE_BEINGHIT_",
              "ratio": 0.0,
              "compareType": "NoneOrEqual"
            }
          ],
          "successActions": [
            {
              "$type": "SetGlobalValue",
              "ratio": 1.0,
              "key": "_BUBBLE_EXPLODE_BEINGHIT_",
              "maxValue": 0.0,
              "minValue": 0.0
            },
            {
              "$type": "TriggerAttackEvent",
              "attackEvent": {
                "attackPattern": {
                  "$type": "ConfigAttackSphere",
                  "triggerType": "TriggerNoRepeat",
                  "born": {
                    "$type": "ConfigBornBySelf",
                    "offset": {
                      "x": 0.0,
                      "y": 0.0,
                      "z": 0.0
                    }
                  },
                  "radius": 1.5
                },
                "attackInfo": {
                  "attackTag": "",
                  "attenuationTag": "",
                  "attenuationGroup": "default",
                  "attackProperty": {
                    "damagePercentage": 0.5,
                    "damagePercentageRatio": 0.0,
                    "elementType": "Water",
                    "bonusCriticalHurt": 50.0,
                    "strikeType": "Default",
                    "enBreak": 100.0
                  },
                  "hitPattern": {
                    "onHitEffectName": "default",
                    "hitImpulseType": "LV2",
                    "hitHaltTimeScale": 0.05000000074505806
                  },
                  "canBeModifiedBy": "OriginOwner"
                }
              },
              "targetType": "Enemy"
            }
          ]
        }
      ]
    }
  },
  {
    "Default": {
      "$type": "ConfigAbility",
      "abilityName": "Slime_Water_Bubble_Surround",
      "modifiers": {
        "Bubble_Surround_Reject": {
          "modifierName": "",
          "duration": 0.10000000149011612,
          "bonusCriticalHurt": 100.0,
          "onAdded": [
            {
              "$type": "ApplyModifier",
              "target": "Owner",
              "modifierName": "Bubble_Surround"
            }
          ]
        },
        "Bubble_AntiGravity": {
          "modifierName": "",
          "duration": 0.30000001192092896,
          "bonusCriticalHurt": 100.0,
          "properties": {
            "Actor_AddGravityScale": -7.5
          }
        },
        "Bubble_Surround": {
          "modifierName": "",
          "duration": 5.0,
          "elementType": "Water",
          "bonusCriticalHurt": 50.0,
          "properties": {
            "Actor_AddGravityScale": -2.0
          },
          "state": "Struggle",
          "onAdded": [
            {
              "$type": "AttachModifier",
              "modifierName": "Bubble_AntiGravity"
            },
            {
              "$type": "AttachEffect",
              "RotationDampTime": true,
              "healLimitedByCasterMaxHPRatio": "Eff_Monster_Slime_Water_Bubble",
              "effectTempleteID": -1.0
            }
          ],
          "onRemoved": [
            {
              "$type": "FireEffect",
              "healLimitedByCasterMaxHPRatio": "Eff_Monster_Slime_Water_Bubble_AS",
              "born": {
                "$type": "ConfigBornByAttachPoint",
                "attachPointName": "RootNode"
              },
              "effectTempleteID": -1.0
            }
          ],
          "onBeingHit": [
            {
              "$type": "Predicated",
              "target": "Target",
              "targetPredicates": [
                {
                  "$type": "ICGNMJEAEBI",
                  "isTarget": false
                },
                {
                  "$type": "BEHBKFCIGKL",
                  "FKPIPALEEEJ": 0.0
                }
              ],
              "successActions": [
                {
                  "$type": "RemoveModifier",
                  "modifierName": "Bubble_Surround"
                }
              ]
            }
          ],
          "onKill": [
            {
              "$type": "RemoveModifier",
              "modifierName": "Bubble_Surround"
            }
          ]
        }
      },
      "onAbilityStart": [
        {
          "$type": "Predicated",
          "target": "Target",
          "targetPredicates": [
            {
              "$type": "ByAny",
              "predicates": [
                {
                  "$type": "ByEntityTypes",
                  "entityTypes": ["Gadget"]
                },
                {
                  "$type": "LGFONFHBFLP",
                  "LPPBALFPCII": 100.0
                }
              ]
            }
          ],
          "successActions": [
            {
              "$type": "TriggerAbility",
              "abilityName": "Slime_Water_Bubble_Explode"
            }
          ],
          "failActions": [
            {
              "$type": "TriggerAbility",
              "abilityName": "Slime_Water_Bubble_Explode"
            },
            {
              "$type": "ApplyModifier",
              "target": "Target",
              "predicates": [
                {
                  "$type": "ByEntityTypes",
                  "entityTypes": ["Equip", "MonsterEquip"]
                }
              ],
              "modifierName": "Bubble_Surround_Reject"
            },
            {
              "$type": "ApplyModifier",
              "target": "Target",
              "predicates": [
                {
                  "$type": "ByEntityTypes",
                  "entityTypes": ["Avatar", "Monster", "Partner"]
                }
              ],
              "modifierName": "Bubble_Surround"
            },
            {
              "$type": "Predicated",
              "target": "Target",
              "targetPredicates": [
                {
                  "$type": "ByEntityTypes",
                  "entityTypes": ["Level"]
                }
              ],
              "successActions": [
                {
                  "$type": "TriggerBullet",
                  "predicates": [
                    {
                      "$type": "ByTargetGlobalValue",
                      "key": "_SLIME_WATER_BUBBLE",
                      "ratio": 1.0
                    }
                  ],
                  "bulletID": 42001021,
                  "born": {
                    "$type": "ConfigBornByCollisionPoint",
                    "offset": {
                      "x": 0.0,
                      "y": 0.4000000059604645,
                      "z": -0.800000011920929
                    },
                    "BJCIHELGKLP": true
                  }
                },
                {
                  "$type": "FireEffect",
                  "predicates": [
                    {
                      "$type": "ByTargetGlobalValue",
                      "key": "_SLIME_WATER_BUBBLE",
                      "ratio": 1.0
                    }
                  ],
                  "healLimitedByCasterMaxHPRatio": "Eff_Monster_Slime_Water_Bubble_Location_01",
                  "born": {
                    "$type": "ConfigBornByCollisionPoint",
                    "DAPKLNIFPID": true,
                    "BJCIHELGKLP": true
                  },
                  "effectTempleteID": -1.0
                },
                {
                  "$type": "TriggerBullet",
                  "predicates": [
                    {
                      "$type": "ByTargetGlobalValue",
                      "key": "_SLIME_WATER_BUBBLE_BOUNCE",
                      "ratio": 1.0
                    }
                  ],
                  "bulletID": 42001022,
                  "born": {
                    "$type": "ConfigBornByCollisionPoint",
                    "offset": {
                      "x": 0.0,
                      "y": 0.550000011920929,
                      "z": -0.4000000059604645
                    },
                    "BJCIHELGKLP": true
                  }
                },
                {
                  "$type": "FireEffect",
                  "predicates": [
                    {
                      "$type": "ByTargetGlobalValue",
                      "key": "_SLIME_WATER_BUBBLE_BOUNCE",
                      "ratio": 1.0
                    }
                  ],
                  "healLimitedByCasterMaxHPRatio": "Eff_Monster_Slime_Water_Bubble_Location_02",
                  "born": {
                    "$type": "ConfigBornByCollisionPoint",
                    "DAPKLNIFPID": true,
                    "BJCIHELGKLP": true
                  },
                  "effectTempleteID": -1.0
                }
              ]
            }
          ]
        }
      ]
    }
  },
  {
    "Default": {
      "$type": "ConfigAbility",
      "abilityName": "Slime_Water_AnimationSteer",
      "abilityMixins": [
        {
          "$type": "SteerAttackMixin",
          "steerStateIDs": ["JumpAttack"],
          "endNormalizedTime": 0.20000000298023224,
          "angularSpeed": 120.0,
          "attackTrigger": "",
          "attackDistance": 12.0
        },
        {
          "$type": "SteerAttackMixin",
          "steerStateIDs": ["Bubble"],
          "endNormalizedTime": 0.6000000238418579,
          "angularSpeed": 360.0,
          "attackTrigger": "",
          "attackDistance": 12.0
        },
        {
          "$type": "SteerAttackMixin",
          "steerStateIDs": ["NormalAttack"],
          "endNormalizedTime": 0.25,
          "angularSpeed": 360.0,
          "attackTrigger": "",
          "attackDistance": 12.0
        }
      ]
    }
  }
]
