[
  {
    "Default": {
      "$type": "ConfigAbility",
      "abilityName": "Monster_Fungus_Deux_Alpha_Fire_Steer",
      "abilityMixins": [
        {
          "$type": "SteerAttackMixin",
          "steerStateIDs": ["MeleeAttackNormal_BS"],
          "angularSpeed": 720.0,
          "attackTrigger": ""
        },
        {
          "$type": "SteerAttackMixin",
          "steerStateIDs": ["MeleeAttackOverdose_BS"],
          "angularSpeed": 720.0,
          "attackTrigger": ""
        },
        {
          "$type": "SteerAttackMixin",
          "steerStateIDs": ["MeleeAttackDecayed_BS"],
          "angularSpeed": 720.0,
          "attackTrigger": ""
        },
        {
          "$type": "SteerAttackMixin",
          "steerStateIDs": ["FlyingAttackNormal_BS"],
          "startNormalizedTime": 1.0,
          "endNormalizedTime": 99.0,
          "angularSpeed": 540.0,
          "attackTrigger": ""
        },
        {
          "$type": "SteerAttackMixin",
          "steerStateIDs": ["FlyingAttackOverdose_BS"],
          "startNormalizedTime": 1.0,
          "endNormalizedTime": 99.0,
          "angularSpeed": 540.0,
          "attackTrigger": ""
        },
        {
          "$type": "SteerAttackMixin",
          "steerStateIDs": ["FlyingAttackDecay_BS"],
          "startNormalizedTime": 1.0,
          "endNormalizedTime": 99.0,
          "angularSpeed": 540.0,
          "attackTrigger": ""
        }
      ]
    }
  },
  {
    "Default": {
      "$type": "ConfigAbility",
      "abilityName": "Monster_Fungus_Deux_Alpha_Fire_MeleeAttackNormal",
      "abilityMixins": [
        {
          "$type": "AttachToAnimatorStateIDMixin",
          "stateIDs": ["MeleeAttackDecay_BS", "MeleeAttackDecay_Loop"],
          "modifierName": "MeleeAttackBSEffect_Decayed"
        }
      ],
      "modifiers": {
        "MeleeAttackBSEffect_Decayed": {
          "modifierName": "",
          "bonusCriticalHurt": 100.0,
          "onAdded": [
            {
              "$type": "AttachEffect",
              "healLimitedByCasterMaxHPRatio": "Eff_Monster_Fungus_Deux_Beta_Rock_MeleeAttackDecayed_Loop",
              "effectTempleteID": -1.0
            }
          ]
        }
      }
    }
  },
  {
    "Default": {
      "$type": "ConfigAbility",
      "abilityName": "Monster_Fungus_Deux_Alpha_Fire_FlyingAttackNormal",
      "abilityMixins": [
        {
          "$type": "AttachToAnimatorStateIDMixin",
          "stateIDs": ["FlyingAttackNormal_BS01"],
          "modifierName": "FlyingAttackBSEffect_Normal"
        },
        {
          "$type": "AttachToAnimatorStateIDMixin",
          "stateIDs": ["FlyingAttackOverdose_BS01"],
          "modifierName": "FlyingAttackBSEffect_Overdose"
        },
        {
          "$type": "AttachToAnimatorStateIDMixin",
          "stateIDs": ["FlyingAttackDecay_BS01"],
          "modifierName": "FlyingAttackBSEffect_Decayed"
        },
        {
          "$type": "AttachToAnimatorStateIDMixin",
          "stateIDs": ["FlyingAttackNormal_BS02", "FlyingAttackNormal_Attack"],
          "modifierName": "FlyingAttackAttackEffect_Normal"
        },
        {
          "$type": "AttachToAnimatorStateIDMixin",
          "stateIDs": [
            "FlyingAttackOverdose_BS02",
            "FlyingAttackOverdose_Attack"
          ],
          "modifierName": "FlyingAttackAttackEffect_Overdose"
        },
        {
          "$type": "AttachToAnimatorStateIDMixin",
          "stateIDs": ["FlyingAttackDecay_BS02", "FlyingAttackDecay_Attack"],
          "modifierName": "FlyingAttackAttackEffect_Decayed"
        },
        {
          "$type": "AttachToAnimatorStateIDMixin",
          "stateIDs": ["FlyingAttackNormal_BS02", "FlyingAttackNormal_Attack"],
          "modifierName": "FlyingAttackAttackEffect_Normal"
        },
        {
          "$type": "AttachToAnimatorStateIDMixin",
          "stateIDs": ["Standby", "StandbyFree"],
          "modifierName": "FlyingAttackOverdoseStartHandler"
        },
        {
          "$type": "AttachToAnimatorStateIDMixin",
          "stateIDs": ["FlyingAttackOverdose_Attack"],
          "modifierName": "FlyingAttackOverdoseHandler"
        }
      ],
      "abilitySpecials": {
        "FlyingAttackOverdoseCount": 0.0
      },
      "modifiers": {
        "FlyingAttackBSEffect_Normal": {
          "modifierName": "",
          "bonusCriticalHurt": 100.0,
          "onAdded": [
            {
              "$type": "AttachEffect",
              "healLimitedByCasterMaxHPRatio": "Eff_Monster_Fungus_Deux_Alpha_Fire_FlyingAttackNormal_Attack_Loop",
              "effectTempleteID": -1.0
            }
          ]
        },
        "FlyingAttackBSEffect_Overdose": {
          "modifierName": "",
          "bonusCriticalHurt": 100.0,
          "onAdded": [
            {
              "$type": "AttachEffect",
              "healLimitedByCasterMaxHPRatio": "Eff_Monster_Fungus_Deux_Alpha_Fire_FlyingAttackNormal_Attack_Loop",
              "effectTempleteID": -1.0
            }
          ]
        },
        "FlyingAttackBSEffect_Decayed": {
          "modifierName": "",
          "bonusCriticalHurt": 100.0,
          "onAdded": [
            {
              "$type": "AttachEffect",
              "healLimitedByCasterMaxHPRatio": "Eff_Monster_Fungus_Deux_Alpha_Fire_FlyingAttackDecayed_Loop",
              "effectTempleteID": -1.0
            }
          ]
        },
        "FlyingAttackAttackEffect_Normal": {
          "modifierName": "",
          "bonusCriticalHurt": 100.0,
          "onAdded": [
            {
              "$type": "AttachEffect",
              "healLimitedByCasterMaxHPRatio": "Eff_Monster_Fungus_Deux_Alpha_Fire_FlyingAttackNormal_Attack",
              "effectTempleteID": -1.0
            }
          ]
        },
        "FlyingAttackAttackEffect_Overdose": {
          "modifierName": "",
          "bonusCriticalHurt": 100.0,
          "onAdded": [
            {
              "$type": "AttachEffect",
              "healLimitedByCasterMaxHPRatio": "Eff_Monster_Fungus_Deux_Alpha_Fire_FlyingAttackNormal_Attack",
              "effectTempleteID": -1.0
            }
          ]
        },
        "FlyingAttackAttackEffect_Decayed": {
          "modifierName": "",
          "bonusCriticalHurt": 100.0,
          "onAdded": [
            {
              "$type": "AttachEffect",
              "healLimitedByCasterMaxHPRatio": "Eff_Monster_Fungus_Deux_Alpha_Fire_FlyingAttackDecayed_Attack",
              "effectTempleteID": -1.0
            }
          ]
        },
        "FlyingAttackOverdoseStartHandler": {
          "modifierName": "",
          "bonusCriticalHurt": 100.0,
          "onAdded": [
            {
              "$type": "SetGlobalValue",
              "ratio": 0.0,
              "key": "_MONSTER_FUNGUS_DEUX_ALPHA_FIRE_FLYINGATTACKOVERDOSECOUNT_",
              "maxValue": 0.0,
              "minValue": 0.0
            },
            {
              "$type": "SetGlobalValueToOverrideMap",
              "globalValueKey": "_MONSTER_FUNGUS_DEUX_ALPHA_FIRE_FLYINGATTACKOVERDOSECOUNT_",
              "overrideMapKey": "FlyingAttackOverdoseCount"
            },
            {
              "$type": "SetAnimatorInt",
              "intID": "FlyingAttackOverdoseCount",
              "ratio": "FlyingAttackOverdoseCount"
            }
          ]
        },
        "FlyingAttackOverdoseHandler": {
          "modifierName": "",
          "bonusCriticalHurt": 100.0,
          "onAdded": [
            {
              "$type": "AddGlobalValue",
              "ratio": 1.0,
              "key": "_MONSTER_FUNGUS_DEUX_ALPHA_FIRE_FLYINGATTACKOVERDOSECOUNT_",
              "maxValue": 3.0,
              "minValue": 0.0
            },
            {
              "$type": "SetGlobalValueToOverrideMap",
              "globalValueKey": "_MONSTER_FUNGUS_DEUX_ALPHA_FIRE_FLYINGATTACKOVERDOSECOUNT_",
              "overrideMapKey": "FlyingAttackOverdoseCount"
            },
            {
              "$type": "SetAnimatorInt",
              "intID": "FlyingAttackOverdoseCount",
              "ratio": "FlyingAttackOverdoseCount"
            }
          ]
        }
      }
    }
  },
  {
    "Default": {
      "$type": "ConfigAbility",
      "abilityName": "Monster_Fungus_Deux_Alpha_Fire_FlyingAttack_Alert",
      "abilityMixins": [
        {
          "$type": "AttachToAnimatorStateIDMixin",
          "stateIDs": ["FlyingAttackNormal_Loop", "FlyingAttackNormal_Attack"],
          "modifierName": "FlyingAttackNormal_InAir"
        },
        {
          "$type": "AttachToAnimatorStateIDMixin",
          "stateIDs": [
            "FlyingAttackOverdose_Loop",
            "FlyingAttackOverdose_Attack"
          ],
          "modifierName": "FlyingAttackOverdose_InAir"
        },
        {
          "$type": "AttachToAnimatorStateIDMixin",
          "stateIDs": ["FlyingAttackDecay_Loop", "FlyingAttackDecay_Attack"],
          "modifierName": "FlyingAttackDecay_InAir"
        }
      ],
      "modifiers": {
        "FlyingAttackNormal_InAir": {
          "modifierName": "",
          "bonusCriticalHurt": 100.0,
          "onAdded": [
            {
              "$type": "FixedMonsterRushMove",
              "target": "SelfAttackTarget",
              "toPos": {
                "$type": "ConfigBornByTarget",
                "offset": {
                  "x": 0.0,
                  "y": 0.0,
                  "z": 0.0
                },
                "DAPKLNIFPID": true
              },
              "timeRange": 0.699999988079071,
              "maxRange": 15.0,
              "animatorStateIDs": ["FlyingAttackNormal_Loop"],
              "overrideMoveCollider": ""
            },
            {
              "$type": "FireEffect",
              "healLimitedByCasterMaxHPRatio": "Eff_Monster_Fungus_Deux_Alpha_Fire_FlyingAttackNormal_Attack_Warning",
              "born": {
                "$type": "FLLCINGJBPD"
              },
              "effectTempleteID": -1.0
            },
            {
              "$type": "TriggerSetCastShadow"
            },
            {
              "$type": "EnablePushColliderName",
              "pushColliderNames": ["PushCollider"]
            },
            {
              "$type": "HideUIBillBoard",
              "hide": true
            }
          ],
          "onRemoved": [
            {
              "$type": "TriggerSetCastShadow",
              "castShadow": true
            },
            {
              "$type": "EnablePushColliderName",
              "pushColliderNames": ["PushCollider"],
              "setEnable": true
            },
            {
              "$type": "HideUIBillBoard"
            }
          ]
        },
        "FlyingAttackOverdose_InAir": {
          "modifierName": "",
          "bonusCriticalHurt": 100.0,
          "onAdded": [
            {
              "$type": "FixedMonsterRushMove",
              "target": "SelfAttackTarget",
              "toPos": {
                "$type": "ConfigBornByTarget",
                "offset": {
                  "x": 0.0,
                  "y": 0.0,
                  "z": 0.0
                },
                "DAPKLNIFPID": true
              },
              "timeRange": 0.699999988079071,
              "maxRange": 15.0,
              "animatorStateIDs": ["FlyingAttackOverdose_Loop"],
              "overrideMoveCollider": ""
            },
            {
              "$type": "FireEffect",
              "healLimitedByCasterMaxHPRatio": "Eff_Monster_Fungus_Deux_Alpha_Fire_FlyingAttackNormal_Attack_Warning",
              "born": {
                "$type": "FLLCINGJBPD"
              },
              "effectTempleteID": -1.0
            },
            {
              "$type": "TriggerSetCastShadow"
            },
            {
              "$type": "EnablePushColliderName",
              "pushColliderNames": ["PushCollider"]
            },
            {
              "$type": "HideUIBillBoard",
              "hide": true
            }
          ],
          "onRemoved": [
            {
              "$type": "TriggerSetCastShadow",
              "castShadow": true
            },
            {
              "$type": "EnablePushColliderName",
              "pushColliderNames": ["PushCollider"],
              "setEnable": true
            },
            {
              "$type": "HideUIBillBoard"
            }
          ]
        },
        "FlyingAttackDecay_InAir": {
          "modifierName": "",
          "bonusCriticalHurt": 100.0,
          "onAdded": [
            {
              "$type": "FixedMonsterRushMove",
              "target": "SelfAttackTarget",
              "toPos": {
                "$type": "ConfigBornByTarget",
                "offset": {
                  "x": 0.0,
                  "y": 0.0,
                  "z": 0.0
                },
                "DAPKLNIFPID": true
              },
              "timeRange": 0.699999988079071,
              "maxRange": 15.0,
              "animatorStateIDs": ["FlyingAttackDecay_Loop"],
              "overrideMoveCollider": ""
            },
            {
              "$type": "FireEffect",
              "healLimitedByCasterMaxHPRatio": "Eff_Monster_Fungus_Deux_Alpha_Fire_FlyingAttackDecayed_Attack_Warning",
              "born": {
                "$type": "FLLCINGJBPD"
              },
              "effectTempleteID": -1.0
            },
            {
              "$type": "TriggerSetCastShadow"
            },
            {
              "$type": "EnablePushColliderName",
              "pushColliderNames": ["PushCollider"]
            },
            {
              "$type": "HideUIBillBoard",
              "hide": true
            }
          ],
          "onRemoved": [
            {
              "$type": "TriggerSetCastShadow",
              "castShadow": true
            },
            {
              "$type": "EnablePushColliderName",
              "pushColliderNames": ["PushCollider"],
              "setEnable": true
            },
            {
              "$type": "HideUIBillBoard"
            }
          ]
        }
      }
    }
  },
  {
    "Default": {
      "$type": "ConfigAbility",
      "abilityName": "Monster_Fungus_Deux_Alpha_Fire_HitThrowDropToGround",
      "onAbilityStart": [
        {
          "$type": "Predicated",
          "targetPredicates": [
            {
              "$type": "JBCEABPOEAF",
              "CJDIAIEJICB": ["Water"]
            }
          ],
          "successActions": [
            {
              "$type": "FireEffect",
              "healLimitedByCasterMaxHPRatio": "Eff_Monster_Fungus_HitThrowToGround_Water",
              "effectTempleteID": -1.0,
              "effectTempleteID": true
            }
          ]
        }
      ]
    }
  }
]
