[
  {
    "Default": {
      "$type": "ConfigAbility",
      "abilityName": "Monster_Gator_Eremite_Rock_SteerControl",
      "abilityMixins": [
        {
          "$type": "SteerAttackMixin",
          "steerStateIDs": ["NormalAttack02"],
          "endNormalizedTime": 0.30000001192092896,
          "angularSpeed": 200.0,
          "attackTrigger": "",
          "attackDistance": 2.0
        },
        {
          "$type": "SteerAttackMixin",
          "steerStateIDs": ["NormalAttack02"],
          "startNormalizedTime": 0.5400000214576721,
          "endNormalizedTime": 0.7799999713897705,
          "angularSpeed": 100.0,
          "attackTrigger": "",
          "attackDistance": 2.0
        },
        {
          "$type": "SteerAttackMixin",
          "steerStateIDs": ["MeleeAttack01_BS"],
          "startNormalizedTime": 0.3499999940395355,
          "angularSpeed": 180.0,
          "attackTrigger": "",
          "attackDistance": 2.0
        },
        {
          "$type": "SteerAttackMixin",
          "steerStateIDs": ["TurnRight"],
          "angularSpeed": 150.0,
          "attackTrigger": "",
          "attackDistance": 2.0
        },
        {
          "$type": "SteerAttackMixin",
          "steerStateIDs": ["TurnLeft"],
          "angularSpeed": 150.0,
          "attackTrigger": "",
          "attackDistance": 2.0
        }
      ]
    }
  },
  {
    "Default": {
      "$type": "ConfigAbility",
      "abilityName": "Monster_Gator_Eremite_Rock_StateControl",
      "abilityMixins": [
        {
          "$type": "AttachToStateIDMixin",
          "stateIDs": ["Alert"],
          "modifierName": "Monster_Gator_Eremite_Rock_Alert"
        },
        {
          "$type": "AttachToPoseIDMixin",
          "poseIDs": [1, 102],
          "modifierName": "Monster_Gator_Eremite_Rock_Disappear"
        },
        {
          "$type": "AttachToNormalizedTimeMixin",
          "stateID": "Alert",
          "modifierName": "Monster_Gator_Eremite_Rock_Visable",
          "normalizeEnd": 0.36000001430511475
        }
      ],
      "modifiers": {
        "Monster_Gator_Eremite_Rock_Alert": {
          "modifierName": "",
          "bonusCriticalHurt": 100.0,
          "onAdded": [
            {
              "$type": "CreateGadget",
              "born": {
                "$type": "ConfigBornBySelf",
                "offset": {
                  "x": 0.0,
                  "y": 2.6700000762939453,
                  "z": -4.25
                }
              },
              "gadgetID": 42540002,
              "campID": 4001
            }
          ],
          "onRemoved": [
            {
              "$type": "KillSelf",
              "otherTargets": {
                "$type": "SelectTargetsByChildren",
                "configID": 42540002
              }
            },
            {
              "$type": "RemoveModifier",
              "modifierName": "Monster_Gator_Eremite_Rock_StateControl"
            },
            {
              "$type": "ApplyModifier",
              "modifierName": "Monster_Gator_Eremite_Rock_DefenseDown_Effect"
            }
          ]
        },
        "Monster_Gator_Eremite_Rock_DefenseDown_Effect": {
          "modifierName": "",
          "bonusCriticalHurt": 100.0,
          "onAdded": [
            {
              "$type": "AttachEffect",
              "healLimitedByCasterMaxHPRatio": "Eff_Avatar_Properties_Defense_Down",
              "effectTempleteID": -1.0
            }
          ]
        },
        "Monster_Gator_Eremite_Rock_Disappear": {
          "modifierName": "",
          "bonusCriticalHurt": 100.0,
          "modifierMixins": [
            {
              "$type": "AttachActionToModifierMixin",
              "onAdded": [
                {
                  "$type": "HideUIBillBoard",
                  "hide": true
                },
                {
                  "$type": "EnablePushColliderName",
                  "pushColliderNames": ["PushCollider"]
                },
                {
                  "$type": "EnableHitBoxByName",
                  "hitBoxNames": ["HitBox"]
                },
                {
                  "$type": "EnableHDMesh",
                  "canBeHandledOnRecover": true,
                  "BPKOFFOCMNG": "Default"
                }
              ],
              "onRemoved": [
                {
                  "$type": "HideUIBillBoard"
                },
                {
                  "$type": "EnablePushColliderName",
                  "pushColliderNames": ["PushCollider"],
                  "setEnable": true
                },
                {
                  "$type": "EnableHitBoxByName",
                  "hitBoxNames": ["HitBox"],
                  "setEnable": true
                },
                {
                  "$type": "EnableHDMesh",
                  "enable": true,
                  "BPKOFFOCMNG": "Default"
                }
              ]
            }
          ],
          "properties": {
            "Actor_PhysicalSubHurtDelta": 2.0,
            "Actor_FireSubHurtDelta": 2.0,
            "Actor_ElecSubHurtDelta": 2.0,
            "Actor_WaterSubHurtDelta": 2.0,
            "Actor_GrassSubHurtDelta": 2.0,
            "Actor_WindSubHurtDelta": 2.0,
            "Actor_IceSubHurtDelta": 2.0,
            "Actor_RockSubHurtDelta": 2.0
          },
          "state": "DenyLockOn",
          "onAdded": [
            {
              "$type": "HideUIBillBoard",
              "hide": true
            },
            {
              "$type": "TriggerSetVisible"
            },
            {
              "$type": "EnablePushColliderName",
              "pushColliderNames": ["PushCollider"]
            },
            {
              "$type": "EnableHitBoxByName",
              "hitBoxNames": ["HitBox"]
            },
            {
              "$type": "EnableHDMesh",
              "canBeHandledOnRecover": true,
              "BPKOFFOCMNG": "Default"
            }
          ],
          "onRemoved": [
            {
              "$type": "HideUIBillBoard"
            },
            {
              "$type": "TriggerSetVisible",
              "visible": true
            },
            {
              "$type": "EnablePushColliderName",
              "pushColliderNames": ["PushCollider"],
              "setEnable": true
            },
            {
              "$type": "EnableHitBoxByName",
              "hitBoxNames": ["HitBox"],
              "setEnable": true
            },
            {
              "$type": "EnableHDMesh",
              "enable": true,
              "BPKOFFOCMNG": "Default"
            },
            {
              "$type": "RemoveModifier",
              "modifierName": "Monster_Gator_Eremite_Rock_StateControl"
            }
          ]
        },
        "Monster_Gator_Eremite_Rock_Visable": {
          "modifierName": "",
          "bonusCriticalHurt": 100.0,
          "onRemoved": [
            {
              "$type": "TriggerSetVisible",
              "canBeHandledOnRecover": true,
              "visible": true
            }
          ]
        },
        "Monster_Gator_Eremite_Rock_StateControl": {
          "modifierName": "",
          "bonusCriticalHurt": 100.0,
          "onAdded": [
            {
              "$type": "SetPoseBool",
              "canBeHandledOnRecover": true,
              "boolID": "IsAppear"
            }
          ],
          "onRemoved": [
            {
              "$type": "SetPoseBool",
              "canBeHandledOnRecover": true,
              "boolID": "IsAppear",
              "ratio": true
            }
          ],
          "LGJBJJBCBEH": [
            {
              "$type": "SetPoseBool",
              "boolID": "IsAppear",
              "ratio": true
            }
          ],
          "onChangeAuthority": [
            {
              "$type": "SetPoseBool",
              "boolID": "IsAppear",
              "ratio": true
            },
            {
              "$type": "TriggerSetVisible",
              "canBeHandledOnRecover": true,
              "visible": true
            }
          ]
        },
        "Monster_Gator_Eremite_BaseStateHeadle": {
          "modifierName": "",
          "duration": 1.0,
          "bonusCriticalHurt": 100.0,
          "onAdded": [
            {
              "$type": "HideUIBillBoard",
              "hide": true
            },
            {
              "$type": "TriggerSetVisible"
            },
            {
              "$type": "EnablePushColliderName",
              "pushColliderNames": ["PushCollider"]
            },
            {
              "$type": "EnableHitBoxByName",
              "hitBoxNames": ["HitBox"]
            },
            {
              "$type": "EnableHDMesh",
              "RotationDampTime": true,
              "canBeHandledOnRecover": true,
              "BPKOFFOCMNG": "Default"
            }
          ]
        }
      },
      "onAdded": [
        {
          "$type": "ApplyModifier",
          "modifierName": "Monster_Gator_Eremite_BaseStateHeadle"
        },
        {
          "$type": "AttachModifier",
          "modifierName": "Monster_Gator_Eremite_Rock_StateControl"
        }
      ]
    }
  },
  {
    "Default": {
      "$type": "ConfigAbility",
      "abilityName": "Monster_Gator_Eremite_Rock_ShaderCut",
      "modifiers": {
        "ChargeEndPos_ShaderCut": {
          "modifierName": "",
          "duration": 3.0,
          "bonusCriticalHurt": 100.0,
          "modifierMixins": [
            {
              "$type": "SendPostionToShaderCutMixin",
              "CGOLAIBAICO": "Owner",
              "MGNBNEEEOKG": 10.0,
              "scale": {
                "x": 5.0,
                "y": 5.0,
                "z": 5.0
              }
            }
          ],
          "onRemoved": [
            {
              "$type": "KillSelf"
            }
          ]
        }
      },
      "onAdded": [
        {
          "$type": "ApplyModifier",
          "modifierName": "ChargeEndPos_ShaderCut"
        }
      ]
    }
  },
  {
    "Default": {
      "$type": "ConfigAbility",
      "abilityName": "Monster_Gator_Eremite_Rock_RangeAttack",
      "abilityMixins": [
        {
          "$type": "AttachToStateIDMixin",
          "stateIDs": ["NormalAttack01"],
          "modifierName": "Monster_Gator_Eremite_Rock_RangeAttack_Effect"
        }
      ],
      "modifiers": {
        "Monster_Gator_Eremite_Rock_RangeAttack": {
          "modifierName": "",
          "duration": 1.0,
          "bonusCriticalHurt": 100.0,
          "onAdded": [
            {
              "$type": "FireEffect",
              "healLimitedByCasterMaxHPRatio": "Eff_Monster_Gator_Eremite_Rock_RangeAttack_Damage",
              "born": {
                "$type": "ConfigBornBySelf",
                "DAPKLNIFPID": true,
                "BJCIHELGKLP": true
              },
              "effectTempleteID": -1.0
            },
            {
              "$type": "TriggerAttackEvent",
              "attackEvent": {
                "attackPattern": {
                  "$type": "ConfigAttackCircle",
                  "triggerType": "TriggerNoRepeat",
                  "born": {
                    "$type": "ConfigBornBySelf"
                  },
                  "height": 1.399999976158142,
                  "radius": 5.5
                },
                "attackInfo": {
                  "attackTag": "",
                  "attenuationTag": "",
                  "attenuationGroup": "default",
                  "attackProperty": {
                    "damagePercentage": 0.75,
                    "damagePercentageRatio": 0.0,
                    "elementType": "Rock",
                    "bonusCriticalHurt": 25.0,
                    "strikeType": "Blunt",
                    "enBreak": 100.0
                  },
                  "hitPattern": {
                    "onHitEffectName": "default",
                    "hitImpulseType": "LV4",
                    "retreatType": "ByHitDirection",
                    "hitHaltTimeScale": 0.009999999776482582
                  }
                }
              },
              "targetType": "Enemy"
            }
          ]
        },
        "Monster_Gator_Eremite_Rock_RangeAttack_Effect": {
          "modifierName": "",
          "bonusCriticalHurt": 100.0,
          "onAdded": [
            {
              "$type": "AttachEffect",
              "healLimitedByCasterMaxHPRatio": "Eff_Monster_Gator_Eremite_Rock_RangeAttack_Effect",
              "born": {
                "$type": "ConfigBornBySelf",
                "DAPKLNIFPID": true,
                "BJCIHELGKLP": true
              },
              "effectTempleteID": -1.0
            }
          ]
        }
      },
      "onAbilityStart": [
        {
          "$type": "ApplyModifier",
          "modifierName": "Monster_Gator_Eremite_Rock_RangeAttack"
        }
      ]
    }
  },
  {
    "Default": {
      "$type": "ConfigAbility",
      "abilityName": "Monster_Gator_Eremite_Rock_TailAttack",
      "modifiers": {
        "Monster_Gator_Eremite_Rock_TailAttack": {
          "modifierName": "",
          "duration": 1.0,
          "bonusCriticalHurt": 100.0,
          "onAdded": [
            {
              "$type": "FireEffect",
              "healLimitedByCasterMaxHPRatio": "Eff_Monster_Gator_Eremite_Rock_TailAttack_Damage",
              "born": {
                "$type": "ConfigBornBySelf",
                "offset": {
                  "x": 0.0,
                  "y": 0.0,
                  "z": 1.0
                },
                "DAPKLNIFPID": true,
                "BJCIHELGKLP": true
              },
              "effectTempleteID": -1.0
            },
            {
              "$type": "TriggerAttackEvent",
              "attackEvent": {
                "attackPattern": {
                  "$type": "ConfigAttackBox",
                  "triggerType": "TriggerAlways",
                  "born": {
                    "$type": "ConfigBornBySelf",
                    "offset": {
                      "x": 0.0,
                      "y": 0.0,
                      "z": 1.0
                    },
                    "DAPKLNIFPID": true,
                    "BJCIHELGKLP": true
                  },
                  "size": {
                    "x": 3.0,
                    "y": 3.0,
                    "z": 5.5
                  }
                },
                "attackInfo": {
                  "attackTag": "",
                  "attenuationTag": "",
                  "attenuationGroup": "default",
                  "attackProperty": {
                    "damagePercentage": 0.75,
                    "damagePercentageRatio": 0.0,
                    "elementType": "Rock",
                    "bonusCriticalHurt": 25.0,
                    "strikeType": "Blunt",
                    "enBreak": 10000.0
                  },
                  "hitPattern": {
                    "onHitEffectName": "default",
                    "hitImpulseType": "LV5",
                    "retreatType": "ByHitDirection",
                    "hitHaltTimeScale": 0.009999999776482582
                  }
                }
              },
              "targetType": "Enemy"
            }
          ]
        }
      },
      "onAbilityStart": [
        {
          "$type": "ApplyModifier",
          "modifierName": "Monster_Gator_Eremite_Rock_TailAttack"
        },
        {
          "$type": "TriggerBullet",
          "bulletID": 42540005,
          "born": {
            "$type": "ConfigBornBySelf",
            "offset": {
              "x": 0.25,
              "y": 2.200000047683716,
              "z": 4.650000095367432
            },
            "direction": {
              "$type": "IOPNFLFHGID",
              "angleOffset": {
                "x": 0.0,
                "y": 0.0,
                "z": 0.0
              }
            }
          }
        },
        {
          "$type": "TriggerBullet",
          "bulletID": 42540005,
          "born": {
            "$type": "ConfigBornBySelf",
            "offset": {
              "x": 1.1399999856948853,
              "y": 2.200000047683716,
              "z": 4.650000095367432
            },
            "direction": {
              "$type": "IOPNFLFHGID",
              "angleOffset": {
                "x": 0.0,
                "y": 25.0,
                "z": 0.0
              }
            }
          }
        },
        {
          "$type": "TriggerBullet",
          "bulletID": 42540005,
          "born": {
            "$type": "ConfigBornBySelf",
            "offset": {
              "x": -1.1399999856948853,
              "y": 2.200000047683716,
              "z": 4.650000095367432
            },
            "direction": {
              "$type": "IOPNFLFHGID",
              "angleOffset": {
                "x": 0.0,
                "y": -25.0,
                "z": 0.0
              }
            }
          }
        }
      ]
    }
  },
  {
    "Default": {
      "$type": "ConfigAbility",
      "abilityName": "Monster_Gator_Eremite_Rock_TailAttack_RockBomb_Wave",
      "modifiers": {
        "Monster_Gator_Eremite_Rock_TailAttack_RockBomb_Wave_Delay": {
          "modifierName": "",
          "duration": 0.20000000298023224,
          "bonusCriticalHurt": 100.0,
          "onAdded": [
            {
              "$type": "ApplyModifier",
              "modifierName": "Monster_Gator_Eremite_Rock_TailAttack_RockBomb_Wave_Damage"
            }
          ]
        },
        "Monster_Gator_Eremite_Rock_TailAttack_RockBomb_Wave_Damage": {
          "modifierName": "",
          "duration": 1.0,
          "bonusCriticalHurt": 100.0,
          "thinkInterval": 0.20000000298023224,
          "onThinkInterval": [
            {
              "$type": "FireSubEmitterEffect",
              "healLimitedByCasterMaxHPRatio": "Eff_Monster_Eremite_Male_Strong_Katar_Rock_RockBomb_Wave",
              "born": {
                "$type": "ConfigBornBySelf"
              }
            },
            {
              "$type": "TriggerAttackEvent",
              "attackEvent": {
                "attackPattern": {
                  "$type": "ConfigAttackCircle",
                  "triggerType": "TriggerNoRepeat",
                  "born": {
                    "$type": "ConfigBornBySelf"
                  },
                  "height": 1.7999999523162842,
                  "radius": 1.7999999523162842
                },
                "attackInfo": {
                  "attackTag": "",
                  "attenuationTag": "Eremite_Katar_RockBomb_Rock",
                  "attenuationGroup": "Eremite_Katar_RockBomb_Rock",
                  "attackProperty": {
                    "damagePercentage": 0.5,
                    "damagePercentageRatio": 0.0,
                    "elementType": "Rock",
                    "bonusCriticalHurt": 25.0,
                    "strikeType": "Blunt",
                    "enBreak": 100.0
                  },
                  "hitPattern": {
                    "onHitEffectName": "default",
                    "hitImpulseType": "LV5",
                    "retreatType": "ByHitDirection",
                    "hitHaltTimeScale": 0.009999999776482582
                  },
                  "canBeModifiedBy": "OriginOwner"
                }
              },
              "targetType": "Enemy"
            }
          ]
        }
      },
      "onAdded": [
        {
          "$type": "FireSubEmitterEffect",
          "healLimitedByCasterMaxHPRatio": "Eff_Monster_Eremite_Male_Strong_Katar_Rock_RockBomb_Wave",
          "born": {
            "$type": "ConfigBornBySelf"
          }
        },
        {
          "$type": "TriggerAttackEvent",
          "attackEvent": {
            "attackPattern": {
              "$type": "ConfigAttackCircle",
              "triggerType": "TriggerNoRepeat",
              "born": {
                "$type": "ConfigBornBySelf"
              },
              "height": 2.0,
              "radius": 1.7999999523162842
            },
            "attackInfo": {
              "attackTag": "Eremite_Katar_RockBomb_Rock",
              "attenuationTag": "",
              "attenuationGroup": "Eremite_Katar_RockBomb_Rock",
              "attackProperty": {
                "damagePercentage": 0.5,
                "damagePercentageRatio": 0.0,
                "elementType": "Rock",
                "bonusCriticalHurt": 25.0,
                "strikeType": "Blunt",
                "enBreak": 100.0
              },
              "hitPattern": {
                "onHitEffectName": "default",
                "hitImpulseType": "LV5",
                "retreatType": "ByHitDirection",
                "hitHaltTimeScale": 0.009999999776482582
              },
              "canBeModifiedBy": "OriginOwner"
            }
          },
          "targetType": "Enemy"
        },
        {
          "$type": "ApplyModifier",
          "modifierName": "Monster_Gator_Eremite_Rock_TailAttack_RockBomb_Wave_Delay"
        }
      ]
    }
  },
  {
    "Default": {
      "$type": "ConfigAbility",
      "abilityName": "Monster_Gator_Eremite_Rock_MeleeAttack",
      "abilityMixins": [
        {
          "$type": "AttachToStateIDMixin",
          "stateIDs": ["MeleeAttack01_Loop"],
          "modifierName": "Monster_Gator_Eremite_Rock_MeleeAttack01_Handle"
        },
        {
          "$type": "AttachToStateIDMixin",
          "stateIDs": ["MeleeAttack01_Loop"],
          "modifierName": "Monster_Gator_Eremite_Rock_MeleeAttack01_Effect"
        },
        {
          "$type": "AttachToNormalizedTimeMixin",
          "stateID": "MeleeAttack01_AS",
          "modifierName": "Monster_Gator_Eremite_Rock_MeleeAttack01_Effect02",
          "normalizeStart": 0.125,
          "normalizeEnd": 0.8500000238418579
        }
      ],
      "modifiers": {
        "Monster_Gator_Eremite_Rock_MeleeAttack01_Handle": {
          "modifierName": "",
          "duration": 1.0,
          "bonusCriticalHurt": 100.0,
          "onAdded": [
            {
              "$type": "TriggerBullet",
              "bulletID": 42540004,
              "born": {
                "$type": "ConfigBornByAttachPoint",
                "attachPointName": "RootNode"
              },
              "trackTarget": "Self"
            },
            {
              "$type": "EnablePushColliderName",
              "pushColliderNames": ["PushCollider"]
            }
          ],
          "onRemoved": [
            {
              "$type": "EnablePushColliderName",
              "pushColliderNames": ["PushCollider"],
              "setEnable": true
            },
            {
              "$type": "KillSelf",
              "otherTargets": {
                "$type": "SelectTargetsByChildren",
                "configID": 42540004
              }
            }
          ],
          "LGJBJJBCBEH": [
            {
              "$type": "EnablePushColliderName",
              "pushColliderNames": ["PushCollider"],
              "setEnable": true
            }
          ]
        },
        "Monster_Gator_Eremite_Rock_MeleeAttack01_Effect": {
          "modifierName": "",
          "bonusCriticalHurt": 100.0,
          "onAdded": [
            {
              "$type": "AttachEffect",
              "healLimitedByCasterMaxHPRatio": "Eff_Monster_Gator_Eremite_Rock_MeleeAttack_Loop",
              "effectTempleteID": -1.0
            }
          ]
        },
        "Monster_Gator_Eremite_Rock_MeleeAttack01_Effect02": {
          "modifierName": "",
          "bonusCriticalHurt": 100.0,
          "onAdded": [
            {
              "$type": "AttachEffect",
              "healLimitedByCasterMaxHPRatio": "Eff_Monster_Gator_Eremite_Rock_MeleeAttack_Effect",
              "effectTempleteID": -1.0
            }
          ]
        }
      }
    }
  },
  {
    "Default": {
      "$type": "ConfigAbility",
      "abilityName": "Monster_Gator_Eremite_Rock_MeleeAttack_Damage",
      "onAbilityStart": [
        {
          "$type": "TriggerAttackEvent",
          "attackEvent": {
            "attackPattern": {
              "$type": "ConfigAttackSphere",
              "triggerType": "TriggerNoRepeat",
              "born": {
                "$type": "ConfigBornByCollisionPoint"
              },
              "radius": 0.5
            },
            "attackInfo": {
              "attackTag": "",
              "attenuationTag": "",
              "attenuationGroup": "default",
              "attackProperty": {
                "damagePercentage": 0.800000011920929,
                "damagePercentageRatio": 0.0,
                "elementType": "Rock",
                "bonusCriticalHurt": 25.0,
                "strikeType": "Blunt",
                "enBreak": 100.0
              },
              "hitPattern": {
                "onHitEffectName": "default",
                "hitImpulseType": "LV4",
                "retreatType": "ByHitDirection",
                "hitHaltTimeScale": 0.009999999776482582
              },
              "canBeModifiedBy": "OriginOwner"
            }
          },
          "targetType": "Enemy"
        }
      ]
    }
  },
  {
    "Default": {
      "$type": "ConfigAbility",
      "abilityName": "Monster_Gator_Eremite_Rock_UnderGroundAttack_BS",
      "abilityMixins": [
        {
          "$type": "AttachToStateIDMixin",
          "stateIDs": ["UnderGroundAttack_Loop"],
          "modifierName": "Monster_Gator_Eremite_Rock_UnderGroundAttack_PushColliderHandle"
        },
        {
          "$type": "AttachToStateIDMixin",
          "stateIDs": ["UnderGroundAttack_BS"],
          "modifierName": "Monster_Gator_Eremite_Rock_ComboTrigger",
          "target": "Owner"
        }
      ],
      "modifiers": {
        "Monster_Gator_Eremite_Rock_UnderGroundAttack_PushColliderHandle": {
          "modifierName": "",
          "bonusCriticalHurt": 100.0,
          "onAdded": [
            {
              "$type": "EnableHDMesh",
              "canBeHandledOnRecover": true,
              "BPKOFFOCMNG": "Default"
            }
          ],
          "onRemoved": [
            {
              "$type": "EnablePushColliderName",
              "pushColliderNames": ["PushCollider"],
              "setEnable": true
            },
            {
              "$type": "EnableHDMesh",
              "enable": true,
              "BPKOFFOCMNG": "Default"
            }
          ],
          "LGJBJJBCBEH": [
            {
              "$type": "EnablePushColliderName",
              "pushColliderNames": ["PushCollider"],
              "setEnable": true
            }
          ]
        },
        "Monster_Gator_Eremite_Rock_ComboTrigger": {
          "modifierName": "",
          "duration": 5.0,
          "bonusCriticalHurt": 100.0,
          "onAdded": [
            {
              "$type": "SetAnimatorTrigger",
              "triggerID": "ComboTrigger"
            }
          ]
        }
      },
      "onAbilityStart": [
        {
          "$type": "EnablePushColliderName",
          "pushColliderNames": ["PushCollider"]
        },
        {
          "$type": "FireEffect",
          "healLimitedByCasterMaxHPRatio": "Eff_Monster_Gator_Eremite_Rock_UnderGroundAttack_Damage",
          "born": {
            "$type": "ConfigBornBySelf",
            "offset": {
              "x": 0.0,
              "y": 0.0,
              "z": 0.0
            },
            "DAPKLNIFPID": true,
            "BJCIHELGKLP": true
          },
          "effectTempleteID": -1.0
        },
        {
          "$type": "TriggerAttackEvent",
          "attackEvent": {
            "attackPattern": {
              "$type": "ConfigAttackCircle",
              "triggerType": "TriggerNoRepeat",
              "born": {
                "$type": "ConfigBornBySelf",
                "offset": {
                  "x": 0.0,
                  "y": 0.0,
                  "z": 1.5
                },
                "DAPKLNIFPID": true,
                "BJCIHELGKLP": true
              },
              "height": 1.399999976158142,
              "radius": 2.0
            },
            "attackInfo": {
              "attackTag": "",
              "attenuationTag": "",
              "attenuationGroup": "default",
              "attackProperty": {
                "damagePercentage": 0.3499999940395355,
                "damagePercentageRatio": 0.0,
                "elementType": "Rock",
                "bonusCriticalHurt": 25.0,
                "strikeType": "Blunt",
                "enBreak": 100.0
              },
              "hitPattern": {
                "onHitEffectName": "default",
                "hitImpulseType": "LV3",
                "retreatType": "ByHitDirection",
                "hitHaltTimeScale": 0.009999999776482582
              },
              "forceCameraShake": true,
              "cameraShake": {
                "shakeType": "CustomVector",
                "shakeRange": 0.25,
                "shakeTime": 1.0,
                "extension": {
                  "baseOnCamera": true,
                  "rangeAttenuation": 0.0
                }
              }
            }
          },
          "targetType": "Enemy"
        }
      ]
    }
  },
  {
    "Default": {
      "$type": "ConfigAbility",
      "abilityName": "Monster_Gator_Eremite_Rock_UnderGroundAttack_FindBlinkPoint",
      "onAbilityStart": [
        {
          "$type": "TryFindBlinkPoint",
          "target": "SelfAttackTarget",
          "maxRange": 1.0
        }
      ]
    }
  },
  {
    "Default": {
      "$type": "ConfigAbility",
      "abilityName": "Monster_Gator_Eremite_Rock_UnderGroundAttack_DoBlink",
      "onAbilityStart": [
        {
          "$type": "DoBlink"
        },
        {
          "$type": "FireEffect",
          "healLimitedByCasterMaxHPRatio": "Eff_Monster_Gator_Eremite_Rock_UnderGroundAttack_Alert",
          "born": {
            "$type": "ConfigBornBySelf",
            "DAPKLNIFPID": true
          },
          "effectTempleteID": -1.0
        }
      ]
    }
  },
  {
    "Default": {
      "$type": "ConfigAbility",
      "abilityName": "Monster_Gator_Eremite_Rock_UnderGroundAttack_DamageForUnderGround",
      "modifiers": {
        "Monster_Gator_Eremite_Rock_UnderGroundAttack_BreakGadget": {
          "modifierName": "",
          "duration": 0.5,
          "bonusCriticalHurt": 100.0,
          "onAttackLanded": [
            {
              "$type": "ApplyModifier",
              "target": "Target",
              "predicates": [
                {
                  "$type": "ByTargetGlobalValue",
                  "key": "_COMMON_GADGET_ISSUMMON",
                  "ratio": 0.0,
                  "compareType": "MoreThan"
                }
              ],
              "modifierName": "Kill_Summon_Gadget"
            }
          ]
        },
        "Kill_Summon_Gadget": {
          "modifierName": "",
          "bonusCriticalHurt": 100.0,
          "onAdded": [
            {
              "$type": "KillSelf"
            }
          ]
        }
      },
      "onAbilityStart": [
        {
          "$type": "ApplyModifier",
          "modifierName": "Monster_Gator_Eremite_Rock_UnderGroundAttack_BreakGadget"
        },
        {
          "$type": "FireEffect",
          "healLimitedByCasterMaxHPRatio": "Eff_Monster_Gator_Eremite_Rock_UnderGroundAttack_DamageForUnderGround",
          "born": {
            "$type": "ConfigBornBySelf",
            "offset": {
              "x": 0.0,
              "y": 0.0,
              "z": 0.0
            },
            "DAPKLNIFPID": true,
            "BJCIHELGKLP": true
          },
          "effectTempleteID": -1.0
        },
        {
          "$type": "TriggerAttackEvent",
          "attackEvent": {
            "attackPattern": {
              "$type": "ConfigAttackCircle",
              "triggerType": "TriggerNoRepeat",
              "born": {
                "$type": "ConfigBornBySelf",
                "offset": {
                  "x": 0.0,
                  "y": 0.0,
                  "z": 0.0
                },
                "DAPKLNIFPID": true,
                "BJCIHELGKLP": true
              },
              "height": 1.7999999523162842,
              "radius": 7.5
            },
            "attackInfo": {
              "attackTag": "",
              "attenuationTag": "",
              "attenuationGroup": "default",
              "attackProperty": {
                "damagePercentage": 0.800000011920929,
                "damagePercentageRatio": 0.0,
                "elementType": "Rock",
                "bonusCriticalHurt": 25.0,
                "strikeType": "Blunt",
                "enBreak": 10000.0
              },
              "hitPattern": {
                "onHitEffectName": "default",
                "hitImpulseType": "LV4",
                "retreatType": "ByHitDirection",
                "hitHaltTimeScale": 0.009999999776482582
              },
              "forceCameraShake": true,
              "cameraShake": {
                "shakeRange": 0.25,
                "shakeTime": 1.0,
                "shakeDir": {
                  "y": 2.0
                },
                "extension": {
                  "baseOnCamera": true,
                  "rangeAttenuation": 0.0
                }
              }
            }
          },
          "targetType": "Enemy"
        }
      ]
    }
  },
  {
    "Default": {
      "$type": "ConfigAbility",
      "abilityName": "Monster_Gator_Eremite_Rock_UnderGroundAttack_DamageForDrop",
      "modifiers": {
        "Monster_Gator_Eremite_Rock_UnderGroundAttack_BreakGadget": {
          "modifierName": "",
          "duration": 0.5,
          "bonusCriticalHurt": 100.0,
          "onAttackLanded": [
            {
              "$type": "ApplyModifier",
              "target": "Target",
              "predicates": [
                {
                  "$type": "ByTargetGlobalValue",
                  "key": "_COMMON_GADGET_ISSUMMON",
                  "ratio": 0.0,
                  "compareType": "MoreThan"
                }
              ],
              "modifierName": "Kill_Summon_Gadget"
            }
          ]
        },
        "Kill_Summon_Gadget": {
          "modifierName": "",
          "bonusCriticalHurt": 100.0,
          "onAdded": [
            {
              "$type": "KillSelf"
            }
          ]
        }
      },
      "onAbilityStart": [
        {
          "$type": "EnablePushColliderName",
          "pushColliderNames": ["PushCollider"],
          "setEnable": true
        },
        {
          "$type": "ApplyModifier",
          "modifierName": "Monster_Gator_Eremite_Rock_UnderGroundAttack_BreakGadget"
        },
        {
          "$type": "FireEffect",
          "healLimitedByCasterMaxHPRatio": "Eff_Monster_Gator_Eremite_Rock_UnderGroundAttack_DamageForDrop",
          "born": {
            "$type": "ConfigBornBySelf",
            "offset": {
              "x": 0.0,
              "y": 0.0,
              "z": 0.0
            },
            "DAPKLNIFPID": true,
            "BJCIHELGKLP": true
          },
          "effectTempleteID": -1.0
        },
        {
          "$type": "TriggerAttackEvent",
          "attackEvent": {
            "attackPattern": {
              "$type": "ConfigAttackCircle",
              "triggerType": "TriggerNoRepeat",
              "born": {
                "$type": "ConfigBornBySelf",
                "offset": {
                  "x": 0.0,
                  "y": 0.0,
                  "z": 0.0
                },
                "DAPKLNIFPID": true,
                "BJCIHELGKLP": true
              },
              "height": 1.7999999523162842,
              "radius": 7.5
            },
            "attackInfo": {
              "attackTag": "",
              "attenuationTag": "",
              "attenuationGroup": "default",
              "attackProperty": {
                "damagePercentage": 1.0,
                "damagePercentageRatio": 0.0,
                "elementType": "Rock",
                "bonusCriticalHurt": 25.0,
                "strikeType": "Blunt",
                "enBreak": 10000.0
              },
              "hitPattern": {
                "onHitEffectName": "default",
                "hitImpulseType": "LV7",
                "retreatType": "ByHitDirection",
                "hitHaltTimeScale": 0.009999999776482582
              },
              "forceCameraShake": true,
              "cameraShake": {
                "shakeType": "CustomVector",
                "shakeRange": 0.25,
                "shakeTime": 2.0,
                "shakeDir": {
                  "y": 2.0
                },
                "extension": {
                  "baseOnCamera": true,
                  "rangeAttenuation": 0.0
                }
              }
            }
          },
          "targetType": "Enemy"
        }
      ]
    }
  },
  {
    "Default": {
      "$type": "ConfigAbility",
      "abilityName": "Monster_Gator_Eremite_Rock_Die",
      "modifiers": {
        "Empty_Modifier": {
          "modifierName": "",
          "bonusCriticalHurt": 100.0
        },
        "Monster_Gator_Eremite_Rock_Die": {
          "modifierName": "",
          "duration": 1.0,
          "bonusCriticalHurt": 100.0,
          "onAdded": [
            {
              "$type": "SetGlobalValue",
              "ratio": 1.0,
              "key": "_EREMITE_SLAVE_DIE_",
              "useLimitRange": true,
              "maxValue": 1.0,
              "minValue": 0.0
            }
          ]
        }
      },
      "onAdded": [
        {
          "$type": "SetGlobalValue",
          "ratio": 0.0,
          "key": "_EREMITE_SLAVE_RETURNTOBORN_",
          "useLimitRange": true,
          "maxValue": 1.0,
          "minValue": 0.0
        }
      ],
      "onAbilityStart": [
        {
          "$type": "ApplyModifier",
          "target": "Owner",
          "predicates": [
            {
              "$type": "ByTargetGlobalValue",
              "target": "Self",
              "key": "_EREMITE_SLAVE_RETURNTOBORN_",
              "ratio": 0.0
            }
          ],
          "modifierName": "Monster_Gator_Eremite_Rock_Die"
        }
      ]
    }
  }
]
