[
  {
    "Default": {
      "$type": "ConfigAbility",
      "abilityName": "Tartaglia_EvilEye_Debut",
      "modifiers": {
        "UNIQUE_Tartaglia_EvilEye_Debut": {
          "modifierName": "",
          "isUnique": true,
          "duration": 0.800000011920929,
          "bonusCriticalHurt": 100.0,
          "onRemoved": [
            {
              "$type": "RemoveUniqueModifier",
              "modifierName": "UNIQUE_Tartaglia_Transform_Effect"
            }
          ]
        },
        "Tartaglia_CommonState": {
          "modifierName": "",
          "bonusCriticalHurt": 100.0,
          "onAdded": [
            {
              "$type": "AttachAbilityStateResistance",
              "RotationDampTime": true,
              "resistanceListID": 13002
            }
          ]
        }
      },
      "onAdded": [
        {
          "$type": "ShowUICombatBar",
          "show": true,
          "fore": true
        },
        {
          "$type": "SetAnimatorTrigger",
          "triggerID": "DebutTrigger",
          "MPTriggerOnRemote": true
        },
        {
          "$type": "ApplyModifier",
          "modifierName": "Tartaglia_CommonState"
        },
        {
          "$type": "ApplyModifier",
          "otherTargets": {
            "$type": "IDODCGJLHAE",
            "operation": "AND",
            "value": 3
          },
          "modifierName": "UNIQUE_Tartaglia_EvilEye_Debut"
        }
      ]
    }
  },
  {
    "Default": {
      "$type": "ConfigAbility",
      "abilityName": "Tartaglia_EvilEye_ReminderController",
      "onAdded": [
        {
          "$type": "Predicated",
          "targetPredicates": [
            {
              "$type": "ByTargetGlobalValue",
              "key": "_MONSTERAFFIX_QUEST_ADJUST",
              "ratio": 1.0
            }
          ],
          "successActions": [
            {
              "$type": "ShowReminder",
              "id": 201010201
            }
          ]
        }
      ]
    }
  },
  {
    "Default": {
      "$type": "ConfigAbility",
      "abilityName": "Tartaglia_EvilEye_EquipController",
      "abilityMixins": [
        {
          "$type": "AttachToStateIDMixin",
          "stateIDs": [
            "NormalIdle_Blade",
            "NormalAttack_Blade",
            "NormalAttack_Flexible",
            "HiraishinBS",
            "RushMove",
            "ExtraAttack",
            "Defend",
            "DefendAttack",
            "Recover"
          ],
          "modifierName": "Tartaglia_EquipController_Blade"
        },
        {
          "$type": "AttachToStateIDMixin",
          "stateIDs": [
            "NormalAttack_DualBlade",
            "StrikeAttackBS",
            "StrikeAttack",
            "SweepAttack",
            "Hiraishin",
            "HiraishinAS"
          ],
          "modifierName": "Tartaglia_EquipController_DualBlade"
        }
      ],
      "modifiers": {
        "Tartaglia_EquipController_Blade": {
          "modifierName": "",
          "bonusCriticalHurt": 100.0,
          "onAdded": [
            {
              "$type": "Predicated",
              "targetPredicates": [
                {
                  "$type": "ByTargetGlobalValue",
                  "key": "_MONSTER_TARTAGLIA_EQUIPCONTROLLER_BLADE",
                  "ratio": 0.0,
                  "compareType": "NoneOrEqual"
                }
              ],
              "successActions": [
                {
                  "$type": "TriggerCreateGadgetToEquipPart",
                  "gadgetID": 50004033,
                  "equipPart": "equip02"
                },
                {
                  "$type": "TriggerCreateGadgetToEquipPart",
                  "gadgetID": 50004034,
                  "equipPart": "equip03"
                },
                {
                  "$type": "AddGlobalValue",
                  "ratio": 1.0,
                  "key": "_MONSTER_TARTAGLIA_EQUIPCONTROLLER_BLADE",
                  "useLimitRange": true,
                  "maxValue": 1.0,
                  "minValue": 0.0
                }
              ],
              "failActions": [
                {
                  "$type": "TriggerHideWeapon",
                  "visible": true,
                  "partNames": ["equip02", "equip03"],
                  "NJFPGKKGMIC": true
                }
              ]
            },
            {
              "$type": "SetAnimatorBool",
              "boolID": "HasBlade",
              "ratio": true
            }
          ],
          "onRemoved": [
            {
              "$type": "TriggerHideWeapon",
              "partNames": ["equip02", "equip03"],
              "NJFPGKKGMIC": true
            },
            {
              "$type": "SetAnimatorBool",
              "boolID": "HasBlade"
            },
            {
              "$type": "FireEffect",
              "healLimitedByCasterMaxHPRatio": "Eff_Monster_Tartaglia_EvilEye_Blade_DisappearL",
              "effectTempleteID": -1.0
            },
            {
              "$type": "FireEffect",
              "healLimitedByCasterMaxHPRatio": "Eff_Monster_Tartaglia_EvilEye_Blade_DisappearR",
              "effectTempleteID": -1.0
            }
          ]
        },
        "Tartaglia_EquipController_DualBlade": {
          "modifierName": "",
          "bonusCriticalHurt": 100.0,
          "onAdded": [
            {
              "$type": "Predicated",
              "targetPredicates": [
                {
                  "$type": "ByTargetGlobalValue",
                  "key": "_MONSTER_TARTAGLIA_EQUIPCONTROLLER_DUALBLADE",
                  "ratio": 0.0,
                  "compareType": "NoneOrEqual"
                }
              ],
              "successActions": [
                {
                  "$type": "TriggerCreateGadgetToEquipPart",
                  "gadgetID": 50004037,
                  "equipPart": "equip04"
                },
                {
                  "$type": "AddGlobalValue",
                  "ratio": 1.0,
                  "key": "_MONSTER_TARTAGLIA_EQUIPCONTROLLER_DUALBLADE",
                  "useLimitRange": true,
                  "maxValue": 1.0,
                  "minValue": 0.0
                }
              ],
              "failActions": [
                {
                  "$type": "TriggerHideWeapon",
                  "visible": true,
                  "partNames": ["equip04"],
                  "NJFPGKKGMIC": true
                }
              ]
            }
          ],
          "onRemoved": [
            {
              "$type": "TriggerHideWeapon",
              "partNames": ["equip04"],
              "NJFPGKKGMIC": true
            },
            {
              "$type": "FireEffect",
              "healLimitedByCasterMaxHPRatio": "Eff_Monster_Tartaglia_EvilEye_DualBlade_Disappear",
              "effectTempleteID": -1.0
            }
          ]
        }
      }
    }
  },
  {
    "Default": {
      "$type": "ConfigAbility",
      "abilityName": "MonEquip_Tartaglia_DualBlade",
      "modifiers": {
        "MonEquip_Tartaglia_DualBlade": {
          "modifierName": "",
          "bonusCriticalHurt": 100.0,
          "onAdded": [
            {
              "$type": "AttachEffect",
              "healLimitedByCasterMaxHPRatio": "Eff_Monster_Tartaglia_EvilEye_DualBlade_Weapon",
              "effectTempleteID": -1.0
            }
          ]
        }
      },
      "onAdded": [
        {
          "$type": "ApplyModifier",
          "modifierName": "MonEquip_Tartaglia_DualBlade"
        }
      ]
    }
  },
  {
    "Default": {
      "$type": "ConfigAbility",
      "abilityName": "MonEquip_Tartaglia_Blade_Electric",
      "modifiers": {
        "MonEquip_Tartaglia_Blade_Electric": {
          "modifierName": "",
          "bonusCriticalHurt": 100.0,
          "onAdded": [
            {
              "$type": "AttachEffect",
              "healLimitedByCasterMaxHPRatio": "Eff_Monster_Tartaglia_EvilEye_Blade_Weapon",
              "effectTempleteID": -1.0
            }
          ]
        }
      },
      "onAdded": [
        {
          "$type": "ApplyModifier",
          "modifierName": "MonEquip_Tartaglia_Blade_Electric"
        }
      ]
    }
  },
  {
    "Default": {
      "$type": "ConfigAbility",
      "abilityName": "Tartaglia_EvilEye_GapController",
      "abilitySpecials": {
        "Tartaglia_Active_RandomTime": 9.0,
        "Tartaglia_StopAttack_RandomTime": 3.0
      },
      "modifiers": {
        "Tartaglia_GapController_Initial": {
          "modifierName": "",
          "duration": 1.0,
          "bonusCriticalHurt": 100.0,
          "onAdded": [
            {
              "$type": "SetPoseBool",
              "boolID": "StopAttack",
              "ratio": true
            }
          ],
          "onRemoved": [
            {
              "$type": "SetPoseBool",
              "boolID": "StopAttack"
            },
            {
              "$type": "SetRandomOverrideMapValue",
              "valueRangeMax": 12.0,
              "valueRangeMin": 6.0,
              "overrideMapKey": "Tartaglia_Active_RandomTime"
            },
            {
              "$type": "ApplyModifier",
              "modifierName": "Tartaglia_GapController_Active"
            }
          ]
        },
        "Tartaglia_GapController_Active": {
          "modifierName": "",
          "duration": "Tartaglia_Active_RandomTime",
          "bonusCriticalHurt": 100.0,
          "onRemoved": [
            {
              "$type": "SetRandomOverrideMapValue",
              "valueRangeMax": 5.0,
              "valueRangeMin": 3.0,
              "overrideMapKey": "Tartaglia_StopAttack_RandomTime"
            },
            {
              "$type": "ApplyModifier",
              "modifierName": "Tartaglia_GapController_StopAttack"
            }
          ]
        },
        "Tartaglia_GapController_StopAttack": {
          "modifierName": "",
          "duration": "Tartaglia_StopAttack_RandomTime",
          "bonusCriticalHurt": 100.0,
          "onAdded": [
            {
              "$type": "SetPoseBool",
              "boolID": "StopAttack",
              "ratio": true
            }
          ],
          "onRemoved": [
            {
              "$type": "SetPoseBool",
              "boolID": "StopAttack"
            },
            {
              "$type": "SetRandomOverrideMapValue",
              "valueRangeMax": 12.0,
              "valueRangeMin": 6.0,
              "overrideMapKey": "Tartaglia_Active_RandomTime"
            },
            {
              "$type": "ApplyModifier",
              "modifierName": "Tartaglia_GapController_Active"
            }
          ]
        }
      },
      "onAdded": [
        {
          "$type": "ApplyModifier",
          "modifierName": "Tartaglia_GapController_Initial"
        }
      ]
    }
  },
  {
    "Default": {
      "$type": "ConfigAbility",
      "abilityName": "Tartaglia_ThunderClap_Over",
      "abilityMixins": [
        {
          "$type": "AttachModifierToSelfGlobalValueMixin",
          "globalValueKey": "_MONSTER_TARTAGLIA_THUNDERCLAP_OVER",
          "defaultGlobalValueOnCreate": 0.0,
          "valueSteps": [-0.5, 0.5, 1.5],
          "modifierNameSteps": ["Tartaglia_Empty", "Tartaglia_ThunderClap_Over"]
        }
      ],
      "modifiers": {
        "Tartaglia_Empty": {
          "modifierName": "",
          "bonusCriticalHurt": 100.0
        },
        "Tartaglia_ThunderClap_Over": {
          "modifierName": "",
          "bonusCriticalHurt": 100.0,
          "onAdded": [
            {
              "$type": "RemoveUniqueModifier",
              "target": "AllTeams",
              "modifierName": "UNIQUE_Tartaglia_ThunderClap_TeamController"
            }
          ]
        }
      }
    }
  },
  {
    "Default": {
      "$type": "ConfigAbility",
      "abilityName": "Tartaglia_ThunderClap_Detect",
      "modifiers": {
        "Tartaglia_ThunderClap_Detect": {
          "modifierName": "",
          "bonusCriticalHurt": 100.0,
          "onAttackLanded": [
            {
              "$type": "ApplyModifier",
              "target": "Target",
              "predicates": [
                {
                  "$type": "ByEntityTypes",
                  "entityTypes": ["Avatar"]
                },
                {
                  "$type": "LCCMCDGDKGI",
                  "attackTags": ["Tartaglia_ThunderClap"]
                },
                {
                  "$type": "ByTargetGlobalValue",
                  "key": "_MONSTER_TARTAGLIA_THUNDERCLAP_AVATAR",
                  "ratio": 0.0,
                  "compareType": "NoneOrEqual"
                }
              ],
              "modifierName": "UNIQUE_Tartaglia_ThunderClap_TeamSearcher"
            },
            {
              "$type": "ApplyModifier",
              "target": "Target",
              "predicates": [
                {
                  "$type": "LCCMCDGDKGI",
                  "attackTags": [
                    "Tartaglia_ThunderClap_Explosion",
                    "Tartaglia_Hiraishin"
                  ]
                },
                {
                  "$type": "ByTargetGlobalValue",
                  "key": "_MONSTER_TARTAGLIA_THUNDERCLAP_AVATAR",
                  "ratio": 1.0
                }
              ],
              "modifierName": "UNIQUE_Tartaglia_ThunderClap_Explosion"
            }
          ]
        },
        "UNIQUE_Tartaglia_ThunderClap_Explosion": {
          "modifierName": "",
          "isUnique": true,
          "duration": 0.10000000149011612,
          "bonusCriticalHurt": 100.0,
          "onAdded": [
            {
              "$type": "SetGlobalValue",
              "ratio": 1.0,
              "key": "_MONSTER_TARTAGLIA_THUNDERCLAP_EXPLOSION",
              "useLimitRange": true,
              "maxValue": 1.0,
              "minValue": 0.0
            },
            {
              "$type": "RemoveUniqueModifier",
              "modifierName": "UNIQUE_Tartaglia_ThunderClap"
            }
          ]
        },
        "UNIQUE_Tartaglia_ThunderClap_TeamSearcher": {
          "modifierName": "",
          "isUnique": true,
          "duration": 0.10000000149011612,
          "bonusCriticalHurt": 100.0,
          "onAdded": [
            {
              "$type": "ApplyModifier",
              "target": "Team",
              "predicates": [
                {
                  "$type": "GMGEIHHLMCO",
                  "target": "Caster",
                  "KONBGFMBNDO": 0.0
                }
              ],
              "modifierName": "UNIQUE_Tartaglia_ThunderClap_TeamController"
            }
          ]
        },
        "UNIQUE_Tartaglia_ThunderClap_TeamController": {
          "modifierName": "",
          "isUnique": true,
          "duration": 30.0,
          "bonusCriticalHurt": 100.0,
          "modifierMixins": [
            {
              "$type": "CurLocalAvatarMixin",
              "modifierName": "UNIQUE_Tartaglia_ThunderClap"
            }
          ],
          "onAdded": [
            {
              "$type": "ApplyModifier",
              "target": "CurLocalAvatar",
              "modifierName": "UNIQUE_Tartaglia_ThunderClap"
            },
            {
              "$type": "AttachEffect",
              "healLimitedByCasterMaxHPRatio": "Eff_Monster_Tartaglia_ThunderClap",
              "effectTempleteID": -1.0
            },
            {
              "$type": "SetGlobalValue",
              "ratio": 1.0,
              "key": "_MONSTER_TARTAGLIA_THUNDERCLAP",
              "useLimitRange": true,
              "maxValue": 1.0,
              "minValue": 0.0
            }
          ],
          "onRemoved": [
            {
              "$type": "FireEffect",
              "healLimitedByCasterMaxHPRatio": "Eff_Monster_Tartaglia_ThunderClap_Remove",
              "effectTempleteID": -1.0
            },
            {
              "$type": "SetGlobalValue",
              "ratio": 0.0,
              "key": "_MONSTER_TARTAGLIA_THUNDERCLAP",
              "useLimitRange": true,
              "maxValue": 1.0,
              "minValue": 0.0
            },
            {
              "$type": "RemoveUniqueModifier",
              "target": "CurTeamAvatars",
              "predicates": [
                {
                  "$type": "ByTargetGlobalValue",
                  "key": "_MONSTER_TARTAGLIA_THUNDERCLAP_AVATAR",
                  "ratio": 1.0
                }
              ],
              "modifierName": "UNIQUE_Tartaglia_ThunderClap"
            },
            {
              "$type": "SetGlobalValue",
              "target": "CurTeamAvatars",
              "ratio": 0.0,
              "key": "_MONSTER_TARTAGLIA_THUNDERCLAP_AVATAR",
              "useLimitRange": true,
              "maxValue": 1.0,
              "minValue": 0.0
            }
          ]
        },
        "UNIQUE_Tartaglia_ThunderClap": {
          "modifierName": "",
          "isUnique": true,
          "elementType": "Electric",
          "bonusCriticalHurt": 50.0,
          "onAdded": [
            {
              "$type": "SetGlobalValue",
              "ratio": 1.0,
              "key": "_MONSTER_TARTAGLIA_THUNDERCLAP_AVATAR",
              "useLimitRange": true,
              "maxValue": 1.0,
              "minValue": 0.0
            }
          ],
          "onRemoved": [
            {
              "$type": "SetGlobalValue",
              "ratio": 0.0,
              "key": "_MONSTER_TARTAGLIA_THUNDERCLAP_AVATAR",
              "useLimitRange": true,
              "maxValue": 1.0,
              "minValue": 0.0
            },
            {
              "$type": "Predicated",
              "targetPredicates": [
                {
                  "$type": "ByTargetGlobalValue",
                  "key": "_MONSTER_TARTAGLIA_THUNDERCLAP_EXPLOSION",
                  "ratio": 0.0,
                  "compareType": "NoneOrEqual"
                }
              ],
              "failActions": [
                {
                  "$type": "SetGlobalValue",
                  "ratio": 0.0,
                  "key": "_MONSTER_TARTAGLIA_THUNDERCLAP_EXPLOSION",
                  "useLimitRange": true,
                  "maxValue": 1.0,
                  "minValue": 0.0
                },
                {
                  "$type": "FireEffect",
                  "healLimitedByCasterMaxHPRatio": "Eff_Monster_Tartaglia_ThunderClap_Explosion",
                  "effectTempleteID": -1.0
                },
                {
                  "$type": "DamageByAttackValue",
                  "attackInfo": {
                    "attackTag": "",
                    "attenuationTag": "",
                    "attenuationGroup": "default",
                    "attackProperty": {
                      "damagePercentage": 1.0,
                      "damagePercentageRatio": 0.0,
                      "elementType": "Electric",
                      "bonusCriticalHurt": 0.0,
                      "strikeType": "Default",
                      "enBreak": 5000.0
                    },
                    "hitPattern": {
                      "onHitEffectName": "default",
                      "hitImpulseType": "LV1"
                    }
                  }
                }
              ]
            },
            {
              "$type": "RemoveUniqueModifier",
              "target": "Team",
              "predicates": [
                {
                  "$type": "ByTargetGlobalValue",
                  "key": "_MONSTER_TARTAGLIA_THUNDERCLAP",
                  "ratio": 1.0
                }
              ],
              "modifierName": "UNIQUE_Tartaglia_ThunderClap_TeamController"
            }
          ],
          "onKill": [
            {
              "$type": "RemoveUniqueModifier",
              "target": "Team",
              "predicates": [
                {
                  "$type": "ByTargetGlobalValue",
                  "key": "_MONSTER_TARTAGLIA_THUNDERCLAP",
                  "ratio": 1.0
                }
              ],
              "modifierName": "UNIQUE_Tartaglia_ThunderClap_TeamController"
            }
          ]
        }
      },
      "onAdded": [
        {
          "$type": "ApplyModifier",
          "modifierName": "Tartaglia_ThunderClap_Detect"
        },
        {
          "$type": "CreateGadget",
          "lifeByOwnerIsAlive": true,
          "born": {
            "$type": "MIAJPKDCOPA",
            "DAPKLNIFPID": true,
            "actionPointType": "AureaePoint",
            "GIAHMPPLHHF": {
              "$type": "JIIIIFKFCAM",
              "actionPointID": 1
            }
          },
          "sightGroupWithOwner": true,
          "gadgetID": 42903101,
          "campID": 4001,
          "campTargetType": "Enemy",
          "byServer": true
        }
      ],
      "onKill": [
        {
          "$type": "SetGlobalValue",
          "otherTargets": {
            "$type": "IDODCGJLHAE",
            "operation": "AND",
            "value": 3
          },
          "ratio": 1.0,
          "key": "_MONSTER_TARTAGLIA_THUNDERCLAP_OVER",
          "maxValue": 0.0,
          "minValue": 0.0
        }
      ]
    }
  },
  {
    "Default": {
      "$type": "ConfigAbility",
      "abilityName": "Tartaglia_ThunderClap_AIController",
      "abilityMixins": [
        {
          "$type": "AttachModifierToSelfGlobalValueMixin",
          "globalValueKey": "_MONSTER_TARTAGLIA_THUNDERCLAP_LEVEL",
          "defaultGlobalValueOnCreate": 0.0,
          "valueSteps": [-0.5, 0.5, 2.5, 4.5],
          "modifierNameSteps": [
            "Tartaglia_ThunderClap_Level_Empty",
            "Tartaglia_ThunderClap_Level_1st",
            "Tartaglia_ThunderClap_Level_2nd"
          ]
        }
      ],
      "modifiers": {
        "Tartaglia_ThunderClap_AIController": {
          "modifierName": "",
          "bonusCriticalHurt": 100.0,
          "thinkInterval": 1.0,
          "onThinkInterval": [
            {
              "$type": "SetGlobalValue",
              "ratio": 0.0,
              "key": "_MONSTER_TARTAGLIA_THUNDERCLAP_COUNT",
              "useLimitRange": true,
              "maxValue": 1.0,
              "minValue": 0.0
            },
            {
              "$type": "Predicated",
              "target": "AllTeams",
              "targetPredicates": [
                {
                  "$type": "ByTargetGlobalValue",
                  "key": "_MONSTER_TARTAGLIA_THUNDERCLAP",
                  "ratio": 1.0
                }
              ],
              "successActions": [
                {
                  "$type": "SetGlobalValue",
                  "ratio": 1.0,
                  "key": "_MONSTER_TARTAGLIA_THUNDERCLAP_COUNT",
                  "useLimitRange": true,
                  "maxValue": 1.0,
                  "minValue": 0.0
                }
              ]
            },
            {
              "$type": "Predicated",
              "targetPredicates": [
                {
                  "$type": "ByTargetGlobalValue",
                  "key": "_MONSTER_TARTAGLIA_THUNDERCLAP_COUNT",
                  "ratio": 0.0,
                  "compareType": "MoreThan"
                }
              ],
              "successActions": [
                {
                  "$type": "ApplyModifier",
                  "modifierName": "Tartaglia_ThunderClap_AIController_Count"
                }
              ],
              "failActions": [
                {
                  "$type": "RemoveModifier",
                  "modifierName": "Tartaglia_ThunderClap_AIController_Count"
                }
              ]
            }
          ]
        },
        "Tartaglia_ThunderClap_AIController_Count": {
          "modifierName": "",
          "bonusCriticalHurt": 100.0,
          "thinkInterval": 5.0,
          "onAdded": [
            {
              "$type": "ApplyModifier",
              "target": "Owner",
              "modifierName": "Tartaglia_ThunderClap_SetTrue"
            },
            {
              "$type": "SetGlobalValue",
              "ratio": 0.0,
              "key": "_MONSTER_TARTAGLIA_THUNDERCLAP_LEVEL",
              "useLimitRange": true,
              "maxValue": 4.0,
              "minValue": 0.0
            }
          ],
          "onRemoved": [
            {
              "$type": "ApplyModifier",
              "target": "Owner",
              "modifierName": "Tartaglia_ThunderClap_SetFalse"
            },
            {
              "$type": "SetGlobalValue",
              "ratio": 0.0,
              "key": "_MONSTER_TARTAGLIA_THUNDERCLAP_LEVEL",
              "useLimitRange": true,
              "maxValue": 4.0,
              "minValue": 0.0
            }
          ],
          "onThinkInterval": [
            {
              "$type": "AddGlobalValue",
              "ratio": 1.0,
              "key": "_MONSTER_TARTAGLIA_THUNDERCLAP_LEVEL",
              "useLimitRange": true,
              "maxValue": 4.0,
              "minValue": 0.0
            }
          ]
        },
        "Tartaglia_ThunderClap_SetTrue": {
          "modifierName": "",
          "duration": 1.0,
          "bonusCriticalHurt": 100.0,
          "onAdded": [
            {
              "$type": "SetPoseBool",
              "boolID": "HasThunderClap",
              "ratio": true
            }
          ]
        },
        "Tartaglia_ThunderClap_SetFalse": {
          "modifierName": "",
          "duration": 1.0,
          "bonusCriticalHurt": 100.0,
          "onAdded": [
            {
              "$type": "SetPoseBool",
              "boolID": "HasThunderClap"
            }
          ]
        },
        "Tartaglia_ThunderClap_Level_1st": {
          "modifierName": "",
          "bonusCriticalHurt": 100.0,
          "onAdded": [
            {
              "$type": "ApplyModifier",
              "target": "Owner",
              "modifierName": "Tartaglia_ThunderClap_SetTrue_1st"
            }
          ],
          "onRemoved": [
            {
              "$type": "ApplyModifier",
              "target": "Owner",
              "modifierName": "Tartaglia_ThunderClap_SetFalse_1st"
            }
          ]
        },
        "Tartaglia_ThunderClap_SetTrue_1st": {
          "modifierName": "",
          "duration": 1.0,
          "bonusCriticalHurt": 100.0,
          "onAdded": [
            {
              "$type": "SetPoseBool",
              "boolID": "ThunderClapLevel_1st",
              "ratio": true
            }
          ]
        },
        "Tartaglia_ThunderClap_SetFalse_1st": {
          "modifierName": "",
          "duration": 1.0,
          "bonusCriticalHurt": 100.0,
          "onAdded": [
            {
              "$type": "SetPoseBool",
              "boolID": "ThunderClapLevel_1st"
            }
          ]
        },
        "Tartaglia_ThunderClap_Level_2nd": {
          "modifierName": "",
          "bonusCriticalHurt": 100.0,
          "onAdded": [
            {
              "$type": "ApplyModifier",
              "target": "Owner",
              "modifierName": "Tartaglia_ThunderClap_SetTrue_2nd"
            }
          ],
          "onRemoved": [
            {
              "$type": "ApplyModifier",
              "target": "Owner",
              "modifierName": "Tartaglia_ThunderClap_SetFalse_2nd"
            }
          ]
        },
        "Tartaglia_ThunderClap_SetTrue_2nd": {
          "modifierName": "",
          "duration": 1.0,
          "bonusCriticalHurt": 100.0,
          "onAdded": [
            {
              "$type": "SetPoseBool",
              "boolID": "ThunderClapLevel_2nd",
              "ratio": true
            }
          ]
        },
        "Tartaglia_ThunderClap_SetFalse_2nd": {
          "modifierName": "",
          "duration": 1.0,
          "bonusCriticalHurt": 100.0,
          "onAdded": [
            {
              "$type": "SetPoseBool",
              "boolID": "ThunderClapLevel_2nd"
            }
          ]
        },
        "Tartaglia_ThunderClap_Level_Empty": {
          "modifierName": "",
          "bonusCriticalHurt": 100.0
        }
      },
      "onAdded": [
        {
          "$type": "ApplyModifier",
          "modifierName": "Tartaglia_ThunderClap_AIController"
        },
        {
          "$type": "SetGlobalValue",
          "ratio": 0.0,
          "key": "_MONSTER_TARTAGLIA_THUNDERCLAP_COUNT",
          "useLimitRange": true,
          "maxValue": 1.0,
          "minValue": 0.0
        }
      ]
    }
  },
  {
    "Default": {
      "$type": "ConfigAbility",
      "abilityName": "Tartaglia_EvilEye_ChangePosition",
      "abilityMixins": [
        {
          "$type": "AttachToNormalizedTimeMixin",
          "stateID": "ChangePosition01",
          "modifierName": "Tartaglia_EvilEye_ChangePosition01",
          "normalizeEnd": 0.05999999865889549
        },
        {
          "$type": "AttachToNormalizedTimeMixin",
          "stateID": "ChangePosition02",
          "modifierName": "Tartaglia_EvilEye_ChangePosition02",
          "normalizeEnd": 0.05999999865889549
        },
        {
          "$type": "AttachToNormalizedTimeMixin",
          "stateID": "ChangePosition03",
          "modifierName": "Tartaglia_EvilEye_ChangePosition03",
          "normalizeEnd": 0.05999999865889549
        }
      ],
      "modifiers": {
        "Tartaglia_EvilEye_ChangePosition01": {
          "modifierName": "",
          "bonusCriticalHurt": 100.0,
          "onAdded": [
            {
              "$type": "AttachModifier",
              "modifierName": "Tartaglia_EvilEye_ChangePosition"
            }
          ]
        },
        "Tartaglia_EvilEye_ChangePosition02": {
          "modifierName": "",
          "bonusCriticalHurt": 100.0,
          "onAdded": [
            {
              "$type": "AttachModifier",
              "modifierName": "Tartaglia_EvilEye_ChangePosition"
            }
          ]
        },
        "Tartaglia_EvilEye_ChangePosition03": {
          "modifierName": "",
          "bonusCriticalHurt": 100.0,
          "onAdded": [
            {
              "$type": "AttachModifier",
              "modifierName": "Tartaglia_EvilEye_ChangePosition"
            }
          ]
        },
        "Tartaglia_EvilEye_ChangePosition": {
          "modifierName": "",
          "bonusCriticalHurt": 100.0,
          "onAdded": [
            {
              "$type": "EnableAfterImage",
              "enable": true
            },
            {
              "$type": "AttachEffect",
              "healLimitedByCasterMaxHPRatio": "Eff_Monster_Tartaglia_EvilEye_ChangePosition",
              "effectTempleteID": -1.0
            },
            {
              "$type": "FireEffect",
              "healLimitedByCasterMaxHPRatio": "Eff_Monster_Tartaglia_EvilEye_ChangePositionBS",
              "effectTempleteID": -1.0
            },
            {
              "$type": "AttachModifier",
              "modifierName": "Tartaglia_EvilEye_ChangePosition_Invincible"
            },
            {
              "$type": "AttachModifier",
              "modifierName": "Tartaglia_EvilEye_ChangePosition_DenyLockOn"
            },
            {
              "$type": "EnableHitBoxByName",
              "hitBoxNames": ["HitBox", "HeadBox"]
            },
            {
              "$type": "EnablePushColliderName",
              "pushColliderNames": ["PushCollider"]
            }
          ],
          "onRemoved": [
            {
              "$type": "EnableAfterImage"
            },
            {
              "$type": "FireEffect",
              "healLimitedByCasterMaxHPRatio": "Eff_Monster_Tartaglia_EvilEye_ChangePositionAS",
              "effectTempleteID": -1.0
            },
            {
              "$type": "EnableHitBoxByName",
              "hitBoxNames": ["HitBox", "HeadBox"],
              "setEnable": true
            },
            {
              "$type": "EnablePushColliderName",
              "pushColliderNames": ["PushCollider"],
              "setEnable": true
            }
          ]
        },
        "Tartaglia_EvilEye_ChangePosition_Invincible": {
          "modifierName": "",
          "bonusCriticalHurt": 100.0,
          "state": "Invincible"
        },
        "Tartaglia_EvilEye_ChangePosition_DenyLockOn": {
          "modifierName": "",
          "bonusCriticalHurt": 100.0,
          "state": "DenyLockOn"
        }
      },
      "onAbilityStart": [
        {
          "$type": "TryFindBlinkPointByBorn",
          "born": {
            "$type": "MIAJPKDCOPA",
            "DAPKLNIFPID": true,
            "actionPointType": "AureaePoint",
            "GIAHMPPLHHF": {
              "$type": "KANCBINCIEE",
              "distance": 16.0
            }
          },
          "hitSceneTest": false,
          "limitY": 2.5
        },
        {
          "$type": "FixedMonsterRushMove",
          "toPos": {
            "$type": "IOHLPEPEKAP"
          },
          "timeRange": 0.30000001192092896,
          "animatorStateIDs": [
            "ChangePosition01",
            "ChangePosition02",
            "ChangePosition03"
          ],
          "overrideMoveCollider": "",
          "checkAnimatorStateOnExitOnly": true
        }
      ]
    }
  },
  {
    "Default": {
      "$type": "ConfigAbility",
      "abilityName": "Tartaglia_EvilEye_Defend",
      "abilitySpecials": {
        "Tartaglia_EvilEye_Defend_RandomValue": 0.0,
        "Tartaglia_EvilEye_DefendAttack_Probability": 0.12999999523162842
      },
      "modifiers": {
        "Tartaglia_EvilEye_Defend": {
          "modifierName": "",
          "bonusCriticalHurt": 100.0,
          "modifierMixins": [
            {
              "$type": "MonsterDefendMixin",
              "stateIDs": [
                "NormalIdle",
                "NormalIdle_Blade",
                "NormalMove",
                "Defend",
                "NormalAttack_Flexible",
                "StrikeAttack_Flexible",
                "SweepAttack_Flexible",
                "ChangePosition_Flexible"
              ],
              "defendTriggerID": "DefendTrigger",
              "defendProbability": 1.0,
              "defendProbabilityDelta": 0.0,
              "ODNMJFOKIHA": 0.0,
              "NDMAEIECBBC": 0,
              "attackType": "Melee",
              "onDefendSucceded": [
                {
                  "$type": "SetRandomOverrideMapValue",
                  "valueRangeMax": 1.0,
                  "overrideMapKey": "Tartaglia_EvilEye_Defend_RandomValue"
                },
                {
                  "$type": "SetAnimatorFloat",
                  "floatID": "RandomValue",
                  "ratio": "Tartaglia_EvilEye_Defend_RandomValue"
                },
                {
                  "$type": "AddGlobalValue",
                  "ratio": 1.0,
                  "key": "_MONSTER_TARTAGLIA_EVILEYE_DEFEND",
                  "useLimitRange": true,
                  "maxValue": 1.0,
                  "minValue": 0.0
                },
                {
                  "$type": "ApplyModifier",
                  "modifierName": "Tartaglia_EvilEye_Defend_Effect"
                }
              ]
            }
          ],
          "onBeingHit": [
            {
              "$type": "Predicated",
              "targetPredicates": [
                {
                  "$type": "ByTargetGlobalValue",
                  "key": "_MONSTER_TARTAGLIA_EVILEYE_DEFEND",
                  "ratio": 1.0
                },
                {
                  "$type": "NBKDFLDAGEH",
                  "ABCEMJKANKB": 0.0
                }
              ],
              "successActions": [
                {
                  "$type": "Predicated",
                  "targetPredicates": [
                    {
                      "$type": "OIEGBANNLOG",
                      "CIMNBKFMPGD": "Electric"
                    }
                  ],
                  "successActions": [
                    {
                      "$type": "RemoveModifier",
                      "modifierName": "Tartaglia_EvilEye_Defend_Effect"
                    },
                    {
                      "$type": "SetAnimatorTrigger",
                      "triggerID": "ForceDefendAttackTrigger"
                    },
                    {
                      "$type": "Predicated",
                      "target": "Target",
                      "targetPredicates": [
                        {
                          "$type": "ByEntityTypes",
                          "entityTypes": ["Avatar"]
                        }
                      ],
                      "successActions": [
                        {
                          "$type": "TurnDirection",
                          "target": "Target"
                        }
                      ],
                      "failActions": [
                        {
                          "$type": "TurnDirection",
                          "target": "TargetOriginOwner"
                        }
                      ]
                    }
                  ],
                  "failActions": [
                    {
                      "$type": "Randomed",
                      "chance": "Tartaglia_EvilEye_DefendAttack_Probability",
                      "successActions": [
                        {
                          "$type": "RemoveModifier",
                          "modifierName": "Tartaglia_EvilEye_Defend_Effect"
                        },
                        {
                          "$type": "SetAnimatorTrigger",
                          "triggerID": "DefendAttackTrigger"
                        },
                        {
                          "$type": "Predicated",
                          "target": "Target",
                          "targetPredicates": [
                            {
                              "$type": "ByEntityTypes",
                              "entityTypes": ["Avatar"]
                            }
                          ],
                          "successActions": [
                            {
                              "$type": "TurnDirection",
                              "target": "Target"
                            }
                          ],
                          "failActions": [
                            {
                              "$type": "TurnDirection",
                              "target": "TargetOriginOwner"
                            }
                          ]
                        }
                      ]
                    }
                  ]
                }
              ]
            },
            {
              "$type": "AddGlobalValue",
              "ratio": -10.0,
              "key": "_MONSTER_TARTAGLIA_EVILEYE_DEFEND",
              "useLimitRange": true,
              "maxValue": 1.0,
              "minValue": 0.0
            }
          ]
        },
        "Tartaglia_EvilEye_Defend_Effect": {
          "modifierName": "",
          "duration": 1.0,
          "bonusCriticalHurt": 100.0,
          "onAdded": [
            {
              "$type": "AttachEffect",
              "healLimitedByCasterMaxHPRatio": "Eff_Monster_Tartaglia_EvilEye_Blade_Defend",
              "effectTempleteID": -1.0
            },
            {
              "$type": "SetPoseBool",
              "boolID": "StopAttack",
              "ratio": true
            }
          ],
          "onRemoved": [
            {
              "$type": "FireEffect",
              "healLimitedByCasterMaxHPRatio": "Eff_Monster_Tartaglia_EvilEye_Blade_Defend_Broken",
              "effectTempleteID": -1.0
            },
            {
              "$type": "SetPoseBool",
              "boolID": "StopAttack"
            }
          ],
          "onBeingHit": [
            {
              "$type": "FireEffect",
              "target": "Target",
              "healLimitedByCasterMaxHPRatio": "Eff_Monster_Tartaglia_EvilEye_Blade_Defend_BeHit",
              "born": {
                "$type": "ConfigBornBySelf",
                "direction": {
                  "$type": "IHINHODOMIN"
                }
              },
              "effectTempleteID": -1.0
            }
          ]
        }
      },
      "onAdded": [
        {
          "$type": "ApplyModifier",
          "modifierName": "Tartaglia_EvilEye_Defend"
        },
        {
          "$type": "SetAnimatorBool",
          "boolID": "DefendState",
          "ratio": true
        }
      ]
    }
  },
  {
    "Default": {
      "$type": "ConfigAbility",
      "abilityName": "Tartaglia_EvilEye_Recover",
      "abilityMixins": [
        {
          "$type": "DoActionByStateIDMixin",
          "stateIDs": ["BeHit"],
          "enterActions": [
            {
              "$type": "Predicated",
              "targetPredicates": [
                {
                  "$type": "CGKNNFNIILK",
                  "ratio": true,
                  "parameter": "DefendState"
                }
              ],
              "successActions": [
                {
                  "$type": "ApplyModifier",
                  "modifierName": "Tartaglia_EvilEye_Recover_Timer"
                }
              ]
            }
          ]
        }
      ],
      "abilitySpecials": {
        "Tartaglia_EvilEye_Recover_RandomTime": 7.0
      },
      "modifiers": {
        "Tartaglia_EvilEye_Recover_Timer": {
          "modifierName": "",
          "duration": [1.0, "Tartaglia_EvilEye_Recover_RandomTime", "ADD"],
          "bonusCriticalHurt": 100.0,
          "modifierMixins": [
            {
              "$type": "MonsterDefendMixin",
              "stateIDs": ["BeHit"],
              "defendTriggerID": "",
              "defendProbability": 1.0,
              "defendProbabilityDelta": 0.0,
              "ODNMJFOKIHA": "Tartaglia_EvilEye_Recover_RandomTime",
              "NDMAEIECBBC": 0,
              "onDefendSucceded": [
                {
                  "$type": "RemoveModifier",
                  "modifierName": "Tartaglia_EvilEye_Recover_Timer"
                }
              ]
            }
          ],
          "properties": {
            "Actor_PhysicalSubHurtDelta": -0.5,
            "Actor_FireSubHurtDelta": -0.5,
            "Actor_ElecSubHurtDelta": -0.5,
            "Actor_WaterSubHurtDelta": -0.5,
            "Actor_GrassSubHurtDelta": -0.5,
            "Actor_WindSubHurtDelta": -0.5,
            "Actor_IceSubHurtDelta": -0.5,
            "Actor_RockSubHurtDelta": -0.5
          },
          "onAdded": [
            {
              "$type": "SetPoseBool",
              "boolID": "StopAttack",
              "ratio": true
            },
            {
              "$type": "SetAnimatorBool",
              "boolID": "DefendState"
            }
          ],
          "onRemoved": [
            {
              "$type": "ClearEndura"
            },
            {
              "$type": "SetAnimatorBool",
              "boolID": "DefendState",
              "ratio": true
            },
            {
              "$type": "SetAISkillCDAvailableNow",
              "skillIDs": [601]
            },
            {
              "$type": "SetPoseBool",
              "boolID": "StopAttack"
            }
          ],
          "onBeingHit": [
            {
              "$type": "TurnDirectionToPos",
              "target": "TargetOriginOwner",
              "predicates": [
                {
                  "$type": "NBKDFLDAGEH",
                  "ABCEMJKANKB": 0.0
                }
              ],
              "toPos": {
                "$type": "ConfigBornByTarget"
              }
            }
          ]
        }
      },
      "onAbilityStart": [
        {
          "$type": "SetAISkillCDAvailableNow",
          "skillIDs": [501]
        },
        {
          "$type": "FireEffect",
          "healLimitedByCasterMaxHPRatio": "Eff_Monster_Tartaglia_EvilEye_Blade_Recover",
          "effectTempleteID": -1.0
        },
        {
          "$type": "TriggerAttackEvent",
          "attackEvent": {
            "attackPattern": {
              "$type": "ConfigAttackSphere",
              "triggerType": "TriggerNoRepeat",
              "radius": 8.0
            },
            "attackInfo": {
              "attackTag": "",
              "attenuationTag": "",
              "attenuationGroup": "default",
              "attackProperty": {
                "damagePercentage": 0.0,
                "damagePercentageRatio": 0.0,
                "elementType": "Electric",
                "bonusCriticalHurt": 0.0,
                "strikeType": "Blunt",
                "enBreak": 10000.0
              },
              "hitPattern": {
                "onHitEffectName": "default",
                "hitImpulseType": "LV6",
                "hitHaltTimeScale": 0.009999999776482582
              },
              "forceCameraShake": true,
              "cameraShake": {
                "shakeRange": 0.6000000238418579,
                "shakeTime": 0.36000001430511475,
                "shakeDistance": 30.0,
                "extension": {
                  "baseCycle": 0.07999999821186066,
                  "cycleDamping": -0.03999999910593033
                }
              }
            }
          },
          "targetType": "Enemy"
        }
      ]
    }
  },
  {
    "Default": {
      "$type": "ConfigAbility",
      "abilityName": "Tartaglia_EvilEye_NormalAttack",
      "abilityMixins": [
        {
          "$type": "AttachToStateIDMixin",
          "stateIDs": [
            "NormalAttack_Blade",
            "NormalAttack_DualBlade",
            "NormalAttack"
          ],
          "modifierName": "Tartaglia_EvilEye_NormalAttack"
        },
        {
          "$type": "AttachToNormalizedTimeMixin",
          "stateID": "RushMove_Normal",
          "modifierName": "Tartaglia_EvilEye_RushMove",
          "normalizeStart": 0.6000000238418579
        }
      ],
      "modifiers": {
        "Tartaglia_EvilEye_NormalAttack": {
          "modifierName": "",
          "bonusCriticalHurt": 100.0,
          "modifierMixins": [
            {
              "$type": "DoActionByAnimatorStateIDMixin",
              "stateIDs": [
                "NormalAttack01",
                "NormalAttack02",
                "NormalAttack03"
              ],
              "enterActions": [
                {
                  "$type": "SetAnimatorFloat",
                  "floatID": "RandomValue",
                  "useRandomValue": true,
                  "randomValueMin": 0.0,
                  "randomValueMax": 1.0
                }
              ]
            }
          ]
        },
        "Tartaglia_EvilEye_RushMove": {
          "modifierName": "",
          "bonusCriticalHurt": 100.0,
          "onAdded": [
            {
              "$type": "EnableAfterImage",
              "enable": true
            },
            {
              "$type": "AttachEffect",
              "healLimitedByCasterMaxHPRatio": "Eff_Monster_Tartaglia_EvilEye_RushMove",
              "effectTempleteID": -1.0
            },
            {
              "$type": "FireEffect",
              "healLimitedByCasterMaxHPRatio": "Eff_Monster_Tartaglia_EvilEye_RushMoveBS",
              "effectTempleteID": -1.0
            },
            {
              "$type": "AttachModifier",
              "modifierName": "Tartaglia_EvilEye_RushMove_Invincible"
            },
            {
              "$type": "AttachModifier",
              "modifierName": "Tartaglia_EvilEye_RushMove_DenyLockOn"
            },
            {
              "$type": "EnableHitBoxByName",
              "hitBoxNames": ["HitBox", "HeadBox"]
            },
            {
              "$type": "EnablePushColliderName",
              "pushColliderNames": ["PushCollider"]
            }
          ],
          "onRemoved": [
            {
              "$type": "EnableAfterImage"
            },
            {
              "$type": "FireEffect",
              "healLimitedByCasterMaxHPRatio": "Eff_Monster_Tartaglia_EvilEye_RushMoveAS",
              "effectTempleteID": -1.0
            },
            {
              "$type": "EnableHitBoxByName",
              "hitBoxNames": ["HitBox", "HeadBox"],
              "setEnable": true
            },
            {
              "$type": "EnablePushColliderName",
              "pushColliderNames": ["PushCollider"],
              "setEnable": true
            }
          ]
        },
        "Tartaglia_EvilEye_RushMove_Invincible": {
          "modifierName": "",
          "bonusCriticalHurt": 100.0,
          "state": "Invincible"
        },
        "Tartaglia_EvilEye_RushMove_DenyLockOn": {
          "modifierName": "",
          "bonusCriticalHurt": 100.0,
          "state": "DenyLockOn"
        }
      },
      "onAbilityStart": [
        {
          "$type": "TryFindBlinkPointByBorn",
          "target": "SelfAttackTarget",
          "born": {
            "$type": "MGDGOLHGFAP",
            "DAPKLNIFPID": true,
            "GKAPKIFBACA": -2.0,
            "DCKBDJJECJH": 0.0,
            "JPJIEDIHGFF": 50.0
          },
          "hitSceneTest": false,
          "limitY": 2.5
        },
        {
          "$type": "FixedMonsterRushMove",
          "toPos": {
            "$type": "IOHLPEPEKAP"
          },
          "timeRange": 0.20000000298023224,
          "animatorStateIDs": ["RushMove_Normal"],
          "overrideMoveCollider": "",
          "checkAnimatorStateOnExitOnly": true
        }
      ]
    }
  },
  {
    "Default": {
      "$type": "ConfigAbility",
      "abilityName": "Tartaglia_EvilEye_ExtraAttack",
      "abilityMixins": [
        {
          "$type": "AttachToNormalizedTimeMixin",
          "stateID": "RushMove",
          "modifierName": "Tartaglia_EvilEye_RushMove",
          "normalizeStart": 0.6000000238418579
        }
      ],
      "modifiers": {
        "Tartaglia_EvilEye_RushMove": {
          "modifierName": "",
          "bonusCriticalHurt": 100.0,
          "onAdded": [
            {
              "$type": "EnableAfterImage",
              "enable": true
            },
            {
              "$type": "AttachEffect",
              "healLimitedByCasterMaxHPRatio": "Eff_Monster_Tartaglia_EvilEye_RushMove",
              "effectTempleteID": -1.0
            },
            {
              "$type": "FireEffect",
              "healLimitedByCasterMaxHPRatio": "Eff_Monster_Tartaglia_EvilEye_RushMoveBS",
              "effectTempleteID": -1.0
            },
            {
              "$type": "AttachModifier",
              "modifierName": "Tartaglia_EvilEye_RushMove_Invincible"
            },
            {
              "$type": "AttachModifier",
              "modifierName": "Tartaglia_EvilEye_RushMove_DenyLockOn"
            },
            {
              "$type": "EnableHitBoxByName",
              "hitBoxNames": ["HitBox", "HeadBox"]
            },
            {
              "$type": "EnablePushColliderName",
              "pushColliderNames": ["PushCollider"]
            }
          ],
          "onRemoved": [
            {
              "$type": "EnableAfterImage"
            },
            {
              "$type": "FireEffect",
              "healLimitedByCasterMaxHPRatio": "Eff_Monster_Tartaglia_EvilEye_RushMoveAS",
              "effectTempleteID": -1.0
            },
            {
              "$type": "EnableHitBoxByName",
              "hitBoxNames": ["HitBox", "HeadBox"],
              "setEnable": true
            },
            {
              "$type": "EnablePushColliderName",
              "pushColliderNames": ["PushCollider"],
              "setEnable": true
            }
          ]
        },
        "Tartaglia_EvilEye_RushMove_Invincible": {
          "modifierName": "",
          "bonusCriticalHurt": 100.0,
          "state": "Invincible"
        },
        "Tartaglia_EvilEye_RushMove_DenyLockOn": {
          "modifierName": "",
          "bonusCriticalHurt": 100.0,
          "state": "DenyLockOn"
        }
      },
      "onAbilityStart": [
        {
          "$type": "TryFindBlinkPointByBorn",
          "target": "SelfAttackTarget",
          "born": {
            "$type": "MGDGOLHGFAP",
            "DAPKLNIFPID": true,
            "GKAPKIFBACA": -1.0,
            "DCKBDJJECJH": 0.0,
            "JPJIEDIHGFF": 50.0
          },
          "hitSceneTest": false,
          "limitY": 2.5
        },
        {
          "$type": "FixedMonsterRushMove",
          "toPos": {
            "$type": "IOHLPEPEKAP"
          },
          "timeRange": 0.20000000298023224,
          "animatorStateIDs": ["RushMove"],
          "overrideMoveCollider": "",
          "checkAnimatorStateOnExitOnly": true
        }
      ]
    }
  },
  {
    "Default": {
      "$type": "ConfigAbility",
      "abilityName": "Tartaglia_EvilEye_StrikeAttack_SetPos",
      "onAbilityStart": [
        {
          "$type": "SetGlobalPos",
          "target": "SelfAttackTarget",
          "key": "_MONSTER_TARTAGLIA_EVILEYE_STRIKEATTACK_POS",
          "born": {
            "$type": "MGDGOLHGFAP",
            "DAPKLNIFPID": true,
            "GKAPKIFBACA": 5.0,
            "DCKBDJJECJH": 7.0,
            "JPJIEDIHGFF": 20.0
          },
          "setTarget": false
        }
      ]
    }
  },
  {
    "Default": {
      "$type": "ConfigAbility",
      "abilityName": "Tartaglia_EvilEye_StrikeAttack",
      "abilityMixins": [
        {
          "$type": "SteerAttackMixin",
          "steerStateIDs": ["StrikeAttackBS"],
          "startNormalizedTime": 0.44999998807907104,
          "endNormalizedTime": 0.5400000214576721,
          "angularSpeed": 1800.0,
          "attackTrigger": "",
          "attackDistance": 12.0
        },
        {
          "$type": "DoActionByStateIDMixin",
          "stateIDs": ["StrikeAttack"],
          "enterActions": [
            {
              "$type": "AddGlobalValue",
              "ratio": -10.0,
              "key": "_MONSTER_TARTAGLIA_EVILEYE_DUALBLADE_STRIKEATTACK",
              "useLimitRange": true,
              "maxValue": 5.0,
              "minValue": 1.0
            },
            {
              "$type": "SetRandomOverrideMapValue",
              "valueRangeMax": 4.5,
              "valueRangeMin": 0.5,
              "overrideMapKey": "Tartaglia_EvilEye_StrikeAttack_Count"
            },
            {
              "$type": "SetAnimatorBool",
              "boolID": "IsAttackOver"
            }
          ]
        },
        {
          "$type": "AttachToNormalizedTimeMixin",
          "stateID": "StrikeAttack",
          "modifierName": "StrikeAttack_Bullet",
          "normalizeEnd": 0.27000001072883606
        }
      ],
      "abilitySpecials": {
        "Tartaglia_EvilEye_StrikeAttack_Count": 3.0
      },
      "modifiers": {
        "StrikeAttack_Bullet": {
          "modifierName": "",
          "bonusCriticalHurt": 100.0,
          "onAdded": [
            {
              "$type": "EnablePushColliderName",
              "pushColliderNames": ["PushCollider"]
            }
          ],
          "onRemoved": [
            {
              "$type": "EnablePushColliderName",
              "pushColliderNames": ["PushCollider"],
              "setEnable": true
            }
          ]
        }
      },
      "onAbilityStart": [
        {
          "$type": "TurnDirectionToPos",
          "toPos": {
            "$type": "ConfigBornByGlobalValue",
            "positionKey": "_MONSTER_TARTAGLIA_EVILEYE_STRIKEATTACK_POS",
            "directionKey": ""
          }
        },
        {
          "$type": "FixedMonsterRushMove",
          "toPos": {
            "$type": "ConfigBornByGlobalValue",
            "positionKey": "_MONSTER_TARTAGLIA_EVILEYE_STRIKEATTACK_POS",
            "directionKey": ""
          },
          "timeRange": 0.20000000298023224,
          "animatorStateIDs": ["StrikeAttack"],
          "overrideMoveCollider": "",
          "checkAnimatorStateOnExitOnly": true
        },
        {
          "$type": "TriggerBullet",
          "bulletID": 42903102,
          "born": {
            "$type": "ConfigBornBySelf"
          },
          "lifeByOwnerIsAlive": true,
          "trackTarget": "Self"
        },
        {
          "$type": "TriggerBullet",
          "bulletID": 42903103,
          "born": {
            "$type": "ConfigBornBySelf"
          },
          "lifeByOwnerIsAlive": true,
          "trackTarget": "Self"
        },
        {
          "$type": "Predicated",
          "targetPredicates": [
            {
              "$type": "ByTargetGlobalValue",
              "key": "_MONSTER_TARTAGLIA_EVILEYE_DUALBLADE_STRIKEATTACK",
              "ratio": "Tartaglia_EvilEye_StrikeAttack_Count",
              "compareType": "LessAndEqual"
            }
          ],
          "successActions": [
            {
              "$type": "AddGlobalValue",
              "ratio": 1.0,
              "key": "_MONSTER_TARTAGLIA_EVILEYE_DUALBLADE_STRIKEATTACK",
              "useLimitRange": true,
              "maxValue": 5.0,
              "minValue": 1.0
            }
          ],
          "failActions": [
            {
              "$type": "SetAnimatorBool",
              "boolID": "IsAttackOver",
              "ratio": true
            }
          ]
        },
        {
          "$type": "FireEffect",
          "healLimitedByCasterMaxHPRatio": "Eff_Monster_Tartaglia_EvilEye_DualBlade_StrikeAttack",
          "effectTempleteID": -1.0
        }
      ]
    }
  },
  {
    "Default": {
      "$type": "ConfigAbility",
      "abilityName": "Tartaglia_EvilEye_StrikeAttack_Bullet",
      "modifiers": {
        "CollisionTriggerTimer": {
          "modifierName": "",
          "duration": 0.20000000298023224,
          "bonusCriticalHurt": 100.0,
          "onRemoved": [
            {
              "$type": "EnableBulletCollisionPluginTrigger"
            }
          ]
        }
      },
      "onAdded": [
        {
          "$type": "ApplyModifier",
          "modifierName": "CollisionTriggerTimer"
        }
      ],
      "onAbilityStart": [
        {
          "$type": "DamageByAttackValue",
          "target": "Target",
          "attackInfo": {
            "attackTag": "Tartaglia_ThunderClap",
            "attenuationTag": "",
            "attenuationGroup": "default",
            "attackProperty": {
              "damagePercentage": 0.375,
              "damagePercentageRatio": 0.0,
              "elementType": "Electric",
              "bonusCriticalHurt": 0.0,
              "strikeType": "Default",
              "enBreak": 50.0
            },
            "hitPattern": {
              "onHitEffectName": "default",
              "hitImpulseType": "LV7"
            },
            "cameraShake": {
              "shakeRange": 0.23999999463558197,
              "shakeTime": 0.36000001430511475
            }
          }
        }
      ]
    }
  },
  {
    "Default": {
      "$type": "ConfigAbility",
      "abilityName": "Tartaglia_EvilEye_StrikeAttack_Scene",
      "modifiers": {
        "CollisionTriggerTimer": {
          "modifierName": "",
          "duration": 0.20000000298023224,
          "bonusCriticalHurt": 100.0,
          "onRemoved": [
            {
              "$type": "EnableBulletCollisionPluginTrigger"
            }
          ]
        }
      },
      "onAdded": [
        {
          "$type": "ApplyModifier",
          "modifierName": "CollisionTriggerTimer"
        }
      ],
      "onAbilityStart": [
        {
          "$type": "Predicated",
          "target": "Target",
          "targetPredicates": [
            {
              "$type": "ByEntityTypes",
              "entityTypes": ["Avatar"]
            }
          ],
          "failActions": [
            {
              "$type": "TriggerAttackEvent",
              "attackEvent": {
                "attackPattern": {
                  "$type": "ConfigAttackSphere",
                  "triggerType": "TriggerNoRepeat",
                  "born": {
                    "$type": "ConfigBornByCollisionPoint"
                  },
                  "radius": 2.0
                },
                "attackInfo": {
                  "attackTag": "",
                  "attenuationTag": "",
                  "attenuationGroup": "default",
                  "attackProperty": {
                    "damagePercentage": 0.0,
                    "damagePercentageRatio": 0.0,
                    "bonusCriticalHurt": 100.0,
                    "strikeType": "Blunt",
                    "enBreak": 5000.0
                  },
                  "hitPattern": {
                    "onHitEffectName": "",
                    "hitImpulseType": "LV0"
                  }
                }
              },
              "targetType": "Enemy"
            }
          ]
        }
      ]
    }
  },
  {
    "Default": {
      "$type": "ConfigAbility",
      "abilityName": "Tartaglia_EvilEye_Hiraishin",
      "abilityMixins": [
        {
          "$type": "AttachToStateIDMixin",
          "stateIDs": ["Hiraishin"],
          "modifierName": "Tartaglia_EvilEye_Hiraishin"
        }
      ],
      "modifiers": {
        "Tartaglia_EvilEye_Hiraishin": {
          "modifierName": "",
          "bonusCriticalHurt": 100.0,
          "onAdded": [
            {
              "$type": "FireEffect",
              "healLimitedByCasterMaxHPRatio": "Eff_Monster_Tartaglia_EvilEye_DualBlade_HiraishinBS",
              "born": {
                "$type": "ConfigBornByAttachPoint",
                "attachPointName": "WeaponR"
              },
              "effectTempleteID": -1.0
            },
            {
              "$type": "AttachEffect",
              "healLimitedByCasterMaxHPRatio": "Eff_Monster_Tartaglia_EvilEye_DualBlade_Hiraishin",
              "effectTempleteID": -1.0
            },
            {
              "$type": "AttachModifier",
              "target": "SelfAttackTarget",
              "predicates": [
                {
                  "$type": "ByTargetGlobalValue",
                  "key": "_MONSTER_TARTAGLIA_THUNDERCLAP_AVATAR",
                  "ratio": 1.0
                }
              ],
              "modifierName": "UNIQUE_Tartaglia_EvilEye_Hiraishin_Alert"
            },
            {
              "$type": "SetGlobalPos",
              "target": "SelfAttackTarget",
              "predicates": [
                {
                  "$type": "ByTargetGlobalValue",
                  "key": "_MONSTER_TARTAGLIA_THUNDERCLAP_AVATAR",
                  "ratio": 0.0,
                  "compareType": "NoneOrEqual"
                }
              ],
              "key": "_MONSTER_TARTAGLIA_EVILEYE_HIRAISHIN_POS",
              "born": {
                "$type": "ConfigBornByTarget",
                "DAPKLNIFPID": true
              },
              "setTarget": false
            }
          ]
        },
        "UNIQUE_Tartaglia_EvilEye_Hiraishin_Alert": {
          "modifierName": "",
          "isUnique": true,
          "bonusCriticalHurt": 100.0,
          "onAdded": [
            {
              "$type": "AttachModifier",
              "target": "Team",
              "modifierName": "UNIQUE_Tartaglia_EvilEye_Hiraishin_Alert_Team"
            }
          ]
        },
        "UNIQUE_Tartaglia_EvilEye_Hiraishin_Alert_Team": {
          "modifierName": "",
          "isUnique": true,
          "bonusCriticalHurt": 100.0,
          "modifierMixins": [
            {
              "$type": "AttachModifierToSelfGlobalValueMixin",
              "globalValueKey": "_MONSTER_TARTAGLIA_THUNDERCLAP",
              "defaultGlobalValueOnCreate": 0.0,
              "valueSteps": [-0.5, 0.5, 1.5],
              "modifierNameSteps": [
                "Tartaglia_EvilEye_Hiraishin_Empty",
                "Tartaglia_EvilEye_Hiraishin_Follow"
              ]
            }
          ]
        },
        "Tartaglia_EvilEye_Hiraishin_Empty": {
          "modifierName": "",
          "bonusCriticalHurt": 100.0,
          "onAdded": [
            {
              "$type": "AttachEffect",
              "healLimitedByCasterMaxHPRatio": "Eff_Monster_Tartaglia_EvilEye_DualBlade_HiraishinAlert",
              "born": {
                "$type": "ConfigBornByGlobalValue",
                "DAPKLNIFPID": true,
                "positionKey": "_MONSTER_TARTAGLIA_EVILEYE_HIRAISHIN_POS",
                "directionKey": ""
              },
              "effectTempleteID": -1.0
            }
          ]
        },
        "Tartaglia_EvilEye_Hiraishin_Follow": {
          "modifierName": "",
          "bonusCriticalHurt": 100.0,
          "onAdded": [
            {
              "$type": "AttachEffect",
              "healLimitedByCasterMaxHPRatio": "Eff_Monster_Tartaglia_EvilEye_DualBlade_HiraishinAlert_Follow",
              "effectTempleteID": -1.0
            }
          ],
          "onRemoved": [
            {
              "$type": "ApplyModifier",
              "target": "Caster",
              "modifierName": "Tartaglia_EvilEye_Hiraishin_SetPos"
            }
          ]
        },
        "Tartaglia_EvilEye_Hiraishin_SetPos": {
          "modifierName": "",
          "duration": 0.10000000149011612,
          "bonusCriticalHurt": 100.0,
          "onAdded": [
            {
              "$type": "SetGlobalPos",
              "target": "Applier",
              "key": "_MONSTER_TARTAGLIA_EVILEYE_HIRAISHIN_POS",
              "born": {
                "$type": "ConfigBornByTarget",
                "DAPKLNIFPID": true
              },
              "setTarget": false
            }
          ]
        }
      },
      "onAbilityStart": [
        {
          "$type": "SetGlobalPos",
          "target": "SelfAttackTarget",
          "predicates": [
            {
              "$type": "ByTargetGlobalValue",
              "key": "_MONSTER_TARTAGLIA_THUNDERCLAP_AVATAR",
              "ratio": 1.0
            }
          ],
          "key": "_MONSTER_TARTAGLIA_EVILEYE_HIRAISHIN_POS",
          "born": {
            "$type": "ConfigBornByTarget",
            "DAPKLNIFPID": true
          },
          "setTarget": false
        },
        {
          "$type": "TryFindBlinkPointByBorn",
          "born": {
            "$type": "ConfigBornByGlobalValue",
            "positionKey": "_MONSTER_TARTAGLIA_EVILEYE_HIRAISHIN_POS",
            "directionKey": ""
          },
          "hitSceneTest": false,
          "limitY": 2.5
        },
        {
          "$type": "DoBlink"
        },
        {
          "$type": "FireEffect",
          "healLimitedByCasterMaxHPRatio": "Eff_Monster_Tartaglia_EvilEye_DualBlade_HiraishinJumpAS",
          "born": {
            "$type": "ConfigBornBySelf",
            "DAPKLNIFPID": true
          },
          "effectTempleteID": -1.0
        }
      ]
    }
  },
  {
    "Default": {
      "$type": "ConfigAbility",
      "abilityName": "Tartaglia_EvilEye_HiraishinAS",
      "abilityMixins": [
        {
          "$type": "AttachToNormalizedTimeMixin",
          "stateID": "HiraishinAS",
          "modifierName": "Tartaglia_EvilEye_Hiraishin_Blink",
          "normalizeStart": 0.02500000037252903,
          "normalizeEnd": 0.1599999964237213
        }
      ],
      "modifiers": {
        "Tartaglia_EvilEye_Hiraishin_DamageController": {
          "modifierName": "",
          "duration": 1.0,
          "bonusCriticalHurt": 100.0,
          "onAdded": [
            {
              "$type": "AttachEffect",
              "healLimitedByCasterMaxHPRatio": "Eff_Monster_Tartaglia_EvilEye_DualBlade_HiraishinAS",
              "effectTempleteID": -1.0
            },
            {
              "$type": "ApplyModifier",
              "target": "AllPlayerAvatars",
              "modifierName": "UNIQUE_Tartaglia_EvilEye_Hiraishin_DamageOnce"
            }
          ]
        },
        "UNIQUE_Tartaglia_EvilEye_Hiraishin_DamageOnce": {
          "modifierName": "",
          "isUnique": true,
          "duration": 1.0,
          "bonusCriticalHurt": 100.0,
          "onAdded": [
            {
              "$type": "Predicated",
              "target": "Applier",
              "targetPredicates": [
                {
                  "$type": "HPJOHDHEPCG",
                  "logic": "Lesser",
                  "ratio": 5.0
                },
                {
                  "$type": "HPJOHDHEPCG",
                  "logic": "Lesser",
                  "compareType": "Y",
                  "ratio": 5.0
                }
              ],
              "successActions": [
                {
                  "$type": "DamageByAttackValue",
                  "attackInfo": {
                    "attackTag": "Tartaglia_Hiraishin",
                    "attenuationTag": "",
                    "attenuationGroup": "default",
                    "attackProperty": {
                      "damagePercentage": 1.0,
                      "damagePercentageRatio": 0.0,
                      "elementType": "Electric",
                      "bonusCriticalHurt": 0.0,
                      "strikeType": "Default",
                      "enBreak": 1000.0
                    },
                    "hitPattern": {
                      "onHitEffectName": "default",
                      "hitImpulseType": "LV8"
                    }
                  }
                }
              ]
            }
          ]
        },
        "Tartaglia_EvilEye_Hiraishin_Blink": {
          "modifierName": "",
          "bonusCriticalHurt": 100.0,
          "onAdded": [
            {
              "$type": "AttachModifier",
              "modifierName": "Tartaglia_EvilEye_Hiraishin_Invincible"
            },
            {
              "$type": "AttachModifier",
              "modifierName": "Tartaglia_EvilEye_Hiraishin_DenyLockOn"
            },
            {
              "$type": "TriggerSetRenderersEnable",
              "renderNames": ["Body", "Body_CloakEffectMesh"]
            },
            {
              "$type": "EnableHitBoxByName",
              "hitBoxNames": ["HitBox", "HeadBox"]
            },
            {
              "$type": "EnablePushColliderName",
              "pushColliderNames": ["PushCollider"]
            },
            {
              "$type": "TriggerHideWeapon",
              "partNames": ["equip04"],
              "NJFPGKKGMIC": true
            }
          ],
          "onRemoved": [
            {
              "$type": "TriggerSetRenderersEnable",
              "renderNames": ["Body", "Body_CloakEffectMesh"],
              "setEnable": true
            },
            {
              "$type": "EnableHitBoxByName",
              "hitBoxNames": ["HitBox", "HeadBox"],
              "setEnable": true
            },
            {
              "$type": "EnablePushColliderName",
              "pushColliderNames": ["PushCollider"],
              "setEnable": true
            },
            {
              "$type": "TriggerHideWeapon",
              "visible": true,
              "partNames": ["equip04"],
              "NJFPGKKGMIC": true
            }
          ]
        },
        "Tartaglia_EvilEye_Hiraishin_Invincible": {
          "modifierName": "",
          "bonusCriticalHurt": 100.0,
          "state": "Invincible"
        },
        "Tartaglia_EvilEye_Hiraishin_DenyLockOn": {
          "modifierName": "",
          "bonusCriticalHurt": 100.0,
          "state": "DenyLockOn"
        },
        "Tartaglia_EvilEye_Hiraishin_AttackLandedHandler": {
          "modifierName": "",
          "bonusCriticalHurt": 100.0,
          "onAttackLanded": [
            {
              "$type": "ApplyModifier",
              "target": "Target",
              "predicates": [
                {
                  "$type": "LCCMCDGDKGI",
                  "attackTags": ["Tartaglia_Hiraishin"]
                },
                {
                  "$type": "ByEntityTypes",
                  "entityTypes": ["Avatar"]
                }
              ],
              "modifierName": "Tartaglia_EvilEye_Hiraishin_AttackLanded"
            }
          ]
        },
        "Tartaglia_EvilEye_Hiraishin_AttackLanded": {
          "modifierName": "",
          "duration": 1.0,
          "bonusCriticalHurt": 100.0,
          "onAdded": [
            {
              "$type": "SetGlobalValue",
              "target": "Team",
              "ratio": 0.0,
              "key": "_ABILITY_TARTAGLIA_WATCHER_82065_",
              "maxValue": 0.0,
              "minValue": 0.0
            }
          ]
        }
      },
      "onAdded": [
        {
          "$type": "ApplyModifier",
          "modifierName": "Tartaglia_EvilEye_Hiraishin_AttackLandedHandler"
        }
      ],
      "onAbilityStart": [
        {
          "$type": "ApplyModifier",
          "modifierName": "Tartaglia_EvilEye_Hiraishin_DamageController"
        }
      ]
    }
  }
]
