[
  {
    "Default": {
      "$type": "ConfigAbility",
      "abilityName": "Monster_Chrysopelea_Eremite_Grass_StateControl",
      "abilityMixins": [
        {
          "$type": "AttachToStateIDMixin",
          "stateIDs": ["Alert"],
          "modifierName": "Monster_Chrysopelea_Eremite_Grass_Alert"
        },
        {
          "$type": "AttachToPoseIDMixin",
          "poseIDs": [1, 102],
          "modifierName": "Monster_Chrysopelea_Eremite_Grass_Disappear"
        },
        {
          "$type": "AttachToNormalizedTimeMixin",
          "stateID": "Alert",
          "modifierName": "Monster_Chrysopelea_Eremite_Grass_Visable",
          "normalizeEnd": 0.3499999940395355
        }
      ],
      "modifiers": {
        "Monster_Chrysopelea_Eremite_Grass_Alert": {
          "modifierName": "",
          "bonusCriticalHurt": 100.0,
          "onAdded": [
            {
              "$type": "CreateGadget",
              "born": {
                "$type": "ConfigBornBySelf",
                "offset": {
                  "x": 0.10000000149011612,
                  "y": 2.7699999809265137,
                  "z": -5.0
                },
                "IABNJPGBAOH": true
              },
              "gadgetID": 42550004,
              "campID": 4001
            }
          ],
          "onRemoved": [
            {
              "$type": "KillSelf",
              "otherTargets": {
                "$type": "SelectTargetsByChildren",
                "configID": 42560004
              }
            },
            {
              "$type": "RemoveModifier",
              "modifierName": "Monster_Chrysopelea_Eremite_Grass_StateControl"
            },
            {
              "$type": "ApplyModifier",
              "modifierName": "Monster_Chrysopelea_Eremite_Grass_DefenseDown_EEffect"
            }
          ]
        },
        "Monster_Chrysopelea_Eremite_Grass_DefenseDown_EEffect": {
          "modifierName": "",
          "bonusCriticalHurt": 100.0,
          "onAdded": [
            {
              "$type": "AttachEffect",
              "healLimitedByCasterMaxHPRatio": "Eff_Avatar_Properties_Defense_Down",
              "effectTempleteID": -1.0
            }
          ]
        },
        "Monster_Chrysopelea_Eremite_Grass_Disappear": {
          "modifierName": "",
          "bonusCriticalHurt": 100.0,
          "modifierMixins": [
            {
              "$type": "AttachActionToModifierMixin",
              "onAdded": [
                {
                  "$type": "HideUIBillBoard",
                  "hide": true
                },
                {
                  "$type": "EnableHitBoxByName",
                  "hitBoxNames": ["HitBox"]
                },
                {
                  "$type": "EnablePushColliderName",
                  "pushColliderNames": ["PushCollider"]
                }
              ],
              "onRemoved": [
                {
                  "$type": "EnableHitBoxByName",
                  "hitBoxNames": ["HitBox"],
                  "setEnable": true
                },
                {
                  "$type": "EnablePushColliderName",
                  "pushColliderNames": ["PushCollider"],
                  "setEnable": true
                },
                {
                  "$type": "HideUIBillBoard"
                }
              ]
            }
          ],
          "properties": {
            "Actor_PhysicalSubHurtDelta": 2.0,
            "Actor_FireSubHurtDelta": 2.0,
            "Actor_ElecSubHurtDelta": 2.0,
            "Actor_WaterSubHurtDelta": 2.0,
            "Actor_GrassSubHurtDelta": 2.0,
            "Actor_WindSubHurtDelta": 2.0,
            "Actor_IceSubHurtDelta": 2.0,
            "Actor_RockSubHurtDelta": 2.0
          },
          "state": "DenyLockOn",
          "onAdded": [
            {
              "$type": "TriggerSetVisible"
            }
          ],
          "onRemoved": [
            {
              "$type": "TriggerSetVisible",
              "visible": true
            },
            {
              "$type": "RemoveModifier",
              "modifierName": "Monster_Chrysopelea_Eremite_Grass_StateControl"
            }
          ]
        },
        "Monster_Chrysopelea_Eremite_Grass_Visable": {
          "modifierName": "",
          "bonusCriticalHurt": 100.0,
          "onRemoved": [
            {
              "$type": "TriggerSetVisible",
              "canBeHandledOnRecover": true,
              "visible": true
            }
          ]
        },
        "Monster_Chrysopelea_Eremite_Grass_StateControl": {
          "modifierName": "",
          "bonusCriticalHurt": 100.0,
          "onAdded": [
            {
              "$type": "SetPoseBool",
              "canBeHandledOnRecover": true,
              "boolID": "IsAppear"
            }
          ],
          "onRemoved": [
            {
              "$type": "SetPoseBool",
              "canBeHandledOnRecover": true,
              "boolID": "IsAppear",
              "ratio": true
            }
          ],
          "LGJBJJBCBEH": [
            {
              "$type": "SetPoseBool",
              "boolID": "IsAppear",
              "ratio": true
            }
          ],
          "onChangeAuthority": [
            {
              "$type": "SetPoseBool",
              "boolID": "IsAppear",
              "ratio": true
            },
            {
              "$type": "TriggerSetVisible",
              "canBeHandledOnRecover": true,
              "visible": true
            }
          ]
        },
        "Monster_Chrysopelea_Eremite_Grass_BaseStateHeadle": {
          "modifierName": "",
          "duration": 1.0,
          "bonusCriticalHurt": 100.0,
          "onAdded": [
            {
              "$type": "TriggerSetVisible"
            },
            {
              "$type": "HideUIBillBoard",
              "hide": true
            },
            {
              "$type": "EnableHitBoxByName",
              "hitBoxNames": ["HitBox"]
            },
            {
              "$type": "EnablePushColliderName",
              "pushColliderNames": ["PushCollider"]
            }
          ],
          "LGJBJJBCBEH": [
            {
              "$type": "TriggerSetVisible",
              "visible": true
            },
            {
              "$type": "HideUIBillBoard"
            },
            {
              "$type": "EnableHitBoxByName",
              "hitBoxNames": ["HitBox"],
              "setEnable": true
            },
            {
              "$type": "EnablePushColliderName",
              "pushColliderNames": ["PushCollider"],
              "setEnable": true
            }
          ],
          "onChangeAuthority": [
            {
              "$type": "TriggerSetVisible",
              "visible": true
            },
            {
              "$type": "HideUIBillBoard"
            },
            {
              "$type": "EnableHitBoxByName",
              "hitBoxNames": ["HitBox"],
              "setEnable": true
            },
            {
              "$type": "EnablePushColliderName",
              "pushColliderNames": ["PushCollider"],
              "setEnable": true
            }
          ]
        }
      },
      "onAdded": [
        {
          "$type": "AttachModifier",
          "modifierName": "Monster_Chrysopelea_Eremite_Grass_StateControl"
        },
        {
          "$type": "ApplyModifier",
          "modifierName": "Monster_Chrysopelea_Eremite_Grass_BaseStateHeadle"
        }
      ]
    }
  },
  {
    "Default": {
      "$type": "ConfigAbility",
      "abilityName": "Monster_Chrysopelea_Eremite_Grass_ShaderCut",
      "modifiers": {
        "ChargeEndPos_ShaderCut": {
          "modifierName": "",
          "duration": 3.0,
          "bonusCriticalHurt": 100.0,
          "modifierMixins": [
            {
              "$type": "SendPostionToShaderCutMixin",
              "CGOLAIBAICO": "Owner",
              "MGNBNEEEOKG": 10.0,
              "scale": {
                "x": 5.0,
                "y": 5.0,
                "z": 5.0
              }
            }
          ]
        }
      },
      "onAdded": [
        {
          "$type": "ApplyModifier",
          "modifierName": "ChargeEndPos_ShaderCut"
        }
      ]
    }
  },
  {
    "Default": {
      "$type": "ConfigAbility",
      "abilityName": "Monster_Chrysopelea_Eremite_Grass_StreeControl",
      "abilityMixins": [
        {
          "$type": "SteerAttackMixin",
          "steerStateIDs": ["Turn"],
          "endNormalizedTime": 99.0,
          "angularSpeed": 180.0,
          "attackTrigger": "",
          "attackDistance": 2.0
        },
        {
          "$type": "SteerAttackMixin",
          "steerStateIDs": ["NormalAttack01"],
          "endNormalizedTime": 0.20000000298023224,
          "angularSpeed": 180.0,
          "attackTrigger": "",
          "attackDistance": 2.0
        },
        {
          "$type": "SteerAttackMixin",
          "steerStateIDs": ["NormalAttack01"],
          "startNormalizedTime": 0.33000001311302185,
          "endNormalizedTime": 0.6100000143051147,
          "angularSpeed": 180.0,
          "attackTrigger": "",
          "attackDistance": 2.0
        },
        {
          "$type": "SteerAttackMixin",
          "steerStateIDs": ["MeleeAttack01"],
          "endNormalizedTime": 0.10000000149011612,
          "angularSpeed": 150.0,
          "attackTrigger": "",
          "attackDistance": 2.0
        },
        {
          "$type": "SteerAttackMixin",
          "steerStateIDs": ["ComboAttack01"],
          "endNormalizedTime": 0.20000000298023224,
          "angularSpeed": 125.0,
          "attackTrigger": "",
          "attackDistance": 2.0
        },
        {
          "$type": "SteerAttackMixin",
          "steerStateIDs": ["RangeAttack01"],
          "endNormalizedTime": 0.5,
          "angularSpeed": 180.0,
          "attackTrigger": "",
          "attackDistance": 2.0
        },
        {
          "$type": "SteerAttackMixin",
          "steerStateIDs": ["Alert"],
          "startNormalizedTime": 0.6399999856948853,
          "endNormalizedTime": 0.8100000023841858,
          "angularSpeed": 180.0,
          "attackTrigger": "",
          "attackDistance": 2.0
        }
      ]
    }
  },
  {
    "Default": {
      "$type": "ConfigAbility",
      "abilityName": "Monster_Chrysopelea_Eremite_Grass_NormalAttack01_01",
      "abilityMixins": [
        {
          "$type": "AttachToNormalizedTimeMixin",
          "stateID": "NormalAttack01",
          "modifierName": "Monster_Chrysopelea_Eremite_Grass_NormalAttack01_Effect",
          "normalizeEnd": 0.3100000023841858
        }
      ],
      "modifiers": {
        "Monster_Chrysopelea_Eremite_Grass_NormalAttack01_Damage": {
          "modifierName": "",
          "duration": 1.0,
          "bonusCriticalHurt": 100.0,
          "onAdded": [
            {
              "$type": "FireEffect",
              "healLimitedByCasterMaxHPRatio": "Eff_Monster_Chrysopelea_Eremite_Grass_NormalAttack01_01_Damage",
              "born": {
                "$type": "ConfigBornBySelf",
                "offset": {
                  "x": 0.0,
                  "y": 1.0,
                  "z": 2.200000047683716
                },
                "IABNJPGBAOH": true
              },
              "effectTempleteID": -1.0
            },
            {
              "$type": "TriggerAttackEvent",
              "attackEvent": {
                "attackPattern": {
                  "$type": "ConfigAttackSphere",
                  "triggerType": "TriggerNoRepeat",
                  "born": {
                    "$type": "ConfigBornBySelf",
                    "offset": {
                      "x": 0.0,
                      "y": 1.0,
                      "z": 2.200000047683716
                    },
                    "IABNJPGBAOH": true
                  },
                  "radius": 1.5
                },
                "attackInfo": {
                  "attackTag": "",
                  "attenuationTag": "",
                  "attenuationGroup": "default",
                  "attackProperty": {
                    "damagePercentage": 0.6000000238418579,
                    "damagePercentageRatio": 0.0,
                    "elementType": "Grass",
                    "bonusCriticalHurt": 25.0,
                    "strikeType": "Blunt",
                    "enBreak": 100.0
                  },
                  "hitPattern": {
                    "onHitEffectName": "default",
                    "hitImpulseType": "LV4"
                  }
                }
              },
              "targetType": "Enemy"
            }
          ]
        },
        "Monster_Chrysopelea_Eremite_Grass_NormalAttack01_Effect": {
          "modifierName": "",
          "bonusCriticalHurt": 100.0,
          "onAdded": [
            {
              "$type": "AttachEffect",
              "healLimitedByCasterMaxHPRatio": "Eff_Monster_Chrysopelea_Eremite_Grass_NormalAttack01_01_BS",
              "effectTempleteID": -1.0
            }
          ]
        }
      },
      "onAbilityStart": [
        {
          "$type": "ApplyModifier",
          "modifierName": "Monster_Chrysopelea_Eremite_Grass_NormalAttack01_Damage"
        }
      ]
    }
  },
  {
    "Default": {
      "$type": "ConfigAbility",
      "abilityName": "Monster_Chrysopelea_Eremite_Grass_NormalAttack01_02",
      "modifiers": {
        "Monster_Chrysopelea_Eremite_Grass_NormalAttack01_02_Damage": {
          "modifierName": "",
          "duration": 1.0,
          "bonusCriticalHurt": 100.0,
          "onAdded": [
            {
              "$type": "TriggerAttackEvent",
              "attackEvent": {
                "attackPattern": {
                  "$type": "ConfigAttackCircle",
                  "triggerType": "TriggerNoRepeat",
                  "born": {
                    "$type": "ConfigBornBySelf",
                    "offset": {
                      "x": -0.3100000023841858,
                      "y": 0.0,
                      "z": -2.0
                    },
                    "direction": {
                      "$type": "IOPNFLFHGID",
                      "angleOffset": {
                        "x": 0.0,
                        "y": -50.0,
                        "z": 0.0
                      }
                    },
                    "IABNJPGBAOH": true
                  },
                  "height": 2.0,
                  "BAPAHIOBNCL": 210.0,
                  "radius": 4.199999809265137,
                  "innerRadius": 2.0
                },
                "attackInfo": {
                  "attackTag": "",
                  "attenuationTag": "",
                  "attenuationGroup": "default",
                  "attackProperty": {
                    "damagePercentage": 0.699999988079071,
                    "damagePercentageRatio": 0.0,
                    "elementType": "Grass",
                    "bonusCriticalHurt": 25.0,
                    "strikeType": "Blunt",
                    "enBreak": 200.0
                  },
                  "hitPattern": {
                    "onHitEffectName": "default",
                    "hitImpulseType": "LV5",
                    "hitHaltTimeScale": 0.009999999776482582
                  }
                }
              },
              "targetType": "Enemy"
            }
          ]
        }
      },
      "onAbilityStart": [
        {
          "$type": "ApplyModifier",
          "modifierName": "Monster_Chrysopelea_Eremite_Grass_NormalAttack01_02_Damage"
        }
      ]
    }
  },
  {
    "Default": {
      "$type": "ConfigAbility",
      "abilityName": "Monster_Chrysopelea_Eremite_Grass_RingEffect_Open",
      "abilityMixins": [
        {
          "$type": "AttachModifierToSelfGlobalValueMixin",
          "globalValueKey": "_CHRYSOPELEA_OPEN_RINGEFFECT_",
          "defaultGlobalValueOnCreate": 0.0,
          "valueSteps": [-0.5, 0.5, 1.5],
          "modifierNameSteps": ["Closed_RingEffect", "Open_RingEffect"]
        }
      ],
      "modifiers": {
        "Closed_RingEffect": {
          "modifierName": "",
          "bonusCriticalHurt": 100.0,
          "onAdded": [
            {
              "$type": "SendEffectTrigger",
              "parameter": "ON",
              "EBBHBMFMOGD": "",
              "type": "Bool",
              "healLimitedByCasterMaxHPRatio": "Eff_Monster_Chrysopelea_Eremite_Grass_Ring"
            }
          ]
        },
        "Open_RingEffect": {
          "modifierName": "",
          "bonusCriticalHurt": 100.0,
          "onAdded": [
            {
              "$type": "SendEffectTrigger",
              "parameter": "ON",
              "EBBHBMFMOGD": "",
              "type": "Bool",
              "value": 1,
              "healLimitedByCasterMaxHPRatio": "Eff_Monster_Chrysopelea_Eremite_Grass_Ring"
            }
          ]
        },
        "UNIQUE_Chrysopelea_RingEffect": {
          "stacking": "Unique",
          "modifierName": "",
          "isUnique": true,
          "bonusCriticalHurt": 100.0,
          "onAdded": [
            {
              "$type": "AttachEffect",
              "healLimitedByCasterMaxHPRatio": "Eff_Monster_Chrysopelea_Eremite_Grass_Ring",
              "effectTempleteID": -1.0
            },
            {
              "$type": "AddGlobalValue",
              "ratio": 1.0,
              "key": "_CHRYSOPELEA_OPEN_RINGEFFECT_",
              "useLimitRange": true,
              "maxValue": 1.0,
              "minValue": 0.0
            }
          ],
          "onRemoved": [
            {
              "$type": "AddGlobalValue",
              "ratio": -10.0,
              "key": "_CHRYSOPELEA_OPEN_RINGEFFECT_",
              "useLimitRange": true,
              "maxValue": 1.0,
              "minValue": 0.0
            }
          ]
        }
      },
      "onAdded": [
        {
          "$type": "SetGlobalValue",
          "ratio": 0.0,
          "key": "_CHRYSOPELEA_OPEN_RINGEFFECT_",
          "useLimitRange": true,
          "maxValue": 1.0,
          "minValue": 0.0
        }
      ],
      "onAbilityStart": [
        {
          "$type": "AttachModifier",
          "modifierName": "UNIQUE_Chrysopelea_RingEffect"
        }
      ]
    }
  },
  {
    "Default": {
      "$type": "ConfigAbility",
      "abilityName": "Monster_Chrysopelea_Eremite_Grass_RingEffect_Closed",
      "abilityMixins": [
        {
          "$type": "AttachToStateIDMixin",
          "stateIDs": [
            "NormalAttack01",
            "MeleeAttack01",
            "RangeAttack01",
            "ComboAttack01"
          ],
          "modifierName": "Remove_RingEffect"
        }
      ],
      "modifiers": {
        "Remove_RingEffect": {
          "modifierName": "",
          "bonusCriticalHurt": 100.0,
          "onRemoved": [
            {
              "$type": "RemoveUniqueModifier",
              "modifierName": "UNIQUE_Chrysopelea_RingEffect"
            }
          ],
          "LGJBJJBCBEH": [
            {
              "$type": "RemoveUniqueModifier",
              "modifierName": "UNIQUE_Chrysopelea_RingEffect"
            }
          ]
        }
      },
      "onAbilityStart": [
        {
          "$type": "RemoveUniqueModifier",
          "modifierName": "UNIQUE_Chrysopelea_RingEffect"
        }
      ]
    }
  },
  {
    "Default": {
      "$type": "ConfigAbility",
      "abilityName": "Monster_Chrysopelea_Eremite_Grass_MeleeAttack01",
      "abilityMixins": [
        {
          "$type": "AttachToNormalizedTimeMixin",
          "stateID": "MeleeAttack01",
          "modifierName": "PushCollider_Handle",
          "normalizeStart": 0.07999999821186066,
          "normalizeEnd": 0.6000000238418579
        },
        {
          "$type": "AttachToNormalizedTimeMixin",
          "stateID": "MeleeAttack01",
          "modifierName": "Visable_Handle",
          "normalizeStart": 0.10700000077486038,
          "normalizeEnd": 0.1899999976158142
        }
      ],
      "modifiers": {
        "Monster_Chrysopelea_Eremite_Grass_MeleeAttack01_BlinkHandle": {
          "modifierName": "",
          "duration": 0.15000000596046448,
          "bonusCriticalHurt": 100.0,
          "onAdded": [
            {
              "$type": "TryFindBlinkPoint",
              "target": "SelfAttackTarget"
            },
            {
              "$type": "StartDither",
              "duration": 0.15000000596046448
            }
          ],
          "onRemoved": [
            {
              "$type": "ApplyModifier",
              "modifierName": "Monster_Chrysopelea_Eremite_Grass_MeleeAttack01_Alert"
            }
          ]
        },
        "PushCollider_Handle": {
          "modifierName": "",
          "bonusCriticalHurt": 100.0,
          "modifierMixins": [
            {
              "$type": "AttachActionToModifierMixin",
              "onAdded": [
                {
                  "$type": "EnablePushColliderName",
                  "pushColliderNames": ["PushCollider"]
                }
              ],
              "onRemoved": [
                {
                  "$type": "EnablePushColliderName",
                  "canBeHandledOnRecover": true,
                  "pushColliderNames": ["PushCollider"],
                  "setEnable": true
                }
              ]
            }
          ]
        },
        "Visable_Handle": {
          "modifierName": "",
          "bonusCriticalHurt": 100.0,
          "modifierMixins": [
            {
              "$type": "AttachActionToModifierMixin",
              "onAdded": [
                {
                  "$type": "HideUIBillBoard",
                  "hide": true
                },
                {
                  "$type": "EnableHitBoxByName",
                  "hitBoxNames": ["HitBox"]
                }
              ],
              "onRemoved": [
                {
                  "$type": "EnableHitBoxByName",
                  "canBeHandledOnRecover": true,
                  "hitBoxNames": ["HitBox"],
                  "setEnable": true
                },
                {
                  "$type": "HideUIBillBoard",
                  "canBeHandledOnRecover": true
                }
              ]
            }
          ],
          "onAdded": [
            {
              "$type": "TriggerSetVisible"
            }
          ],
          "onRemoved": [
            {
              "$type": "ApplyModifier",
              "modifierName": "SetVisible_Ture"
            }
          ],
          "LGJBJJBCBEH": [
            {
              "$type": "TriggerSetVisible",
              "canBeHandledOnRecover": true,
              "visible": true
            }
          ]
        },
        "Monster_Chrysopelea_Eremite_Grass_MeleeAttack01_Alert": {
          "modifierName": "",
          "duration": 0.15000000596046448,
          "bonusCriticalHurt": 100.0,
          "onAdded": [
            {
              "$type": "DoBlink"
            },
            {
              "$type": "FireEffect",
              "healLimitedByCasterMaxHPRatio": "Eff_Monster_Chrysopelea_Eremite_Grass_MeleeAttack01_Alert",
              "born": {
                "$type": "MGDGOLHGFAP",
                "DAPKLNIFPID": true,
                "DCKBDJJECJH": 0.0,
                "JPJIEDIHGFF": 50.0
              },
              "effectTempleteID": -1.0
            }
          ]
        },
        "SetVisible_Ture": {
          "modifierName": "",
          "duration": 1.0,
          "bonusCriticalHurt": 100.0,
          "onAdded": [
            {
              "$type": "TriggerSetVisible",
              "canBeHandledOnRecover": true,
              "visible": true
            }
          ]
        }
      },
      "onAbilityStart": [
        {
          "$type": "ApplyModifier",
          "modifierName": "Monster_Chrysopelea_Eremite_Grass_MeleeAttack01_BlinkHandle"
        }
      ]
    }
  },
  {
    "Default": {
      "$type": "ConfigAbility",
      "abilityName": "Monster_Chrysopelea_Eremite_Grass_MeleeAttack01_Damage",
      "modifiers": {
        "Monster_Chrysopelea_Eremite_Grass_MeleeAttack01_Damage": {
          "modifierName": "",
          "duration": 0.550000011920929,
          "bonusCriticalHurt": 100.0,
          "onAdded": [
            {
              "$type": "EnableHDMesh",
              "enable": true,
              "BPKOFFOCMNG": "Default"
            },
            {
              "$type": "FireEffect",
              "healLimitedByCasterMaxHPRatio": "Eff_Monster_Chrysopelea_Eremite_Grass_MeleeAttack01_Damage",
              "born": {
                "$type": "MGDGOLHGFAP",
                "DAPKLNIFPID": true,
                "DCKBDJJECJH": 0.0,
                "JPJIEDIHGFF": 50.0
              },
              "effectTempleteID": -1.0
            },
            {
              "$type": "TriggerAttackEvent",
              "attackEvent": {
                "attackPattern": {
                  "$type": "ConfigAttackCircle",
                  "triggerType": "TriggerNoRepeat",
                  "born": {
                    "$type": "MGDGOLHGFAP",
                    "DAPKLNIFPID": true,
                    "DCKBDJJECJH": 0.0,
                    "JPJIEDIHGFF": 50.0
                  },
                  "height": 2.0,
                  "radius": 3.0
                },
                "attackInfo": {
                  "attackTag": "",
                  "attenuationTag": "",
                  "attenuationGroup": "default",
                  "attackProperty": {
                    "damagePercentage": 1.0,
                    "damagePercentageRatio": 0.0,
                    "elementType": "Grass",
                    "bonusCriticalHurt": 25.0,
                    "strikeType": "Blunt",
                    "enBreak": 100.0
                  },
                  "hitPattern": {
                    "onHitEffectName": "default",
                    "hitImpulseType": "LV5",
                    "retreatType": "ByHitDirection",
                    "hitHaltTimeScale": 0.009999999776482582
                  },
                  "forceCameraShake": true,
                  "cameraShake": {
                    "shakeRange": 0.25,
                    "shakeTime": 1.0,
                    "shakeDir": {
                      "y": 2.0
                    },
                    "extension": {
                      "baseOnCamera": true,
                      "rangeAttenuation": 0.0
                    }
                  }
                }
              },
              "targetType": "Enemy"
            }
          ],
          "onRemoved": [
            {
              "$type": "EnableHDMesh",
              "canBeHandledOnRecover": true,
              "BPKOFFOCMNG": "Default"
            }
          ],
          "LGJBJJBCBEH": [
            {
              "$type": "EnableHDMesh",
              "canBeHandledOnRecover": true,
              "BPKOFFOCMNG": "Default"
            }
          ]
        }
      },
      "onAbilityStart": [
        {
          "$type": "ApplyModifier",
          "modifierName": "Monster_Chrysopelea_Eremite_Grass_MeleeAttack01_Damage"
        }
      ]
    }
  },
  {
    "Default": {
      "$type": "ConfigAbility",
      "abilityName": "Monster_Chrysopelea_Eremite_Grass_ComboAttack01",
      "abilityMixins": [
        {
          "$type": "AttachToStateIDMixin",
          "stateIDs": ["ComboAttack01"],
          "modifierName": "Kill_Gadget"
        },
        {
          "$type": "AttachToStateIDMixin",
          "stateIDs": ["ComboAttack01"],
          "modifierName": "ComboAttack_Trigger",
          "target": "Owner"
        }
      ],
      "modifiers": {
        "Monster_Chrysopelea_Eremite_Grass_ComboAttack01_TriggerBullet": {
          "modifierName": "",
          "duration": 1.0,
          "bonusCriticalHurt": 100.0,
          "onAdded": [
            {
              "$type": "ResetAIAttackTarget"
            },
            {
              "$type": "TriggerBullet",
              "target": "SelfAttackActiveTarget",
              "bulletID": 42560005,
              "born": {
                "$type": "ConfigBornByTarget"
              },
              "trackTarget": "SelfAttackActiveTarget"
            }
          ]
        },
        "ComboAttack_Trigger": {
          "modifierName": "",
          "duration": 1.0,
          "bonusCriticalHurt": 100.0,
          "onAdded": [
            {
              "$type": "SetAnimatorTrigger",
              "triggerID": "ComboTrigger"
            }
          ]
        },
        "Kill_Gadget": {
          "modifierName": "",
          "bonusCriticalHurt": 100.0,
          "onChangeAuthority": [
            {
              "$type": "ApplyModifier",
              "otherTargets": {
                "$type": "SelectTargetsByChildren",
                "configID": 42560005
              },
              "modifierName": "Kill_Self"
            }
          ]
        },
        "Kill_Self": {
          "modifierName": "",
          "duration": 1.0,
          "bonusCriticalHurt": 100.0,
          "onAdded": [
            {
              "$type": "KillSelf"
            }
          ]
        }
      },
      "onAbilityStart": [
        {
          "$type": "ApplyModifier",
          "modifierName": "Monster_Chrysopelea_Eremite_Grass_ComboAttack01_TriggerBullet"
        }
      ]
    }
  },
  {
    "Default": {
      "$type": "ConfigAbility",
      "abilityName": "Monster_Chrysopelea_Eremite_Grass_ComboAttack01_Damage",
      "onAbilityStart": [
        {
          "$type": "FireEffect",
          "healLimitedByCasterMaxHPRatio": "Eff_Monster_Chrysopelea_Eremite_Grass_ComboAttack01_Damage",
          "born": {
            "$type": "ConfigBornByCollisionPoint",
            "DAPKLNIFPID": true
          },
          "effectTempleteID": -1.0
        },
        {
          "$type": "TriggerAttackEvent",
          "attackEvent": {
            "attackPattern": {
              "$type": "ConfigAttackSphere",
              "triggerType": "TriggerNoRepeat",
              "born": {
                "$type": "ConfigBornByCollisionPoint",
                "DAPKLNIFPID": true
              },
              "radius": 1.7999999523162842
            },
            "attackInfo": {
              "attackTag": "",
              "attenuationTag": "Eremite_Chrysopelea_ComboAttack",
              "attenuationGroup": "Eremite_Chrysopelea_ComboAttack",
              "attackProperty": {
                "damagePercentage": 0.30000001192092896,
                "damagePercentageRatio": 0.0,
                "elementType": "Grass",
                "bonusCriticalHurt": 10.0,
                "strikeType": "Default",
                "enBreak": 100.0
              },
              "hitPattern": {
                "onHitEffectName": "default",
                "hitImpulseType": "LV2",
                "hitHaltTimeScale": 0.05000000074505806
              },
              "canBeModifiedBy": "OriginOwner"
            }
          },
          "targetType": "Enemy"
        }
      ]
    }
  },
  {
    "Default": {
      "$type": "ConfigAbility",
      "abilityName": "Monster_Chrysopelea_Eremite_Grass_RangeAttack01",
      "abilityMixins": [
        {
          "$type": "AttachToNormalizedTimeMixin",
          "stateID": "RangeAttack01",
          "modifierName": "Monster_Chrysopelea_Eremite_Grass_RangeAttack01_Effect",
          "normalizeEnd": 0.5
        }
      ],
      "modifiers": {
        "Monster_Chrysopelea_Eremite_Grass_RangeAttack01_TriggerBullet": {
          "modifierName": "",
          "duration": 1.0,
          "bonusCriticalHurt": 100.0,
          "onAdded": [
            {
              "$type": "TriggerBullet",
              "bulletID": 42560006,
              "born": {
                "$type": "ConfigBornByAttachPoint",
                "direction": {
                  "$type": "HFKFLHCBMLB"
                },
                "IABNJPGBAOH": true,
                "attachPointName": "RingCore"
              },
              "GKJDJDACPMC": true
            }
          ]
        },
        "Monster_Chrysopelea_Eremite_Grass_RangeAttack01_Effect": {
          "modifierName": "",
          "bonusCriticalHurt": 100.0,
          "onAdded": [
            {
              "$type": "AttachEffect",
              "healLimitedByCasterMaxHPRatio": "Eff_Monster_Chrysopelea_Eremite_Grass_RangeAttack01_BS",
              "effectTempleteID": -1.0
            }
          ]
        }
      },
      "onAbilityStart": [
        {
          "$type": "ApplyModifier",
          "modifierName": "Monster_Chrysopelea_Eremite_Grass_RangeAttack01_TriggerBullet"
        }
      ]
    }
  },
  {
    "Default": {
      "$type": "ConfigAbility",
      "abilityName": "Monster_Chrysopelea_Eremite_Grass_RangeAttack01_Bullet",
      "modifiers": {
        "Monster_Chrysopelea_Eremite_Grass_RangeAttack01_Bullet_Effect": {
          "modifierName": "",
          "bonusCriticalHurt": 100.0,
          "onAdded": [
            {
              "$type": "AttachEffect",
              "healLimitedByCasterMaxHPRatio": "Eff_Monster_Chrysopelea_Eremite_Grass_RangeAttack01_Bullet",
              "effectTempleteID": -1.0
            },
            {
              "$type": "AttachEffect",
              "healLimitedByCasterMaxHPRatio": "Eff_Monster_Chrysopelea_Eremite_Grass_RangeAttack01_Bullet_Tail",
              "effectTempleteID": -1.0
            }
          ]
        }
      },
      "onAdded": [
        {
          "$type": "AttachModifier",
          "modifierName": "Monster_Chrysopelea_Eremite_Grass_RangeAttack01_Bullet_Effect"
        }
      ],
      "onAbilityStart": [
        {
          "$type": "FireEffect",
          "healLimitedByCasterMaxHPRatio": "Eff_Monster_Chrysopelea_Eremite_Grass_RangeAttack01_Damage",
          "born": {
            "$type": "ConfigBornByCollisionPoint"
          },
          "effectTempleteID": -1.0
        },
        {
          "$type": "TriggerAttackEvent",
          "attackEvent": {
            "attackPattern": {
              "$type": "ConfigAttackSphere",
              "triggerType": "TriggerNoRepeat",
              "born": {
                "$type": "ConfigBornByCollisionPoint",
                "offset": {
                  "x": 0.0,
                  "y": 0.0,
                  "z": 0.0
                }
              },
              "radius": 1.399999976158142
            },
            "attackInfo": {
              "attackTag": "",
              "attenuationTag": "",
              "attenuationGroup": "default",
              "attackProperty": {
                "damagePercentage": 1.0,
                "damagePercentageRatio": 0.0,
                "elementType": "Grass",
                "bonusCriticalHurt": 25.0,
                "strikeType": "Default",
                "enBreak": 200.0
              },
              "hitPattern": {
                "onHitEffectName": "default",
                "hitImpulseType": "LV5",
                "hitHaltTimeScale": 0.05000000074505806
              },
              "forceCameraShake": true,
              "cameraShake": {
                "shakeRange": 0.30000001192092896,
                "shakeTime": 0.5
              }
            }
          },
          "targetType": "Enemy"
        },
        {
          "$type": "KillSelf"
        }
      ]
    }
  },
  {
    "Default": {
      "$type": "ConfigAbility",
      "abilityName": "Monster_Chrysopelea_Eremite_Grass_Die",
      "modifiers": {
        "Empty_Modifier": {
          "modifierName": "",
          "bonusCriticalHurt": 100.0
        },
        "Monster_Chrysopelea_Eremite_Grass_Die": {
          "modifierName": "",
          "duration": 1.0,
          "bonusCriticalHurt": 100.0,
          "onAdded": [
            {
              "$type": "SetGlobalValue",
              "ratio": 1.0,
              "key": "_EREMITE_SLAVE_DIE_",
              "useLimitRange": true,
              "maxValue": 1.0,
              "minValue": 0.0
            }
          ]
        }
      },
      "onAdded": [
        {
          "$type": "SetGlobalValue",
          "ratio": 0.0,
          "key": "_EREMITE_SLAVE_RETURNTOBORN_",
          "useLimitRange": true,
          "maxValue": 1.0,
          "minValue": 0.0
        }
      ],
      "onAbilityStart": [
        {
          "$type": "ApplyModifier",
          "target": "Owner",
          "predicates": [
            {
              "$type": "ByTargetGlobalValue",
              "target": "Self",
              "key": "_EREMITE_SLAVE_RETURNTOBORN_",
              "ratio": 0.0
            }
          ],
          "modifierName": "Monster_Chrysopelea_Eremite_Grass_Die"
        }
      ]
    }
  }
]
