[
  {
    "Default": {
      "$type": "ConfigAbility",
      "abilityName": "Monster_Panther_Sacred_SteerAttack",
      "abilityMixins": [
        {
          "$type": "SteerAttackMixin",
          "steerStateIDs": ["Attack_02_Jump_Back"],
          "startNormalizedTime": 0.20000000298023224,
          "endNormalizedTime": 0.5,
          "angularSpeed": 240.0,
          "attackTrigger": ""
        },
        {
          "$type": "SteerAttackMixin",
          "steerStateIDs": ["Attack_02"],
          "startNormalizedTime": 0.2800000011920929,
          "endNormalizedTime": 0.46000000834465027,
          "angularSpeed": 180.0,
          "attackTrigger": ""
        },
        {
          "$type": "SteerAttackMixin",
          "steerStateIDs": ["Attack_02"],
          "startNormalizedTime": 0.550000011920929,
          "endNormalizedTime": 0.6200000047683716,
          "angularSpeed": 180.0,
          "attackTrigger": ""
        },
        {
          "$type": "SteerAttackMixin",
          "steerStateIDs": ["TurnRight"],
          "startNormalizedTime": 0.10000000149011612,
          "endNormalizedTime": 0.44999998807907104,
          "angularSpeed": 240.0,
          "attackTrigger": ""
        },
        {
          "$type": "SteerAttackMixin",
          "steerStateIDs": ["TurnLeft"],
          "startNormalizedTime": 0.10000000149011612,
          "endNormalizedTime": 0.44999998807907104,
          "angularSpeed": 240.0,
          "attackTrigger": ""
        },
        {
          "$type": "SteerAttackMixin",
          "steerStateIDs": ["Sacred_Attack01"],
          "startNormalizedTime": 0.23000000417232513,
          "endNormalizedTime": 0.3400000035762787,
          "angularSpeed": 180.0,
          "attackTrigger": ""
        },
        {
          "$type": "SteerAttackMixin",
          "steerStateIDs": ["Sacred_Attack01"],
          "startNormalizedTime": 0.46799999475479126,
          "endNormalizedTime": 0.5180000066757202,
          "angularSpeed": 180.0,
          "attackTrigger": ""
        },
        {
          "$type": "SteerAttackMixin",
          "steerStateIDs": ["Sacred_Attack01"],
          "startNormalizedTime": 0.46799999475479126,
          "endNormalizedTime": 0.5180000066757202,
          "angularSpeed": 180.0,
          "attackTrigger": ""
        },
        {
          "$type": "SteerAttackMixin",
          "steerStateIDs": ["Sacred_Attack01"],
          "startNormalizedTime": 0.6539999842643738,
          "endNormalizedTime": 0.8640000224113464,
          "angularSpeed": 40.0,
          "attackTrigger": ""
        },
        {
          "$type": "SteerAttackMixin",
          "steerStateIDs": ["Sacred_Attack02"],
          "startNormalizedTime": 0.019999999552965164,
          "endNormalizedTime": 0.17000000178813934,
          "angularSpeed": 240.0,
          "attackTrigger": ""
        },
        {
          "$type": "SteerAttackMixin",
          "steerStateIDs": ["Sacred_Attack02"],
          "startNormalizedTime": 0.4300000071525574,
          "endNormalizedTime": 0.5199999809265137,
          "angularSpeed": 360.0,
          "attackTrigger": ""
        },
        {
          "$type": "SteerAttackMixin",
          "steerStateIDs": ["Sacred_Attack03"],
          "startNormalizedTime": 0.20000000298023224,
          "endNormalizedTime": 0.23000000417232513,
          "angularSpeed": 180.0,
          "attackTrigger": ""
        },
        {
          "$type": "SteerAttackMixin",
          "steerStateIDs": ["Sacred_Attack03"],
          "startNormalizedTime": 0.3199999928474426,
          "endNormalizedTime": 0.38999998569488525,
          "angularSpeed": 180.0,
          "attackTrigger": ""
        },
        {
          "$type": "SteerAttackMixin",
          "steerStateIDs": ["Sacred_Attack03"],
          "startNormalizedTime": 0.5,
          "endNormalizedTime": 0.5799999833106995,
          "angularSpeed": 240.0,
          "attackTrigger": ""
        },
        {
          "$type": "SteerAttackMixin",
          "steerStateIDs": ["Sacred_Attack03"],
          "startNormalizedTime": 0.5899999737739563,
          "endNormalizedTime": 0.6100000143051147,
          "angularSpeed": 180.0,
          "attackTrigger": ""
        },
        {
          "$type": "SteerAttackMixin",
          "steerStateIDs": ["Sacred_Attack03"],
          "startNormalizedTime": 0.6800000071525574,
          "endNormalizedTime": 0.7200000286102295,
          "angularSpeed": 180.0,
          "attackTrigger": ""
        },
        {
          "$type": "SteerAttackMixin",
          "steerStateIDs": ["Sacred_Attack03"],
          "startNormalizedTime": 0.8399999737739563,
          "endNormalizedTime": 0.8600000143051147,
          "angularSpeed": 180.0,
          "attackTrigger": ""
        },
        {
          "$type": "SteerAttackMixin",
          "steerStateIDs": ["Sacred_Attack04_BS"],
          "startNormalizedTime": 0.20000000298023224,
          "angularSpeed": 180.0,
          "attackTrigger": ""
        },
        {
          "$type": "SteerAttackMixin",
          "steerStateIDs": ["Sacred_Attack04_Loop"],
          "endNormalizedTime": 20.0,
          "angularSpeed": 240.0,
          "attackTrigger": ""
        },
        {
          "$type": "SteerAttackMixin",
          "steerStateIDs": ["Sacred_Attack04_AS"],
          "startNormalizedTime": 0.5460000038146973,
          "endNormalizedTime": 0.7009999752044678,
          "angularSpeed": 60.0,
          "attackTrigger": ""
        },
        {
          "$type": "SteerAttackMixin",
          "steerStateIDs": ["Sacred_Attack05_BS"],
          "startNormalizedTime": 0.2199999988079071,
          "angularSpeed": 60.0,
          "attackTrigger": ""
        },
        {
          "$type": "SteerAttackMixin",
          "steerStateIDs": ["Sacred_Attack05_Loop"],
          "startNormalizedTime": 0.10000000149011612,
          "endNormalizedTime": 0.25,
          "angularSpeed": 3600.0,
          "attackTrigger": ""
        }
      ],
      "onAdded": [
        {
          "$type": "SetGlobalValue",
          "ratio": 1.0,
          "key": "Monster_Panther_Sacred",
          "maxValue": 0.0,
          "minValue": 0.0
        }
      ]
    }
  },
  {
    "Default": {
      "$type": "ConfigAbility",
      "abilityName": "Monster_Panther_Sacred_Attack02_BulletHit",
      "onAbilityStart": [
        {
          "$type": "TriggerBullet",
          "bulletID": 42610041,
          "born": {
            "$type": "ConfigBornBySelf",
            "offset": {
              "x": -0.75,
              "y": 1.0,
              "z": 3.0
            },
            "direction": {
              "$type": "HFKFLHCBMLB",
              "PGIBJONOAKP": true,
              "LLOEMEPIBII": "Vertical",
              "maxAngle": 20.0
            },
            "IABNJPGBAOH": true
          }
        }
      ]
    }
  },
  {
    "Default": {
      "$type": "ConfigAbility",
      "abilityName": "Monster_Panther_Sacred_Attack02_PlayBladeEffect",
      "onAbilityStart": [
        {
          "$type": "FireEffect",
          "healLimitedByCasterMaxHPRatio": "Eff_Monster_Panther_Sacred_SacredAttack02_Hit",
          "born": {
            "$type": "ConfigBornBySelf",
            "direction": {
              "$type": "HFKFLHCBMLB",
              "PGIBJONOAKP": true,
              "LLOEMEPIBII": "Vertical",
              "maxAngle": 20.0
            },
            "IABNJPGBAOH": true
          },
          "effectTempleteID": -1.0
        }
      ]
    }
  },
  {
    "Default": {
      "$type": "ConfigAbility",
      "abilityName": "Monster_Panther_Sacred_Attack02_GrassBlade",
      "modifiers": {
        "GrassBlade": {
          "modifierName": "",
          "bonusCriticalHurt": 100.0,
          "onAdded": [
            {
              "$type": "AttachEffect",
              "healLimitedByCasterMaxHPRatio": "Eff_Monster_Panther_Sacred_SacredAttack02_GrassBlade",
              "effectTempleteID": -1.0
            }
          ]
        }
      },
      "onAdded": [
        {
          "$type": "ApplyModifier",
          "modifierName": "GrassBlade"
        }
      ],
      "onAbilityStart": [
        {
          "$type": "Predicated",
          "target": "Target",
          "targetPredicates": [
            {
              "$type": "ByEntityTypes",
              "entityTypes": ["Avatar"]
            }
          ],
          "successActions": [
            {
              "$type": "TriggerAttackEvent",
              "attackEvent": {
                "attackPattern": {
                  "$type": "ConfigAttackSphere",
                  "triggerType": "TriggerNoRepeat",
                  "born": {
                    "$type": "ConfigBornByCollisionPoint"
                  },
                  "radius": 1.0
                },
                "attackInfo": {
                  "attackTag": "",
                  "attenuationTag": "",
                  "attenuationGroup": "default",
                  "attackProperty": {
                    "damagePercentage": 1.0,
                    "damagePercentageRatio": 0.0,
                    "elementType": "Grass",
                    "bonusCriticalHurt": 30.0,
                    "strikeType": "Pierce",
                    "enBreak": 200.0
                  },
                  "hitPattern": {
                    "onHitEffectName": "default",
                    "hitImpulseType": "LV5"
                  },
                  "canBeModifiedBy": "OriginOwner"
                }
              },
              "targetType": "Enemy"
            }
          ]
        }
      ]
    }
  },
  {
    "Default": {
      "$type": "ConfigAbility",
      "abilityName": "Monster_Panther_Sacred_Attack03_Hit3",
      "onAbilityStart": [
        {
          "$type": "TriggerBullet",
          "bulletID": 42610044,
          "born": {
            "$type": "ConfigBornBySelf",
            "offset": {
              "x": 0.0,
              "y": 0.0,
              "z": 0.0
            },
            "direction": {
              "$type": "IOPNFLFHGID",
              "angleOffset": {
                "x": 0.0,
                "y": 0.0,
                "z": 0.0
              }
            },
            "IABNJPGBAOH": true
          }
        },
        {
          "$type": "TriggerBullet",
          "bulletID": 42610044,
          "born": {
            "$type": "ConfigBornBySelf",
            "offset": {
              "x": 0.0,
              "y": 0.0,
              "z": 0.0
            },
            "direction": {
              "$type": "IOPNFLFHGID",
              "angleOffset": {
                "x": 0.0,
                "y": 32.0,
                "z": 0.0
              }
            },
            "IABNJPGBAOH": true
          }
        },
        {
          "$type": "TriggerBullet",
          "bulletID": 42610044,
          "born": {
            "$type": "ConfigBornBySelf",
            "offset": {
              "x": 0.0,
              "y": 0.0,
              "z": 0.0
            },
            "direction": {
              "$type": "IOPNFLFHGID",
              "angleOffset": {
                "x": 0.0,
                "y": -32.0,
                "z": 0.0
              }
            },
            "IABNJPGBAOH": true
          }
        },
        {
          "$type": "TriggerAttackEvent",
          "attackEvent": {
            "attackPattern": {
              "$type": "ConfigAttackCircle",
              "triggerType": "TriggerNoRepeat",
              "born": {
                "$type": "ConfigBornBySelf",
                "offset": {
                  "x": 0.0,
                  "y": 0.0,
                  "z": -0.5
                },
                "IABNJPGBAOH": true
              },
              "height": 2.0,
              "BAPAHIOBNCL": 90.0,
              "radius": 2.0
            },
            "attackInfo": {
              "attackTag": "",
              "attenuationTag": "",
              "attenuationGroup": "default",
              "attackProperty": {
                "damagePercentage": 0.8999999761581421,
                "damagePercentageRatio": 0.0,
                "elementType": "Grass",
                "bonusCriticalHurt": 30.0,
                "strikeType": "Pierce",
                "enBreak": 200.0
              },
              "hitPattern": {
                "onHitEffectName": "default",
                "hitImpulseType": "LV4",
                "retreatType": "ByHitDirection",
                "hitHaltTimeScale": 0.009999999776482582
              }
            }
          },
          "targetType": "Enemy"
        }
      ]
    }
  },
  {
    "Default": {
      "$type": "ConfigAbility",
      "abilityName": "Monster_Panther_Sacred_Attack03_Explode",
      "modifiers": {
        "Monster_Panther_Attack03_HitSeq": {
          "modifierName": "",
          "duration": 1.0,
          "bonusCriticalHurt": 100.0,
          "thinkInterval": 0.20000000298023224,
          "onAdded": [
            {
              "$type": "AttachEffect",
              "healLimitedByCasterMaxHPRatio": "Eff_Monster_Panther_Sacred_SacredAttack03_Hit3",
              "effectTempleteID": -1.0
            }
          ],
          "onThinkInterval": [
            {
              "$type": "TriggerAttackEvent",
              "attackEvent": {
                "attackPattern": {
                  "$type": "ConfigAttackCircle",
                  "triggerType": "TriggerNoRepeat",
                  "born": {
                    "$type": "ConfigBornBySelf",
                    "IABNJPGBAOH": true
                  },
                  "height": 2.0,
                  "radius": 2.0
                },
                "attackInfo": {
                  "attackTag": "",
                  "attenuationTag": "Panther_Sacred_Attack03",
                  "attenuationGroup": "Panther_Sacred_Attack03",
                  "attackProperty": {
                    "damagePercentage": 0.800000011920929,
                    "damagePercentageRatio": 0.0,
                    "elementType": "Grass",
                    "bonusCriticalHurt": 30.0,
                    "strikeType": "Pierce",
                    "enBreak": 200.0
                  },
                  "hitPattern": {
                    "onHitEffectName": "default",
                    "hitImpulseType": "LV4",
                    "retreatType": "ByHitDirection",
                    "hitHaltTimeScale": 0.009999999776482582
                  },
                  "canBeModifiedBy": "OriginOwner"
                }
              },
              "targetType": "Enemy"
            }
          ]
        }
      },
      "onAdded": [
        {
          "$type": "ApplyModifier",
          "modifierName": "Monster_Panther_Attack03_HitSeq"
        }
      ]
    }
  },
  {
    "Default": {
      "$type": "ConfigAbility",
      "abilityName": "Monster_Panther_Sacred_SacredAttack04_SyncMove",
      "onAbilityStart": [
        {
          "$type": "SyncEntityPositionByNormalizedTime",
          "normalizedTime": 0.8999999761581421
        }
      ]
    }
  },
  {
    "Default": {
      "$type": "ConfigAbility",
      "abilityName": "Monster_Panther_Sacred_SacredAttack04",
      "abilityMixins": [
        {
          "$type": "AttachToStateIDMixin",
          "stateIDs": ["Sacred_Attack04_Loop"],
          "modifierName": "SacredAttack04HitCheck"
        },
        {
          "$type": "AttachToStateIDMixin",
          "stateIDs": ["Sacred_Attack04_Loop"],
          "modifierName": "SacredAttack04LoopEffect"
        },
        {
          "$type": "AttachToStateIDMixin",
          "stateIDs": ["Sacred_Attack04_BS"],
          "modifierName": "SacredAttack04ParamReset"
        },
        {
          "$type": "AttachToStateIDMixin",
          "stateIDs": ["Sacred_Attack04_Loop"],
          "modifierName": "SacredAttack04RunCheck"
        }
      ],
      "modifiers": {
        "SacredAttack04LoopEffect": {
          "modifierName": "",
          "bonusCriticalHurt": 100.0,
          "onAdded": [
            {
              "$type": "AttachEffect",
              "healLimitedByCasterMaxHPRatio": "Eff_Monster_Panther_Sacred_SacredAttack04_Loop",
              "effectTempleteID": -1.0
            }
          ]
        },
        "SacredAttack04ParamReset": {
          "modifierName": "",
          "duration": 0.5,
          "bonusCriticalHurt": 100.0,
          "onAdded": [
            {
              "$type": "SetAnimatorInt",
              "intID": "Attack04Target",
              "ratio": 0.0
            }
          ]
        },
        "SacredAttack04RunCheck": {
          "modifierName": "",
          "bonusCriticalHurt": 100.0,
          "thinkInterval": 0.10000000149011612,
          "onThinkInterval": [
            {
              "$type": "Predicated",
              "target": "SelfAttackTarget",
              "targetPredicates": [
                {
                  "$type": "HPJOHDHEPCG",
                  "logic": "LesserOrEqual",
                  "ratio": 7.0
                }
              ],
              "successActions": [
                {
                  "$type": "SetAnimatorInt",
                  "intID": "Attack04Target",
                  "ratio": 1.0
                }
              ],
              "failActions": [
                {
                  "$type": "SetAnimatorInt",
                  "intID": "Attack04Target",
                  "ratio": 0.0
                }
              ]
            }
          ]
        },
        "SacredAttack04HitCheck": {
          "modifierName": "",
          "bonusCriticalHurt": 100.0,
          "modifierMixins": [
            {
              "$type": "AttachToAbilityStateMixin",
              "abilityStates": ["ElementFrozen", "ElementPetrifaction"],
              "reject": true,
              "modifierName": "SacredAttack04Hit"
            }
          ]
        },
        "SacredAttack04Hit": {
          "modifierName": "",
          "bonusCriticalHurt": 100.0,
          "thinkInterval": 0.10000000149011612,
          "onThinkInterval": [
            {
              "$type": "TriggerAttackEvent",
              "attackEvent": {
                "attackPattern": {
                  "$type": "ConfigAttackBox",
                  "triggerType": "TriggerNoRepeat",
                  "born": {
                    "$type": "ConfigBornBySelf",
                    "offset": {
                      "x": 0.0,
                      "y": 0.0,
                      "z": 0.0
                    },
                    "IABNJPGBAOH": true
                  },
                  "size": {
                    "x": 2.0,
                    "y": 4.0,
                    "z": 3.0
                  }
                },
                "attackInfo": {
                  "attackTag": "",
                  "attenuationTag": "",
                  "attenuationGroup": "default",
                  "attackProperty": {
                    "damagePercentage": 0.10000000149011612,
                    "damagePercentageRatio": 0.0,
                    "elementType": "Grass",
                    "bonusCriticalHurt": 30.0,
                    "strikeType": "Blunt",
                    "enBreak": 200.0
                  },
                  "hitPattern": {
                    "onHitEffectName": "default",
                    "hitImpulseType": "LV3",
                    "retreatType": "ByTangent",
                    "hitHaltTimeScale": 0.05000000074505806
                  }
                }
              },
              "targetType": "Enemy"
            },
            {
              "$type": "Predicated",
              "otherTargets": {
                "$type": "SelectTargetsByShape",
                "shapeName": "CircleR3",
                "campTargetType": "Enemy",
                "OBHNBNDMPFN": 1.0
              },
              "targetPredicates": [
                {
                  "$type": "ByTargetGlobalValue",
                  "key": "_COMMON_GADGET_ISSUMMON",
                  "ratio": 0.0,
                  "compareType": "MoreThan"
                }
              ],
              "successActions": [
                {
                  "$type": "ApplyModifier",
                  "target": "Target",
                  "modifierName": "Kill_Summon_Gadget"
                }
              ]
            }
          ]
        },
        "Kill_Summon_Gadget": {
          "modifierName": "",
          "bonusCriticalHurt": 100.0,
          "onAdded": [
            {
              "$type": "KillSelf"
            }
          ]
        }
      }
    }
  },
  {
    "Default": {
      "$type": "ConfigAbility",
      "abilityName": "Monster_Panther_Sacred_Attack05_Dither",
      "modifiers": {
        "DitherControl": {
          "modifierName": "",
          "duration": 2.0,
          "bonusCriticalHurt": 100.0,
          "onAdded": [
            {
              "$type": "StartDither",
              "duration": 1.6670000553131104
            }
          ]
        }
      },
      "onAbilityStart": [
        {
          "$type": "ApplyModifier",
          "modifierName": "DitherControl"
        }
      ]
    }
  },
  {
    "Default": {
      "$type": "ConfigAbility",
      "abilityName": "Monster_Panther_Sacred_Attack05_Collider",
      "modifiers": {
        "ColliderControl": {
          "modifierName": "",
          "duration": 1.100000023841858,
          "bonusCriticalHurt": 100.0,
          "modifierMixins": [
            {
              "$type": "AttachActionToModifierMixin",
              "onAdded": [
                {
                  "$type": "EnablePushColliderName",
                  "pushColliderNames": ["PushCollider"]
                }
              ],
              "onRemoved": [
                {
                  "$type": "EnablePushColliderName",
                  "pushColliderNames": ["PushCollider"],
                  "setEnable": true
                }
              ]
            }
          ]
        },
        "StateControl": {
          "modifierName": "",
          "duration": 0.5,
          "bonusCriticalHurt": 100.0,
          "modifierMixins": [
            {
              "$type": "AttachActionToModifierMixin",
              "onAdded": [
                {
                  "$type": "HideUIBillBoard",
                  "hide": true
                },
                {
                  "$type": "ApplyModifier",
                  "modifierName": "UnderGround_Invincible"
                },
                {
                  "$type": "ApplyModifier",
                  "modifierName": "UnderGround_DenyLockOn"
                }
              ],
              "onRemoved": [
                {
                  "$type": "HideUIBillBoard"
                },
                {
                  "$type": "RemoveModifier",
                  "modifierName": "UnderGround_Invincible"
                },
                {
                  "$type": "RemoveModifier",
                  "modifierName": "UnderGround_DenyLockOn"
                }
              ]
            }
          ],
          "onAdded": [
            {
              "$type": "TriggerSetVisible"
            }
          ],
          "onRemoved": [
            {
              "$type": "TriggerSetVisible",
              "visible": true
            }
          ]
        },
        "UnderGround_Invincible": {
          "modifierName": "",
          "bonusCriticalHurt": 100.0,
          "state": "Invincible"
        },
        "UnderGround_DenyLockOn": {
          "modifierName": "",
          "bonusCriticalHurt": 100.0,
          "state": "DenyLockOn"
        }
      },
      "onAbilityStart": [
        {
          "$type": "ApplyModifier",
          "modifierName": "StateControl"
        },
        {
          "$type": "ApplyModifier",
          "modifierName": "ColliderControl"
        }
      ]
    }
  },
  {
    "Default": {
      "$type": "ConfigAbility",
      "abilityName": "Monster_Panther_Sacred_Attack05_Find",
      "onAbilityStart": [
        {
          "$type": "TryFindBlinkPointByBorn",
          "target": "SelfAttackTarget",
          "born": {
            "$type": "ConfigBornByTarget",
            "offset": {
              "x": 0.0,
              "y": 10.0,
              "z": -7.71999979019165
            },
            "IGAGDFFFGAO": {
              "$type": "FHDJJGOONEI",
              "OKDPGGJGGCJ": 0.05000000074505806,
              "CPOKKADJBFH": 0.15000000596046448
            },
            "DAPKLNIFPID": true
          },
          "hitSceneType": "BlinkHitSceneTestByThreeSegments",
          "limitY": 18.0
        },
        {
          "$type": "FireEffect",
          "healLimitedByCasterMaxHPRatio": "Eff_Monster_Panther_Sacred_SacredAttack05_AirFog",
          "born": {
            "$type": "IOHLPEPEKAP",
            "offset": {
              "x": 0.0,
              "y": 2.0,
              "z": 0.0
            }
          },
          "effectTempleteID": -1.0
        },
        {
          "$type": "FireEffect",
          "target": "SelfAttackTarget",
          "healLimitedByCasterMaxHPRatio": "Eff_Monster_Panther_Sacred_SacredAttack05_Warning",
          "born": {
            "$type": "ConfigBornByTarget",
            "DAPKLNIFPID": true
          },
          "effectTempleteID": -1.0
        }
      ]
    }
  },
  {
    "Default": {
      "$type": "ConfigAbility",
      "abilityName": "Monster_Panther_Sacred_Attack05_Blink",
      "onAbilityStart": [
        {
          "$type": "FireEffect",
          "healLimitedByCasterMaxHPRatio": "Eff_Monster_Panther_Sacred_SacredAttack05_AirFog_AS",
          "born": {
            "$type": "IOHLPEPEKAP"
          },
          "effectTempleteID": -1.0
        },
        {
          "$type": "TurnDirectionToPos",
          "toPos": {
            "$type": "IOHLPEPEKAP"
          }
        },
        {
          "$type": "DoBlink"
        }
      ]
    }
  },
  {
    "Default": {
      "$type": "ConfigAbility",
      "abilityName": "Monster_Panther_Sacred_Attack05_Hit",
      "onAbilityStart": [
        {
          "$type": "CreateGadget",
          "born": {
            "$type": "ConfigBornBySelf",
            "DAPKLNIFPID": true,
            "IABNJPGBAOH": true
          },
          "GKJDJDACPMC": true,
          "gadgetID": 42610043
        }
      ]
    }
  },
  {
    "Default": {
      "$type": "ConfigAbility",
      "abilityName": "Monster_Panther_Sacred_Attack05_Explode",
      "modifiers": {
        "Zone_Handler": {
          "modifierName": "",
          "duration": 1.0,
          "bonusCriticalHurt": 100.0,
          "onAdded": [
            {
              "$type": "FireEffect",
              "healLimitedByCasterMaxHPRatio": "Eff_Monster_Panther_Sacred_SacredAttack05_Hit",
              "born": {
                "$type": "ConfigBornBySelf",
                "IABNJPGBAOH": true
              },
              "effectTempleteID": -1.0
            },
            {
              "$type": "TriggerAttackEvent",
              "attackEvent": {
                "attackPattern": {
                  "$type": "ConfigAttackCircle",
                  "triggerType": "TriggerNoRepeat",
                  "born": {
                    "$type": "ConfigBornBySelf",
                    "offset": {
                      "x": 0.0,
                      "y": -1.0,
                      "z": 0.0
                    },
                    "IABNJPGBAOH": true
                  },
                  "height": 4.0,
                  "radius": 6.0
                },
                "attackInfo": {
                  "attackTag": "",
                  "attenuationTag": "",
                  "attenuationGroup": "default",
                  "attackProperty": {
                    "damagePercentage": 0.800000011920929,
                    "damagePercentageRatio": 0.0,
                    "elementType": "Grass",
                    "bonusCriticalHurt": 30.0,
                    "strikeType": "Blunt",
                    "enBreak": 200.0,
                    "attackType": "Melee"
                  },
                  "hitPattern": {
                    "onHitEffectName": "default",
                    "hitImpulseType": "LV4",
                    "hitHaltTimeScale": 0.009999999776482582
                  },
                  "canBeModifiedBy": "OriginOwner"
                }
              },
              "targetType": "Enemy"
            }
          ],
          "onRemoved": [
            {
              "$type": "FireEffect",
              "healLimitedByCasterMaxHPRatio": "Eff_Monster_Panther_Sacred_SacredAttack05_Hit02",
              "born": {
                "$type": "ConfigBornBySelf",
                "IABNJPGBAOH": true
              },
              "effectTempleteID": -1.0
            },
            {
              "$type": "TriggerAttackEvent",
              "attackEvent": {
                "attackPattern": {
                  "$type": "ConfigAttackCircle",
                  "triggerType": "TriggerNoRepeat",
                  "born": {
                    "$type": "ConfigBornBySelf",
                    "offset": {
                      "x": 0.0,
                      "y": -1.0,
                      "z": 0.0
                    },
                    "IABNJPGBAOH": true
                  },
                  "height": 4.0,
                  "radius": 8.0
                },
                "attackInfo": {
                  "attackTag": "",
                  "attenuationTag": "",
                  "attenuationGroup": "default",
                  "attackProperty": {
                    "damagePercentage": 1.0,
                    "damagePercentageRatio": 0.0,
                    "elementType": "Grass",
                    "bonusCriticalHurt": 30.0,
                    "strikeType": "Blunt",
                    "enBreak": 200.0,
                    "attackType": "Melee"
                  },
                  "hitPattern": {
                    "onHitEffectName": "default",
                    "hitImpulseType": "LV5",
                    "hitHaltTimeScale": 0.009999999776482582
                  },
                  "canBeModifiedBy": "OriginOwner"
                }
              },
              "targetType": "Enemy"
            },
            {
              "$type": "KillSelf"
            }
          ]
        }
      },
      "onAdded": [
        {
          "$type": "ApplyModifier",
          "modifierName": "Zone_Handler"
        }
      ]
    }
  },
  {
    "Default": {
      "$type": "ConfigAbility",
      "abilityName": "Monster_Panther_Sacred_HeadControlOff",
      "abilityMixins": [
        {
          "$type": "AttachToAIAlertnessMixin",
          "alertness": [0, 1],
          "modifierName": "HeadControl_Disable"
        }
      ],
      "modifiers": {
        "HeadControl_Disable": {
          "modifierName": "",
          "bonusCriticalHurt": 100.0,
          "onAdded": [
            {
              "$type": "EnableHeadControl"
            }
          ],
          "onRemoved": [
            {
              "$type": "EnableHeadControl",
              "enable": true
            }
          ]
        }
      }
    }
  },
  {
    "Default": {
      "$type": "ConfigAbility",
      "abilityName": "Monster_Panther_Sacred_SacredEnergy_Accum"
    }
  },
  {
    "Default": {
      "$type": "ConfigAbility",
      "abilityName": "Monster_Panther_Sacred_SacredEnergy_Detect",
      "onAbilityStart": [
        {
          "$type": "SetGlobalPos",
          "key": "_Sacred_SacredEnergy_Pos",
          "born": {
            "$type": "ConfigBornBySelf",
            "offset": {
              "x": 0.0,
              "y": 0.0,
              "z": 3.0
            },
            "IABNJPGBAOH": true
          }
        },
        {
          "$type": "TriggerBullet",
          "bulletID": 42610037,
          "born": {
            "$type": "ConfigBornBySelf",
            "offset": {
              "x": 0.0,
              "y": 1.0,
              "z": 2.0
            },
            "IABNJPGBAOH": true
          },
          "GKJDJDACPMC": true
        }
      ]
    }
  },
  {
    "Default": {
      "$type": "ConfigAbility",
      "abilityName": "Monster_Panther_Sacred_SacredEnergy_Create",
      "modifiers": {
        "CreateSacredEnergy": {
          "modifierName": "",
          "duration": 0.10000000149011612,
          "bonusCriticalHurt": 100.0,
          "onAdded": [
            {
              "$type": "CopyGlobalValue",
              "target": "Applier",
              "dstTarget": "Self",
              "srcKey": "_Sacred_SacredEnergy_Pos_0",
              "dstKey": "_Sacred_SacredEnergy_Pos_0"
            },
            {
              "$type": "CopyGlobalValue",
              "target": "Applier",
              "dstTarget": "Self",
              "srcKey": "_Sacred_SacredEnergy_Pos_1",
              "dstKey": "_Sacred_SacredEnergy_Pos_1"
            },
            {
              "$type": "CopyGlobalValue",
              "target": "Applier",
              "dstTarget": "Self",
              "srcKey": "_Sacred_SacredEnergy_Pos_2",
              "dstKey": "_Sacred_SacredEnergy_Pos_2"
            }
          ],
          "onRemoved": [
            {
              "$type": "CreateGadget",
              "born": {
                "$type": "ConfigBornByGlobalValue",
                "positionKey": "_Sacred_SacredEnergy_Pos",
                "directionKey": ""
              },
              "sightGroupWithOwner": true,
              "GKJDJDACPMC": true,
              "gadgetID": 42610039,
              "campID": 4001,
              "byServer": true
            }
          ]
        }
      },
      "onAbilityStart": [
        {
          "$type": "SetGlobalPos",
          "key": "_Sacred_SacredEnergy_Pos",
          "born": {
            "$type": "ConfigBornByCollisionPoint",
            "DAPKLNIFPID": true,
            "BJCIHELGKLP": true
          }
        },
        {
          "$type": "ApplyModifier",
          "target": "OriginOwner",
          "modifierName": "CreateSacredEnergy"
        },
        {
          "$type": "KillSelf"
        }
      ]
    }
  },
  {
    "Default": {
      "$type": "ConfigAbility",
      "abilityName": "Monster_Panther_Sacred_SacredEnergy_CreateO",
      "modifiers": {
        "CreateSacredEnergy": {
          "modifierName": "",
          "duration": 0.10000000149011612,
          "bonusCriticalHurt": 100.0,
          "onAdded": [
            {
              "$type": "CopyGlobalValue",
              "target": "Applier",
              "dstTarget": "Self",
              "srcKey": "_Sacred_SacredEnergy_Pos_0",
              "dstKey": "_Sacred_SacredEnergy_Pos_0"
            },
            {
              "$type": "CopyGlobalValue",
              "target": "Applier",
              "dstTarget": "Self",
              "srcKey": "_Sacred_SacredEnergy_Pos_1",
              "dstKey": "_Sacred_SacredEnergy_Pos_1"
            },
            {
              "$type": "CopyGlobalValue",
              "target": "Applier",
              "dstTarget": "Self",
              "srcKey": "_Sacred_SacredEnergy_Pos_2",
              "dstKey": "_Sacred_SacredEnergy_Pos_2"
            }
          ],
          "onRemoved": [
            {
              "$type": "CreateGadget",
              "born": {
                "$type": "ConfigBornByGlobalValue",
                "positionKey": "_Sacred_SacredEnergy_Pos",
                "directionKey": ""
              },
              "sightGroupWithOwner": true,
              "GKJDJDACPMC": true,
              "gadgetID": 42610039,
              "campID": 4001,
              "byServer": true
            }
          ]
        }
      },
      "onAbilityStart": [
        {
          "$type": "SetGlobalPos",
          "key": "_Sacred_SacredEnergy_Pos",
          "born": {
            "$type": "ConfigBornBySelf",
            "DAPKLNIFPID": true,
            "BJCIHELGKLP": true,
            "IABNJPGBAOH": true
          }
        },
        {
          "$type": "ApplyModifier",
          "target": "OriginOwner",
          "modifierName": "CreateSacredEnergy"
        },
        {
          "$type": "KillSelf"
        }
      ]
    }
  },
  {
    "Default": {
      "$type": "ConfigAbility",
      "abilityName": "Monster_Panther_Sacred_SacredEnergy_Gadget",
      "modifiers": {
        "Create_Accum_Bullet": {
          "modifierName": "",
          "duration": 0.800000011920929,
          "bonusCriticalHurt": 100.0,
          "onAdded": [
            {
              "$type": "FireEffect",
              "healLimitedByCasterMaxHPRatio": "Eff_Monster_Panther_Sacred_SacredAttack05_SacredEnergy",
              "effectTempleteID": -1.0
            }
          ],
          "onRemoved": [
            {
              "$type": "SetSelfAttackTarget",
              "otherTargets": {
                "$type": "SelectTargetsByChildren",
                "topLimit": 1,
                "entityTypePriority": ["Gadget"],
                "configID": 42610039
              }
            },
            {
              "$type": "TriggerBullet",
              "target": "SelfAttackTarget",
              "bulletID": 42610038,
              "born": {
                "$type": "ConfigBornBySelf",
                "IABNJPGBAOH": true
              },
              "GKJDJDACPMC": true
            },
            {
              "$type": "ResetAIAttackTarget"
            }
          ]
        },
        "DarkHoundGadget_DelayHandler_Effect": {
          "modifierName": "",
          "duration": 1.9500000476837158,
          "bonusCriticalHurt": 100.0,
          "onRemoved": [
            {
              "$type": "FireEffect",
              "healLimitedByCasterMaxHPRatio": "Eff_Monster_Panther_Sacred_SacredAttack05_SacredEnergy_Hit",
              "effectTempleteID": -1.0
            }
          ]
        },
        "DarkHoundGadget_DelayHandler": {
          "modifierName": "",
          "duration": 2.0,
          "bonusCriticalHurt": 100.0,
          "onRemoved": [
            {
              "$type": "ApplyModifier",
              "modifierName": "DarkHoundGadget_ChargeState"
            },
            {
              "$type": "EnablePushColliderName",
              "pushColliderNames": ["PushCollider"],
              "setEnable": true
            }
          ]
        },
        "DarkHoundGadget_ChargeState": {
          "modifierName": "",
          "duration": 6.0,
          "bonusCriticalHurt": 100.0,
          "modifierMixins": [
            {
              "$type": "ChargeBarMixin",
              "DDIGKJFMHED": "Grass",
              "NBBOACENGHG": 0.0,
              "maxValue": 10.0
            },
            {
              "$type": "AttachModifierToSelfGlobalValueMixin",
              "globalValueKey": "_CHARGEBAR_VALUE",
              "defaultGlobalValueOnCreate": 0.0,
              "valueSteps": [9.5, 10.5],
              "modifierNameSteps": ["DarkHoundGadget_ChargeEnd"]
            }
          ],
          "onAdded": [
            {
              "$type": "AttachEffect",
              "healLimitedByCasterMaxHPRatio": "Eff_Monster_Panther_Sacred_SacredEnergy",
              "effectTempleteID": -1.0
            }
          ],
          "onRemoved": [
            {
              "$type": "EnableHitBoxByName",
              "hitBoxNames": ["HitBox"]
            },
            {
              "$type": "EnablePushColliderName",
              "pushColliderNames": ["PushCollider_Occluder"]
            },
            {
              "$type": "EnablePushColliderName",
              "pushColliderNames": ["PushCollider"]
            },
            {
              "$type": "FireEffect",
              "predicates": [
                {
                  "$type": "ByTargetGlobalValue",
                  "target": "Self",
                  "key": "_CHARGEBAR_VALUE",
                  "ratio": 9.0,
                  "compareType": "LessAndEqual"
                }
              ],
              "healLimitedByCasterMaxHPRatio": "Eff_Monster_Panther_Sacred_SacredEnergyDisappear",
              "effectTempleteID": -1.0
            },
            {
              "$type": "TriggerBullet",
              "target": "OriginOwner",
              "predicates": [
                {
                  "$type": "ByTargetGlobalValue",
                  "target": "Self",
                  "key": "_CHARGEBAR_VALUE",
                  "ratio": 9.0,
                  "compareType": "LessAndEqual"
                }
              ],
              "bulletID": 42610042,
              "born": {
                "$type": "ConfigBornByAttachPoint",
                "offset": {
                  "x": 0.0,
                  "y": 0.0,
                  "z": 0.0
                },
                "direction": {
                  "$type": "DOCDLGLJKND",
                  "angleOffset": {
                    "x": 0.0,
                    "y": 0.0,
                    "z": 0.0
                  },
                  "attachPointName": "RootNode",
                  "ABIMPICHJNC": "Self"
                },
                "IABNJPGBAOH": true,
                "attachPointName": "RootNode",
                "ABIMPICHJNC": "Self"
              },
              "trackTarget": "Target",
              "GKJDJDACPMC": true
            },
            {
              "$type": "TriggerSetVisible"
            },
            {
              "$type": "ApplyModifier",
              "modifierName": "Gadget_Invincible"
            },
            {
              "$type": "ApplyModifier",
              "modifierName": "Gadget_DenyLockOn"
            },
            {
              "$type": "ApplyModifier",
              "modifierName": "Gadget_IsGhostToEnemy"
            },
            {
              "$type": "ApplyModifier",
              "modifierName": "Gadget_IsGhostToAllied"
            }
          ],
          "onBeingHit": [
            {
              "$type": "SetSelfAttackTarget",
              "target": "Target"
            },
            {
              "$type": "FireEffect",
              "healLimitedByCasterMaxHPRatio": "Eff_Monster_Panther_Sacred_SacredEnergyBeHit",
              "effectTempleteID": -1.0
            },
            {
              "$type": "AddChargeBarValue",
              "predicates": [
                {
                  "$type": "ByAny",
                  "predicates": [
                    {
                      "$type": "OIEGBANNLOG",
                      "CIMNBKFMPGD": "Grass"
                    }
                  ]
                }
              ],
              "ratio": 10.0,
              "maxValue": 0.0,
              "minValue": 0.0
            },
            {
              "$type": "AddChargeBarValue",
              "predicates": [
                {
                  "$type": "ByAny",
                  "predicates": [
                    {
                      "$type": "OIEGBANNLOG",
                      "CIMNBKFMPGD": "Wind"
                    },
                    {
                      "$type": "OIEGBANNLOG",
                      "CIMNBKFMPGD": "Fire"
                    },
                    {
                      "$type": "OIEGBANNLOG",
                      "CIMNBKFMPGD": "Water"
                    },
                    {
                      "$type": "OIEGBANNLOG",
                      "CIMNBKFMPGD": "Ice"
                    },
                    {
                      "$type": "OIEGBANNLOG",
                      "CIMNBKFMPGD": "Electric"
                    },
                    {
                      "$type": "OIEGBANNLOG",
                      "CIMNBKFMPGD": "Rock"
                    }
                  ]
                }
              ],
              "ratio": 1.6699999570846558,
              "maxValue": 0.0,
              "minValue": 0.0
            }
          ]
        },
        "Gadget_Invincible": {
          "modifierName": "",
          "bonusCriticalHurt": 100.0,
          "state": "Invincible"
        },
        "Gadget_DenyLockOn": {
          "modifierName": "",
          "bonusCriticalHurt": 100.0,
          "state": "DenyLockOn"
        },
        "Gadget_IsGhostToEnemy": {
          "modifierName": "",
          "bonusCriticalHurt": 100.0,
          "state": "IsGhostToEnemy"
        },
        "Gadget_IsGhostToAllied": {
          "modifierName": "",
          "bonusCriticalHurt": 100.0,
          "state": "IsGhostToAllied"
        },
        "DarkHoundGadget_ChargeEnd": {
          "modifierName": "",
          "bonusCriticalHurt": 100.0,
          "onAdded": [
            {
              "$type": "ApplyModifier",
              "modifierName": "FireHolyHound_Timer"
            },
            {
              "$type": "EnableHitBoxByName",
              "hitBoxNames": ["HitBox"]
            },
            {
              "$type": "RemoveModifier",
              "modifierName": "DarkHoundGadget_ChargeState"
            }
          ]
        },
        "FireHolyHound_Timer": {
          "modifierName": "",
          "duration": 0.6499999761581421,
          "bonusCriticalHurt": 100.0,
          "onAdded": [
            {
              "$type": "FireEffect",
              "healLimitedByCasterMaxHPRatio": "Eff_Monster_Panther_Sacred_SacredEnergyTransform",
              "effectTempleteID": -1.0
            },
            {
              "$type": "Predicated",
              "target": "Other",
              "otherTargets": {
                "$type": "SelectTargetsByShape",
                "topLimit": 1,
                "entityTypePriority": ["Avatar"],
                "sortType": "Nearest",
                "shapeName": "CircleR50",
                "campTargetType": "Enemy",
                "OBHNBNDMPFN": 1.0
              },
              "successActions": [
                {
                  "$type": "ApplyModifier",
                  "target": "TargetTeam",
                  "modifierName": "UNIQUE_Panther_SacredEnergy_TargetTeam"
                },
                {
                  "$type": "TriggerBullet",
                  "target": "Target",
                  "bulletID": 42610040,
                  "born": {
                    "$type": "ConfigBornByAttachPoint",
                    "offset": {
                      "x": 0.0,
                      "y": 0.0,
                      "z": 0.0
                    },
                    "direction": {
                      "$type": "DOCDLGLJKND",
                      "angleOffset": {
                        "x": 0.0,
                        "y": 0.0,
                        "z": 0.0
                      },
                      "attachPointName": "RootNode",
                      "ABIMPICHJNC": "Self"
                    },
                    "IABNJPGBAOH": true,
                    "attachPointName": "RootNode",
                    "ABIMPICHJNC": "Self"
                  },
                  "trackTarget": "Target",
                  "GKJDJDACPMC": true
                }
              ]
            }
          ]
        },
        "UNIQUE_Panther_SacredEnergy_TargetTeam": {
          "stacking": "Unique",
          "modifierName": "",
          "isUnique": true,
          "duration": 10.0,
          "bonusCriticalHurt": 100.0,
          "modifierMixins": [
            {
              "$type": "CurLocalAvatarMixinV2",
              "modifierName": "Panther_SacredEnergy_Target"
            }
          ]
        },
        "Panther_SacredEnergy_Target": {
          "modifierName": "",
          "bonusCriticalHurt": 100.0,
          "onAdded": [
            {
              "$type": "SetGlobalValue",
              "ratio": 1.0,
              "key": "SacredEnergy_Target_Panther",
              "maxValue": 0.0,
              "minValue": 0.0
            }
          ],
          "onRemoved": [
            {
              "$type": "SetGlobalValue",
              "ratio": 0.0,
              "key": "SacredEnergy_Target_Panther",
              "maxValue": 0.0,
              "minValue": 0.0
            }
          ]
        }
      },
      "onAdded": [
        {
          "$type": "SetGlobalValue",
          "ratio": 1.0,
          "key": "Panther_SacredEnergy_Gadget",
          "maxValue": 0.0,
          "minValue": 0.0
        },
        {
          "$type": "ApplyModifier",
          "target": "OriginOwner",
          "modifierName": "Create_Accum_Bullet"
        },
        {
          "$type": "ApplyModifier",
          "modifierName": "DarkHoundGadget_DelayHandler"
        },
        {
          "$type": "ApplyModifier",
          "modifierName": "DarkHoundGadget_DelayHandler_Effect"
        },
        {
          "$type": "SetGlobalValue",
          "ratio": 0.0,
          "key": "_CHARGEBAR_VALUE",
          "maxValue": 0.0,
          "minValue": 0.0
        },
        {
          "$type": "EnablePushColliderName",
          "pushColliderNames": ["PushCollider_Occluder"],
          "setEnable": true
        },
        {
          "$type": "EnablePushColliderName",
          "pushColliderNames": ["PushCollider"]
        }
      ]
    }
  },
  {
    "Default": {
      "$type": "ConfigAbility",
      "abilityName": "Monster_Panther_Sacred_SacredEnergy_BridgeToMonster",
      "modifiers": {
        "UNIQUE_Have_Panther_SacredEnergy_Team": {
          "timeScale": "Level",
          "stacking": "Unique",
          "modifierName": "",
          "isUnique": true,
          "duration": 10.0,
          "bonusCriticalHurt": 100.0,
          "thinkInterval": 1.0,
          "modifierMixins": [
            {
              "$type": "CurLocalAvatarMixinV2",
              "modifierName": "Have_Panther_SacredEnergy"
            }
          ],
          "state": "UnlockFrequencyLimit",
          "onAdded": [
            {
              "$type": "RemoveUniqueModifier",
              "target": "Team",
              "modifierName": "UNIQUE_Panther_SacredEnergy_TargetTeam"
            }
          ],
          "onThinkInterval": [
            {
              "$type": "LoseHP",
              "target": "CurTeamAvatars",
              "RotationDampTime": true,
              "predicates": [
                {
                  "$type": "DPKKEBLABLP"
                },
                {
                  "$type": "DDBJEPBNOGF",
                  "predicates": [
                    {
                      "$type": "CPOOOHCHION"
                    }
                  ]
                }
              ],
              "amountByCasterMaxHPRatio": 0.019999999552965164,
              "lethal": false,
              "enableInvincible": true,
              "enableLockHP": true,
              "disableWhenLoading": true,
              "amount": true
            },
            {
              "$type": "RemoveUniqueModifier",
              "predicates": [
                {
                  "$type": "DDBJEPBNOGF",
                  "predicates": [
                    {
                      "$type": "LMICKJKPLNP",
                      "target": "Applier"
                    }
                  ]
                }
              ],
              "modifierName": "UNIQUE_Have_Panther_SacredEnergy_Team"
            }
          ],
          "OOBNPLAILMC": true,
          "LOOBLCBOIMF": ["Corruption"]
        },
        "Have_Panther_SacredEnergy": {
          "modifierName": "",
          "bonusCriticalHurt": 100.0,
          "onAdded": [
            {
              "$type": "SetGlobalValue",
              "ratio": 1.0,
              "key": "SacredEnergy_Panther",
              "maxValue": 0.0,
              "minValue": 0.0
            },
            {
              "$type": "AttachEffect",
              "healLimitedByCasterMaxHPRatio": "Eff_Monster_Panther_Sacred_SacredEnergyOnPlayer",
              "effectTempleteID": -1.0
            }
          ],
          "onRemoved": [
            {
              "$type": "SetGlobalValue",
              "ratio": 0.0,
              "key": "SacredEnergy_Panther",
              "maxValue": 0.0,
              "minValue": 0.0
            }
          ],
          "onAttackLanded": [
            {
              "$type": "Predicated",
              "target": "Other",
              "targetPredicates": [
                {
                  "$type": "ByTargetGlobalValue",
                  "key": "Monster_Panther_Sacred",
                  "ratio": 1.0
                },
                {
                  "$type": "ByEntityTypes",
                  "entityTypes": ["Monster"]
                },
                {
                  "$type": "LCCMCDGDKGI",
                  "attackTags": [
                    "NormalAttack_01",
                    "NormalAttack_02",
                    "NormalAttack_03",
                    "NormalAttack_04",
                    "NormalAttack_05",
                    "NormalAttack_06",
                    "ExtraAttack",
                    "FallingAttack",
                    "Elemental_Art",
                    "Elemental_Art_Hold",
                    "Elemental_Art_Extra",
                    "Elemental_Burst"
                  ]
                },
                {
                  "$type": "ByTargetGlobalValue",
                  "target": "Self",
                  "key": "SacredEnergy_Panther",
                  "ratio": 1.0
                }
              ],
              "successActions": [
                {
                  "$type": "DoWatcherSystemStageAction",
                  "watcherId": 82162,
                  "authorityOnly": true,
                  "stage": 1
                },
                {
                  "$type": "ApplyModifier",
                  "target": "Other",
                  "modifierName": "UNIQUE_SacredBeHit_Panther"
                },
                {
                  "$type": "RemoveUniqueModifier",
                  "target": "Team",
                  "modifierName": "UNIQUE_Have_Panther_SacredEnergy_Team"
                }
              ]
            }
          ]
        },
        "UNIQUE_SacredBeHit_Panther": {
          "stacking": "Unique",
          "modifierName": "",
          "isUnique": true,
          "duration": 0.20000000298023224,
          "bonusCriticalHurt": 100.0,
          "onAdded": [
            {
              "$type": "SetAnimatorTrigger",
              "predicates": [
                {
                  "$type": "DDBJEPBNOGF",
                  "predicates": [
                    {
                      "$type": "ByAnimatorFloat",
                      "target": "Self",
                      "logic": "Equal",
                      "ratio": 203.0,
                      "parameter": "PoseID"
                    }
                  ]
                }
              ],
              "triggerID": "WeakTrigger",
              "MPTriggerOnRemote": true
            },
            {
              "$type": "FireEffect",
              "healLimitedByCasterMaxHPRatio": "Eff_Monster_Panther_Sacred_ScaredBeHit",
              "effectTempleteID": -1.0
            },
            {
              "$type": "LoseHP",
              "amountByCasterMaxHPRatio": 0.15000000596046448
            }
          ]
        }
      },
      "onAbilityStart": [
        {
          "$type": "Predicated",
          "otherTargets": {
            "$type": "SelectTargetsByShape",
            "topLimit": 1,
            "entityTypePriority": ["Avatar"],
            "sortType": "Nearest",
            "shapeName": "CircleR100",
            "campTargetType": "Enemy",
            "OBHNBNDMPFN": 1.0
          },
          "predicates": [
            {
              "$type": "ByTargetGlobalValue",
              "key": "SacredEnergy_Target_Panther",
              "ratio": 1.0
            }
          ],
          "successActions": [
            {
              "$type": "ApplyModifier",
              "target": "TargetTeam",
              "modifierName": "UNIQUE_Have_Panther_SacredEnergy_Team"
            }
          ]
        }
      ]
    }
  },
  {
    "Default": {
      "$type": "ConfigAbility",
      "abilityName": "Monster_Panther_Sacred_SacredEnergy_Bullet",
      "modifiers": {
        "HolyHoundBullet_Effect": {
          "modifierName": "",
          "bonusCriticalHurt": 100.0,
          "onAdded": [
            {
              "$type": "AttachEffect",
              "healLimitedByCasterMaxHPRatio": "Eff_Monster_Panther_Sacred_SacredEnergyBullet",
              "effectTempleteID": -1.0
            }
          ]
        },
        "TriggerLogicSacredEnergy": {
          "stacking": "Unique",
          "modifierName": "",
          "duration": 1.0,
          "bonusCriticalHurt": 100.0,
          "onAdded": [
            {
              "$type": "TriggerAbility",
              "abilityName": "Monster_Panther_Sacred_SacredEnergy_BridgeToMonster"
            }
          ]
        }
      },
      "onAdded": [
        {
          "$type": "ApplyModifier",
          "modifierName": "HolyHoundBullet_Effect"
        }
      ],
      "onAbilityStart": [
        {
          "$type": "Predicated",
          "target": "Target",
          "targetPredicates": [
            {
              "$type": "ByTargetGlobalValue",
              "key": "SacredEnergy_Target_Panther",
              "ratio": 1.0
            }
          ],
          "successActions": [
            {
              "$type": "ApplyModifier",
              "target": "OriginOwner",
              "modifierName": "TriggerLogicSacredEnergy"
            },
            {
              "$type": "FireEffect",
              "target": "Target",
              "predicates": [
                {
                  "$type": "LMICKJKPLNP"
                }
              ],
              "healLimitedByCasterMaxHPRatio": "Eff_Monster_Panther_Sacred_SacredEnergyHitPlayer",
              "born": {
                "$type": "ConfigBornByTarget",
                "IABNJPGBAOH": true
              },
              "effectTempleteID": -1.0
            },
            {
              "$type": "RemoveModifier",
              "modifierName": "HolyHoundBullet_Effect"
            },
            {
              "$type": "KillSelf"
            }
          ]
        }
      ]
    }
  },
  {
    "Default": {
      "$type": "ConfigAbility",
      "abilityName": "Monster_Panther_Sacred_SacredEnergy_Bullet_ToMonster",
      "modifiers": {
        "SacredEnergyRecoverLabel": {
          "modifierName": "",
          "duration": 0.20000000298023224,
          "bonusCriticalHurt": 100.0,
          "onAdded": [
            {
              "$type": "SetGlobalValue",
              "predicates": [
                {
                  "$type": "ByAny",
                  "predicates": [
                    {
                      "$type": "ByAnimatorFloat",
                      "target": "Self",
                      "logic": "Equal",
                      "ratio": 201.0,
                      "parameter": "PoseID"
                    },
                    {
                      "$type": "ByAnimatorFloat",
                      "target": "Self",
                      "logic": "Equal",
                      "ratio": 203.0,
                      "parameter": "PoseID"
                    }
                  ]
                }
              ],
              "ratio": 1.0,
              "key": "SacredEnergy_Recover_Panther",
              "maxValue": 0.0,
              "minValue": 0.0
            }
          ]
        },
        "HolyHoundBullet_Effect": {
          "modifierName": "",
          "bonusCriticalHurt": 100.0,
          "onAdded": [
            {
              "$type": "AttachEffect",
              "healLimitedByCasterMaxHPRatio": "Eff_Monster_Panther_Sacred_SacredEnergyBullet",
              "effectTempleteID": -1.0
            }
          ]
        }
      },
      "onAdded": [
        {
          "$type": "ApplyModifier",
          "modifierName": "HolyHoundBullet_Effect"
        }
      ],
      "onAbilityStart": [
        {
          "$type": "Predicated",
          "target": "Target",
          "targetPredicates": [
            {
              "$type": "ByTargetGlobalValue",
              "key": "Monster_Panther_Sacred",
              "ratio": 1.0
            },
            {
              "$type": "ByTargetGlobalValue",
              "key": "_SACRED_ENTITY_ALERTNESS_TAG_",
              "ratio": 1.0
            }
          ],
          "successActions": [
            {
              "$type": "ApplyModifier",
              "target": "Target",
              "modifierName": "SacredEnergyRecoverLabel"
            },
            {
              "$type": "FireEffect",
              "target": "Target",
              "healLimitedByCasterMaxHPRatio": "Eff_Monster_Panther_Sacred_SacredEnergyHitMonster",
              "effectTempleteID": -1.0
            },
            {
              "$type": "KillSelf"
            }
          ]
        },
        {
          "$type": "Predicated",
          "target": "Target",
          "targetPredicates": [
            {
              "$type": "ByTargetGlobalValue",
              "key": "Monster_Panther_Sacred",
              "ratio": 1.0
            },
            {
              "$type": "ByTargetGlobalValue",
              "key": "_SACRED_ENTITY_ALERTNESS_TAG_",
              "ratio": 0.0,
              "compareType": "NoneOrEqual"
            }
          ],
          "successActions": [
            {
              "$type": "KillSelf"
            }
          ]
        }
      ]
    }
  },
  {
    "Default": {
      "$type": "ConfigAbility",
      "abilityName": "Monster_Panther_Sacred_EnhanceDefence",
      "abilityMixins": [
        {
          "$type": "AttachToPoseIDMixin",
          "poseIDs": [202],
          "modifierName": "Panther_Sacred_EnhanceDefence"
        }
      ],
      "modifiers": {
        "Panther_Sacred_EnhanceDefence": {
          "modifierName": "",
          "bonusCriticalHurt": 100.0,
          "properties": {
            "Actor_PhysicalSubHurtDelta": 0.30000001192092896,
            "Actor_FireSubHurtDelta": 0.30000001192092896,
            "Actor_ElecSubHurtDelta": 0.30000001192092896,
            "Actor_WaterSubHurtDelta": 0.30000001192092896,
            "Actor_GrassSubHurtDelta": 0.6000000238418579,
            "Actor_WindSubHurtDelta": 0.30000001192092896,
            "Actor_IceSubHurtDelta": 0.30000001192092896,
            "Actor_RockSubHurtDelta": 0.30000001192092896
          }
        }
      },
      "onAdded": [
        {
          "$type": "AttachAbilityStateResistance",
          "resistanceListID": 14002,
          "durationRatio": 0.5
        }
      ]
    }
  }
]
