[
  {
    "Default": {
      "$type": "ConfigAbility",
      "abilityName": "Monster_Darkwraith_Strong_Wind_Pose",
      "abilityMixins": [
        {
          "$type": "AttachModifierToSelfGlobalValueMixin",
          "globalValueKey": "_DARKWRAITH_WIND_CLOSE_TAG_",
          "defaultGlobalValueOnCreate": 0.0,
          "valueSteps": [-0.5, 0.5, 99.5],
          "modifierNameSteps": ["Pose_Close", "Pose_Back"]
        },
        {
          "$type": "AttachModifierToSelfGlobalValueMixin",
          "globalValueKey": "_DARKWRAITH_WIND_DODGE_TAG_",
          "defaultGlobalValueOnCreate": 0.0,
          "valueSteps": [-0.5, 0.5, 1.5],
          "modifierNameSteps": ["Pose_Normal", "Pose_Dodge"]
        },
        {
          "$type": "FieldEntityCountChangeMixin",
          "campTargetType": "Alliance",
          "targetPredicates": [
            {
              "$type": "EDBIOHJOCJE",
              "IPBMDDHBECK": [4902]
            },
            {
              "$type": "EDBIOHJOCJE",
              "IPBMDDHBECK": [4013]
            }
          ],
          "onFieldEnter": [
            {
              "$type": "AddGlobalValue",
              "ratio": 1.0,
              "key": "_DARKWRAITH_WIND_CLOSE_TAG_",
              "useLimitRange": true,
              "maxValue": 99.0,
              "minValue": 0.0
            }
          ],
          "onFieldExit": [
            {
              "$type": "AddGlobalValue",
              "ratio": -1.0,
              "key": "_DARKWRAITH_WIND_CLOSE_TAG_",
              "useLimitRange": true,
              "maxValue": 99.0,
              "minValue": 0.0
            }
          ],
          "FIDNIDJEPFD": "",
          "AIPILJKBJLI": 0.0,
          "PADAIOIPHKO": 0.0
        }
      ],
      "modifiers": {
        "Pose_Close": {
          "modifierName": "",
          "bonusCriticalHurt": 100.0,
          "onAdded": [
            {
              "$type": "SetPoseBool",
              "boolID": "CloseTag",
              "ratio": true
            }
          ]
        },
        "Pose_Back": {
          "modifierName": "",
          "bonusCriticalHurt": 100.0,
          "onAdded": [
            {
              "$type": "SetPoseBool",
              "boolID": "CloseTag"
            }
          ]
        },
        "Pose_Normal": {
          "modifierName": "",
          "bonusCriticalHurt": 100.0,
          "onAdded": [
            {
              "$type": "SetPoseBool",
              "boolID": "DodgeTag"
            }
          ]
        },
        "Pose_Dodge": {
          "modifierName": "",
          "bonusCriticalHurt": 100.0,
          "modifierMixins": [
            {
              "$type": "SetAnimationPauseByAbilityStateMixin",
              "abilityStates": ["ElementFrozen", "ElementPetrifaction"]
            }
          ],
          "onAdded": [
            {
              "$type": "SetPoseBool",
              "boolID": "DodgeTag",
              "ratio": true
            },
            {
              "$type": "TriggerAbility",
              "abilityName": "Monster_Darkwraith_Strong_Wind_Dodge_Invincible"
            },
            {
              "$type": "TriggerAbility",
              "abilityName": "Monster_Darkwraith_Strong_Wind_AddEffect"
            }
          ],
          "onRemoved": [
            {
              "$type": "TriggerAbility",
              "abilityName": "Monster_Darkwraith_Strong_Wind_RemoveEffect"
            },
            {
              "$type": "RemoveUniqueModifier",
              "modifierName": "UNIQUE_Darkwraith_Strong_Wind_Invincible"
            },
            {
              "$type": "RemoveUniqueModifier",
              "modifierName": "UNIQUE_Darkwraith_Wind_HitShield_Succ"
            }
          ]
        }
      }
    }
  },
  {
    "Default": {
      "$type": "ConfigAbility",
      "abilityName": "Monster_Darkwraith_Strong_Wind_AddEffect",
      "modifiers": {
        "UNIQUE_Darkwraith_Strong_Wind_Effect": {
          "stacking": "Unique",
          "modifierName": "",
          "isUnique": true,
          "bonusCriticalHurt": 100.0,
          "onAdded": [
            {
              "$type": "AttachEffect",
              "healLimitedByCasterMaxHPRatio": "Eff_Monster_Darkwraith_Strong_Flammard_WindElement",
              "effectTempleteID": -1.0
            }
          ]
        }
      },
      "onAbilityStart": [
        {
          "$type": "AttachModifier",
          "modifierName": "UNIQUE_Darkwraith_Strong_Wind_Effect"
        }
      ],
      "onKill": [
        {
          "$type": "RemoveUniqueModifier",
          "modifierName": "UNIQUE_Darkwraith_Strong_Wind_Effect"
        }
      ]
    }
  },
  {
    "Default": {
      "$type": "ConfigAbility",
      "abilityName": "Monster_Darkwraith_Strong_Wind_RemoveEffect",
      "onAbilityStart": [
        {
          "$type": "RemoveUniqueModifier",
          "modifierName": "UNIQUE_Darkwraith_Strong_Wind_Effect"
        }
      ]
    }
  },
  {
    "Default": {
      "$type": "ConfigAbility",
      "abilityName": "Monster_Darkwraith_Strong_Wind_HitShield",
      "modifiers": {
        "Darkwraith_Wind_HitShield_Detect": {
          "modifierName": "",
          "bonusCriticalHurt": 100.0,
          "onAttackLanded": [
            {
              "$type": "Predicated",
              "target": "Target",
              "targetPredicates": [
                {
                  "$type": "BDLOHLLOIKN",
                  "type": "All"
                },
                {
                  "$type": "LCCMCDGDKGI",
                  "attackTags": ["Monster_Darkwraith_Wind_Attack"]
                },
                {
                  "$type": "ByEntityTypes",
                  "entityTypes": ["Avatar"]
                }
              ],
              "successActions": [
                {
                  "$type": "ApplyModifier",
                  "target": "Caster",
                  "modifierName": "UNIQUE_Darkwraith_Wind_HitShield_Succ"
                }
              ]
            }
          ]
        },
        "UNIQUE_Darkwraith_Wind_HitShield_Succ": {
          "modifierName": "",
          "isUnique": true,
          "duration": 10.0,
          "bonusCriticalHurt": 100.0,
          "onAdded": [
            {
              "$type": "LoseHP",
              "target": "Caster",
              "cdRatio": 0.0,
              "amountByTargetMaxHPRatio": 0.15000000596046448,
              "lethal": false,
              "enableInvincible": true,
              "enableLockHP": true
            },
            {
              "$type": "SetGlobalValue",
              "ratio": 1.0,
              "key": "_DARKWRAITH_WIND_DODGE_TAG_",
              "maxValue": 0.0,
              "minValue": 0.0
            }
          ],
          "onRemoved": [
            {
              "$type": "SetGlobalValue",
              "ratio": 0.0,
              "key": "_DARKWRAITH_WIND_DODGE_TAG_",
              "maxValue": 0.0,
              "minValue": 0.0
            }
          ]
        }
      },
      "onAdded": [
        {
          "$type": "ApplyModifier",
          "modifierName": "Darkwraith_Wind_HitShield_Detect"
        }
      ]
    }
  },
  {
    "Default": {
      "$type": "ConfigAbility",
      "abilityName": "Monster_Darkwraith_Strong_Wind_Dodge_Invincible",
      "modifiers": {
        "UNIQUE_Darkwraith_Strong_Wind_Invincible": {
          "stacking": "Unique",
          "modifierName": "",
          "isUnique": true,
          "bonusCriticalHurt": 100.0,
          "state": "Invincible",
          "onBeingHit": [
            {
              "$type": "Predicated",
              "target": "Target",
              "targetPredicates": [
                {
                  "$type": "ByEntityTypes",
                  "entityTypes": ["Avatar"]
                },
                {
                  "$type": "BKKNINKONEL",
                  "BOJCAKJDAKM": 0.0,
                  "HGJHHOKKCBG": true
                }
              ],
              "successActions": [
                {
                  "$type": "TriggerAbility",
                  "abilityName": "Monster_Darkwraith_Strong_Wind_Dodge"
                }
              ]
            },
            {
              "$type": "Predicated",
              "target": "TargetOriginOwner",
              "targetPredicates": [
                {
                  "$type": "ByEntityTypes",
                  "entityTypes": ["Avatar"]
                },
                {
                  "$type": "BKKNINKONEL",
                  "BOJCAKJDAKM": 0.0,
                  "HGJHHOKKCBG": true
                }
              ],
              "successActions": [
                {
                  "$type": "TriggerAbility",
                  "abilityName": "Monster_Darkwraith_Strong_Wind_Dodge"
                }
              ]
            }
          ]
        }
      },
      "onAbilityStart": [
        {
          "$type": "ApplyModifier",
          "modifierName": "UNIQUE_Darkwraith_Strong_Wind_Invincible"
        }
      ]
    }
  },
  {
    "Default": {
      "$type": "ConfigAbility",
      "abilityName": "Monster_Darkwraith_Strong_Wind_Dodge",
      "abilityMixins": [
        {
          "$type": "AttachToNormalizedTimeMixin",
          "stateID": "Dodge",
          "modifierName": "UNIQUE_Darkwraith_Strong_Wind_Dodge_Handler",
          "normalizeEnd": 0.949999988079071
        }
      ],
      "abilitySpecials": {
        "Darkwraith_Strong_Wind_AttackEnhance": 0.30000001192092896
      },
      "modifiers": {
        "UNIQUE_Darkwraith_Strong_Wind_Dodge_Handler": {
          "modifierName": "",
          "isUnique": true,
          "bonusCriticalHurt": 100.0,
          "onAdded": [
            {
              "$type": "SetGlobalValue",
              "ratio": 0.0,
              "key": "_DARKWRAITH_WIND_DODGE_TAG_",
              "maxValue": 0.0,
              "minValue": 0.0
            },
            {
              "$type": "AttachModifier",
              "modifierName": "Darkwraith_Strong_Wind_Dodge_Invincible"
            },
            {
              "$type": "AttachModifier",
              "modifierName": "Darkwraith_Strong_Wind_Dodge_DenyLockOn"
            },
            {
              "$type": "TriggerSetVisible"
            },
            {
              "$type": "HideUIBillBoard",
              "hide": true
            },
            {
              "$type": "EnableHitBoxByName",
              "hitBoxNames": ["HitBox"]
            },
            {
              "$type": "EnableHitBoxByName",
              "hitBoxNames": ["HitBox_Weapon"]
            },
            {
              "$type": "EnableHitBoxByName",
              "hitBoxNames": ["HeadBox"]
            },
            {
              "$type": "EnablePushColliderName",
              "pushColliderNames": ["PushCollider"]
            },
            {
              "$type": "FireEffect",
              "healLimitedByCasterMaxHPRatio": "Eff_Monster_Darkwraith_Strong_Flammard_Dodge_BS",
              "effectTempleteID": -1.0
            },
            {
              "$type": "RemoveUniqueModifier",
              "modifierName": "UNIQUE_Darkwraith_Strong_Wind_Eye"
            }
          ],
          "onRemoved": [
            {
              "$type": "EnableHitBoxByName",
              "hitBoxNames": ["HitBox"],
              "setEnable": true
            },
            {
              "$type": "EnableHitBoxByName",
              "hitBoxNames": ["HitBox_Weapon"],
              "setEnable": true
            },
            {
              "$type": "EnableHitBoxByName",
              "hitBoxNames": ["HeadBox"],
              "setEnable": true
            },
            {
              "$type": "EnablePushColliderName",
              "pushColliderNames": ["PushCollider"],
              "setEnable": true
            },
            {
              "$type": "TriggerSetVisible",
              "visible": true
            },
            {
              "$type": "HideUIBillBoard"
            },
            {
              "$type": "FireEffect",
              "healLimitedByCasterMaxHPRatio": "Eff_Monster_Darkwraith_Strong_Flammard_Dodge_BS",
              "effectTempleteID": -1.0
            },
            {
              "$type": "ApplyModifier",
              "modifierName": "Darkwraith_Strong_Wind_Dodge_ResetCD"
            },
            {
              "$type": "ApplyModifier",
              "modifierName": "UNIQUE_Darkwraith_Strong_Wind_Dodge_AttackEnhance"
            },
            {
              "$type": "TriggerAbility",
              "abilityName": "Monster_Darkwraith_Strong_Wind_Alert"
            }
          ]
        },
        "Darkwraith_Strong_Wind_Dodge_Invincible": {
          "modifierName": "",
          "bonusCriticalHurt": 100.0,
          "state": "Invincible"
        },
        "Darkwraith_Strong_Wind_Dodge_DenyLockOn": {
          "modifierName": "",
          "bonusCriticalHurt": 100.0,
          "state": "DenyLockOn"
        },
        "Darkwraith_Strong_Wind_Dodge_Actions": {
          "modifierName": "",
          "duration": 0.10000000149011612,
          "bonusCriticalHurt": 100.0,
          "onRemoved": [
            {
              "$type": "SetAnimatorTrigger",
              "predicates": [
                {
                  "$type": "DDBJEPBNOGF",
                  "predicates": [
                    {
                      "$type": "KPIBLFBHELB",
                      "abilityState": "ElementFreeze"
                    },
                    {
                      "$type": "KPIBLFBHELB",
                      "abilityState": "ElementPetrifaction"
                    }
                  ]
                },
                {
                  "$type": "LMICKJKPLNP",
                  "target": "Self"
                }
              ],
              "triggerID": "DodgeTrigger",
              "MPTriggerOnRemote": true
            }
          ]
        },
        "Darkwraith_Strong_Wind_Dodge_ResetCD": {
          "modifierName": "",
          "duration": 1.5,
          "bonusCriticalHurt": 100.0,
          "onAdded": [
            {
              "$type": "SetAISkillCDAvailableNow",
              "skillIDs": [
                201, 202, 301, 302, 401, 402, 501, 502, 601, 602, 701, 702, 703
              ]
            },
            {
              "$type": "SetAISkillGCD"
            }
          ],
          "onRemoved": [
            {
              "$type": "SetAISkillGCD",
              "value": 3.0
            }
          ]
        },
        "UNIQUE_Darkwraith_Strong_Wind_Dodge_AttackEnhance": {
          "stacking": "Unique",
          "modifierName": "",
          "isUnique": true,
          "bonusCriticalHurt": 100.0,
          "properties": {
            "Actor_AttackRatio": "Darkwraith_Strong_Wind_AttackEnhance"
          },
          "state": "AttackUp"
        }
      },
      "onAbilityStart": [
        {
          "$type": "ApplyModifier",
          "modifierName": "Darkwraith_Strong_Wind_Dodge_Actions"
        }
      ]
    }
  },
  {
    "Default": {
      "$type": "ConfigAbility",
      "abilityName": "Monster_Darkwraith_Strong_Wind_Dodge_FindBlinkPoint",
      "onAbilityStart": [
        {
          "$type": "Predicated",
          "target": "SelfAttackTarget",
          "targetPredicates": [
            {
              "$type": "HPJOHDHEPCG",
              "logic": "LesserOrEqual",
              "ratio": 7.5
            }
          ],
          "successActions": [
            {
              "$type": "TryFindBlinkPointByBorn",
              "target": "SelfAttackTarget",
              "born": {
                "$type": "MGDGOLHGFAP",
                "offset": {
                  "x": 3.0,
                  "y": 0.0,
                  "z": 0.0
                },
                "DAPKLNIFPID": true,
                "GKAPKIFBACA": -4.0,
                "AACNGNKKCAI": false,
                "DCKBDJJECJH": 0.0,
                "JPJIEDIHGFF": 25.0
              },
              "hitSceneType": "BlinkHitSceneTestByThreeSegments",
              "limitY": 2.5,
              "ignoreWater": true
            },
            {
              "$type": "Predicated",
              "targetPredicates": [
                {
                  "$type": "BNMEPKNLNAO",
                  "OMHHNDPGDKF": false
                }
              ],
              "successActions": [
                {
                  "$type": "TryFindBlinkPointByBorn",
                  "born": {
                    "$type": "ConfigBornByTarget",
                    "IGAGDFFFGAO": {
                      "$type": "FHDJJGOONEI",
                      "OKDPGGJGGCJ": 4.0,
                      "CPOKKADJBFH": 6.0
                    },
                    "DAPKLNIFPID": true
                  },
                  "hitSceneType": "BlinkHitSceneTestByThreeSegments",
                  "limitY": 2.5,
                  "ignoreWater": true
                }
              ]
            }
          ],
          "failActions": [
            {
              "$type": "TryFindBlinkPointByBorn",
              "born": {
                "$type": "MGDGOLHGFAP",
                "offset": {
                  "x": 0.0,
                  "y": 0.0,
                  "z": 0.0
                },
                "DAPKLNIFPID": true,
                "GKAPKIFBACA": 5.0,
                "AACNGNKKCAI": false,
                "DCKBDJJECJH": 0.0,
                "JPJIEDIHGFF": 25.0
              },
              "hitSceneType": "BlinkHitSceneTestByThreeSegments",
              "limitY": 2.5,
              "ignoreWater": true
            },
            {
              "$type": "Predicated",
              "targetPredicates": [
                {
                  "$type": "BNMEPKNLNAO",
                  "OMHHNDPGDKF": false
                }
              ],
              "successActions": [
                {
                  "$type": "TryFindBlinkPointByBorn",
                  "born": {
                    "$type": "ConfigBornByTarget",
                    "IGAGDFFFGAO": {
                      "$type": "FHDJJGOONEI",
                      "OKDPGGJGGCJ": 4.0,
                      "CPOKKADJBFH": 6.0
                    },
                    "DAPKLNIFPID": true
                  },
                  "hitSceneType": "BlinkHitSceneTestByThreeSegments",
                  "limitY": 2.5,
                  "ignoreWater": true
                }
              ]
            }
          ]
        }
      ]
    }
  },
  {
    "Default": {
      "$type": "ConfigAbility",
      "abilityName": "Monster_Darkwraith_Strong_Wind_Dodge_DoBlink",
      "onAbilityStart": [
        {
          "$type": "DoBlink"
        },
        {
          "$type": "TurnDirectionToPos",
          "target": "SelfAttackTarget",
          "toPos": {
            "$type": "ConfigBornByTarget"
          }
        }
      ]
    }
  },
  {
    "Default": {
      "$type": "ConfigAbility",
      "abilityName": "Monster_Darkwraith_Strong_Wind_EndureDelta_Add",
      "abilitySpecials": {
        "Darkwraith_Endure": 0.5
      },
      "modifiers": {
        "UNIQUE_Darkwraith_EndureDelta": {
          "stacking": "Unique",
          "modifierName": "",
          "isUnique": true,
          "bonusCriticalHurt": 100.0,
          "properties": {
            "Actor_EndureDelta": "Darkwraith_Endure"
          }
        }
      },
      "onAbilityStart": [
        {
          "$type": "ApplyModifier",
          "predicates": [
            {
              "$type": "ByTargetGlobalValue",
              "key": "ForlornVessel_ElementShield",
              "ratio": 0.0,
              "compareType": "NoneOrEqual"
            }
          ],
          "modifierName": "UNIQUE_Darkwraith_EndureDelta"
        }
      ]
    }
  },
  {
    "Default": {
      "$type": "ConfigAbility",
      "abilityName": "Monster_Darkwraith_Strong_Wind_EndureDelta_AddMax",
      "abilitySpecials": {
        "Darkwraith_Endure_Funnel": 0.0
      },
      "modifiers": {
        "UNIQUE_Darkwraith_EndureDelta_Funnel": {
          "stacking": "Unique",
          "modifierName": "",
          "isUnique": true,
          "bonusCriticalHurt": 100.0,
          "properties": {
            "Actor_EndureDelta": "Darkwraith_Endure_Funnel"
          }
        }
      },
      "onAbilityStart": [
        {
          "$type": "ApplyModifier",
          "predicates": [
            {
              "$type": "ByTargetGlobalValue",
              "key": "ForlornVessel_ElementShield",
              "ratio": 0.0,
              "compareType": "NoneOrEqual"
            }
          ],
          "modifierName": "UNIQUE_Darkwraith_EndureDelta_Funnel"
        }
      ]
    }
  },
  {
    "Default": {
      "$type": "ConfigAbility",
      "abilityName": "Monster_Darkwraith_Strong_Wind_EndureDelta_Remove",
      "onAbilityStart": [
        {
          "$type": "RemoveUniqueModifier",
          "modifierName": "UNIQUE_Darkwraith_EndureDelta"
        },
        {
          "$type": "RemoveUniqueModifier",
          "modifierName": "UNIQUE_Darkwraith_EndureDelta_Funnel"
        },
        {
          "$type": "RemoveUniqueModifier",
          "modifierName": "UNIQUE_Darkwraith_Strong_Wind_Dodge_AttackEnhance"
        }
      ]
    }
  },
  {
    "Default": {
      "$type": "ConfigAbility",
      "abilityName": "Monster_Darkwraith_Strong_Wind_Steer",
      "abilityMixins": [
        {
          "$type": "SteerAttackMixin",
          "steerStateIDs": ["Turn"],
          "angularSpeed": 180.0,
          "attackTrigger": ""
        },
        {
          "$type": "SteerAttackMixin",
          "steerStateIDs": ["SwordAtk01"],
          "endNormalizedTime": 0.07999999821186066,
          "angularSpeed": 180.0,
          "attackTrigger": ""
        },
        {
          "$type": "SteerAttackMixin",
          "steerStateIDs": ["SwordAtk02"],
          "endNormalizedTime": 0.07000000029802322,
          "angularSpeed": 120.0,
          "attackTrigger": ""
        },
        {
          "$type": "SteerAttackMixin",
          "steerStateIDs": ["SwordAtk02"],
          "startNormalizedTime": 0.23999999463558197,
          "endNormalizedTime": 0.3100000023841858,
          "angularSpeed": 120.0,
          "attackTrigger": ""
        },
        {
          "$type": "SteerAttackMixin",
          "steerStateIDs": ["SwordAtk03"],
          "endNormalizedTime": 0.07000000029802322,
          "angularSpeed": 120.0,
          "attackTrigger": ""
        },
        {
          "$type": "SteerAttackMixin",
          "steerStateIDs": ["SwordAtk03"],
          "startNormalizedTime": 0.2199999988079071,
          "endNormalizedTime": 0.30000001192092896,
          "angularSpeed": 120.0,
          "attackTrigger": ""
        },
        {
          "$type": "SteerAttackMixin",
          "steerStateIDs": ["ChainAtk01"],
          "startNormalizedTime": 0.25,
          "endNormalizedTime": 0.30000001192092896,
          "angularSpeed": 180.0,
          "attackTrigger": ""
        },
        {
          "$type": "SteerAttackMixin",
          "steerStateIDs": ["ChainAtk02"],
          "startNormalizedTime": 0.03999999910593033,
          "endNormalizedTime": 0.12999999523162842,
          "angularSpeed": 180.0,
          "attackTrigger": ""
        },
        {
          "$type": "SteerAttackMixin",
          "steerStateIDs": ["ChainAtk02"],
          "startNormalizedTime": 0.3100000023841858,
          "endNormalizedTime": 0.4099999964237213,
          "angularSpeed": 270.0,
          "attackTrigger": ""
        },
        {
          "$type": "SteerAttackMixin",
          "steerStateIDs": ["FunnelAtk_BS"],
          "startNormalizedTime": 0.3499999940395355,
          "endNormalizedTime": 0.44999998807907104,
          "angularSpeed": 180.0,
          "attackTrigger": ""
        },
        {
          "$type": "SteerAttackMixin",
          "steerStateIDs": ["Dodge"],
          "startNormalizedTime": 0.800000011920929,
          "endNormalizedTime": 0.949999988079071,
          "angularSpeed": 720.0,
          "attackTrigger": ""
        }
      ]
    }
  },
  {
    "Default": {
      "$type": "ConfigAbility",
      "abilityName": "Monster_Darkwraith_Strong_Wind_ChainAtk01_Weapon",
      "onAbilityStart": [
        {
          "$type": "SetAnimatorTrigger",
          "triggerID": "ChainAtk01WeaponTrigger",
          "MPTriggerOnRemote": true
        }
      ]
    }
  },
  {
    "Default": {
      "$type": "ConfigAbility",
      "abilityName": "Monster_Darkwraith_Strong_Wind_ChainAtk02_Weapon",
      "onAbilityStart": [
        {
          "$type": "SetAnimatorTrigger",
          "triggerID": "ChainAtk02WeaponTrigger",
          "MPTriggerOnRemote": true
        }
      ]
    }
  },
  {
    "Default": {
      "$type": "ConfigAbility",
      "abilityName": "Monster_Darkwraith_Strong_Wind_ChainAtk02_TriggerBullet",
      "onAbilityStart": [
        {
          "$type": "TriggerBullet",
          "bulletID": 42208008,
          "born": {
            "$type": "ConfigBornByAttachPoint",
            "attachPointName": "ChainAtk02_01"
          },
          "trackTarget": "Self"
        },
        {
          "$type": "TriggerBullet",
          "bulletID": 42208008,
          "born": {
            "$type": "ConfigBornByAttachPoint",
            "attachPointName": "ChainAtk02_02"
          },
          "trackTarget": "Self"
        },
        {
          "$type": "TriggerBullet",
          "bulletID": 42208008,
          "born": {
            "$type": "ConfigBornByAttachPoint",
            "attachPointName": "ChainAtk02_03"
          },
          "trackTarget": "Self"
        },
        {
          "$type": "TriggerBullet",
          "bulletID": 42208008,
          "born": {
            "$type": "ConfigBornByAttachPoint",
            "attachPointName": "ChainAtk02_04"
          },
          "trackTarget": "Self"
        },
        {
          "$type": "TriggerBullet",
          "bulletID": 42208008,
          "born": {
            "$type": "ConfigBornByAttachPoint",
            "attachPointName": "ChainAtk02_05"
          },
          "trackTarget": "Self"
        },
        {
          "$type": "TriggerBullet",
          "bulletID": 42208008,
          "born": {
            "$type": "ConfigBornByAttachPoint",
            "attachPointName": "ChainAtk02_06"
          },
          "trackTarget": "Self"
        }
      ]
    }
  },
  {
    "Default": {
      "$type": "ConfigAbility",
      "abilityName": "Monster_Darkwraith_Strong_Wind_ChainAtk02_KillBullet",
      "abilityMixins": [
        {
          "$type": "AttachToStateIDMixin",
          "stateIDs": ["ChainAtk02"],
          "modifierName": "Darkwraith_Strong_Wind_ChainAtk02_BulletHandler"
        }
      ],
      "modifiers": {
        "Darkwraith_Strong_Wind_ChainAtk02_BulletHandler": {
          "modifierName": "",
          "bonusCriticalHurt": 100.0,
          "onRemoved": [
            {
              "$type": "KillSelf",
              "otherTargets": {
                "$type": "SelectTargetsByChildren",
                "configID": 42208008
              }
            }
          ]
        }
      },
      "onAbilityStart": [
        {
          "$type": "KillSelf",
          "otherTargets": {
            "$type": "SelectTargetsByChildren",
            "configID": 42208008
          }
        }
      ]
    }
  },
  {
    "Default": {
      "$type": "ConfigAbility",
      "abilityName": "Darkwraith_Strong_Wind_ChainAtk02_Bullet",
      "onAbilityStart": [
        {
          "$type": "TriggerAttackEvent",
          "attackEvent": {
            "attackPattern": {
              "$type": "ConfigAttackSphere",
              "triggerType": "TriggerNoRepeat",
              "born": {
                "$type": "ConfigBornByCollisionPoint"
              },
              "radius": 1.5
            },
            "attackInfo": {
              "attackTag": "Monster_Darkwraith_Wind_Attack",
              "attenuationTag": "Monster_Darkwraith_Strong_Wind_ChainAtk02",
              "attenuationGroup": "Monster_Darkwraith_Strong_Wind_ChainAtk02",
              "attackProperty": {
                "damagePercentage": 0.4000000059604645,
                "damagePercentageRatio": 0.0,
                "elementType": "Wind",
                "bonusCriticalHurt": 25.0,
                "strikeType": "Default",
                "enBreak": 10.0
              },
              "hitPattern": {
                "onHitEffectName": "default",
                "hitImpulseType": "LV4",
                "retreatType": "ByHitDirection"
              },
              "canBeModifiedBy": "OriginOwner"
            }
          },
          "targetType": "Enemy"
        }
      ]
    }
  },
  {
    "Default": {
      "$type": "ConfigAbility",
      "abilityName": "Monster_Darkwraith_Strong_Wind_FunnelAtk_StaticBullet_01",
      "abilityMixins": [
        {
          "$type": "AttachToStateIDMixin",
          "stateIDs": ["FunnelAtk_Loop"],
          "modifierName": "Darkwraith_Strong_Wind_FunnelAtk_StaticGadget_Detect"
        },
        {
          "$type": "AttachToStateIDMixin",
          "stateIDs": ["NormalIdle"],
          "modifierName": "Darkwraith_Strong_Wind_FunnelAtk_StaticGadget_KillGadget"
        }
      ],
      "modifiers": {
        "Darkwraith_Strong_Wind_FunnelAtk_StaticGadget_01": {
          "modifierName": "",
          "duration": 0.20000000298023224,
          "bonusCriticalHurt": 100.0,
          "onAdded": [
            {
              "$type": "CreateGadget",
              "born": {
                "$type": "ConfigBornByAttachPoint",
                "attachPointName": "FunnelAtk_01"
              },
              "GKJDJDACPMC": true,
              "gadgetID": 42208001,
              "campID": 4001,
              "campTargetType": "Enemy"
            }
          ]
        },
        "Darkwraith_Strong_Wind_FunnelAtk_StaticGadget_Detect": {
          "modifierName": "",
          "bonusCriticalHurt": 100.0,
          "thinkInterval": 0.5,
          "onRemoved": [
            {
              "$type": "SetGlobalValue",
              "ratio": 1.0,
              "key": "_Darkwraith_Strong_Wind_FunnelAtk_EndTag_",
              "maxValue": 0.0,
              "minValue": 0.0
            }
          ],
          "onThinkInterval": [
            {
              "$type": "Predicated",
              "target": "SelfAttackTarget",
              "targetPredicates": [
                {
                  "$type": "ByAny",
                  "predicates": [
                    {
                      "$type": "HPJOHDHEPCG",
                      "logic": "LesserOrEqual",
                      "ratio": 3.5
                    },
                    {
                      "$type": "GDFCOCOIPCB",
                      "ratio": 90.0
                    }
                  ]
                }
              ],
              "successActions": [
                {
                  "$type": "SetAnimatorTrigger",
                  "triggerID": "FunnelAtkEnd"
                },
                {
                  "$type": "SetAISkillCDAvailableNow",
                  "skillIDs": [701]
                },
                {
                  "$type": "SetGlobalValue",
                  "ratio": 1.0,
                  "key": "_Darkwraith_Strong_Wind_FunnelAtk_Count_",
                  "maxValue": 0.0,
                  "minValue": 0.0
                }
              ]
            }
          ]
        },
        "Darkwraith_Strong_Wind_FunnelAtk_StaticGadget_KillGadget": {
          "modifierName": "",
          "bonusCriticalHurt": 100.0,
          "onAdded": [
            {
              "$type": "SetGlobalValue",
              "ratio": 1.0,
              "key": "_Darkwraith_Strong_Wind_FunnelAtk_EndTag_",
              "maxValue": 0.0,
              "minValue": 0.0
            }
          ],
          "onRemoved": [
            {
              "$type": "SetGlobalValue",
              "ratio": 0.0,
              "key": "_Darkwraith_Strong_Wind_FunnelAtk_EndTag_",
              "maxValue": 0.0,
              "minValue": 0.0
            }
          ]
        },
        "Darkwraith_Strong_Wind_FunnelAtk_StaticGadget_Reconnect": {
          "modifierName": "",
          "bonusCriticalHurt": 100.0,
          "LGJBJJBCBEH": [
            {
              "$type": "SetGlobalValue",
              "ratio": 1.0,
              "key": "_Darkwraith_Strong_Wind_FunnelAtk_Count_",
              "maxValue": 0.0,
              "minValue": 0.0
            },
            {
              "$type": "SetGlobalValue",
              "ratio": 0.0,
              "key": "_Darkwraith_Strong_Wind_FunnelAtk_EndTag_",
              "maxValue": 0.0,
              "minValue": 0.0
            }
          ]
        }
      },
      "onAdded": [
        {
          "$type": "ApplyModifier",
          "modifierName": "Darkwraith_Strong_Wind_FunnelAtk_StaticGadget_Reconnect"
        }
      ],
      "onAbilityStart": [
        {
          "$type": "AttachModifier",
          "modifierName": "Darkwraith_Strong_Wind_FunnelAtk_StaticGadget_01"
        }
      ],
      "onKill": [
        {
          "$type": "SetGlobalValue",
          "ratio": 1.0,
          "key": "_Darkwraith_Strong_Wind_FunnelAtk_EndTag_",
          "maxValue": 0.0,
          "minValue": 0.0
        }
      ]
    }
  },
  {
    "Default": {
      "$type": "ConfigAbility",
      "abilityName": "Monster_Darkwraith_Strong_Wind_FunnelAtk_StaticBullet_02",
      "modifiers": {
        "Darkwraith_Strong_Wind_FunnelAtk_StaticGadget_02": {
          "modifierName": "",
          "duration": 0.20000000298023224,
          "bonusCriticalHurt": 100.0,
          "onAdded": [
            {
              "$type": "CreateGadget",
              "born": {
                "$type": "ConfigBornByAttachPoint",
                "attachPointName": "FunnelAtk_02"
              },
              "GKJDJDACPMC": true,
              "gadgetID": 42208002,
              "campID": 4001,
              "campTargetType": "Enemy"
            }
          ]
        }
      },
      "onAbilityStart": [
        {
          "$type": "AttachModifier",
          "modifierName": "Darkwraith_Strong_Wind_FunnelAtk_StaticGadget_02"
        }
      ]
    }
  },
  {
    "Default": {
      "$type": "ConfigAbility",
      "abilityName": "Monster_Darkwraith_Strong_Wind_FunnelAtk_StaticBullet_03",
      "modifiers": {
        "Darkwraith_Strong_Wind_FunnelAtk_StaticGadget_03": {
          "modifierName": "",
          "duration": 0.20000000298023224,
          "bonusCriticalHurt": 100.0,
          "onAdded": [
            {
              "$type": "CreateGadget",
              "born": {
                "$type": "ConfigBornByAttachPoint",
                "attachPointName": "FunnelAtk_03"
              },
              "GKJDJDACPMC": true,
              "gadgetID": 42208003,
              "campID": 4001,
              "campTargetType": "Enemy"
            }
          ]
        }
      },
      "onAbilityStart": [
        {
          "$type": "AttachModifier",
          "modifierName": "Darkwraith_Strong_Wind_FunnelAtk_StaticGadget_03"
        }
      ]
    }
  },
  {
    "Default": {
      "$type": "ConfigAbility",
      "abilityName": "Monster_Darkwraith_Strong_Wind_FunnelAtk_StaticBullet_04",
      "modifiers": {
        "Darkwraith_Strong_Wind_FunnelAtk_StaticGadget_04": {
          "modifierName": "",
          "duration": 0.20000000298023224,
          "bonusCriticalHurt": 100.0,
          "onAdded": [
            {
              "$type": "CreateGadget",
              "born": {
                "$type": "ConfigBornByAttachPoint",
                "attachPointName": "FunnelAtk_04"
              },
              "GKJDJDACPMC": true,
              "gadgetID": 42208004,
              "campID": 4001,
              "campTargetType": "Enemy"
            }
          ]
        }
      },
      "onAbilityStart": [
        {
          "$type": "AttachModifier",
          "modifierName": "Darkwraith_Strong_Wind_FunnelAtk_StaticGadget_04"
        }
      ]
    }
  },
  {
    "Default": {
      "$type": "ConfigAbility",
      "abilityName": "Monster_Darkwraith_Strong_Wind_FunnelAtk_StaticBullet_05",
      "modifiers": {
        "Darkwraith_Strong_Wind_FunnelAtk_StaticGadget_05": {
          "modifierName": "",
          "duration": 0.20000000298023224,
          "bonusCriticalHurt": 100.0,
          "onAdded": [
            {
              "$type": "CreateGadget",
              "born": {
                "$type": "ConfigBornByAttachPoint",
                "attachPointName": "FunnelAtk_05"
              },
              "GKJDJDACPMC": true,
              "gadgetID": 42208005,
              "campID": 4001,
              "campTargetType": "Enemy"
            }
          ]
        }
      },
      "onAbilityStart": [
        {
          "$type": "AttachModifier",
          "modifierName": "Darkwraith_Strong_Wind_FunnelAtk_StaticGadget_05"
        }
      ]
    }
  },
  {
    "Default": {
      "$type": "ConfigAbility",
      "abilityName": "Monster_Darkwraith_Strong_Wind_FunnelAtk_StaticBullet_06",
      "modifiers": {
        "Darkwraith_Strong_Wind_FunnelAtk_StaticGadget_06": {
          "modifierName": "",
          "duration": 0.20000000298023224,
          "bonusCriticalHurt": 100.0,
          "onAdded": [
            {
              "$type": "CreateGadget",
              "born": {
                "$type": "ConfigBornByAttachPoint",
                "attachPointName": "FunnelAtk_06"
              },
              "GKJDJDACPMC": true,
              "gadgetID": 42208006,
              "campID": 4001,
              "campTargetType": "Enemy"
            }
          ]
        }
      },
      "onAbilityStart": [
        {
          "$type": "AttachModifier",
          "modifierName": "Darkwraith_Strong_Wind_FunnelAtk_StaticGadget_06"
        }
      ]
    }
  },
  {
    "Default": {
      "$type": "ConfigAbility",
      "abilityName": "Monster_Darkwraith_Strong_Wind_FunnelAtk_Launch",
      "abilityMixins": [
        {
          "$type": "AttachToStateIDMixin",
          "stateIDs": ["FunnelAtk_BS", "FunnelAtk_Loop", "FunnelAtk_AS"],
          "modifierName": "Darkwraith_Strong_Wind_FunnelAtk_GVHandler"
        }
      ],
      "modifiers": {
        "Darkwraith_Strong_Wind_FunnelAtk_GVHandler": {
          "modifierName": "",
          "bonusCriticalHurt": 100.0,
          "onAdded": [
            {
              "$type": "AttachEffect",
              "healLimitedByCasterMaxHPRatio": "Eff_Monster_Darkwraith_Strong_Flammard_FunnelAtk_Loop",
              "effectTempleteID": -1.0
            },
            {
              "$type": "SetGlobalValue",
              "ratio": 1.0,
              "key": "_Darkwraith_Strong_Wind_FunnelAtk_Count_",
              "maxValue": 0.0,
              "minValue": 0.0
            }
          ],
          "onRemoved": [
            {
              "$type": "SetGlobalValue",
              "ratio": 1.0,
              "key": "_Darkwraith_Strong_Wind_FunnelAtk_Count_",
              "maxValue": 0.0,
              "minValue": 0.0
            }
          ]
        }
      },
      "onAbilityStart": [
        {
          "$type": "Predicated",
          "targetPredicates": [
            {
              "$type": "ByTargetGlobalValue",
              "key": "_Darkwraith_Strong_Wind_FunnelAtk_Count_",
              "ratio": 1.0
            }
          ],
          "successActions": [
            {
              "$type": "TriggerAbility",
              "otherTargets": {
                "$type": "SelectTargetsByChildren",
                "configID": 42208001
              },
              "abilityName": "Darkwraith_Strong_Wind_FunnelAtk_StaticBullet"
            }
          ]
        },
        {
          "$type": "Predicated",
          "targetPredicates": [
            {
              "$type": "ByTargetGlobalValue",
              "key": "_Darkwraith_Strong_Wind_FunnelAtk_Count_",
              "ratio": 2.0
            }
          ],
          "successActions": [
            {
              "$type": "TriggerAbility",
              "otherTargets": {
                "$type": "SelectTargetsByChildren",
                "configID": 42208006
              },
              "abilityName": "Darkwraith_Strong_Wind_FunnelAtk_StaticBullet"
            }
          ]
        },
        {
          "$type": "Predicated",
          "targetPredicates": [
            {
              "$type": "ByTargetGlobalValue",
              "key": "_Darkwraith_Strong_Wind_FunnelAtk_Count_",
              "ratio": 3.0
            }
          ],
          "successActions": [
            {
              "$type": "TriggerAbility",
              "otherTargets": {
                "$type": "SelectTargetsByChildren",
                "configID": 42208002
              },
              "abilityName": "Darkwraith_Strong_Wind_FunnelAtk_StaticBullet"
            }
          ]
        },
        {
          "$type": "Predicated",
          "targetPredicates": [
            {
              "$type": "ByTargetGlobalValue",
              "key": "_Darkwraith_Strong_Wind_FunnelAtk_Count_",
              "ratio": 4.0
            }
          ],
          "successActions": [
            {
              "$type": "TriggerAbility",
              "otherTargets": {
                "$type": "SelectTargetsByChildren",
                "configID": 42208005
              },
              "abilityName": "Darkwraith_Strong_Wind_FunnelAtk_StaticBullet"
            }
          ]
        },
        {
          "$type": "Predicated",
          "targetPredicates": [
            {
              "$type": "ByTargetGlobalValue",
              "key": "_Darkwraith_Strong_Wind_FunnelAtk_Count_",
              "ratio": 5.0
            }
          ],
          "successActions": [
            {
              "$type": "TriggerAbility",
              "otherTargets": {
                "$type": "SelectTargetsByChildren",
                "configID": 42208003
              },
              "abilityName": "Darkwraith_Strong_Wind_FunnelAtk_StaticBullet"
            }
          ]
        },
        {
          "$type": "Predicated",
          "targetPredicates": [
            {
              "$type": "ByTargetGlobalValue",
              "key": "_Darkwraith_Strong_Wind_FunnelAtk_Count_",
              "ratio": 6.0
            }
          ],
          "successActions": [
            {
              "$type": "TriggerAbility",
              "otherTargets": {
                "$type": "SelectTargetsByChildren",
                "configID": 42208004
              },
              "abilityName": "Darkwraith_Strong_Wind_FunnelAtk_StaticBullet"
            }
          ]
        },
        {
          "$type": "AddGlobalValue",
          "ratio": 1.0,
          "key": "_Darkwraith_Strong_Wind_FunnelAtk_Count_",
          "useLimitRange": true,
          "maxValue": 6.0,
          "minValue": 1.0
        }
      ]
    }
  },
  {
    "Default": {
      "$type": "ConfigAbility",
      "abilityName": "Monster_Darkwraith_Strong_Wind_FunnelAtk_Weapon",
      "abilityMixins": [
        {
          "$type": "AttachToStateIDMixin",
          "stateIDs": ["FunnelAtk_BS", "FunnelAtk_Loop", "FunnelAtk_AS"],
          "modifierName": "Darkwraith_Strong_Wind_FunnelAtk_WeaponHandler"
        }
      ],
      "modifiers": {
        "Darkwraith_Strong_Wind_FunnelAtk_WeaponHandler": {
          "modifierName": "",
          "bonusCriticalHurt": 100.0,
          "onAdded": [
            {
              "$type": "SetAnimatorBool",
              "boolID": "FunnelAtkWeaponTag",
              "ratio": true
            }
          ],
          "onRemoved": [
            {
              "$type": "SetAnimatorBool",
              "boolID": "FunnelAtkWeaponTag"
            }
          ]
        }
      },
      "onAbilityStart": [
        {
          "$type": "RemoveModifier",
          "modifierName": "Darkwraith_Strong_Wind_FunnelAtk_WeaponHandler"
        }
      ]
    }
  },
  {
    "Default": {
      "$type": "ConfigAbility",
      "abilityName": "Darkwraith_Strong_Wind_FunnelAtk_StaticBullet",
      "abilityMixins": [
        {
          "$type": "AttachModifierToGlobalValueMixin",
          "globalValueTarget": "Owner",
          "globalValueKey": "_Darkwraith_Strong_Wind_FunnelAtk_EndTag_",
          "valueSteps": [0.0, 0.5, 1.5],
          "modifierNameSteps": ["Empty", "FunnelAtk_StaticBullet_Kill"]
        }
      ],
      "modifiers": {
        "FunnelAtk_StaticBullet_Effect": {
          "modifierName": "",
          "bonusCriticalHurt": 100.0,
          "onAdded": [
            {
              "$type": "AttachEffect",
              "healLimitedByCasterMaxHPRatio": "Eff_Monster_Darkwraith_Strong_Flammard_FunnelAtk_Bullet",
              "effectTempleteID": -1.0
            },
            {
              "$type": "AttachEffect",
              "healLimitedByCasterMaxHPRatio": "Eff_Monster_Darkwraith_Strong_Flammard_FunnelAtk_Bullet_Trail",
              "effectTempleteID": -1.0
            }
          ]
        },
        "FunnelAtk_StaticBullet_Kill": {
          "modifierName": "",
          "bonusCriticalHurt": 100.0,
          "onAdded": [
            {
              "$type": "KillSelf"
            }
          ]
        },
        "Empty": {
          "modifierName": "",
          "bonusCriticalHurt": 100.0,
          "onRemoved": [
            {
              "$type": "KillSelf"
            }
          ]
        }
      },
      "onAdded": [
        {
          "$type": "AttachModifier",
          "modifierName": "FunnelAtk_StaticBullet_Effect"
        }
      ],
      "onAbilityStart": [
        {
          "$type": "Predicated",
          "otherTargets": {
            "$type": "SelectTargetsByShape",
            "sortType": "Nearest",
            "shapeName": "CircleR50",
            "campTargetType": "Enemy",
            "OBHNBNDMPFN": 1.0
          },
          "targetPredicates": [
            {
              "$type": "ByEntityTypes",
              "entityTypes": ["Avatar"]
            },
            {
              "$type": "GDFCOCOIPCB",
              "logic": "Lesser",
              "ratio": 120.0
            }
          ],
          "successActions": [
            {
              "$type": "SetSelfAttackTarget",
              "target": "Target"
            }
          ]
        },
        {
          "$type": "TriggerBullet",
          "bulletID": 42208007,
          "born": {
            "$type": "ConfigBornBySelf"
          }
        },
        {
          "$type": "KillSelf"
        }
      ]
    }
  },
  {
    "Default": {
      "$type": "ConfigAbility",
      "abilityName": "Darkwraith_Strong_Wind_FunnelAtk_Bullet",
      "modifiers": {
        "FunnelAtk_Bullet_Effect": {
          "modifierName": "",
          "bonusCriticalHurt": 100.0,
          "onAdded": [
            {
              "$type": "AttachEffect",
              "healLimitedByCasterMaxHPRatio": "Eff_Monster_Darkwraith_Strong_Flammard_FunnelAtk_Bullet",
              "effectTempleteID": -1.0
            },
            {
              "$type": "AttachEffect",
              "healLimitedByCasterMaxHPRatio": "Eff_Monster_Darkwraith_Strong_Flammard_FunnelAtk_Bullet_Trail",
              "effectTempleteID": -1.0
            }
          ]
        }
      },
      "onAdded": [
        {
          "$type": "ApplyModifier",
          "modifierName": "FunnelAtk_Bullet_Effect"
        },
        {
          "$type": "KillSelf",
          "target": "Owner"
        }
      ],
      "onAbilityStart": [
        {
          "$type": "TriggerAttackEvent",
          "attackEvent": {
            "attackPattern": {
              "$type": "ConfigAttackSphere",
              "triggerType": "TriggerNoRepeat",
              "born": {
                "$type": "ConfigBornByCollisionPoint"
              },
              "radius": 1.0
            },
            "attackInfo": {
              "attackTag": "Monster_Darkwraith_Wind_Attack",
              "attenuationTag": "",
              "attenuationGroup": "default",
              "attackProperty": {
                "damagePercentage": 0.30000001192092896,
                "damagePercentageRatio": 0.0,
                "elementType": "Wind",
                "bonusCriticalHurt": 50.0,
                "strikeType": "Default",
                "enBreak": 25.0,
                "attackType": "Range"
              },
              "hitPattern": {
                "onHitEffectName": "default",
                "hitImpulseType": "LV3",
                "retreatType": "ByHitDirection",
                "hitHaltTimeScale": 0.05000000074505806
              },
              "canBeModifiedBy": "OriginOwner"
            }
          },
          "targetType": "Enemy"
        },
        {
          "$type": "KillSelf"
        }
      ],
      "onKill": [
        {
          "$type": "FireEffect",
          "healLimitedByCasterMaxHPRatio": "Eff_Monster_Darkwraith_Strong_Flammard_FunnelAtk_Damage",
          "effectTempleteID": -1.0
        }
      ]
    }
  },
  {
    "Default": {
      "$type": "ConfigAbility",
      "abilityName": "Monster_Darkwraith_Strong_Wind_Alert",
      "abilityMixins": [
        {
          "$type": "AttachToAIAlertnessMixin",
          "alertness": [0, 1],
          "modifierName": "Darkwraith_Strong_Wind_AlertHandler"
        }
      ],
      "modifiers": {
        "Darkwraith_Strong_Wind_AlertHandler": {
          "modifierName": "",
          "bonusCriticalHurt": 100.0,
          "onRemoved": [
            {
              "$type": "SetPoseBool",
              "boolID": "Leisure"
            },
            {
              "$type": "SetPoseBool",
              "boolID": "Ceremony"
            }
          ]
        },
        "UNIQUE_Darkwraith_Strong_Wind_Eye": {
          "modifierName": "",
          "isUnique": true,
          "bonusCriticalHurt": 100.0,
          "onAdded": [
            {
              "$type": "AttachEffect",
              "healLimitedByCasterMaxHPRatio": "Eff_Monster_Darkwraith_Strong_Flammard_Eye",
              "effectTempleteID": -1.0
            }
          ]
        }
      },
      "onAbilityStart": [
        {
          "$type": "AttachModifier",
          "modifierName": "UNIQUE_Darkwraith_Strong_Wind_Eye"
        }
      ],
      "onKill": [
        {
          "$type": "RemoveUniqueModifier",
          "modifierName": "UNIQUE_Darkwraith_Strong_Wind_Eye"
        }
      ]
    }
  },
  {
    "Default": {
      "$type": "ConfigAbility",
      "abilityName": "Monster_Darkwraith_Strong_Wind_Salute",
      "abilityMixins": [
        {
          "$type": "AttachToPoseIDMixin",
          "poseIDs": [9001],
          "modifierName": "Darkwraith_Strong_Wind_Salute"
        }
      ],
      "modifiers": {
        "Darkwraith_Strong_Wind_Salute": {
          "modifierName": "",
          "bonusCriticalHurt": 100.0,
          "thinkInterval": 20.0,
          "onThinkInterval": [
            {
              "$type": "Predicated",
              "otherTargets": {
                "$type": "SelectTargetsByShape",
                "sortType": "Nearest",
                "shapeName": "CircleR15",
                "campTargetType": "Alliance",
                "OBHNBNDMPFN": 1.0
              },
              "targetPredicates": [
                {
                  "$type": "ByEntityTypes",
                  "entityTypes": ["Monster"]
                },
                {
                  "$type": "EDBIOHJOCJE",
                  "IPBMDDHBECK": [4013]
                }
              ],
              "successActions": [
                {
                  "$type": "IssueCommand",
                  "target": "Target",
                  "commandID": 20701,
                  "duration": 2.0
                },
                {
                  "$type": "ApplyModifier",
                  "modifierName": "Darkwraith_Strong_Wind_SaluteTick"
                },
                {
                  "$type": "ApplyModifier",
                  "target": "Target",
                  "modifierName": "Darkwraith_Strong_Wind_SalutePos"
                }
              ]
            }
          ]
        },
        "Darkwraith_Strong_Wind_SaluteTick": {
          "modifierName": "",
          "duration": 5.199999809265137,
          "bonusCriticalHurt": 100.0,
          "thinkInterval": 1.0,
          "onThinkInterval": [
            {
              "$type": "Predicated",
              "otherTargets": {
                "$type": "SelectTargetsByShape",
                "topLimit": 1,
                "sortType": "Nearest",
                "shapeName": "CircleR15",
                "campTargetType": "Alliance",
                "OBHNBNDMPFN": 1.0
              },
              "targetPredicates": [
                {
                  "$type": "ByEntityTypes",
                  "entityTypes": ["Monster"]
                },
                {
                  "$type": "EDBIOHJOCJE",
                  "IPBMDDHBECK": [4013]
                },
                {
                  "$type": "ByTargetGlobalValue",
                  "key": "_FORLORNVESSEL_SALUTE_",
                  "ratio": 1.0
                }
              ],
              "successActions": [
                {
                  "$type": "ApplyModifier",
                  "modifierName": "Darkwraith_Strong_Wind_SaluteAction"
                },
                {
                  "$type": "SetGlobalValue",
                  "target": "Target",
                  "ratio": 0.0,
                  "key": "_FORLORNVESSEL_SALUTE_",
                  "maxValue": 0.0,
                  "minValue": 0.0
                }
              ]
            }
          ]
        },
        "Darkwraith_Strong_Wind_SaluteAction": {
          "modifierName": "",
          "duration": 1.0,
          "bonusCriticalHurt": 100.0,
          "modifierMixins": [
            {
              "$type": "SteerAttackTraceToPosMixin",
              "steerStateIDs": ["Salute"],
              "endNormalizedTime": 0.5,
              "angularSpeed": 720.0,
              "attackTrigger": "",
              "GDMKIBFMFKM": "_DARKWRAITH_SALUTE_POS_"
            }
          ],
          "onAdded": [
            {
              "$type": "SetAnimatorTrigger",
              "target": "Applier",
              "triggerID": "Salute"
            }
          ]
        },
        "Darkwraith_Strong_Wind_SalutePos": {
          "modifierName": "",
          "duration": 1.0,
          "bonusCriticalHurt": 100.0,
          "onAdded": [
            {
              "$type": "SetGlobalPos",
              "key": "_DARKWRAITH_SALUTE_POS_",
              "born": {
                "$type": "ConfigBornBySelf"
              },
              "setTarget": false
            }
          ]
        }
      }
    }
  },
  {
    "Default": {
      "$type": "ConfigAbility",
      "abilityName": "Monster_Darkwraith_Strong_Wind_ExitBattle",
      "abilityMixins": [
        {
          "$type": "AttachToAIAlertnessMixin",
          "alertness": [0],
          "modifierName": "ExitBattle"
        }
      ],
      "modifiers": {
        "ExitBattle": {
          "modifierName": "",
          "bonusCriticalHurt": 100.0,
          "onAdded": [
            {
              "$type": "SetGlobalValue",
              "ratio": 0.0,
              "key": "_DARKWRAITH_WIND_DODGE_TAG_",
              "maxValue": 0.0,
              "minValue": 0.0
            },
            {
              "$type": "RemoveUniqueModifier",
              "modifierName": "UNIQUE_Darkwraith_Strong_Wind_Dodge_AttackEnhance"
            },
            {
              "$type": "RemoveUniqueModifier",
              "modifierName": "UNIQUE_Darkwraith_Strong_Wind_Eye"
            },
            {
              "$type": "SetAnimatorTrigger",
              "triggerID": "FunnelAtkEnd"
            }
          ],
          "onRemoved": [
            {
              "$type": "ResetAnimatorTrigger",
              "triggerID": "FunnelAtkEnd"
            }
          ]
        }
      }
    }
  }
]
