{
  "id": 1002,
  "series": 1101,
  "titleTextMapHash": 633119625,
  "descTextMapHash": 2559755679,
  "luaPath": "Actor/Quest/MQ1002",
  "suggestTrackMainQuestList": [
    1008,
    1009,
    1003
  ],
  "rewardIdList": [
    101002
  ],
  "chapterId": 1101,
  "subQuests": [
    {
      "subId": 100201,
      "mainId": 1002,
      "order": 1,
      "descTextMapHash": 1999835862,
      "acceptCond": [
        {
          "type": "QUEST_COND_STATE_EQUAL",
          "param": [
            100014,
            3,
            0
          ],
          "param_str": ""
        }
      ],
      "finishCond": [
        {
          "type": "QUEST_CONTENT_TRIGGER_FIRE",
          "param": [
            1160,
            0
          ],
          "param_str": ""
        }
      ],
      "failCond": [],
      "guide": {
        "type": "QUEST_GUIDE_LOCATION",
        "param": [
          "Q1002_Target1",
          "90"
        ],
        "guideScene": 3
      },
      "isRewind": true,
      "finishExec": [],
      "failExec": [],
      "beginExec": [
        {
          "type": "QUEST_EXEC_REFRESH_GROUP_SUITE",
          "param": [
            "3",
            "133103903,1"
          ],
          "param_str": ""
        }
      ],
      "exclusiveNpcList": [
        2002801
      ],
      "exclusiveNpcPriority": 1000
    },
    {
      "subId": 100202,
      "mainId": 1002,
      "order": 2,
      "isMpBlock": true,
      "descTextMapHash": 326479846,
      "showType": "QUEST_HIDDEN",
      "acceptCond": [
        {
          "type": "QUEST_COND_STATE_EQUAL",
          "param": [
            100201,
            3,
            0
          ],
          "param_str": ""
        }
      ],
      "finishCond": [
        {
          "type": "QUEST_CONTENT_COMPLETE_TALK",
          "param": [
            100202,
            0
          ],
          "param_str": ""
        }
      ],
      "failCond": [
        {
          "type": "QUEST_CONTENT_TEAM_DEAD",
          "param": [
            0,
            0
          ],
          "param_str": ""
        }
      ],
      "guide": {
        "type": "QUEST_GUIDE_NPC",
        "param": [
          "2002801"
        ],
        "guideScene": 3,
        "guideStyle": "QUEST_GUIDE_STYLE_TARGET",
        "guideLayer": "QUEST_GUIDE_LAYER_SCENE"
      },
      "finishExec": [],
      "failExec": [
        {
          "type": "QUEST_EXEC_ROLLBACK_QUEST",
          "param": [
            "100201"
          ],
          "param_str": ""
        }
      ],
      "beginExec": [],
      "exclusiveNpcList": [
        2002801
      ],
      "exclusiveNpcPriority": 1000
    },
    {
      "subId": 100203,
      "mainId": 1002,
      "order": 3,
      "isMpBlock": true,
      "descTextMapHash": 2986185630,
      "showType": "QUEST_HIDDEN",
      "acceptCond": [
        {
          "type": "QUEST_COND_STATE_EQUAL",
          "param": [
            100201,
            3,
            0
          ],
          "param_str": ""
        }
      ],
      "finishCond": [
        {
          "type": "QUEST_CONTENT_FINISH_PLOT",
          "param": [
            100203,
            0
          ],
          "param_str": ""
        }
      ],
      "failCond": [],
      "guide": {
        "param": []
      },
      "finishExec": [
        {
          "type": "QUEST_EXEC_REFRESH_GROUP_SUITE",
          "param": [
            "3",
            "133103903,2"
          ],
          "param_str": ""
        }
      ],
      "failExec": [],
      "beginExec": []
    },
    {
      "subId": 100204,
      "mainId": 1002,
      "order": 4,
      "isMpBlock": true,
      "descTextMapHash": 2625164046,
      "banType": "BAN_GROUP_TRANSPORT_ONLY",
      "acceptCond": [
        {
          "type": "QUEST_COND_STATE_EQUAL",
          "param": [
            100202,
            3,
            0
          ],
          "param_str": ""
        }
      ],
      "finishCond": [
        {
          "type": "QUEST_CONTENT_LUA_NOTIFY",
          "param": [
            0,
            0
          ],
          "param_str": "133103903",
          "count": 20
        }
      ],
      "failCondComb": "LOGIC_OR",
      "failCond": [
        {
          "type": "QUEST_CONTENT_NOT_FINISH_PLOT",
          "param": [
            100204,
            0
          ],
          "param_str": ""
        },
        {
          "type": "QUEST_CONTENT_TEAM_DEAD",
          "param": [
            0,
            0
          ],
          "param_str": ""
        }
      ],
      "guide": {
        "type": "QUEST_GUIDE_LOCATION",
        "param": [
          "Q1002_Target2",
          "50"
        ],
        "guideScene": 3
      },
      "finishExec": [
        {
          "type": "QUEST_EXEC_REFRESH_GROUP_SUITE",
          "param": [
            "3",
            "133103903,1"
          ],
          "param_str": ""
        }
      ],
      "failExec": [
        {
          "type": "QUEST_EXEC_ROLLBACK_QUEST",
          "param": [
            "100201"
          ],
          "param_str": ""
        },
        {
          "type": "QUEST_EXEC_REFRESH_GROUP_SUITE",
          "param": [
            "3",
            "133103903,1"
          ],
          "param_str": ""
        }
      ],
      "beginExec": [],
      "exclusiveNpcList": [
        2002801
      ],
      "exclusiveNpcPriority": 1000
    },
    {
      "subId": 100205,
      "mainId": 1002,
      "order": 5,
      "isMpBlock": true,
      "descTextMapHash": 3471225974,
      "showType": "QUEST_HIDDEN",
      "acceptCond": [
        {
          "type": "QUEST_COND_STATE_EQUAL",
          "param": [
            100204,
            3,
            0
          ],
          "param_str": ""
        }
      ],
      "finishCond": [
        {
          "type": "QUEST_CONTENT_COMPLETE_TALK",
          "param": [
            100205,
            0
          ],
          "param_str": ""
        }
      ],
      "failCond": [],
      "guide": {
        "param": []
      },
      "finishParent": true,
      "isRewind": true,
      "finishExec": [],
      "failExec": [],
      "beginExec": [],
      "exclusiveNpcList": [
        2002801
      ],
      "exclusiveNpcPriority": 1000
    }
  ],
  "talks": [
    {
      "id": 100202,
      "beginWay": "TALK_BEGIN_AUTO",
      "activeMode": "PLAY_MODE_SINGLE",
      "beginCond": [
        {
          "type": "QUEST_COND_STATE_EQUAL",
          "param": [
            "100202",
            "2"
          ],
          "param_str": ""
        }
      ],
      "priority": 5,
      "initDialog": 10020201,
      "npcId": [
        1005
      ],
      "performCfg": "QuestDialogue/AQ/Liyue1_1002/Q100202",
      "questId": 1002,
      "prePerformCfg": ""
    },
    {
      "id": 100205,
      "beginWay": "TALK_BEGIN_AUTO",
      "activeMode": "PLAY_MODE_SINGLE",
      "beginCond": [
        {
          "type": "QUEST_COND_STATE_EQUAL",
          "param": [
            "100205",
            "2"
          ],
          "param_str": ""
        }
      ],
      "priority": 5,
      "initDialog": 10020501,
      "npcId": [
        2002801
      ],
      "performCfg": "QuestDialogue/AQ/Liyue1_1002/Q100205",
      "questId": 1002,
      "prePerformCfg": ""
    }
  ]
}