{
  "id": 1003,
  "series": 1101,
  "titleTextMapHash": 775143905,
  "descTextMapHash": 2357219895,
  "luaPath": "Actor/Quest/MQ1003",
  "suggestTrackMainQuestList": [
    1008,
    1009,
    1018
  ],
  "rewardIdList": [
    101003
  ],
  "chapterId": 1101,
  "subQuests": [
    {
      "subId": 100301,
      "mainId": 1003,
      "order": 1,
      "isMpBlock": true,
      "descTextMapHash": 2206123430,
      "acceptCond": [
        {
          "type": "QUEST_COND_STATE_EQUAL",
          "param": [
            100205,
            3,
            0
          ],
          "param_str": ""
        }
      ],
      "finishCond": [
        {
          "type": "QUEST_CONTENT_FINISH_PLOT",
          "param": [
            100301,
            0
          ],
          "param_str": ""
        }
      ],
      "failCond": [],
      "guide": {
        "type": "QUEST_GUIDE_LOCATION",
        "param": [
          "Q1003Trigger"
        ],
        "guideScene": 3,
        "guideStyle": "QUEST_GUIDE_STYLE_TARGET",
        "guideLayer": "QUEST_GUIDE_LAYER_SCENE"
      },
      "showGuide": "QUEST_GUIDE_ITEM_DISABLE",
      "isRewind": true,
      "finishExec": [
        {
          "type": "QUEST_EXEC_ADD_QUEST_PROGRESS",
          "param": [
            "100320",
            "1"
          ],
          "param_str": ""
        }
      ],
      "failExec": [],
      "beginExec": [],
      "sharedNpcList": [
        10204
      ],
      "exclusiveNpcPriority": 1000
    },
    {
      "subId": 100320,
      "mainId": 1003,
      "order": 2,
      "descTextMapHash": 23169054,
      "showType": "QUEST_HIDDEN",
      "acceptCond": [
        {
          "type": "QUEST_COND_STATE_EQUAL",
          "param": [
            100301,
            2,
            0
          ],
          "param_str": ""
        }
      ],
      "finishCond": [
        {
          "type": "QUEST_CONTENT_FINISH_PLOT",
          "param": [
            100320,
            0
          ],
          "param_str": ""
        }
      ],
      "failCond": [
        {
          "type": "QUEST_CONTENT_ADD_QUEST_PROGRESS",
          "param": [
            100320,
            1
          ],
          "param_str": ""
        }
      ],
      "guide": {
        "param": []
      },
      "finishExec": [],
      "failExec": [],
      "beginExec": []
    },
    {
      "subId": 100302,
      "mainId": 1003,
      "order": 3,
      "isMpBlock": true,
      "descTextMapHash": 1597006646,
      "showType": "QUEST_HIDDEN",
      "acceptCond": [
        {
          "type": "QUEST_COND_STATE_EQUAL",
          "param": [
            100301,
            3,
            0
          ],
          "param_str": ""
        }
      ],
      "finishCond": [
        {
          "type": "QUEST_CONTENT_FINISH_PLOT",
          "param": [
            100302,
            0
          ],
          "param_str": ""
        }
      ],
      "failCond": [],
      "guide": {
        "param": []
      },
      "isRewind": true,
      "finishExec": [],
      "failExec": [],
      "beginExec": []
    },
    {
      "subId": 100303,
      "mainId": 1003,
      "order": 4,
      "descTextMapHash": 2879863678,
      "acceptCond": [
        {
          "type": "QUEST_COND_STATE_EQUAL",
          "param": [
            100302,
            3,
            0
          ],
          "param_str": ""
        }
      ],
      "finishCondComb": "LOGIC_OR",
      "finishCond": [
        {
          "type": "QUEST_CONTENT_COMPLETE_TALK",
          "param": [
            100399,
            0
          ],
          "param_str": ""
        },
        {
          "type": "QUEST_CONTENT_COMPLETE_TALK",
          "param": [
            100398
          ],
          "param_str": ""
        }
      ],
      "failCond": [],
      "guide": {
        "type": "QUEST_GUIDE_NPC",
        "param": [
          "10204"
        ],
        "guideScene": 3,
        "guideStyle": "QUEST_GUIDE_STYLE_TARGET",
        "guideLayer": "QUEST_GUIDE_LAYER_SCENE"
      },
      "isRewind": true,
      "finishExec": [
        {
          "type": "QUEST_EXEC_ADD_QUEST_PROGRESS",
          "param": [
            "100319",
            "1"
          ],
          "param_str": ""
        }
      ],
      "failExec": [],
      "beginExec": [],
      "exclusiveNpcList": [
        10204
      ],
      "exclusiveNpcPriority": 1000
    },
    {
      "subId": 100319,
      "mainId": 1003,
      "order": 5,
      "descTextMapHash": 1337930438,
      "showType": "QUEST_HIDDEN",
      "acceptCond": [
        {
          "type": "QUEST_COND_STATE_EQUAL",
          "param": [
            100301,
            3,
            0
          ],
          "param_str": ""
        }
      ],
      "finishCondComb": "LOGIC_OR",
      "finishCond": [
        {
          "type": "QUEST_CONTENT_FINISH_PLOT",
          "param": [
            100319,
            0
          ],
          "param_str": ""
        },
        {
          "type": "QUEST_CONTENT_ADD_QUEST_PROGRESS",
          "param": [
            100319
          ],
          "param_str": "1"
        }
      ],
      "failCond": [],
      "guide": {
        "param": []
      },
      "finishExec": [],
      "failExec": [],
      "beginExec": []
    },
    {
      "subId": 100304,
      "mainId": 1003,
      "order": 6,
      "descTextMapHash": 4148438678,
      "acceptCond": [
        {
          "type": "QUEST_COND_STATE_EQUAL",
          "param": [
            100303,
            3,
            0
          ],
          "param_str": ""
        }
      ],
      "finishCond": [
        {
          "type": "QUEST_CONTENT_COMPLETE_TALK",
          "param": [
            100304,
            0
          ],
          "param_str": ""
        }
      ],
      "failCond": [],
      "guide": {
        "type": "QUEST_GUIDE_NPC",
        "param": [
          "220801"
        ],
        "guideScene": 3,
        "guideStyle": "QUEST_GUIDE_STYLE_TARGET",
        "guideLayer": "QUEST_GUIDE_LAYER_SCENE"
      },
      "isRewind": true,
      "finishExec": [],
      "failExec": [],
      "beginExec": [],
      "exclusiveNpcList": [
        2208,
        2204,
        2202,
        231101,
        231102
      ],
      "exclusiveNpcPriority": 1000
    },
    {
      "subId": 100305,
      "mainId": 1003,
      "order": 7,
      "descTextMapHash": 2133885238,
      "acceptCond": [
        {
          "type": "QUEST_COND_STATE_EQUAL",
          "param": [
            100304,
            3,
            0
          ],
          "param_str": ""
        }
      ],
      "finishCond": [
        {
          "type": "QUEST_CONTENT_OBTAIN_ITEM",
          "param": [
            108030,
            0
          ],
          "param_str": "",
          "count": 1
        }
      ],
      "failCond": [],
      "guide": {
        "param": []
      },
      "isRewind": true,
      "finishExec": [],
      "failExec": [],
      "beginExec": [],
      "exclusiveNpcList": [
        2208,
        2204,
        2202,
        231101,
        231102
      ],
      "exclusiveNpcPriority": 1000
    },
    {
      "subId": 100306,
      "mainId": 1003,
      "order": 8,
      "descTextMapHash": 1196523278,
      "acceptCond": [
        {
          "type": "QUEST_COND_STATE_EQUAL",
          "param": [
            100305,
            3,
            0
          ],
          "param_str": ""
        }
      ],
      "finishCond": [
        {
          "type": "QUEST_CONTENT_COMPLETE_TALK",
          "param": [
            100306,
            0
          ],
          "param_str": ""
        }
      ],
      "failCond": [],
      "guide": {
        "type": "QUEST_GUIDE_NPC",
        "param": [
          "220401"
        ],
        "guideScene": 3,
        "guideStyle": "QUEST_GUIDE_STYLE_TARGET",
        "guideLayer": "QUEST_GUIDE_LAYER_SCENE"
      },
      "isRewind": true,
      "finishExec": [],
      "failExec": [],
      "beginExec": [],
      "exclusiveNpcList": [
        2208,
        2204,
        2202,
        231101,
        231102
      ],
      "exclusiveNpcPriority": 1000
    },
    {
      "subId": 100307,
      "mainId": 1003,
      "order": 9,
      "descTextMapHash": 898838862,
      "acceptCond": [
        {
          "type": "QUEST_COND_STATE_EQUAL",
          "param": [
            100306,
            3,
            0
          ],
          "param_str": ""
        }
      ],
      "finishCond": [
        {
          "type": "QUEST_CONTENT_FINISH_PLOT",
          "param": [
            100307,
            0
          ],
          "param_str": ""
        }
      ],
      "failCond": [],
      "guide": {
        "type": "QUEST_GUIDE_LOCATION",
        "param": [
          "Q100307Trigger"
        ],
        "guideScene": 3,
        "guideStyle": "QUEST_GUIDE_STYLE_POINT",
        "guideLayer": "QUEST_GUIDE_LAYER_SCENE"
      },
      "isRewind": true,
      "finishExec": [],
      "failExec": [],
      "beginExec": [],
      "exclusiveNpcList": [
        2208,
        2204,
        2202,
        231101,
        231102
      ],
      "exclusiveNpcPriority": 1000
    },
    {
      "subId": 100308,
      "mainId": 1003,
      "order": 10,
      "descTextMapHash": 1332433406,
      "showType": "QUEST_HIDDEN",
      "acceptCond": [
        {
          "type": "QUEST_COND_STATE_EQUAL",
          "param": [
            100307,
            3,
            0
          ],
          "param_str": ""
        }
      ],
      "finishCond": [
        {
          "type": "QUEST_CONTENT_COMPLETE_TALK",
          "param": [
            100308,
            0
          ],
          "param_str": ""
        }
      ],
      "failCond": [],
      "guide": {
        "param": []
      },
      "finishExec": [],
      "failExec": [],
      "beginExec": [],
      "exclusiveNpcList": [
        2208,
        2204,
        2202,
        231101,
        231102
      ],
      "exclusiveNpcPriority": 1000
    },
    {
      "subId": 100309,
      "mainId": 1003,
      "order": 11,
      "descTextMapHash": 1505947734,
      "acceptCond": [
        {
          "type": "QUEST_COND_STATE_EQUAL",
          "param": [
            100308,
            3,
            0
          ],
          "param_str": ""
        }
      ],
      "finishCond": [
        {
          "type": "QUEST_CONTENT_COMPLETE_TALK",
          "param": [
            100309,
            0
          ],
          "param_str": ""
        }
      ],
      "failCond": [],
      "guide": {
        "type": "QUEST_GUIDE_NPC",
        "param": [
          "220401"
        ],
        "guideScene": 3,
        "guideStyle": "QUEST_GUIDE_STYLE_TARGET",
        "guideLayer": "QUEST_GUIDE_LAYER_SCENE"
      },
      "isRewind": true,
      "finishExec": [],
      "failExec": [],
      "beginExec": [],
      "exclusiveNpcList": [
        2208,
        2204,
        2202,
        231101,
        231102
      ],
      "exclusiveNpcPriority": 1000
    },
    {
      "subId": 100310,
      "mainId": 1003,
      "order": 12,
      "descTextMapHash": 3003238206,
      "acceptCond": [
        {
          "type": "QUEST_COND_STATE_EQUAL",
          "param": [
            100309,
            3,
            0
          ],
          "param_str": ""
        }
      ],
      "finishCond": [
        {
          "type": "QUEST_CONTENT_COMPLETE_TALK",
          "param": [
            100310,
            0
          ],
          "param_str": ""
        }
      ],
      "failCond": [],
      "guide": {
        "type": "QUEST_GUIDE_NPC",
        "param": [
          "220801"
        ],
        "guideScene": 3,
        "guideStyle": "QUEST_GUIDE_STYLE_TARGET",
        "guideLayer": "QUEST_GUIDE_LAYER_SCENE"
      },
      "isRewind": true,
      "finishExec": [],
      "failExec": [],
      "beginExec": [],
      "exclusiveNpcList": [
        2208,
        2204,
        2202,
        231101,
        231102
      ],
      "exclusiveNpcPriority": 1000
    },
    {
      "subId": 100321,
      "mainId": 1003,
      "order": 13,
      "descTextMapHash": 4121904830,
      "acceptCond": [
        {
          "type": "QUEST_COND_STATE_EQUAL",
          "param": [
            100310,
            3,
            0
          ],
          "param_str": ""
        }
      ],
      "finishCond": [
        {
          "type": "QUEST_CONTENT_INTERACT_GADGET",
          "param": [
            70710056,
            0
          ],
          "param_str": ""
        }
      ],
      "failCond": [],
      "guide": {
        "type": "QUEST_GUIDE_LOCATION",
        "param": [
          "Q100321Guide"
        ],
        "guideScene": 3,
        "guideStyle": "QUEST_GUIDE_STYLE_TARGET",
        "guideLayer": "QUEST_GUIDE_LAYER_SCENE"
      },
      "finishExec": [
        {
          "type": "QUEST_EXEC_REFRESH_GROUP_SUITE",
          "param": [
            "3",
            "133104471,2"
          ],
          "param_str": ""
        }
      ],
      "failExec": [],
      "beginExec": [
        {
          "type": "QUEST_EXEC_REFRESH_GROUP_SUITE",
          "param": [
            "3",
            "133104471,1"
          ],
          "param_str": ""
        }
      ],
      "exclusiveNpcList": [
        2208,
        2204,
        2202,
        231101,
        231102
      ],
      "exclusiveNpcPriority": 1000
    },
    {
      "subId": 100311,
      "mainId": 1003,
      "order": 14,
      "isMpBlock": true,
      "descTextMapHash": 3941762502,
      "acceptCond": [
        {
          "type": "QUEST_COND_STATE_EQUAL",
          "param": [
            100321,
            3,
            0
          ],
          "param_str": ""
        }
      ],
      "finishCond": [
        {
          "type": "QUEST_CONTENT_FINISH_PLOT",
          "param": [
            100311,
            0
          ],
          "param_str": ""
        }
      ],
      "failCond": [],
      "guide": {
        "type": "QUEST_GUIDE_LOCATION",
        "param": [
          "Q100311Trigger",
          "45"
        ],
        "guideScene": 3,
        "guideStyle": "QUEST_GUIDE_STYLE_TARGET",
        "guideLayer": "QUEST_GUIDE_LAYER_SCENE"
      },
      "showGuide": "QUEST_GUIDE_ITEM_DISABLE",
      "isRewind": true,
      "finishExec": [],
      "failExec": [],
      "beginExec": [],
      "exclusiveNpcList": [
        2208,
        2204,
        2202,
        231101,
        231102
      ],
      "exclusiveNpcPriority": 1000
    },
    {
      "subId": 100312,
      "mainId": 1003,
      "order": 15,
      "isMpBlock": true,
      "descTextMapHash": 4128635134,
      "showType": "QUEST_HIDDEN",
      "acceptCond": [
        {
          "type": "QUEST_COND_STATE_EQUAL",
          "param": [
            100311,
            3,
            0
          ],
          "param_str": ""
        }
      ],
      "finishCond": [
        {
          "type": "QUEST_CONTENT_FINISH_PLOT",
          "param": [
            100312,
            0
          ],
          "param_str": ""
        }
      ],
      "failCond": [],
      "guide": {
        "type": "QUEST_GUIDE_NPC",
        "param": [
          "231102"
        ],
        "guideScene": 3,
        "guideStyle": "QUEST_GUIDE_STYLE_TARGET",
        "guideLayer": "QUEST_GUIDE_LAYER_SCENE"
      },
      "finishExec": [],
      "failExec": [],
      "beginExec": [
        {
          "type": "QUEST_EXEC_REFRESH_GROUP_SUITE",
          "param": [
            "3",
            "133104041,2"
          ],
          "param_str": ""
        },
        {
          "type": "QUEST_EXEC_REFRESH_GROUP_SUITE",
          "param": [
            "3",
            "133104212,2"
          ],
          "param_str": ""
        },
        {
          "type": "QUEST_EXEC_REFRESH_GROUP_SUITE",
          "param": [
            "3",
            "133104424,1"
          ],
          "param_str": ""
        }
      ],
      "exclusiveNpcList": [
        2208,
        2204,
        2202,
        231101,
        231102
      ],
      "exclusiveNpcPriority": 1000
    },
    {
      "subId": 100313,
      "mainId": 1003,
      "order": 16,
      "isMpBlock": true,
      "descTextMapHash": 4182208870,
      "acceptCond": [
        {
          "type": "QUEST_COND_STATE_EQUAL",
          "param": [
            100312,
            3,
            0
          ],
          "param_str": ""
        }
      ],
      "finishCond": [
        {
          "type": "QUEST_CONTENT_FINISH_PLOT",
          "param": [
            100313,
            0
          ],
          "param_str": ""
        }
      ],
      "failCond": [],
      "guide": {
        "type": "QUEST_GUIDE_LOCATION",
        "param": [
          "Q100313Trigger"
        ],
        "guideScene": 3,
        "guideStyle": "QUEST_GUIDE_STYLE_TARGET",
        "guideLayer": "QUEST_GUIDE_LAYER_SCENE"
      },
      "showGuide": "QUEST_GUIDE_ITEM_DISABLE",
      "isRewind": true,
      "finishExec": [],
      "failExec": [],
      "beginExec": [
        {
          "type": "QUEST_EXEC_REFRESH_GROUP_SUITE",
          "param": [
            "3",
            "133104041,2"
          ],
          "param_str": ""
        },
        {
          "type": "QUEST_EXEC_REFRESH_GROUP_SUITE",
          "param": [
            "3",
            "133104212,2"
          ],
          "param_str": ""
        },
        {
          "type": "QUEST_EXEC_REFRESH_GROUP_SUITE",
          "param": [
            "3",
            "133104424,1"
          ],
          "param_str": ""
        }
      ],
      "exclusiveNpcList": [
        2208,
        2204,
        2202,
        231101,
        231102
      ],
      "exclusiveNpcPriority": 1000
    },
    {
      "subId": 100314,
      "mainId": 1003,
      "order": 17,
      "isMpBlock": true,
      "descTextMapHash": 451622134,
      "acceptCond": [
        {
          "type": "QUEST_COND_STATE_EQUAL",
          "param": [
            100313,
            3,
            0
          ],
          "param_str": ""
        }
      ],
      "finishCond": [
        {
          "type": "QUEST_CONTENT_CLEAR_GROUP_MONSTER",
          "param": [
            133104424,
            0
          ],
          "param_str": ""
        }
      ],
      "failCond": [],
      "guide": {
        "type": "QUEST_GUIDE_LOCATION",
        "param": [
          "Q100313Trigger"
        ],
        "guideScene": 3,
        "guideStyle": "QUEST_GUIDE_STYLE_TARGET",
        "guideLayer": "QUEST_GUIDE_LAYER_SCENE"
      },
      "showGuide": "QUEST_GUIDE_ITEM_DISABLE",
      "isRewind": true,
      "finishExec": [
        {
          "type": "QUEST_EXEC_REFRESH_GROUP_SUITE",
          "param": [
            "3",
            "133104424,3"
          ],
          "param_str": ""
        }
      ],
      "failExec": [],
      "beginExec": [
        {
          "type": "QUEST_EXEC_REFRESH_GROUP_SUITE",
          "param": [
            "3",
            "133104041,2"
          ],
          "param_str": ""
        },
        {
          "type": "QUEST_EXEC_REFRESH_GROUP_SUITE",
          "param": [
            "3",
            "133104212,2"
          ],
          "param_str": ""
        },
        {
          "type": "QUEST_EXEC_REFRESH_GROUP_SUITE",
          "param": [
            "3",
            "133104424,2"
          ],
          "param_str": ""
        }
      ],
      "exclusiveNpcList": [
        2208,
        2204,
        2202,
        231101,
        231102
      ],
      "exclusiveNpcPriority": 1000
    },
    {
      "subId": 100315,
      "mainId": 1003,
      "order": 18,
      "descTextMapHash": 1931428838,
      "acceptCond": [
        {
          "type": "QUEST_COND_STATE_EQUAL",
          "param": [
            100314,
            3,
            0
          ],
          "param_str": ""
        }
      ],
      "finishCond": [
        {
          "type": "QUEST_CONTENT_COMPLETE_TALK",
          "param": [
            100315,
            0
          ],
          "param_str": ""
        }
      ],
      "failCond": [],
      "guide": {
        "type": "QUEST_GUIDE_NPC",
        "param": [
          "231101"
        ],
        "guideScene": 3,
        "guideStyle": "QUEST_GUIDE_STYLE_TARGET",
        "guideLayer": "QUEST_GUIDE_LAYER_SCENE"
      },
      "isRewind": true,
      "finishExec": [],
      "failExec": [],
      "beginExec": [
        {
          "type": "QUEST_EXEC_REFRESH_GROUP_SUITE",
          "param": [
            "3",
            "133104041,2"
          ],
          "param_str": ""
        },
        {
          "type": "QUEST_EXEC_REFRESH_GROUP_SUITE",
          "param": [
            "3",
            "133104212,2"
          ],
          "param_str": ""
        }
      ],
      "exclusiveNpcList": [
        2208,
        2204,
        2202,
        231101,
        231102
      ],
      "exclusiveNpcPriority": 1000
    },
    {
      "subId": 100316,
      "mainId": 1003,
      "order": 19,
      "descTextMapHash": 1641590222,
      "acceptCond": [
        {
          "type": "QUEST_COND_STATE_EQUAL",
          "param": [
            100315,
            3,
            0
          ],
          "param_str": ""
        }
      ],
      "finishCond": [
        {
          "type": "QUEST_CONTENT_COMPLETE_TALK",
          "param": [
            100316,
            0
          ],
          "param_str": ""
        }
      ],
      "failCond": [],
      "guide": {
        "type": "QUEST_GUIDE_NPC",
        "param": [
          "220401"
        ],
        "guideScene": 3,
        "guideStyle": "QUEST_GUIDE_STYLE_TARGET",
        "guideLayer": "QUEST_GUIDE_LAYER_SCENE"
      },
      "isRewind": true,
      "finishExec": [
        {
          "type": "QUEST_EXEC_REFRESH_GROUP_SUITE",
          "param": [
            "3",
            "133104041,1"
          ],
          "param_str": ""
        },
        {
          "type": "QUEST_EXEC_REFRESH_GROUP_SUITE",
          "param": [
            "3",
            "133104212,1"
          ],
          "param_str": ""
        }
      ],
      "failExec": [],
      "beginExec": [
        {
          "type": "QUEST_EXEC_REFRESH_GROUP_SUITE",
          "param": [
            "3",
            "133104041,2"
          ],
          "param_str": ""
        },
        {
          "type": "QUEST_EXEC_REFRESH_GROUP_SUITE",
          "param": [
            "3",
            "133104212,2"
          ],
          "param_str": ""
        }
      ],
      "exclusiveNpcList": [
        2208,
        2204,
        2202,
        231101,
        231102
      ],
      "exclusiveNpcPriority": 1000
    },
    {
      "subId": 100317,
      "mainId": 1003,
      "order": 20,
      "descTextMapHash": 1965185366,
      "acceptCondComb": "LOGIC_AND",
      "acceptCond": [
        {
          "type": "QUEST_COND_STATE_EQUAL",
          "param": [
            100316,
            3,
            0
          ],
          "param_str": ""
        },
        {
          "type": "QUEST_COND_STATE_EQUAL",
          "param": [
            100305,
            3,
            0
          ],
          "param_str": ""
        }
      ],
      "finishCond": [
        {
          "type": "QUEST_CONTENT_COMPLETE_TALK",
          "param": [
            100317,
            0
          ],
          "param_str": ""
        }
      ],
      "failCond": [],
      "guide": {
        "type": "QUEST_GUIDE_NPC",
        "param": [
          "10204"
        ],
        "guideScene": 3,
        "guideStyle": "QUEST_GUIDE_STYLE_TARGET",
        "guideLayer": "QUEST_GUIDE_LAYER_SCENE"
      },
      "finishParent": true,
      "isRewind": true,
      "finishExec": [
        {
          "type": "QUEST_EXEC_DEL_PACK_ITEM",
          "param": [
            "108030",
            "1"
          ],
          "param_str": ""
        },
        {
          "type": "QUEST_EXEC_DEL_PACK_ITEM",
          "param": [
            "100428",
            "1"
          ],
          "param_str": ""
        }
      ],
      "failExec": [],
      "beginExec": [],
      "exclusiveNpcList": [
        10204,
        2204
      ],
      "exclusiveNpcPriority": 1000
    }
  ],
  "talks": [
    {
      "id": 100399,
      "beginWay": "TALK_BEGIN_MANUAL",
      "activeMode": "PLAY_MODE_SINGLE",
      "beginCondComb": "LOGIC_AND",
      "beginCond": [
        {
          "type": "QUEST_COND_STATE_EQUAL",
          "param": [
            "100303",
            "2"
          ],
          "param_str": ""
        },
        {
          "type": "QUEST_COND_STATE_EQUAL",
          "param": [
            "100319",
            "2"
          ],
          "param_str": ""
        },
        {
          "type": "QUEST_COND_STATE_EQUAL",
          "param": [
            "99902",
            "3"
          ],
          "param_str": ""
        }
      ],
      "priority": 5,
      "initDialog": 10030301,
      "npcId": [
        10204
      ],
      "performCfg": "QuestDialogue/AQ/Liyue1_1003/Q100399",
      "heroTalk": "TALK_HERO_MAIN",
      "questId": 1003,
      "prePerformCfg": ""
    },
    {
      "id": 100398,
      "beginWay": "TALK_BEGIN_MANUAL",
      "activeMode": "PLAY_MODE_SINGLE",
      "beginCond": [
        {
          "type": "QUEST_COND_STATE_EQUAL",
          "param": [
            "100303",
            "2"
          ],
          "param_str": ""
        }
      ],
      "priority": 5,
      "initDialog": 10030304,
      "npcId": [
        10204
      ],
      "performCfg": "QuestDialogue/AQ/Liyue1_1003/Q100398",
      "heroTalk": "TALK_HERO_MAIN",
      "questId": 1003,
      "prePerformCfg": ""
    },
    {
      "id": 100304,
      "beginWay": "TALK_BEGIN_MANUAL",
      "activeMode": "PLAY_MODE_SINGLE",
      "beginCond": [
        {
          "type": "QUEST_COND_STATE_EQUAL",
          "param": [
            "100304",
            "2"
          ],
          "param_str": ""
        }
      ],
      "priority": 5,
      "initDialog": 10030401,
      "npcId": [
        220801
      ],
      "performCfg": "QuestDialogue/AQ/Liyue1_1003/Q100304",
      "heroTalk": "TALK_HERO_MAIN",
      "questId": 1003,
      "prePerformCfg": ""
    },
    {
      "id": 100306,
      "beginWay": "TALK_BEGIN_MANUAL",
      "activeMode": "PLAY_MODE_SINGLE",
      "beginCond": [
        {
          "type": "QUEST_COND_STATE_EQUAL",
          "param": [
            "100306",
            "2"
          ],
          "param_str": ""
        }
      ],
      "priority": 5,
      "initDialog": 10030601,
      "npcId": [
        220401
      ],
      "performCfg": "QuestDialogue/AQ/Liyue1_1003/Q100306",
      "heroTalk": "TALK_HERO_MAIN",
      "questId": 1003,
      "prePerformCfg": ""
    },
    {
      "id": 100308,
      "beginWay": "TALK_BEGIN_MANUAL",
      "activeMode": "PLAY_MODE_SINGLE",
      "beginCond": [
        {
          "type": "QUEST_COND_STATE_EQUAL",
          "param": [
            "100308",
            "2"
          ],
          "param_str": ""
        }
      ],
      "priority": 5,
      "initDialog": 10030801,
      "npcId": [
        1005
      ],
      "performCfg": "QuestDialogue/AQ/Liyue1_1003/Q100308",
      "heroTalk": "TALK_HERO_MAIN",
      "questId": 1003,
      "prePerformCfg": ""
    },
    {
      "id": 100309,
      "beginWay": "TALK_BEGIN_MANUAL",
      "activeMode": "PLAY_MODE_SINGLE",
      "beginCond": [
        {
          "type": "QUEST_COND_STATE_EQUAL",
          "param": [
            "100309",
            "2"
          ],
          "param_str": ""
        }
      ],
      "priority": 5,
      "initDialog": 10030901,
      "npcId": [
        220401
      ],
      "performCfg": "QuestDialogue/AQ/Liyue1_1003/Q100309",
      "heroTalk": "TALK_HERO_MAIN",
      "questId": 1003,
      "prePerformCfg": ""
    },
    {
      "id": 100310,
      "beginWay": "TALK_BEGIN_MANUAL",
      "activeMode": "PLAY_MODE_SINGLE",
      "beginCond": [
        {
          "type": "QUEST_COND_STATE_EQUAL",
          "param": [
            "100310",
            "2"
          ],
          "param_str": ""
        }
      ],
      "priority": 7,
      "initDialog": 10031001,
      "npcId": [
        220801
      ],
      "performCfg": "QuestDialogue/AQ/Liyue1_1003/Q100310",
      "heroTalk": "TALK_HERO_MAIN",
      "questId": 1003,
      "prePerformCfg": ""
    },
    {
      "id": 100315,
      "beginWay": "TALK_BEGIN_MANUAL",
      "activeMode": "PLAY_MODE_SINGLE",
      "beginCond": [
        {
          "type": "QUEST_COND_STATE_EQUAL",
          "param": [
            "100315",
            "2"
          ],
          "param_str": ""
        }
      ],
      "priority": 5,
      "initDialog": 10031501,
      "npcId": [
        231101
      ],
      "performCfg": "QuestDialogue/AQ/Liyue1_1003/Q100315",
      "heroTalk": "TALK_HERO_MAIN",
      "questId": 1003,
      "prePerformCfg": ""
    },
    {
      "id": 100316,
      "beginWay": "TALK_BEGIN_MANUAL",
      "activeMode": "PLAY_MODE_SINGLE",
      "beginCond": [
        {
          "type": "QUEST_COND_STATE_EQUAL",
          "param": [
            "100316",
            "2"
          ],
          "param_str": ""
        }
      ],
      "priority": 5,
      "initDialog": 10031601,
      "npcId": [
        220401
      ],
      "performCfg": "QuestDialogue/AQ/Liyue1_1003/Q100316",
      "heroTalk": "TALK_HERO_MAIN",
      "questId": 1003,
      "prePerformCfg": ""
    },
    {
      "id": 100317,
      "beginWay": "TALK_BEGIN_MANUAL",
      "activeMode": "PLAY_MODE_SINGLE",
      "beginCondComb": "LOGIC_AND",
      "beginCond": [
        {
          "type": "QUEST_COND_STATE_EQUAL",
          "param": [
            "100317",
            "2"
          ],
          "param_str": ""
        },
        {
          "type": "QUEST_COND_PACK_HAVE_ITEM",
          "param": [
            "100428",
            "1"
          ],
          "param_str": ""
        }
      ],
      "priority": 5,
      "initDialog": 10031701,
      "npcId": [
        10204
      ],
      "performCfg": "QuestDialogue/AQ/Liyue1_1003/Q100317",
      "heroTalk": "TALK_HERO_MAIN",
      "questId": 1003,
      "prePerformCfg": ""
    },
    {
      "id": 100395,
      "beginWay": "TALK_BEGIN_MANUAL",
      "activeMode": "PLAY_MODE_SINGLE",
      "beginCond": [
        {
          "type": "QUEST_COND_STATE_EQUAL",
          "param": [
            "100304",
            "2"
          ],
          "param_str": ""
        }
      ],
      "priority": 6,
      "nextTalks": [
        100304,
        100394,
        100393,
        100392
      ],
      "initDialog": 10039501,
      "npcId": [
        220801
      ],
      "performCfg": "",
      "questId": 1003,
      "prePerformCfg": ""
    },
    {
      "id": 100394,
      "beginWay": "TALK_BEGIN_MANUAL",
      "activeMode": "PLAY_MODE_SINGLE",
      "priority": 5,
      "initDialog": 10039401,
      "npcId": [
        220801
      ],
      "performCfg": "",
      "questId": 1003,
      "prePerformCfg": ""
    },
    {
      "id": 100393,
      "beginWay": "TALK_BEGIN_MANUAL",
      "activeMode": "PLAY_MODE_SINGLE",
      "priority": 5,
      "initDialog": 10039301,
      "npcId": [
        220801
      ],
      "performCfg": "",
      "questId": 1003,
      "prePerformCfg": ""
    },
    {
      "id": 100392,
      "beginWay": "TALK_BEGIN_MANUAL",
      "activeMode": "PLAY_MODE_SINGLE",
      "priority": 5,
      "initDialog": 10039201,
      "npcId": [
        220801
      ],
      "performCfg": "",
      "questId": 1003,
      "prePerformCfg": ""
    },
    {
      "id": 100391,
      "beginWay": "TALK_BEGIN_MANUAL",
      "activeMode": "PLAY_MODE_SINGLE",
      "beginCondComb": "LOGIC_OR",
      "beginCond": [
        {
          "type": "QUEST_COND_STATE_EQUAL",
          "param": [
            "100307",
            "2"
          ],
          "param_str": ""
        },
        {
          "type": "QUEST_COND_STATE_EQUAL",
          "param": [
            "100308",
            "2"
          ],
          "param_str": ""
        }
      ],
      "priority": 5,
      "initDialog": 10039101,
      "npcId": [
        220401
      ],
      "performCfg": "",
      "questId": 1003,
      "prePerformCfg": ""
    },
    {
      "id": 100390,
      "beginWay": "TALK_BEGIN_MANUAL",
      "activeMode": "PLAY_MODE_SINGLE",
      "beginCondComb": "LOGIC_OR",
      "beginCond": [
        {
          "type": "QUEST_COND_STATE_EQUAL",
          "param": [
            "100310",
            "2"
          ],
          "param_str": ""
        },
        {
          "type": "QUEST_COND_STATE_EQUAL",
          "param": [
            "100321",
            "2"
          ],
          "param_str": ""
        },
        {
          "type": "QUEST_COND_STATE_EQUAL",
          "param": [
            "100311",
            "2"
          ],
          "param_str": ""
        }
      ],
      "priority": 5,
      "initDialog": 10039001,
      "npcId": [
        220401
      ],
      "performCfg": "",
      "questId": 1003,
      "prePerformCfg": ""
    },
    {
      "id": 100389,
      "beginWay": "TALK_BEGIN_MANUAL",
      "activeMode": "PLAY_MODE_SINGLE",
      "beginCond": [
        {
          "type": "QUEST_COND_STATE_EQUAL",
          "param": [
            "100317",
            "2"
          ],
          "param_str": ""
        }
      ],
      "priority": 5,
      "initDialog": 10038901,
      "npcId": [
        220401
      ],
      "performCfg": "",
      "questId": 1003,
      "prePerformCfg": ""
    },
    {
      "id": 100388,
      "beginWay": "TALK_BEGIN_MANUAL",
      "activeMode": "PLAY_MODE_SINGLE",
      "beginCondComb": "LOGIC_OR",
      "beginCond": [
        {
          "type": "QUEST_COND_STATE_EQUAL",
          "param": [
            "100305",
            "2"
          ],
          "param_str": ""
        },
        {
          "type": "QUEST_COND_STATE_EQUAL",
          "param": [
            "100306",
            "2"
          ],
          "param_str": ""
        },
        {
          "type": "QUEST_COND_STATE_EQUAL",
          "param": [
            "100307",
            "2"
          ],
          "param_str": ""
        }
      ],
      "priority": 6,
      "nextTalks": [
        100394,
        100393,
        100392
      ],
      "initDialog": 10038801,
      "npcId": [
        220801
      ],
      "performCfg": "",
      "questId": 1003,
      "prePerformCfg": ""
    },
    {
      "id": 100386,
      "beginWay": "TALK_BEGIN_MANUAL",
      "activeMode": "PLAY_MODE_SINGLE",
      "beginCondComb": "LOGIC_OR",
      "beginCond": [
        {
          "type": "QUEST_COND_STATE_EQUAL",
          "param": [
            "100308",
            "2"
          ],
          "param_str": ""
        },
        {
          "type": "QUEST_COND_STATE_EQUAL",
          "param": [
            "100309",
            "2"
          ],
          "param_str": ""
        }
      ],
      "priority": 6,
      "nextTalks": [
        100394,
        100393,
        100392
      ],
      "initDialog": 10038801,
      "npcId": [
        220801
      ],
      "performCfg": "",
      "questId": 1003,
      "prePerformCfg": ""
    },
    {
      "id": 100387,
      "beginWay": "TALK_BEGIN_MANUAL",
      "activeMode": "PLAY_MODE_SINGLE",
      "beginCondComb": "LOGIC_OR",
      "beginCond": [
        {
          "type": "QUEST_COND_STATE_EQUAL",
          "param": [
            "100321",
            "2"
          ],
          "param_str": ""
        },
        {
          "type": "QUEST_COND_STATE_EQUAL",
          "param": [
            "100311",
            "2"
          ],
          "param_str": ""
        }
      ],
      "priority": 6,
      "nextTalks": [
        100394,
        100393,
        100392
      ],
      "initDialog": 10038701,
      "npcId": [
        220801
      ],
      "performCfg": "",
      "questId": 1003,
      "prePerformCfg": ""
    }
  ]
}