{
  "id": 1010,
  "series": 1101,
  "titleTextMapHash": 3403721721,
  "descTextMapHash": 747522079,
  "luaPath": "Actor/Quest/MQ1010",
  "suggestTrackMainQuestList": [
    1011
  ],
  "rewardIdList": [
    101010
  ],
  "chapterId": 1102,
  "subQuests": [
    {
      "subId": 101001,
      "mainId": 1010,
      "order": 1,
      "descTextMapHash": 3256933974,
      "acceptCond": [
        {
          "type": "QUEST_COND_STATE_EQUAL",
          "param": [
            101801,
            3,
            0
          ],
          "param_str": ""
        }
      ],
      "finishCond": [
        {
          "type": "QUEST_CONTENT_GAME_TIME_TICK",
          "param": [
            1,
            0
          ],
          "param_str": "0,24"
        }
      ],
      "failCond": [],
      "guide": {
        "param": []
      },
      "isRewind": true,
      "finishExec": [],
      "failExec": [],
      "beginExec": []
    },
    {
      "subId": 101002,
      "mainId": 1010,
      "order": 2,
      "descTextMapHash": 2839051910,
      "acceptCond": [
        {
          "type": "QUEST_COND_STATE_EQUAL",
          "param": [
            101001,
            3,
            0
          ],
          "param_str": ""
        }
      ],
      "finishCond": [
        {
          "type": "QUEST_CONTENT_COMPLETE_TALK",
          "param": [
            101002,
            0
          ],
          "param_str": ""
        }
      ],
      "failCond": [],
      "guide": {
        "type": "QUEST_GUIDE_NPC",
        "param": [
          "10235"
        ],
        "guideScene": 1033,
        "guideStyle": "QUEST_GUIDE_STYLE_TARGET",
        "guideLayer": "QUEST_GUIDE_LAYER_SCENE"
      },
      "isRewind": true,
      "finishExec": [],
      "failExec": [],
      "beginExec": [],
      "exclusiveNpcList": [
        10235
      ],
      "exclusiveNpcPriority": 1000
    },
    {
      "subId": 101003,
      "mainId": 1010,
      "order": 3,
      "isMpBlock": true,
      "descTextMapHash": 3682043446,
      "acceptCond": [
        {
          "type": "QUEST_COND_STATE_EQUAL",
          "param": [
            101002,
            3,
            0
          ],
          "param_str": ""
        }
      ],
      "finishCond": [
        {
          "type": "QUEST_CONTENT_COMPLETE_TALK",
          "param": [
            101003,
            0
          ],
          "param_str": ""
        }
      ],
      "failCond": [],
      "guide": {
        "type": "QUEST_GUIDE_NPC",
        "param": [
          "10200"
        ],
        "guideScene": 3,
        "guideStyle": "QUEST_GUIDE_STYLE_TARGET",
        "guideLayer": "QUEST_GUIDE_LAYER_SCENE"
      },
      "isRewind": true,
      "finishExec": [],
      "failExec": [],
      "beginExec": [],
      "exclusiveNpcList": [
        10200,
        10232,
        10235,
        2022,
        2096
      ],
      "exclusiveNpcPriority": 1000
    },
    {
      "subId": 101004,
      "mainId": 1010,
      "order": 4,
      "isMpBlock": true,
      "descTextMapHash": 1841647094,
      "showType": "QUEST_HIDDEN",
      "acceptCond": [
        {
          "type": "QUEST_COND_STATE_EQUAL",
          "param": [
            99902,
            3,
            0
          ],
          "param_str": ""
        }
      ],
      "finishCond": [
        {
          "type": "QUEST_CONTENT_FINISH_PLOT",
          "param": [
            101004,
            0
          ],
          "param_str": ""
        }
      ],
      "failCond": [],
      "guide": {
        "param": []
      },
      "finishExec": [],
      "failExec": [],
      "beginExec": [],
      "exclusiveNpcList": [
        10200,
        10232,
        2022,
        2096
      ],
      "exclusiveNpcPriority": 1000
    },
    {
      "subId": 101007,
      "mainId": 1010,
      "order": 5,
      "isMpBlock": true,
      "descTextMapHash": 322488654,
      "showType": "QUEST_HIDDEN",
      "acceptCond": [
        {
          "type": "QUEST_COND_STATE_EQUAL",
          "param": [
            101003,
            3,
            0
          ],
          "param_str": ""
        }
      ],
      "finishCond": [
        {
          "type": "QUEST_CONTENT_ENTER_ROOM",
          "param": [
            1034,
            0
          ],
          "param_str": ""
        }
      ],
      "failCond": [],
      "guide": {
        "param": []
      },
      "finishExec": [],
      "failExec": [],
      "beginExec": [
        {
          "type": "QUEST_EXEC_REFRESH_GROUP_SUITE",
          "param": [
            "1034",
            "201034902,2"
          ],
          "param_str": ""
        }
      ],
      "exclusiveNpcList": [
        10200,
        10232
      ],
      "exclusiveNpcPriority": 1000
    },
    {
      "subId": 101008,
      "mainId": 1010,
      "order": 6,
      "isMpBlock": true,
      "descTextMapHash": 1417555518,
      "showType": "QUEST_HIDDEN",
      "acceptCond": [
        {
          "type": "QUEST_COND_STATE_EQUAL",
          "param": [
            101007,
            3,
            0
          ],
          "param_str": ""
        }
      ],
      "finishCond": [
        {
          "type": "QUEST_CONTENT_FINISH_PLOT",
          "param": [
            101008,
            0
          ],
          "param_str": ""
        }
      ],
      "failCond": [],
      "guide": {
        "param": []
      },
      "finishExec": [],
      "failExec": [],
      "beginExec": [],
      "exclusiveNpcList": [
        10200,
        10232,
        2063,
        2146
      ],
      "exclusiveNpcPriority": 1000
    },
    {
      "subId": 101005,
      "mainId": 1010,
      "order": 7,
      "descTextMapHash": 1021935550,
      "acceptCond": [
        {
          "type": "QUEST_COND_STATE_EQUAL",
          "param": [
            101008,
            3,
            0
          ],
          "param_str": ""
        }
      ],
      "finishCond": [
        {
          "type": "QUEST_CONTENT_COMPLETE_TALK",
          "param": [
            101005,
            0
          ],
          "param_str": ""
        }
      ],
      "failCond": [],
      "guide": {
        "type": "QUEST_GUIDE_NPC",
        "param": [
          "10232"
        ],
        "guideScene": 1034,
        "guideStyle": "QUEST_GUIDE_STYLE_TARGET",
        "guideLayer": "QUEST_GUIDE_LAYER_SCENE"
      },
      "finishExec": [],
      "failExec": [],
      "beginExec": [],
      "exclusiveNpcList": [
        10200,
        10232,
        2063,
        2146
      ],
      "exclusiveNpcPriority": 1000
    },
    {
      "subId": 101006,
      "mainId": 1010,
      "order": 8,
      "descTextMapHash": 2640720366,
      "acceptCond": [
        {
          "type": "QUEST_COND_STATE_EQUAL",
          "param": [
            101005,
            3,
            0
          ],
          "param_str": ""
        }
      ],
      "finishCond": [
        {
          "type": "QUEST_CONTENT_COMPLETE_TALK",
          "param": [
            101006,
            0
          ],
          "param_str": ""
        }
      ],
      "failCond": [],
      "guide": {
        "type": "QUEST_GUIDE_NPC",
        "param": [
          "10232"
        ],
        "guideScene": 3,
        "guideStyle": "QUEST_GUIDE_STYLE_TARGET",
        "guideLayer": "QUEST_GUIDE_LAYER_SCENE"
      },
      "finishParent": true,
      "isRewind": true,
      "finishExec": [
        {
          "type": "QUEST_EXEC_REFRESH_GROUP_SUITE",
          "param": [
            "1034",
            "201034902,1"
          ],
          "param_str": ""
        }
      ],
      "failExec": [],
      "beginExec": [
        {
          "type": "QUEST_EXEC_REFRESH_GROUP_SUITE",
          "param": [
            "3",
            "133107089,2"
          ],
          "param_str": ""
        }
      ],
      "exclusiveNpcList": [
        10232,
        2063,
        2146,
        2096
      ],
      "exclusiveNpcPriority": 1000
    }
  ],
  "talks": [
    {
      "id": 101002,
      "beginWay": "TALK_BEGIN_MANUAL",
      "activeMode": "PLAY_MODE_SINGLE",
      "beginCond": [
        {
          "type": "QUEST_COND_STATE_EQUAL",
          "param": [
            "101002",
            "2"
          ],
          "param_str": ""
        }
      ],
      "priority": 6,
      "initDialog": 10100201,
      "npcId": [
        10235
      ],
      "performCfg": "QuestDialogue/AQ/Liyue1_1010/Q101002",
      "questId": 1010,
      "prePerformCfg": ""
    },
    {
      "id": 10100201,
      "beginWay": "TALK_BEGIN_MANUAL",
      "activeMode": "PLAY_MODE_SINGLE",
      "beginCond": [
        {
          "type": "QUEST_COND_STATE_EQUAL",
          "param": [
            "101003",
            "2"
          ],
          "param_str": ""
        }
      ],
      "priority": 6,
      "initDialog": 10100221,
      "npcId": [
        10235
      ],
      "performCfg": "QuestDialogue/AQ/Liyue1_1010/Q10100201",
      "heroTalk": "TALK_HERO_MAIN",
      "questId": 1010,
      "prePerformCfg": ""
    },
    {
      "id": 101003,
      "beginWay": "TALK_BEGIN_MANUAL",
      "activeMode": "PLAY_MODE_SINGLE",
      "beginCond": [
        {
          "type": "QUEST_COND_STATE_EQUAL",
          "param": [
            "101003",
            "2"
          ],
          "param_str": ""
        }
      ],
      "priority": 6,
      "initDialog": 10100301,
      "npcId": [
        10200
      ],
      "performCfg": "QuestDialogue/AQ/Liyue1_1010/Q101003",
      "questId": 1010,
      "prePerformCfg": ""
    },
    {
      "id": 101005,
      "beginWay": "TALK_BEGIN_AUTO",
      "activeMode": "PLAY_MODE_SINGLE",
      "beginCond": [
        {
          "type": "QUEST_COND_STATE_EQUAL",
          "param": [
            "101005",
            "2"
          ],
          "param_str": ""
        }
      ],
      "priority": 6,
      "initDialog": 10100501,
      "npcId": [
        10232
      ],
      "performCfg": "QuestDialogue/AQ/Liyue1_1010/Q101005",
      "questId": 1010,
      "prePerformCfg": ""
    },
    {
      "id": 10100501,
      "beginWay": "TALK_BEGIN_MANUAL",
      "activeMode": "PLAY_MODE_SINGLE",
      "beginCondComb": "LOGIC_AND",
      "beginCond": [
        {
          "type": "QUEST_COND_STATE_EQUAL",
          "param": [
            "101005",
            "3"
          ],
          "param_str": ""
        },
        {
          "type": "QUEST_COND_STATE_EQUAL",
          "param": [
            "101006",
            "2"
          ],
          "param_str": ""
        }
      ],
      "priority": 6,
      "initDialog": 10100580,
      "npcId": [
        10200
      ],
      "performCfg": "QuestDialogue/AQ/Liyue1_1010/Q10100501",
      "heroTalk": "TALK_HERO_MAIN",
      "questId": 1010,
      "prePerformCfg": ""
    },
    {
      "id": 101006,
      "beginWay": "TALK_BEGIN_MANUAL",
      "activeMode": "PLAY_MODE_SINGLE",
      "beginCond": [
        {
          "type": "QUEST_COND_STATE_EQUAL",
          "param": [
            "101006",
            "2"
          ],
          "param_str": ""
        }
      ],
      "priority": 6,
      "initDialog": 10100601,
      "npcId": [
        10232
      ],
      "performCfg": "QuestDialogue/AQ/Liyue1_1010/Q101006",
      "questId": 1010,
      "prePerformCfg": ""
    }
  ]
}