{
  "id": 11015,
  "series": 1205,
  "titleTextMapHash": 2469357735,
  "descTextMapHash": 2862873494,
  "luaPath": "Actor/Quest/AQ11015",
  "rewardIdList": [
    111015
  ],
  "chapterId": 1205,
  "subQuests": [
    {
      "subId": 1101501,
      "mainId": 11015,
      "order": 1,
      "descTextMapHash": 3148446660,
      "acceptCond": [
        {
          "type": "QUEST_COND_STATE_EQUAL",
          "param": [
            1101410,
            3,
            0,
            0,
            0
          ],
          "param_str": ""
        }
      ],
      "finishCond": [
        {
          "type": "QUEST_CONTENT_COMPLETE_TALK",
          "param": [
            1101501,
            0
          ],
          "param_str": ""
        }
      ],
      "failCond": [],
      "guide": {
        "type": "QUEST_GUIDE_NPC",
        "autoGuide": "QUEST_GUIDE_AUTO_ENABLE",
        "param": [
          "2143"
        ],
        "guideScene": 3,
        "guideStyle": "QUEST_GUIDE_STYLE_TARGET",
        "guideLayer": "QUEST_GUIDE_LAYER_SCENE"
      },
      "isRewind": true,
      "finishExec": [
        {
          "type": "QUEST_EXEC_DEL_ALL_SPECIFIC_PACK_ITEM",
          "param": [
            "101611"
          ],
          "param_str": ""
        },
        {
          "type": "QUEST_EXEC_DEL_ALL_SPECIFIC_PACK_ITEM",
          "param": [
            "101612"
          ],
          "param_str": ""
        },
        {
          "type": "QUEST_EXEC_DEL_ALL_SPECIFIC_PACK_ITEM",
          "param": [
            "101613"
          ],
          "param_str": ""
        },
        {
          "type": "QUEST_EXEC_DEL_ALL_SPECIFIC_PACK_ITEM",
          "param": [
            "101614"
          ],
          "param_str": ""
        },
        {
          "type": "QUEST_EXEC_DEL_ALL_SPECIFIC_PACK_ITEM",
          "param": [
            "101615"
          ],
          "param_str": ""
        }
      ],
      "failExec": [],
      "beginExec": [
        {
          "type": "QUEST_EXEC_REGISTER_DYNAMIC_GROUP",
          "param": [
            "3",
            "133108255"
          ],
          "param_str": ""
        }
      ],
      "exclusiveNpcList": [
        10211,
        2143,
        1045,
        1046,
        12344,
        12345,
        12346,
        12371,
        12348,
        1016,
        12372,
        12341,
        12342,
        12343,
        12442,
        12443,
        12444,
        12373,
        12349,
        10233
      ],
      "exclusiveNpcPriority": 1000,
      "exclusivePlaceList": [
        1100901
      ]
    },
    {
      "subId": 1101502,
      "mainId": 11015,
      "order": 6,
      "isMpBlock": true,
      "descTextMapHash": 227157044,
      "acceptCond": [
        {
          "type": "QUEST_COND_STATE_EQUAL",
          "param": [
            1101509,
            3,
            0,
            0,
            0
          ],
          "param_str": ""
        }
      ],
      "finishCond": [
        {
          "type": "QUEST_CONTENT_FINISH_DUNGEON",
          "param": [
            1126,
            0
          ],
          "param_str": ""
        }
      ],
      "failCondComb": "LOGIC_OR",
      "failCond": [
        {
          "type": "QUEST_CONTENT_TEAM_DEAD",
          "param": [
            0,
            0
          ],
          "param_str": ""
        },
        {
          "type": "QUEST_CONTENT_LEAVE_SCENE",
          "param": [
            20120,
            0
          ],
          "param_str": ""
        },
        {
          "type": "QUEST_CONTENT_ANY_MANUAL_TRANSPORT",
          "param": [
            0,
            0
          ],
          "param_str": ""
        }
      ],
      "guide": {
        "type": "QUEST_GUIDE_LOCATION",
        "autoGuide": "QUEST_GUIDE_AUTO_ENABLE",
        "param": [
          "Q11014MishuBuilding"
        ],
        "guideScene": 3,
        "guideStyle": "QUEST_GUIDE_STYLE_POINT",
        "guideLayer": "QUEST_GUIDE_LAYER_SCENE"
      },
      "isRewind": true,
      "finishExec": [
        {
          "type": "QUEST_EXEC_REMOVE_TRIAL_AVATAR",
          "param": [
            "35"
          ],
          "param_str": ""
        }
      ],
      "failExec": [
        {
          "type": "QUEST_EXEC_REMOVE_TRIAL_AVATAR",
          "param": [
            "35"
          ],
          "param_str": ""
        },
        {
          "type": "QUEST_EXEC_ROLLBACK_QUEST",
          "param": [
            "1101506"
          ],
          "param_str": ""
        }
      ],
      "beginExec": [],
      "exclusiveNpcList": [
        10211,
        1045,
        1016,
        12373,
        12349
      ],
      "exclusiveNpcPriority": 1000,
      "trialAvatarList": [
        35
      ],
      "exclusivePlaceList": [
        1100901
      ]
    },
    {
      "subId": 1101503,
      "mainId": 11015,
      "order": 8,
      "isMpBlock": true,
      "descTextMapHash": 3030258892,
      "acceptCond": [
        {
          "type": "QUEST_COND_STATE_EQUAL",
          "param": [
            1101508,
            3,
            0,
            0,
            0
          ],
          "param_str": ""
        }
      ],
      "finishCond": [
        {
          "type": "QUEST_CONTENT_COMPLETE_TALK",
          "param": [
            1101503,
            0
          ],
          "param_str": ""
        }
      ],
      "failCond": [],
      "guide": {
        "type": "QUEST_GUIDE_NPC",
        "autoGuide": "QUEST_GUIDE_AUTO_ENABLE",
        "param": [
          "10211"
        ],
        "guideScene": 3,
        "guideStyle": "QUEST_GUIDE_STYLE_TARGET",
        "guideLayer": "QUEST_GUIDE_LAYER_SCENE"
      },
      "isRewind": true,
      "finishExec": [
        {
          "type": "QUEST_EXEC_UNLOCK_POINT",
          "param": [
            "3",
            "468"
          ],
          "param_str": ""
        }
      ],
      "failExec": [],
      "beginExec": [
        {
          "type": "QUEST_EXEC_REGISTER_DYNAMIC_GROUP",
          "param": [
            "3",
            "133108255"
          ],
          "param_str": ""
        }
      ],
      "exclusiveNpcList": [
        10211,
        1045,
        10258,
        1016,
        12373,
        12349
      ],
      "exclusiveNpcPriority": 1000
    },
    {
      "subId": 1101504,
      "mainId": 11015,
      "order": 9,
      "descTextMapHash": 4293293748,
      "acceptCond": [
        {
          "type": "QUEST_COND_STATE_EQUAL",
          "param": [
            1101503,
            3,
            0,
            0,
            0
          ],
          "param_str": ""
        }
      ],
      "finishCond": [
        {
          "type": "QUEST_CONTENT_FINISH_PLOT",
          "param": [
            1101504,
            0
          ],
          "param_str": ""
        }
      ],
      "failCond": [],
      "guide": {
        "type": "QUEST_GUIDE_LOCATION",
        "autoGuide": "QUEST_GUIDE_AUTO_ENABLE",
        "param": [
          "Q11015KeqingFin"
        ],
        "guideScene": 3,
        "guideStyle": "QUEST_GUIDE_STYLE_POINT",
        "guideLayer": "QUEST_GUIDE_LAYER_SCENE"
      },
      "isRewind": true,
      "finishExec": [
        {
          "type": "QUEST_EXEC_UNREGISTER_DYNAMIC_GROUP",
          "param": [
            "133108255"
          ],
          "param_str": ""
        }
      ],
      "failExec": [],
      "beginExec": [
        {
          "type": "QUEST_EXEC_REGISTER_DYNAMIC_GROUP",
          "param": [
            "3",
            "133108255"
          ],
          "param_str": ""
        }
      ],
      "exclusiveNpcList": [
        10211,
        1045,
        1046,
        1016,
        12355,
        12356,
        12357,
        12373,
        12349
      ],
      "exclusiveNpcPriority": 1000
    },
    {
      "subId": 1101505,
      "mainId": 11015,
      "order": 11,
      "descTextMapHash": 2661188956,
      "acceptCond": [
        {
          "type": "QUEST_COND_STATE_EQUAL",
          "param": [
            1101504,
            3,
            0,
            0,
            0
          ],
          "param_str": ""
        }
      ],
      "finishCond": [
        {
          "type": "QUEST_CONTENT_COMPLETE_TALK",
          "param": [
            1101504,
            0
          ],
          "param_str": ""
        }
      ],
      "failCond": [],
      "guide": {
        "type": "QUEST_GUIDE_NPC",
        "autoGuide": "QUEST_GUIDE_AUTO_ENABLE",
        "param": [
          "1045"
        ],
        "guideScene": 3,
        "guideStyle": "QUEST_GUIDE_STYLE_TARGET",
        "guideLayer": "QUEST_GUIDE_LAYER_SCENE"
      },
      "finishParent": true,
      "finishExec": [
        {
          "type": "QUEST_EXEC_SET_QUEST_GLOBAL_VAR",
          "param": [
            "11015",
            "1"
          ],
          "param_str": ""
        }
      ],
      "failExec": [],
      "beginExec": [],
      "exclusiveNpcList": [
        10211,
        1045,
        1046,
        1016,
        12355,
        12356,
        12357
      ],
      "exclusiveNpcPriority": 1000
    },
    {
      "subId": 1101506,
      "mainId": 11015,
      "order": 2,
      "descTextMapHash": 3222626052,
      "acceptCond": [
        {
          "type": "QUEST_COND_STATE_EQUAL",
          "param": [
            1101501,
            3,
            0,
            0,
            0
          ],
          "param_str": ""
        }
      ],
      "finishCond": [
        {
          "type": "QUEST_CONTENT_COMPLETE_TALK",
          "param": [
            1101502,
            0
          ],
          "param_str": ""
        }
      ],
      "failCond": [],
      "guide": {
        "type": "QUEST_GUIDE_NPC",
        "autoGuide": "QUEST_GUIDE_AUTO_ENABLE",
        "param": [
          "10211"
        ],
        "guideScene": 3,
        "guideStyle": "QUEST_GUIDE_STYLE_TARGET",
        "guideLayer": "QUEST_GUIDE_LAYER_SCENE"
      },
      "isRewind": true,
      "finishExec": [
        {
          "type": "QUEST_EXEC_UNREGISTER_DYNAMIC_GROUP",
          "param": [
            "133107239"
          ],
          "param_str": ""
        }
      ],
      "failExec": [],
      "beginExec": [
        {
          "type": "QUEST_EXEC_REGISTER_DYNAMIC_GROUP",
          "param": [
            "3",
            "133107239"
          ],
          "param_str": ""
        },
        {
          "type": "QUEST_EXEC_REGISTER_DYNAMIC_GROUP",
          "param": [
            "3",
            "133108255"
          ],
          "param_str": ""
        }
      ],
      "exclusiveNpcList": [
        10211,
        2143,
        1045,
        1046,
        12344,
        12345,
        12346,
        12371,
        12348,
        1016,
        12372,
        12373,
        12374,
        12349,
        1031
      ],
      "exclusiveNpcPriority": 1000,
      "exclusivePlaceList": [
        1100901
      ]
    },
    {
      "subId": 1101507,
      "mainId": 11015,
      "order": 3,
      "descTextMapHash": 3654480020,
      "showType": "QUEST_HIDDEN",
      "acceptCond": [
        {
          "type": "QUEST_COND_STATE_EQUAL",
          "param": [
            1101501,
            3,
            0,
            0,
            0
          ],
          "param_str": ""
        }
      ],
      "finishCond": [
        {
          "type": "QUEST_CONTENT_FINISH_PLOT",
          "param": [
            1101507,
            0
          ],
          "param_str": ""
        }
      ],
      "failCond": [],
      "guide": {
        "param": [],
        "guideScene": 3,
        "guideLayer": "QUEST_GUIDE_LAYER_SCENE"
      },
      "showGuide": "QUEST_GUIDE_ITEM_DISABLE",
      "failParentShow": "QUEST_HIDDEN",
      "finishExec": [
        {
          "type": "QUEST_EXEC_NOTIFY_GROUP_LUA",
          "param": [
            "3",
            "133107239"
          ],
          "param_str": ""
        }
      ],
      "failExec": [],
      "beginExec": []
    },
    {
      "subId": 1101508,
      "mainId": 11015,
      "order": 7,
      "isMpBlock": true,
      "descTextMapHash": 2000483980,
      "acceptCond": [
        {
          "type": "QUEST_COND_STATE_EQUAL",
          "param": [
            1101502,
            3,
            0,
            0,
            0
          ],
          "param_str": ""
        }
      ],
      "finishCond": [
        {
          "type": "QUEST_CONTENT_LEAVE_SCENE",
          "param": [
            20120,
            0
          ],
          "param_str": ""
        }
      ],
      "failCond": [],
      "guide": {
        "type": "QUEST_GUIDE_LOCATION",
        "autoGuide": "QUEST_GUIDE_AUTO_ENABLE",
        "param": [
          "Q11015NingguangPort"
        ],
        "guideScene": 3,
        "guideStyle": "QUEST_GUIDE_STYLE_POINT",
        "guideLayer": "QUEST_GUIDE_LAYER_SCENE"
      },
      "isRewind": true,
      "finishExec": [
        {
          "type": "QUEST_EXEC_DEL_SCENE_TAG",
          "param": [
            "3",
            "131"
          ],
          "param_str": ""
        },
        {
          "type": "QUEST_EXEC_ADD_SCENE_TAG",
          "param": [
            "3",
            "133"
          ],
          "param_str": ""
        },
        {
          "type": "QUEST_EXEC_REFRESH_GROUP_SUITE",
          "param": [
            "1057",
            "201057006,2"
          ],
          "param_str": ""
        },
        {
          "type": "QUEST_EXEC_SET_QUEST_GLOBAL_VAR",
          "param": [
            "10008",
            "0"
          ],
          "param_str": ""
        },
        {
          "type": "QUEST_EXEC_REFRESH_GROUP_SUITE",
          "param": [
            "1057",
            "201057902,3"
          ],
          "param_str": ""
        }
      ],
      "failExec": [],
      "beginExec": [
        {
          "type": "QUEST_EXEC_REGISTER_DYNAMIC_GROUP",
          "param": [
            "3",
            "133108255"
          ],
          "param_str": ""
        }
      ],
      "exclusiveNpcList": [
        10211,
        1045,
        1016,
        12373,
        12349
      ],
      "exclusiveNpcPriority": 1000
    },
    {
      "subId": 1101509,
      "mainId": 11015,
      "order": 5,
      "isMpBlock": true,
      "descTextMapHash": 2056105500,
      "acceptCond": [
        {
          "type": "QUEST_COND_STATE_EQUAL",
          "param": [
            1101506,
            3,
            0,
            0,
            0
          ],
          "param_str": ""
        }
      ],
      "finishCond": [
        {
          "type": "QUEST_CONTENT_ENTER_DUNGEON",
          "param": [
            1126,
            461
          ],
          "param_str": ""
        }
      ],
      "failCond": [],
      "guide": {
        "type": "QUEST_GUIDE_LOCATION",
        "autoGuide": "QUEST_GUIDE_AUTO_ENABLE",
        "param": [
          "Q11014MishuBuilding"
        ],
        "guideScene": 3,
        "guideStyle": "QUEST_GUIDE_STYLE_POINT",
        "guideLayer": "QUEST_GUIDE_LAYER_SCENE"
      },
      "finishExec": [
        {
          "type": "QUEST_EXEC_GRANT_TRIAL_AVATAR",
          "param": [
            "35"
          ],
          "param_str": ""
        }
      ],
      "failExec": [],
      "beginExec": [],
      "exclusiveNpcList": [
        10211,
        1045,
        1016,
        12373,
        12349
      ],
      "exclusiveNpcPriority": 1000,
      "exclusivePlaceList": [
        1100901
      ]
    },
    {
      "subId": 1101510,
      "mainId": 11015,
      "order": 4,
      "descTextMapHash": 3753716212,
      "showType": "QUEST_HIDDEN",
      "acceptCond": [
        {
          "type": "QUEST_COND_STATE_EQUAL",
          "param": [
            1101501,
            3,
            0,
            0,
            0
          ],
          "param_str": ""
        }
      ],
      "finishCond": [
        {
          "type": "QUEST_CONTENT_FINISH_PLOT",
          "param": [
            1101510,
            0
          ],
          "param_str": ""
        }
      ],
      "failCond": [],
      "guide": {
        "param": [],
        "guideScene": 3,
        "guideLayer": "QUEST_GUIDE_LAYER_SCENE"
      },
      "showGuide": "QUEST_GUIDE_ITEM_DISABLE",
      "failParentShow": "QUEST_HIDDEN",
      "finishExec": [
        {
          "type": "QUEST_EXEC_SET_GAME_TIME",
          "param": [
            "10"
          ],
          "param_str": ""
        }
      ],
      "failExec": [],
      "beginExec": []
    },
    {
      "subId": 1101511,
      "mainId": 11015,
      "order": 10,
      "descTextMapHash": 754526188,
      "showType": "QUEST_HIDDEN",
      "acceptCond": [
        {
          "type": "QUEST_COND_STATE_EQUAL",
          "param": [
            1101504,
            3,
            0,
            0,
            0
          ],
          "param_str": ""
        }
      ],
      "finishCond": [
        {
          "type": "QUEST_CONTENT_FINISH_PLOT",
          "param": [
            1101511,
            0
          ],
          "param_str": ""
        }
      ],
      "failCond": [],
      "guide": {
        "param": [],
        "guideScene": 3,
        "guideLayer": "QUEST_GUIDE_LAYER_SCENE"
      },
      "showGuide": "QUEST_GUIDE_ITEM_DISABLE",
      "failParentShow": "QUEST_HIDDEN",
      "finishExec": [
        {
          "type": "QUEST_EXEC_SET_GAME_TIME",
          "param": [
            "20"
          ],
          "param_str": ""
        }
      ],
      "failExec": [],
      "beginExec": []
    }
  ],
  "talks": [
    {
      "id": 1101501,
      "beginWay": "TALK_BEGIN_MANUAL",
      "activeMode": "PLAY_MODE_SINGLE",
      "beginCond": [
        {
          "type": "QUEST_COND_STATE_EQUAL",
          "param": [
            "1101501",
            "2"
          ],
          "param_str": ""
        }
      ],
      "priority": 5,
      "initDialog": 110150101,
      "npcId": [
        2143
      ],
      "performCfg": "QuestDialogue/AQ/Liyue4_11015/Q1101501",
      "heroTalk": "TALK_HERO_MAIN",
      "questId": 11015,
      "prePerformCfg": ""
    },
    {
      "id": 1101502,
      "beginWay": "TALK_BEGIN_MANUAL",
      "activeMode": "PLAY_MODE_SINGLE",
      "beginCond": [
        {
          "type": "QUEST_COND_STATE_EQUAL",
          "param": [
            "1101506",
            "2"
          ],
          "param_str": ""
        }
      ],
      "priority": 5,
      "initDialog": 110150201,
      "npcId": [
        10211
      ],
      "performCfg": "QuestDialogue/AQ/Liyue4_11015/Q1101502",
      "heroTalk": "TALK_HERO_MAIN",
      "questId": 11015,
      "prePerformCfg": "",
      "lockGameTime": true
    },
    {
      "id": 1101503,
      "beginWay": "TALK_BEGIN_MANUAL",
      "activeMode": "PLAY_MODE_SINGLE",
      "beginCond": [
        {
          "type": "QUEST_COND_STATE_EQUAL",
          "param": [
            "1101503",
            "2"
          ],
          "param_str": ""
        }
      ],
      "priority": 5,
      "initDialog": 110150301,
      "npcId": [
        10211
      ],
      "performCfg": "QuestDialogue/AQ/Liyue4_11015/Q1101503",
      "heroTalk": "TALK_HERO_MAIN",
      "questId": 11015,
      "prePerformCfg": ""
    },
    {
      "id": 1101504,
      "beginWay": "TALK_BEGIN_MANUAL",
      "activeMode": "PLAY_MODE_SINGLE",
      "beginCond": [
        {
          "type": "QUEST_COND_STATE_EQUAL",
          "param": [
            "1101505",
            "2"
          ],
          "param_str": ""
        }
      ],
      "priority": 5,
      "initDialog": 110150401,
      "npcId": [
        1045
      ],
      "performCfg": "QuestDialogue/AQ/Liyue4_11015/Q1101504",
      "heroTalk": "TALK_HERO_MAIN",
      "questId": 11015,
      "prePerformCfg": ""
    },
    {
      "id": 1101505,
      "beginWay": "TALK_BEGIN_MANUAL",
      "activeMode": "PLAY_MODE_SINGLE",
      "beginCond": [
        {
          "type": "QUEST_COND_STATE_EQUAL",
          "param": [
            "1101505",
            "3"
          ],
          "param_str": ""
        }
      ],
      "priority": 5,
      "initDialog": 110150501,
      "npcId": [
        1045
      ],
      "performCfg": "QuestDialogue/AQ/Liyue4_11015/Q1101505",
      "heroTalk": "TALK_HERO_MAIN",
      "questId": 11015,
      "prePerformCfg": "",
      "questIdleTalk": true,
      "lowPriority": true
    },
    {
      "id": 1101506,
      "beginWay": "TALK_BEGIN_MANUAL",
      "activeMode": "PLAY_MODE_SINGLE",
      "beginCond": [
        {
          "type": "QUEST_COND_STATE_EQUAL",
          "param": [
            "1101505",
            "3"
          ],
          "param_str": ""
        }
      ],
      "priority": 5,
      "initDialog": 110150601,
      "npcId": [
        10211
      ],
      "performCfg": "QuestDialogue/AQ/Liyue4_11015/Q1101506",
      "heroTalk": "TALK_HERO_MAIN",
      "questId": 11015,
      "prePerformCfg": "",
      "questIdleTalk": true,
      "lowPriority": true
    },
    {
      "id": 1101507,
      "beginWay": "TALK_BEGIN_MANUAL",
      "activeMode": "PLAY_MODE_SINGLE",
      "beginCond": [
        {
          "type": "QUEST_COND_STATE_EQUAL",
          "param": [
            "1101505",
            "3"
          ],
          "param_str": ""
        }
      ],
      "priority": 5,
      "initDialog": 110150701,
      "npcId": [
        1046
      ],
      "performCfg": "QuestDialogue/AQ/Liyue4_11015/Q1101507",
      "heroTalk": "TALK_HERO_MAIN",
      "questId": 11015,
      "prePerformCfg": "",
      "questIdleTalk": true,
      "lowPriority": true
    },
    {
      "id": 1101508,
      "beginWay": "TALK_BEGIN_MANUAL",
      "activeMode": "PLAY_MODE_SINGLE",
      "beginCondComb": "LOGIC_OR",
      "beginCond": [
        {
          "type": "QUEST_COND_STATE_EQUAL",
          "param": [
            "1101504",
            "2"
          ],
          "param_str": ""
        },
        {
          "type": "QUEST_COND_STATE_EQUAL",
          "param": [
            "1101505",
            "2"
          ],
          "param_str": ""
        }
      ],
      "priority": 5,
      "initDialog": 110150801,
      "npcId": [
        1016
      ],
      "performCfg": "QuestDialogue/AQ/Liyue4_11015/Q1101508",
      "heroTalk": "TALK_HERO_MAIN",
      "questId": 11015,
      "prePerformCfg": "",
      "lowPriority": true
    },
    {
      "id": 1101509,
      "beginWay": "TALK_BEGIN_MANUAL",
      "activeMode": "PLAY_MODE_SINGLE",
      "beginCondComb": "LOGIC_OR",
      "beginCond": [
        {
          "type": "QUEST_COND_STATE_EQUAL",
          "param": [
            "1101501",
            "2"
          ],
          "param_str": ""
        },
        {
          "type": "QUEST_COND_STATE_EQUAL",
          "param": [
            "1101506",
            "2"
          ],
          "param_str": ""
        }
      ],
      "priority": 5,
      "initDialog": 110142401,
      "npcId": [
        12344
      ],
      "performCfg": "QuestDialogue/AQ/Liyue4_11014/Q1101424",
      "heroTalk": "TALK_HERO_MAIN",
      "questId": 11015,
      "prePerformCfg": "",
      "lowPriority": true
    },
    {
      "id": 1101510,
      "beginWay": "TALK_BEGIN_MANUAL",
      "activeMode": "PLAY_MODE_SINGLE",
      "beginCondComb": "LOGIC_OR",
      "beginCond": [
        {
          "type": "QUEST_COND_STATE_EQUAL",
          "param": [
            "1101501",
            "2"
          ],
          "param_str": ""
        },
        {
          "type": "QUEST_COND_STATE_EQUAL",
          "param": [
            "1101506",
            "2"
          ],
          "param_str": ""
        }
      ],
      "priority": 5,
      "initDialog": 110142501,
      "npcId": [
        12345
      ],
      "performCfg": "QuestDialogue/AQ/Liyue4_11014/Q1101425",
      "heroTalk": "TALK_HERO_MAIN",
      "questId": 11015,
      "prePerformCfg": "",
      "lowPriority": true
    },
    {
      "id": 1101511,
      "beginWay": "TALK_BEGIN_MANUAL",
      "activeMode": "PLAY_MODE_SINGLE",
      "beginCondComb": "LOGIC_OR",
      "beginCond": [
        {
          "type": "QUEST_COND_STATE_EQUAL",
          "param": [
            "1101501",
            "2"
          ],
          "param_str": ""
        },
        {
          "type": "QUEST_COND_STATE_EQUAL",
          "param": [
            "1101506",
            "2"
          ],
          "param_str": ""
        }
      ],
      "priority": 5,
      "initDialog": 110142601,
      "npcId": [
        12346
      ],
      "performCfg": "QuestDialogue/AQ/Liyue4_11014/Q1101426",
      "heroTalk": "TALK_HERO_MAIN",
      "questId": 11015,
      "prePerformCfg": "",
      "lowPriority": true
    },
    {
      "id": 1101512,
      "beginWay": "TALK_BEGIN_MANUAL",
      "activeMode": "PLAY_MODE_SINGLE",
      "beginCondComb": "LOGIC_OR",
      "beginCond": [
        {
          "type": "QUEST_COND_STATE_EQUAL",
          "param": [
            "1101501",
            "2"
          ],
          "param_str": ""
        },
        {
          "type": "QUEST_COND_STATE_EQUAL",
          "param": [
            "1101506",
            "2"
          ],
          "param_str": ""
        }
      ],
      "priority": 5,
      "initDialog": 110142701,
      "npcId": [
        12371
      ],
      "performCfg": "QuestDialogue/AQ/Liyue4_11014/Q1101427",
      "heroTalk": "TALK_HERO_MAIN",
      "questId": 11015,
      "prePerformCfg": "",
      "lowPriority": true
    },
    {
      "id": 1101513,
      "beginWay": "TALK_BEGIN_MANUAL",
      "activeMode": "PLAY_MODE_SINGLE",
      "beginCondComb": "LOGIC_OR",
      "beginCond": [
        {
          "type": "QUEST_COND_STATE_EQUAL",
          "param": [
            "1101501",
            "2"
          ],
          "param_str": ""
        },
        {
          "type": "QUEST_COND_STATE_EQUAL",
          "param": [
            "1101506",
            "2"
          ],
          "param_str": ""
        }
      ],
      "priority": 5,
      "initDialog": 110142801,
      "npcId": [
        12372
      ],
      "performCfg": "QuestDialogue/AQ/Liyue4_11014/Q1101428",
      "heroTalk": "TALK_HERO_MAIN",
      "questId": 11015,
      "prePerformCfg": "",
      "lowPriority": true
    },
    {
      "id": 1101514,
      "beginWay": "TALK_BEGIN_MANUAL",
      "activeMode": "PLAY_MODE_SINGLE",
      "beginCondComb": "LOGIC_OR",
      "beginCond": [
        {
          "type": "QUEST_COND_STATE_EQUAL",
          "param": [
            "1101501",
            "2"
          ],
          "param_str": ""
        },
        {
          "type": "QUEST_COND_STATE_EQUAL",
          "param": [
            "1101506",
            "2"
          ],
          "param_str": ""
        }
      ],
      "priority": 5,
      "initDialog": 110142901,
      "npcId": [
        12348
      ],
      "performCfg": "QuestDialogue/AQ/Liyue4_11014/Q1101429",
      "heroTalk": "TALK_HERO_MAIN",
      "questId": 11015,
      "prePerformCfg": "",
      "lowPriority": true
    },
    {
      "id": 1101515,
      "beginWay": "TALK_BEGIN_MANUAL",
      "activeMode": "PLAY_MODE_SINGLE",
      "beginCond": [
        {
          "type": "QUEST_COND_STATE_EQUAL",
          "param": [
            "1101505",
            "3"
          ],
          "param_str": ""
        }
      ],
      "priority": 5,
      "initDialog": 110151501,
      "npcId": [
        12356
      ],
      "performCfg": "QuestDialogue/AQ/Liyue4_11015/Q1101515",
      "heroTalk": "TALK_HERO_MAIN",
      "questId": 11015,
      "prePerformCfg": "",
      "questIdleTalk": true,
      "lowPriority": true
    },
    {
      "id": 1101516,
      "beginWay": "TALK_BEGIN_MANUAL",
      "activeMode": "PLAY_MODE_SINGLE",
      "beginCond": [
        {
          "type": "QUEST_COND_STATE_EQUAL",
          "param": [
            "1101505",
            "3"
          ],
          "param_str": ""
        }
      ],
      "priority": 5,
      "initDialog": 110151601,
      "npcId": [
        12355
      ],
      "performCfg": "QuestDialogue/AQ/Liyue4_11015/Q1101516",
      "heroTalk": "TALK_HERO_MAIN",
      "questId": 11015,
      "prePerformCfg": "",
      "questIdleTalk": true,
      "lowPriority": true
    },
    {
      "id": 1101517,
      "beginWay": "TALK_BEGIN_MANUAL",
      "activeMode": "PLAY_MODE_SINGLE",
      "beginCond": [
        {
          "type": "QUEST_COND_STATE_EQUAL",
          "param": [
            "1101505",
            "3"
          ],
          "param_str": ""
        }
      ],
      "priority": 5,
      "initDialog": 110151701,
      "npcId": [
        12357
      ],
      "performCfg": "QuestDialogue/AQ/Liyue4_11015/Q1101517",
      "heroTalk": "TALK_HERO_MAIN",
      "questId": 11015,
      "prePerformCfg": "",
      "questIdleTalk": true,
      "lowPriority": true
    },
    {
      "id": 1101519,
      "beginWay": "TALK_BEGIN_MANUAL",
      "activeMode": "PLAY_MODE_SINGLE",
      "beginCondComb": "LOGIC_OR",
      "beginCond": [
        {
          "type": "QUEST_COND_STATE_EQUAL",
          "param": [
            "1101501",
            "2"
          ],
          "param_str": ""
        },
        {
          "type": "QUEST_COND_STATE_EQUAL",
          "param": [
            "1101506",
            "2"
          ],
          "param_str": ""
        }
      ],
      "priority": 5,
      "initDialog": 110133001,
      "npcId": [
        1016
      ],
      "performCfg": "QuestDialogue/AQ/Liyue4_11013/Q1101330",
      "heroTalk": "TALK_HERO_MAIN",
      "questId": 11015,
      "prePerformCfg": "",
      "lowPriority": true
    },
    {
      "id": 1101521,
      "beginWay": "TALK_BEGIN_MANUAL",
      "activeMode": "PLAY_MODE_SINGLE",
      "beginCond": [
        {
          "type": "QUEST_COND_STATE_EQUAL",
          "param": [
            "1101501",
            "2"
          ],
          "param_str": ""
        }
      ],
      "priority": 5,
      "initDialog": 110143001,
      "npcId": [
        10233
      ],
      "performCfg": "QuestDialogue/AQ/Liyue4_11014/Q1101430",
      "heroTalk": "TALK_HERO_MAIN",
      "questId": 11015,
      "prePerformCfg": "",
      "lowPriority": true
    }
  ]
}