{
  "id": 11014,
  "series": 1205,
  "titleTextMapHash": 3024777143,
  "descTextMapHash": 199536966,
  "luaPath": "Actor/Quest/AQ11014",
  "suggestTrackMainQuestList": [
    11015
  ],
  "rewardIdList": [
    111014
  ],
  "chapterId": 1205,
  "subQuests": [
    {
      "subId": 1101401,
      "mainId": 11014,
      "order": 3,
      "descTextMapHash": 382905332,
      "acceptCond": [
        {
          "type": "QUEST_COND_STATE_EQUAL",
          "param": [
            1101325,
            3,
            0,
            0,
            0
          ],
          "param_str": ""
        }
      ],
      "finishCondComb": "LOGIC_OR",
      "finishCond": [
        {
          "type": "QUEST_CONTENT_COMPLETE_TALK",
          "param": [
            1101401,
            0
          ],
          "param_str": ""
        },
        {
          "type": "QUEST_CONTENT_COMPLETE_TALK",
          "param": [
            1101438,
            0
          ],
          "param_str": ""
        }
      ],
      "failCond": [],
      "guide": {
        "type": "QUEST_GUIDE_NPC",
        "autoGuide": "QUEST_GUIDE_AUTO_ENABLE",
        "param": [
          "2143"
        ],
        "guideScene": 3,
        "guideStyle": "QUEST_GUIDE_STYLE_TARGET",
        "guideLayer": "QUEST_GUIDE_LAYER_SCENE"
      },
      "isRewind": true,
      "finishExec": [],
      "failExec": [],
      "beginExec": [
        {
          "type": "QUEST_EXEC_REGISTER_DYNAMIC_GROUP",
          "param": [
            "3",
            "133108255"
          ],
          "param_str": ""
        }
      ],
      "exclusiveNpcList": [
        2143,
        1045,
        1046,
        1031,
        12344,
        12345,
        12346,
        12371,
        12348,
        1016,
        10233,
        12372,
        12349,
        12373
      ],
      "exclusiveNpcPriority": 1000,
      "exclusivePlaceList": [
        1100901
      ]
    },
    {
      "subId": 1101402,
      "mainId": 11014,
      "order": 4,
      "descTextMapHash": 3257040452,
      "acceptCond": [
        {
          "type": "QUEST_COND_STATE_EQUAL",
          "param": [
            1101401,
            3,
            0,
            0,
            0
          ],
          "param_str": ""
        }
      ],
      "finishCond": [
        {
          "type": "QUEST_CONTENT_COMPLETE_TALK",
          "param": [
            1101402,
            0
          ],
          "param_str": ""
        }
      ],
      "failCond": [],
      "guide": {
        "type": "QUEST_GUIDE_NPC",
        "autoGuide": "QUEST_GUIDE_AUTO_ENABLE",
        "param": [
          "2048"
        ],
        "guideScene": 3,
        "guideStyle": "QUEST_GUIDE_STYLE_TARGET",
        "guideLayer": "QUEST_GUIDE_LAYER_SCENE"
      },
      "isRewind": true,
      "finishExec": [],
      "failExec": [],
      "beginExec": [
        {
          "type": "QUEST_EXEC_REGISTER_DYNAMIC_GROUP",
          "param": [
            "3",
            "133108255"
          ],
          "param_str": ""
        }
      ],
      "exclusiveNpcList": [
        2048,
        1045,
        1046,
        12344,
        12345,
        12346,
        12371,
        12348,
        1016,
        10233,
        12372,
        12441,
        12349,
        12373
      ],
      "exclusiveNpcPriority": 1000,
      "exclusivePlaceList": [
        11014,
        1100901,
        1101499
      ]
    },
    {
      "subId": 1101403,
      "mainId": 11014,
      "order": 7,
      "subIdSet": 1,
      "descTextMapHash": 2684810484,
      "acceptCond": [
        {
          "type": "QUEST_COND_STATE_EQUAL",
          "param": [
            1101418,
            3,
            0,
            0,
            0
          ],
          "param_str": ""
        }
      ],
      "finishCondComb": "LOGIC_OR",
      "finishCond": [
        {
          "type": "QUEST_CONTENT_LUA_NOTIFY",
          "param": [
            0,
            0
          ],
          "param_str": "1331072051",
          "count": 2
        }
      ],
      "failCond": [],
      "guide": {
        "type": "QUEST_GUIDE_LOCATION",
        "autoGuide": "QUEST_GUIDE_AUTO_ENABLE",
        "param": [
          "Q11014SearchArea",
          "55"
        ],
        "guideScene": 3,
        "guideStyle": "QUEST_GUIDE_STYLE_TARGET",
        "guideLayer": "QUEST_GUIDE_LAYER_SCENE"
      },
      "isRewind": true,
      "finishExec": [],
      "failExec": [],
      "beginExec": [
        {
          "type": "QUEST_EXEC_REGISTER_DYNAMIC_GROUP",
          "param": [
            "3",
            "133107205"
          ],
          "param_str": ""
        },
        {
          "type": "QUEST_EXEC_REGISTER_DYNAMIC_GROUP",
          "param": [
            "3",
            "133108255"
          ],
          "param_str": ""
        },
        {
          "type": "QUEST_EXEC_REGISTER_DYNAMIC_GROUP",
          "param": [
            "3",
            "133107240"
          ],
          "param_str": ""
        }
      ],
      "exclusiveNpcList": [
        1045,
        12333,
        12344,
        12345,
        12346,
        12371,
        12348,
        1016,
        10233,
        12372,
        12349,
        12373
      ],
      "exclusiveNpcPriority": 1000,
      "exclusivePlaceList": [
        1100901,
        1101499
      ]
    },
    {
      "subId": 1101404,
      "mainId": 11014,
      "order": 8,
      "descTextMapHash": 1263839260,
      "acceptCond": [
        {
          "type": "QUEST_COND_STATE_EQUAL",
          "param": [
            1101403,
            3,
            0,
            0,
            0
          ],
          "param_str": ""
        }
      ],
      "finishCond": [
        {
          "type": "QUEST_CONTENT_COMPLETE_TALK",
          "param": [
            1101403,
            0
          ],
          "param_str": ""
        }
      ],
      "failCond": [],
      "guide": {
        "type": "QUEST_GUIDE_NPC",
        "autoGuide": "QUEST_GUIDE_AUTO_ENABLE",
        "param": [
          "12333"
        ],
        "guideScene": 3,
        "guideStyle": "QUEST_GUIDE_STYLE_TARGET",
        "guideLayer": "QUEST_GUIDE_LAYER_SCENE"
      },
      "isRewind": true,
      "finishExec": [
        {
          "type": "QUEST_EXEC_UNREGISTER_DYNAMIC_GROUP",
          "param": [
            "133107205"
          ],
          "param_str": ""
        }
      ],
      "failExec": [],
      "beginExec": [
        {
          "type": "QUEST_EXEC_REGISTER_DYNAMIC_GROUP",
          "param": [
            "3",
            "133107240"
          ],
          "param_str": ""
        },
        {
          "type": "QUEST_EXEC_REGISTER_DYNAMIC_GROUP",
          "param": [
            "3",
            "133108255"
          ],
          "param_str": ""
        }
      ],
      "exclusiveNpcList": [
        1045,
        1046,
        12333,
        12344,
        12345,
        12346,
        12371,
        12348,
        1016,
        10233,
        12372,
        12349,
        12373
      ],
      "exclusiveNpcPriority": 1000,
      "exclusivePlaceList": [
        1100901,
        1101499
      ]
    },
    {
      "subId": 1101405,
      "mainId": 11014,
      "order": 9,
      "descTextMapHash": 2193949396,
      "showType": "QUEST_HIDDEN",
      "acceptCond": [
        {
          "type": "QUEST_COND_STATE_EQUAL",
          "param": [
            1101404,
            3,
            0,
            0,
            0
          ],
          "param_str": ""
        }
      ],
      "finishCond": [
        {
          "type": "QUEST_CONTENT_LUA_NOTIFY",
          "param": [
            0,
            0
          ],
          "param_str": "1331072061",
          "count": 1
        }
      ],
      "failCond": [],
      "guide": {
        "param": [],
        "guideScene": 3,
        "guideLayer": "QUEST_GUIDE_LAYER_SCENE"
      },
      "showGuide": "QUEST_GUIDE_ITEM_DISABLE",
      "failParentShow": "QUEST_HIDDEN",
      "finishExec": [],
      "failExec": [],
      "beginExec": [],
      "exclusiveNpcList": [
        1045,
        12333,
        12344,
        12345,
        12346,
        12371,
        12348,
        1016,
        10233,
        12372,
        12349,
        12373
      ],
      "exclusiveNpcPriority": 1000
    },
    {
      "subId": 1101406,
      "mainId": 11014,
      "order": 16,
      "descTextMapHash": 198450124,
      "acceptCond": [
        {
          "type": "QUEST_COND_STATE_EQUAL",
          "param": [
            1101416,
            3,
            0,
            0,
            0
          ],
          "param_str": ""
        }
      ],
      "finishCond": [
        {
          "type": "QUEST_CONTENT_COMPLETE_TALK",
          "param": [
            1101407,
            0
          ],
          "param_str": ""
        }
      ],
      "failCond": [],
      "guide": {
        "type": "QUEST_GUIDE_NPC",
        "autoGuide": "QUEST_GUIDE_AUTO_ENABLE",
        "param": [
          "1045"
        ],
        "guideScene": 3,
        "guideStyle": "QUEST_GUIDE_STYLE_TARGET",
        "guideLayer": "QUEST_GUIDE_LAYER_SCENE"
      },
      "isRewind": true,
      "finishExec": [
        {
          "type": "QUEST_EXEC_DEL_SCENE_TAG",
          "param": [
            "3",
            "130"
          ],
          "param_str": ""
        },
        {
          "type": "QUEST_EXEC_ADD_SCENE_TAG",
          "param": [
            "3",
            "131"
          ],
          "param_str": ""
        }
      ],
      "failExec": [],
      "beginExec": [
        {
          "type": "QUEST_EXEC_REGISTER_DYNAMIC_GROUP",
          "param": [
            "3",
            "133107240"
          ],
          "param_str": ""
        },
        {
          "type": "QUEST_EXEC_REGISTER_DYNAMIC_GROUP",
          "param": [
            "3",
            "133108255"
          ],
          "param_str": ""
        }
      ],
      "exclusiveNpcList": [
        1045,
        12333,
        12344,
        12345,
        12346,
        12371,
        12348,
        1016,
        10233,
        12372,
        12349,
        12373
      ],
      "exclusiveNpcPriority": 1000,
      "exclusivePlaceList": [
        1100901,
        1101499
      ]
    },
    {
      "subId": 1101407,
      "mainId": 11014,
      "order": 22,
      "descTextMapHash": 1861506700,
      "acceptCond": [
        {
          "type": "QUEST_COND_STATE_EQUAL",
          "param": [
            1101424,
            3,
            0,
            0,
            0
          ],
          "param_str": ""
        }
      ],
      "finishCond": [
        {
          "type": "QUEST_CONTENT_LUA_NOTIFY",
          "param": [
            0,
            0
          ],
          "param_str": "1331072081",
          "count": 1
        }
      ],
      "failCond": [],
      "guide": {
        "type": "QUEST_GUIDE_LOCATION",
        "autoGuide": "QUEST_GUIDE_AUTO_ENABLE",
        "param": [
          "Q11014SearchAnswerPoint",
          "40"
        ],
        "guideScene": 3,
        "guideStyle": "QUEST_GUIDE_STYLE_TARGET",
        "guideLayer": "QUEST_GUIDE_LAYER_SCENE"
      },
      "isRewind": true,
      "finishExec": [
        {
          "type": "QUEST_EXEC_UNREGISTER_DYNAMIC_GROUP",
          "param": [
            "133107240"
          ],
          "param_str": ""
        }
      ],
      "failExec": [],
      "beginExec": [
        {
          "type": "QUEST_EXEC_REGISTER_DYNAMIC_GROUP",
          "param": [
            "3",
            "133107208"
          ],
          "param_str": ""
        },
        {
          "type": "QUEST_EXEC_REGISTER_DYNAMIC_GROUP",
          "param": [
            "3",
            "133107240"
          ],
          "param_str": ""
        },
        {
          "type": "QUEST_EXEC_REGISTER_DYNAMIC_GROUP",
          "param": [
            "3",
            "133108255"
          ],
          "param_str": ""
        },
        {
          "type": "QUEST_EXEC_DEL_ALL_SPECIFIC_PACK_ITEM",
          "param": [
            "101610"
          ],
          "param_str": ""
        }
      ],
      "exclusiveNpcList": [
        1045,
        12344,
        12345,
        12346,
        12371,
        12348,
        1016,
        10233,
        10204,
        12372,
        12349,
        12373
      ],
      "exclusiveNpcPriority": 1000,
      "exclusivePlaceList": [
        1100901,
        1101499
      ]
    },
    {
      "subId": 1101408,
      "mainId": 11014,
      "order": 94,
      "descTextMapHash": 916756828,
      "acceptCond": [
        {
          "type": "QUEST_COND_STATE_EQUAL",
          "param": [
            99902,
            3,
            0,
            0,
            0
          ],
          "param_str": ""
        }
      ],
      "finishCond": [
        {
          "type": "QUEST_CONTENT_COMPLETE_TALK",
          "param": [
            1101408,
            0
          ],
          "param_str": ""
        }
      ],
      "failCond": [],
      "guide": {
        "type": "QUEST_GUIDE_NPC",
        "autoGuide": "QUEST_GUIDE_AUTO_ENABLE",
        "param": [
          "1045"
        ],
        "guideScene": 3,
        "guideStyle": "QUEST_GUIDE_STYLE_TARGET",
        "guideLayer": "QUEST_GUIDE_LAYER_SCENE"
      },
      "isRewind": true,
      "finishExec": [
        {
          "type": "QUEST_EXEC_UNREGISTER_DYNAMIC_GROUP",
          "param": [
            "133107208"
          ],
          "param_str": ""
        }
      ],
      "failExec": [],
      "beginExec": []
    },
    {
      "subId": 1101409,
      "mainId": 11014,
      "order": 95,
      "descTextMapHash": 48070852,
      "acceptCond": [
        {
          "type": "QUEST_COND_STATE_EQUAL",
          "param": [
            99902,
            3,
            0,
            0,
            0
          ],
          "param_str": ""
        }
      ],
      "finishCond": [
        {
          "type": "QUEST_CONTENT_COMPLETE_TALK",
          "param": [
            1101406,
            0
          ],
          "param_str": ""
        }
      ],
      "failCond": [],
      "guide": {
        "param": [],
        "guideScene": 3,
        "guideLayer": "QUEST_GUIDE_LAYER_SCENE"
      },
      "showGuide": "QUEST_GUIDE_ITEM_DISABLE",
      "finishExec": [],
      "failExec": [],
      "beginExec": []
    },
    {
      "subId": 1101410,
      "mainId": 11014,
      "order": 23,
      "descTextMapHash": 1694315164,
      "acceptCond": [
        {
          "type": "QUEST_COND_STATE_EQUAL",
          "param": [
            1101407,
            3,
            0,
            0,
            0
          ],
          "param_str": ""
        }
      ],
      "finishCond": [
        {
          "type": "QUEST_CONTENT_COMPLETE_TALK",
          "param": [
            1101408,
            0
          ],
          "param_str": ""
        }
      ],
      "failCond": [],
      "guide": {
        "type": "QUEST_GUIDE_NPC",
        "autoGuide": "QUEST_GUIDE_AUTO_ENABLE",
        "param": [
          "2048"
        ],
        "guideScene": 3,
        "guideStyle": "QUEST_GUIDE_STYLE_TARGET",
        "guideLayer": "QUEST_GUIDE_LAYER_SCENE"
      },
      "finishParent": true,
      "isRewind": true,
      "finishExec": [
        {
          "type": "QUEST_EXEC_DEL_ALL_SPECIFIC_PACK_ITEM",
          "param": [
            "101610"
          ],
          "param_str": ""
        },
        {
          "type": "QUEST_EXEC_UNREGISTER_DYNAMIC_GROUP",
          "param": [
            "133107208"
          ],
          "param_str": ""
        },
        {
          "type": "QUEST_EXEC_DEL_ALL_SPECIFIC_PACK_ITEM",
          "param": [
            "101609"
          ],
          "param_str": ""
        }
      ],
      "failExec": [],
      "beginExec": [
        {
          "type": "QUEST_EXEC_REGISTER_DYNAMIC_GROUP",
          "param": [
            "3",
            "133108255"
          ],
          "param_str": ""
        }
      ],
      "exclusiveNpcList": [
        2048,
        1045,
        12344,
        12345,
        12346,
        12371,
        12348,
        1016,
        10233,
        10204,
        12372,
        12441,
        12349,
        12373
      ],
      "exclusiveNpcPriority": 1000,
      "exclusivePlaceList": [
        11014,
        1100901,
        1101499
      ]
    },
    {
      "subId": 1101411,
      "mainId": 11014,
      "order": 10,
      "descTextMapHash": 645586516,
      "showType": "QUEST_HIDDEN",
      "acceptCond": [
        {
          "type": "QUEST_COND_STATE_EQUAL",
          "param": [
            1101405,
            3,
            0,
            0,
            0
          ],
          "param_str": ""
        }
      ],
      "finishCondComb": "LOGIC_OR",
      "finishCond": [
        {
          "type": "QUEST_CONTENT_COMPLETE_TALK",
          "param": [
            1101404,
            0
          ],
          "param_str": ""
        },
        {
          "type": "QUEST_CONTENT_COMPLETE_TALK",
          "param": [
            1101410,
            0
          ],
          "param_str": ""
        }
      ],
      "failCond": [],
      "guide": {
        "param": [],
        "guideScene": 3,
        "guideLayer": "QUEST_GUIDE_LAYER_SCENE"
      },
      "showGuide": "QUEST_GUIDE_ITEM_DISABLE",
      "failParentShow": "QUEST_HIDDEN",
      "finishExec": [
        {
          "type": "QUEST_EXEC_INC_QUEST_VAR",
          "param": [
            "1",
            "1"
          ],
          "param_str": ""
        }
      ],
      "failExec": [],
      "beginExec": [],
      "exclusiveNpcList": [
        1045,
        1046,
        12333,
        12344,
        12345,
        12346,
        12371,
        12348,
        1016,
        10233,
        12372,
        12349,
        12373
      ],
      "exclusiveNpcPriority": 1000
    },
    {
      "subId": 1101412,
      "mainId": 11014,
      "order": 11,
      "descTextMapHash": 167666156,
      "showType": "QUEST_HIDDEN",
      "acceptCond": [
        {
          "type": "QUEST_COND_STATE_EQUAL",
          "param": [
            1101404,
            3,
            0,
            0,
            0
          ],
          "param_str": ""
        }
      ],
      "finishCond": [
        {
          "type": "QUEST_CONTENT_LUA_NOTIFY",
          "param": [
            0,
            0
          ],
          "param_str": "1331072062",
          "count": 1
        }
      ],
      "failCond": [],
      "guide": {
        "param": [],
        "guideScene": 3,
        "guideLayer": "QUEST_GUIDE_LAYER_SCENE"
      },
      "showGuide": "QUEST_GUIDE_ITEM_DISABLE",
      "failParentShow": "QUEST_HIDDEN",
      "finishExec": [],
      "failExec": [],
      "beginExec": [],
      "exclusiveNpcList": [
        1045,
        12333,
        12344,
        12345,
        12346,
        12371,
        12348,
        1016,
        10233,
        12372,
        12349,
        12373
      ],
      "exclusiveNpcPriority": 1000
    },
    {
      "subId": 1101413,
      "mainId": 11014,
      "order": 12,
      "descTextMapHash": 2500961588,
      "showType": "QUEST_HIDDEN",
      "acceptCond": [
        {
          "type": "QUEST_COND_STATE_EQUAL",
          "param": [
            1101412,
            3,
            0,
            0,
            0
          ],
          "param_str": ""
        }
      ],
      "finishCond": [
        {
          "type": "QUEST_CONTENT_COMPLETE_TALK",
          "param": [
            1101405,
            0
          ],
          "param_str": ""
        }
      ],
      "failCond": [],
      "guide": {
        "param": [],
        "guideScene": 3,
        "guideLayer": "QUEST_GUIDE_LAYER_SCENE"
      },
      "showGuide": "QUEST_GUIDE_ITEM_DISABLE",
      "failParentShow": "QUEST_HIDDEN",
      "finishExec": [
        {
          "type": "QUEST_EXEC_INC_QUEST_VAR",
          "param": [
            "1",
            "1"
          ],
          "param_str": ""
        }
      ],
      "failExec": [],
      "beginExec": [],
      "exclusiveNpcList": [
        1045,
        1046,
        12333,
        12344,
        12345,
        12346,
        12371,
        12348,
        1016,
        10233,
        12372,
        12349,
        12373
      ],
      "exclusiveNpcPriority": 1000
    },
    {
      "subId": 1101414,
      "mainId": 11014,
      "order": 13,
      "isMpBlock": true,
      "descTextMapHash": 3262310956,
      "acceptCond": [
        {
          "type": "QUEST_COND_STATE_EQUAL",
          "param": [
            1101404,
            3,
            0,
            0,
            0
          ],
          "param_str": ""
        }
      ],
      "finishCondComb": "LOGIC_AND",
      "finishCond": [
        {
          "type": "QUEST_CONTENT_QUEST_STATE_EQUAL",
          "param": [
            1101411,
            3
          ],
          "param_str": ""
        },
        {
          "type": "QUEST_CONTENT_QUEST_STATE_EQUAL",
          "param": [
            1101413,
            3
          ],
          "param_str": ""
        }
      ],
      "failCond": [],
      "guide": {
        "type": "QUEST_GUIDE_LOCATION",
        "autoGuide": "QUEST_GUIDE_AUTO_ENABLE",
        "param": [
          "Q11014ShenheSearch3",
          "18"
        ],
        "guideScene": 3,
        "guideStyle": "QUEST_GUIDE_STYLE_TARGET",
        "guideLayer": "QUEST_GUIDE_LAYER_SCENE"
      },
      "isRewind": true,
      "finishExec": [
        {
          "type": "QUEST_EXEC_UNREGISTER_DYNAMIC_GROUP",
          "param": [
            "133107206"
          ],
          "param_str": ""
        }
      ],
      "failExec": [],
      "beginExec": [
        {
          "type": "QUEST_EXEC_REGISTER_DYNAMIC_GROUP",
          "param": [
            "3",
            "133107206"
          ],
          "param_str": ""
        },
        {
          "type": "QUEST_EXEC_REGISTER_DYNAMIC_GROUP",
          "param": [
            "3",
            "133107240"
          ],
          "param_str": ""
        },
        {
          "type": "QUEST_EXEC_REGISTER_DYNAMIC_GROUP",
          "param": [
            "3",
            "133108255"
          ],
          "param_str": ""
        }
      ],
      "exclusiveNpcList": [
        1045,
        1046,
        12333,
        12344,
        12345,
        12346,
        12371,
        12348,
        1016,
        10233,
        12372,
        12349,
        12373
      ],
      "exclusiveNpcPriority": 1000,
      "exclusivePlaceList": [
        1100901,
        1101499
      ]
    },
    {
      "subId": 1101415,
      "mainId": 11014,
      "order": 14,
      "isMpBlock": true,
      "descTextMapHash": 3219146884,
      "acceptCond": [
        {
          "type": "QUEST_COND_STATE_EQUAL",
          "param": [
            1101414,
            3,
            0,
            0,
            0
          ],
          "param_str": ""
        }
      ],
      "finishCond": [
        {
          "type": "QUEST_CONTENT_LUA_NOTIFY",
          "param": [
            0,
            0
          ],
          "param_str": "1331072071",
          "count": 1
        }
      ],
      "failCond": [],
      "guide": {
        "type": "QUEST_GUIDE_LOCATION",
        "autoGuide": "QUEST_GUIDE_AUTO_ENABLE",
        "param": [
          "Q11014PlayerSearch4",
          "10"
        ],
        "guideScene": 3,
        "guideStyle": "QUEST_GUIDE_STYLE_TARGET",
        "guideLayer": "QUEST_GUIDE_LAYER_SCENE"
      },
      "isRewind": true,
      "finishExec": [],
      "failExec": [],
      "beginExec": [
        {
          "type": "QUEST_EXEC_REGISTER_DYNAMIC_GROUP",
          "param": [
            "3",
            "133107207"
          ],
          "param_str": ""
        },
        {
          "type": "QUEST_EXEC_REGISTER_DYNAMIC_GROUP",
          "param": [
            "3",
            "133107240"
          ],
          "param_str": ""
        },
        {
          "type": "QUEST_EXEC_REGISTER_DYNAMIC_GROUP",
          "param": [
            "3",
            "133108255"
          ],
          "param_str": ""
        }
      ],
      "exclusiveNpcList": [
        1045,
        12333,
        12344,
        12345,
        12346,
        12371,
        12348,
        1016,
        10233,
        12372,
        12349,
        12373
      ],
      "exclusiveNpcPriority": 1000,
      "exclusivePlaceList": [
        1100901,
        1101499
      ]
    },
    {
      "subId": 1101416,
      "mainId": 11014,
      "order": 15,
      "descTextMapHash": 1251042716,
      "acceptCond": [
        {
          "type": "QUEST_COND_STATE_EQUAL",
          "param": [
            1101415,
            3,
            0,
            0,
            0
          ],
          "param_str": ""
        }
      ],
      "finishCond": [
        {
          "type": "QUEST_CONTENT_COMPLETE_TALK",
          "param": [
            1101406,
            0
          ],
          "param_str": ""
        }
      ],
      "failCond": [],
      "guide": {
        "type": "QUEST_GUIDE_NPC",
        "autoGuide": "QUEST_GUIDE_AUTO_ENABLE",
        "param": [
          "1046"
        ],
        "guideScene": 3,
        "guideStyle": "QUEST_GUIDE_STYLE_TARGET",
        "guideLayer": "QUEST_GUIDE_LAYER_SCENE"
      },
      "finishExec": [
        {
          "type": "QUEST_EXEC_UNREGISTER_DYNAMIC_GROUP",
          "param": [
            "133107207"
          ],
          "param_str": ""
        }
      ],
      "failExec": [],
      "beginExec": [],
      "exclusiveNpcList": [
        1045,
        1046,
        12333,
        12344,
        12345,
        12346,
        12371,
        12348,
        1016,
        10233,
        12372,
        12349,
        12373
      ],
      "exclusiveNpcPriority": 1000,
      "exclusivePlaceList": [
        1100901,
        1101499
      ]
    },
    {
      "subId": 1101417,
      "mainId": 11014,
      "order": 5,
      "descTextMapHash": 2844527876,
      "acceptCond": [
        {
          "type": "QUEST_COND_STATE_EQUAL",
          "param": [
            1101402,
            3,
            0,
            0,
            0
          ],
          "param_str": ""
        }
      ],
      "finishCond": [
        {
          "type": "QUEST_CONTENT_FINISH_PLOT",
          "param": [
            1101417,
            0
          ],
          "param_str": ""
        }
      ],
      "failCond": [],
      "guide": {
        "type": "QUEST_GUIDE_LOCATION",
        "autoGuide": "QUEST_GUIDE_AUTO_ENABLE",
        "param": [
          "Q11014ShenheSearch2"
        ],
        "guideScene": 3,
        "guideStyle": "QUEST_GUIDE_STYLE_POINT",
        "guideLayer": "QUEST_GUIDE_LAYER_SCENE"
      },
      "isRewind": true,
      "finishExec": [],
      "failExec": [],
      "beginExec": [
        {
          "type": "QUEST_EXEC_REGISTER_DYNAMIC_GROUP",
          "param": [
            "3",
            "133108255"
          ],
          "param_str": ""
        }
      ],
      "exclusiveNpcList": [
        12344,
        12345,
        12346,
        12371,
        12348,
        1016,
        10233,
        12372,
        12349,
        12373
      ],
      "exclusiveNpcPriority": 1000,
      "exclusivePlaceList": [
        1100901,
        1101499
      ]
    },
    {
      "subId": 1101418,
      "mainId": 11014,
      "order": 6,
      "descTextMapHash": 3375820684,
      "acceptCond": [
        {
          "type": "QUEST_COND_STATE_EQUAL",
          "param": [
            1101417,
            3,
            0,
            0,
            0
          ],
          "param_str": ""
        }
      ],
      "finishCond": [
        {
          "type": "QUEST_CONTENT_COMPLETE_TALK",
          "param": [
            1101409,
            0
          ],
          "param_str": ""
        }
      ],
      "failCond": [],
      "guide": {
        "type": "QUEST_GUIDE_NPC",
        "autoGuide": "QUEST_GUIDE_AUTO_ENABLE",
        "param": [
          "1046"
        ],
        "guideScene": 3,
        "guideStyle": "QUEST_GUIDE_STYLE_TARGET",
        "guideLayer": "QUEST_GUIDE_LAYER_SCENE"
      },
      "isRewind": true,
      "finishExec": [],
      "failExec": [],
      "beginExec": [
        {
          "type": "QUEST_EXEC_REGISTER_DYNAMIC_GROUP",
          "param": [
            "3",
            "133108255"
          ],
          "param_str": ""
        }
      ],
      "exclusiveNpcList": [
        1045,
        1046,
        12344,
        12345,
        12346,
        12371,
        12348,
        1016,
        10233,
        12372,
        12349,
        12373
      ],
      "exclusiveNpcPriority": 1000,
      "exclusivePlaceList": [
        1100901,
        1101499
      ]
    },
    {
      "subId": 1101419,
      "mainId": 11014,
      "order": 99,
      "descTextMapHash": 3343126324,
      "showType": "QUEST_HIDDEN",
      "acceptCond": [
        {
          "type": "QUEST_COND_STATE_EQUAL",
          "param": [
            99902,
            3,
            0,
            0,
            0
          ],
          "param_str": ""
        }
      ],
      "finishCond": [
        {
          "type": "QUEST_CONTENT_COMPLETE_TALK",
          "param": [
            1101408,
            0
          ],
          "param_str": ""
        }
      ],
      "failCond": [],
      "guide": {
        "param": [],
        "guideScene": 3,
        "guideLayer": "QUEST_GUIDE_LAYER_SCENE"
      },
      "showGuide": "QUEST_GUIDE_ITEM_DISABLE",
      "failParentShow": "QUEST_HIDDEN",
      "finishExec": [],
      "failExec": [],
      "beginExec": []
    },
    {
      "subId": 1101420,
      "mainId": 11014,
      "order": 1,
      "descTextMapHash": 458635708,
      "showType": "QUEST_HIDDEN",
      "acceptCond": [
        {
          "type": "QUEST_COND_STATE_EQUAL",
          "param": [
            1101325,
            3,
            0,
            0,
            0
          ],
          "param_str": ""
        }
      ],
      "finishCondComb": "LOGIC_OR",
      "finishCond": [
        {
          "type": "QUEST_CONTENT_COMPLETE_TALK",
          "param": [
            1101430,
            0
          ],
          "param_str": ""
        },
        {
          "type": "QUEST_CONTENT_COMPLETE_TALK",
          "param": [
            1101431,
            0
          ],
          "param_str": ""
        },
        {
          "type": "QUEST_CONTENT_COMPLETE_TALK",
          "param": [
            1101432,
            0
          ],
          "param_str": ""
        }
      ],
      "failCond": [],
      "guide": {
        "param": [],
        "guideScene": 3,
        "guideLayer": "QUEST_GUIDE_LAYER_SCENE"
      },
      "showGuide": "QUEST_GUIDE_ITEM_DISABLE",
      "failParentShow": "QUEST_HIDDEN",
      "finishExec": [],
      "failExec": [],
      "beginExec": []
    },
    {
      "subId": 1101421,
      "mainId": 11014,
      "order": 2,
      "descTextMapHash": 1663282652,
      "showType": "QUEST_HIDDEN",
      "acceptCond": [
        {
          "type": "QUEST_COND_STATE_EQUAL",
          "param": [
            1101420,
            3,
            0,
            0,
            0
          ],
          "param_str": ""
        }
      ],
      "finishCond": [
        {
          "type": "QUEST_CONTENT_FINISH_PLOT",
          "param": [
            1101421,
            0
          ],
          "param_str": ""
        }
      ],
      "failCond": [],
      "guide": {
        "param": [],
        "guideScene": 3,
        "guideLayer": "QUEST_GUIDE_LAYER_SCENE"
      },
      "showGuide": "QUEST_GUIDE_ITEM_DISABLE",
      "failParentShow": "QUEST_HIDDEN",
      "finishExec": [],
      "failExec": [],
      "beginExec": []
    },
    {
      "subId": 1101422,
      "mainId": 11014,
      "order": 18,
      "descTextMapHash": 308676828,
      "acceptCond": [
        {
          "type": "QUEST_COND_STATE_EQUAL",
          "param": [
            1101423,
            3,
            0,
            0,
            0
          ],
          "param_str": ""
        }
      ],
      "finishCondComb": "LOGIC_OR",
      "finishCond": [
        {
          "type": "QUEST_CONTENT_GAME_TIME_TICK",
          "param": [
            0,
            0
          ],
          "param_str": "17,18"
        },
        {
          "type": "QUEST_CONTENT_GAME_TIME_TICK",
          "param": [
            1,
            0
          ],
          "param_str": "17,18"
        }
      ],
      "failCond": [],
      "guide": {
        "type": "QUEST_GUIDE_LOCATION",
        "autoGuide": "QUEST_GUIDE_AUTO_ENABLE",
        "param": [
          "Q11014SearchFinArea"
        ],
        "guideScene": 3,
        "guideStyle": "QUEST_GUIDE_STYLE_POINT",
        "guideLayer": "QUEST_GUIDE_LAYER_SCENE"
      },
      "finishExec": [],
      "failExec": [],
      "beginExec": [
        {
          "type": "QUEST_EXEC_REGISTER_DYNAMIC_GROUP",
          "param": [
            "3",
            "133107240"
          ],
          "param_str": ""
        },
        {
          "type": "QUEST_EXEC_REGISTER_DYNAMIC_GROUP",
          "param": [
            "3",
            "133108255"
          ],
          "param_str": ""
        }
      ],
      "exclusiveNpcList": [
        12344,
        12345,
        12346,
        12371,
        12348,
        1016,
        10233,
        10204,
        12372,
        12349,
        12373
      ],
      "exclusiveNpcPriority": 1000,
      "exclusivePlaceList": [
        1100901,
        1101499
      ]
    },
    {
      "subId": 1101423,
      "mainId": 11014,
      "order": 17,
      "descTextMapHash": 2230898716,
      "acceptCond": [
        {
          "type": "QUEST_COND_STATE_EQUAL",
          "param": [
            1101406,
            3,
            0,
            0,
            0
          ],
          "param_str": ""
        }
      ],
      "finishCond": [
        {
          "type": "QUEST_CONTENT_LUA_NOTIFY",
          "param": [
            0,
            0
          ],
          "param_str": "1331072431",
          "count": 1
        }
      ],
      "failCond": [],
      "guide": {
        "type": "QUEST_GUIDE_LOCATION",
        "autoGuide": "QUEST_GUIDE_AUTO_ENABLE",
        "param": [
          "Q11014SearchFinArea"
        ],
        "guideScene": 3,
        "guideStyle": "QUEST_GUIDE_STYLE_POINT",
        "guideLayer": "QUEST_GUIDE_LAYER_SCENE"
      },
      "isRewind": true,
      "finishExec": [
        {
          "type": "QUEST_EXEC_UNREGISTER_DYNAMIC_GROUP",
          "param": [
            "133107243"
          ],
          "param_str": ""
        }
      ],
      "failExec": [],
      "beginExec": [
        {
          "type": "QUEST_EXEC_REGISTER_DYNAMIC_GROUP",
          "param": [
            "3",
            "133107243"
          ],
          "param_str": ""
        },
        {
          "type": "QUEST_EXEC_REGISTER_DYNAMIC_GROUP",
          "param": [
            "3",
            "133107240"
          ],
          "param_str": ""
        },
        {
          "type": "QUEST_EXEC_REGISTER_DYNAMIC_GROUP",
          "param": [
            "3",
            "133108255"
          ],
          "param_str": ""
        }
      ],
      "exclusiveNpcList": [
        12344,
        12345,
        12346,
        12371,
        12348,
        1016,
        10233,
        12372,
        12349,
        12373
      ],
      "exclusiveNpcPriority": 1000,
      "exclusivePlaceList": [
        1100901,
        1101499
      ]
    },
    {
      "subId": 1101424,
      "mainId": 11014,
      "order": 19,
      "descTextMapHash": 534940524,
      "acceptCond": [
        {
          "type": "QUEST_COND_STATE_EQUAL",
          "param": [
            1101422,
            3,
            0,
            0,
            0
          ],
          "param_str": ""
        }
      ],
      "finishCond": [
        {
          "type": "QUEST_CONTENT_COMPLETE_TALK",
          "param": [
            1101437,
            0
          ],
          "param_str": ""
        }
      ],
      "failCond": [],
      "guide": {
        "type": "QUEST_GUIDE_NPC",
        "autoGuide": "QUEST_GUIDE_AUTO_ENABLE",
        "param": [
          "1005"
        ],
        "guideScene": 3,
        "guideStyle": "QUEST_GUIDE_STYLE_TARGET",
        "guideLayer": "QUEST_GUIDE_LAYER_SCENE"
      },
      "finishExec": [],
      "failExec": [],
      "beginExec": [
        {
          "type": "QUEST_EXEC_REGISTER_DYNAMIC_GROUP",
          "param": [
            "3",
            "133107240"
          ],
          "param_str": ""
        },
        {
          "type": "QUEST_EXEC_REGISTER_DYNAMIC_GROUP",
          "param": [
            "3",
            "133108255"
          ],
          "param_str": ""
        }
      ],
      "exclusiveNpcList": [
        12344,
        12345,
        12346,
        12371,
        12348,
        1016,
        10233,
        10204,
        12372,
        12349,
        12373
      ],
      "exclusiveNpcPriority": 1000,
      "exclusivePlaceList": [
        1100901,
        1101499
      ]
    },
    {
      "subId": 1101425,
      "mainId": 11014,
      "order": 20,
      "descTextMapHash": 2955798292,
      "showType": "QUEST_HIDDEN",
      "acceptCond": [
        {
          "type": "QUEST_COND_STATE_EQUAL",
          "param": [
            1101422,
            3,
            0,
            0,
            0
          ],
          "param_str": ""
        }
      ],
      "finishCond": [
        {
          "type": "QUEST_CONTENT_FINISH_PLOT",
          "param": [
            1101425,
            0
          ],
          "param_str": ""
        }
      ],
      "failCond": [],
      "guide": {
        "param": [],
        "guideScene": 3,
        "guideLayer": "QUEST_GUIDE_LAYER_SCENE"
      },
      "showGuide": "QUEST_GUIDE_ITEM_DISABLE",
      "failParentShow": "QUEST_HIDDEN",
      "finishExec": [
        {
          "type": "QUEST_EXEC_SET_GAME_TIME",
          "param": [
            "17.45"
          ],
          "param_str": ""
        }
      ],
      "failExec": [],
      "beginExec": [],
      "exclusiveNpcList": [
        12344,
        12345,
        12346,
        12371,
        12348,
        1016,
        10233,
        12372,
        12349,
        12373
      ],
      "exclusiveNpcPriority": 1000
    },
    {
      "subId": 1101426,
      "mainId": 11014,
      "order": 21,
      "descTextMapHash": 574170236,
      "showType": "QUEST_HIDDEN",
      "acceptCond": [
        {
          "type": "QUEST_COND_STATE_EQUAL",
          "param": [
            1101423,
            3,
            0,
            0,
            0
          ],
          "param_str": ""
        }
      ],
      "finishCond": [
        {
          "type": "QUEST_CONTENT_COMPLETE_TALK",
          "param": [
            1101437,
            0
          ],
          "param_str": ""
        }
      ],
      "failCond": [
        {
          "type": "QUEST_CONTENT_LEAVE_SCENE_RANGE",
          "param": [
            3,
            45
          ],
          "param_str": "Q11014SearchFinArea"
        }
      ],
      "guide": {
        "param": [],
        "guideScene": 3,
        "guideLayer": "QUEST_GUIDE_LAYER_SCENE"
      },
      "showGuide": "QUEST_GUIDE_ITEM_DISABLE",
      "failParentShow": "QUEST_HIDDEN",
      "finishExec": [],
      "failExec": [
        {
          "type": "QUEST_EXEC_ROLLBACK_QUEST",
          "param": [
            "1101423"
          ],
          "param_str": ""
        }
      ],
      "beginExec": []
    }
  ],
  "talks": [
    {
      "id": 1101401,
      "beginWay": "TALK_BEGIN_MANUAL",
      "activeMode": "PLAY_MODE_SINGLE",
      "beginCondComb": "LOGIC_AND",
      "beginCond": [
        {
          "type": "QUEST_COND_STATE_EQUAL",
          "param": [
            "1101401",
            "2"
          ],
          "param_str": ""
        },
        {
          "type": "QUEST_COND_STATE_EQUAL",
          "param": [
            "200004",
            "3"
          ],
          "param_str": ""
        }
      ],
      "priority": 5,
      "initDialog": 110140101,
      "npcId": [
        1031,
        2143
      ],
      "performCfg": "QuestDialogue/AQ/Liyue4_11014/Q1101401",
      "heroTalk": "TALK_HERO_MAIN",
      "questId": 11014,
      "prePerformCfg": ""
    },
    {
      "id": 1101402,
      "beginWay": "TALK_BEGIN_MANUAL",
      "activeMode": "PLAY_MODE_SINGLE",
      "beginCond": [
        {
          "type": "QUEST_COND_STATE_EQUAL",
          "param": [
            "1101402",
            "2"
          ],
          "param_str": ""
        }
      ],
      "priority": 5,
      "initDialog": 110140201,
      "npcId": [
        12441
      ],
      "performCfg": "QuestDialogue/AQ/Liyue4_11014/Q1101402",
      "heroTalk": "TALK_HERO_MAIN",
      "questId": 11014,
      "prePerformCfg": ""
    },
    {
      "id": 1101403,
      "beginWay": "TALK_BEGIN_MANUAL",
      "activeMode": "PLAY_MODE_SINGLE",
      "beginCond": [
        {
          "type": "QUEST_COND_STATE_EQUAL",
          "param": [
            "1101404",
            "2"
          ],
          "param_str": ""
        }
      ],
      "priority": 5,
      "initDialog": 110140301,
      "npcId": [
        12333
      ],
      "performCfg": "QuestDialogue/AQ/Liyue4_11014/Q1101403",
      "heroTalk": "TALK_HERO_MAIN",
      "questId": 11014,
      "prePerformCfg": ""
    },
    {
      "id": 1101404,
      "beginWay": "TALK_BEGIN_MANUAL",
      "activeMode": "PLAY_MODE_SINGLE",
      "beginCondComb": "LOGIC_A_AND_ETCOR",
      "beginCond": [
        {
          "type": "QUEST_COND_STATE_EQUAL",
          "param": [
            "1101411",
            "2"
          ],
          "param_str": ""
        },
        {
          "type": "QUEST_COND_STATE_EQUAL",
          "param": [
            "1101412",
            "2"
          ],
          "param_str": ""
        },
        {
          "type": "QUEST_COND_STATE_EQUAL",
          "param": [
            "1101413",
            "2"
          ],
          "param_str": ""
        }
      ],
      "priority": 5,
      "initDialog": 110140401,
      "npcId": [
        1046
      ],
      "performCfg": "QuestDialogue/AQ/Liyue4_11014/Q1101404",
      "heroTalk": "TALK_HERO_MAIN",
      "questId": 11014,
      "prePerformCfg": ""
    },
    {
      "id": 1101405,
      "beginWay": "TALK_BEGIN_MANUAL",
      "activeMode": "PLAY_MODE_SINGLE",
      "beginCond": [
        {
          "type": "QUEST_COND_STATE_EQUAL",
          "param": [
            "1101413",
            "2"
          ],
          "param_str": ""
        }
      ],
      "priority": 5,
      "initDialog": 110140501,
      "npcId": [
        1046
      ],
      "performCfg": "QuestDialogue/AQ/Liyue4_11014/Q1101405",
      "heroTalk": "TALK_HERO_MAIN",
      "questId": 11014,
      "prePerformCfg": ""
    },
    {
      "id": 1101406,
      "beginWay": "TALK_BEGIN_MANUAL",
      "activeMode": "PLAY_MODE_SINGLE",
      "beginCond": [
        {
          "type": "QUEST_COND_STATE_EQUAL",
          "param": [
            "1101416",
            "2"
          ],
          "param_str": ""
        }
      ],
      "priority": 5,
      "initDialog": 110140601,
      "npcId": [
        1046
      ],
      "performCfg": "QuestDialogue/AQ/Liyue4_11014/Q1101406",
      "heroTalk": "TALK_HERO_MAIN",
      "questId": 11014,
      "prePerformCfg": ""
    },
    {
      "id": 1101407,
      "beginWay": "TALK_BEGIN_MANUAL",
      "activeMode": "PLAY_MODE_SINGLE",
      "beginCond": [
        {
          "type": "QUEST_COND_STATE_EQUAL",
          "param": [
            "1101406",
            "2"
          ],
          "param_str": ""
        }
      ],
      "priority": 5,
      "initDialog": 110140701,
      "npcId": [
        12333,
        1045
      ],
      "performCfg": "QuestDialogue/AQ/Liyue4_11014/Q1101407",
      "heroTalk": "TALK_HERO_MAIN",
      "questId": 11014,
      "prePerformCfg": ""
    },
    {
      "id": 1101408,
      "beginWay": "TALK_BEGIN_MANUAL",
      "activeMode": "PLAY_MODE_SINGLE",
      "beginCond": [
        {
          "type": "QUEST_COND_STATE_EQUAL",
          "param": [
            "1101410",
            "2"
          ],
          "param_str": ""
        }
      ],
      "priority": 5,
      "initDialog": 110140801,
      "npcId": [
        12441
      ],
      "performCfg": "QuestDialogue/AQ/Liyue4_11014/Q1101408",
      "heroTalk": "TALK_HERO_MAIN",
      "questId": 11014,
      "prePerformCfg": ""
    },
    {
      "id": 1101409,
      "beginWay": "TALK_BEGIN_MANUAL",
      "activeMode": "PLAY_MODE_SINGLE",
      "beginCond": [
        {
          "type": "QUEST_COND_STATE_EQUAL",
          "param": [
            "1101418",
            "2"
          ],
          "param_str": ""
        }
      ],
      "priority": 5,
      "initDialog": 110140901,
      "npcId": [
        1046
      ],
      "performCfg": "QuestDialogue/AQ/Liyue4_11014/Q1101409",
      "heroTalk": "TALK_HERO_MAIN",
      "questId": 11014,
      "prePerformCfg": ""
    },
    {
      "id": 1101410,
      "beginWay": "TALK_BEGIN_MANUAL",
      "activeMode": "PLAY_MODE_SINGLE",
      "beginCondComb": "LOGIC_A_AND_ETCOR",
      "beginCond": [
        {
          "type": "QUEST_COND_STATE_EQUAL",
          "param": [
            "1101411",
            "2"
          ],
          "param_str": ""
        },
        {
          "type": "QUEST_COND_STATE_EQUAL",
          "param": [
            "1101412",
            "3"
          ],
          "param_str": ""
        },
        {
          "type": "QUEST_COND_STATE_EQUAL",
          "param": [
            "1101413",
            "3"
          ],
          "param_str": ""
        }
      ],
      "priority": 5,
      "initDialog": 110141001,
      "npcId": [
        1046
      ],
      "performCfg": "QuestDialogue/AQ/Liyue4_11014/Q1101410",
      "heroTalk": "TALK_HERO_MAIN",
      "questId": 11014,
      "prePerformCfg": ""
    },
    {
      "id": 1101411,
      "beginWay": "TALK_BEGIN_MANUAL",
      "activeMode": "PLAY_MODE_SINGLE",
      "beginCondComb": "LOGIC_OR",
      "beginCond": [
        {
          "type": "QUEST_COND_STATE_EQUAL",
          "param": [
            "1101414",
            "2"
          ],
          "param_str": ""
        },
        {
          "type": "QUEST_COND_STATE_EQUAL",
          "param": [
            "1101415",
            "2"
          ],
          "param_str": ""
        },
        {
          "type": "QUEST_COND_STATE_EQUAL",
          "param": [
            "1101416",
            "2"
          ],
          "param_str": ""
        }
      ],
      "priority": 5,
      "initDialog": 110141101,
      "npcId": [
        1045,
        12333
      ],
      "performCfg": "QuestDialogue/AQ/Liyue4_11014/Q1101411",
      "heroTalk": "TALK_HERO_MAIN",
      "questId": 11014,
      "prePerformCfg": "",
      "lowPriority": true
    },
    {
      "id": 1101412,
      "beginWay": "TALK_BEGIN_MANUAL",
      "activeMode": "PLAY_MODE_SINGLE",
      "beginCondComb": "LOGIC_OR",
      "beginCond": [
        {
          "type": "QUEST_COND_STATE_EQUAL",
          "param": [
            "1101401",
            "2"
          ],
          "param_str": ""
        },
        {
          "type": "QUEST_COND_STATE_EQUAL",
          "param": [
            "1101402",
            "2"
          ],
          "param_str": ""
        },
        {
          "type": "QUEST_COND_STATE_EQUAL",
          "param": [
            "1101417",
            "2"
          ],
          "param_str": ""
        },
        {
          "type": "QUEST_COND_STATE_EQUAL",
          "param": [
            "1101418",
            "2"
          ],
          "param_str": ""
        },
        {
          "type": "QUEST_COND_STATE_EQUAL",
          "param": [
            "1101403",
            "2"
          ],
          "param_str": ""
        }
      ],
      "priority": 5,
      "initDialog": 110141201,
      "npcId": [
        12344
      ],
      "performCfg": "QuestDialogue/AQ/Liyue4_11014/Q1101412",
      "heroTalk": "TALK_HERO_MAIN",
      "questId": 11014,
      "prePerformCfg": "",
      "lowPriority": true
    },
    {
      "id": 1101413,
      "beginWay": "TALK_BEGIN_MANUAL",
      "activeMode": "PLAY_MODE_SINGLE",
      "beginCondComb": "LOGIC_OR",
      "beginCond": [
        {
          "type": "QUEST_COND_STATE_EQUAL",
          "param": [
            "1101404",
            "2"
          ],
          "param_str": ""
        },
        {
          "type": "QUEST_COND_STATE_EQUAL",
          "param": [
            "1101414",
            "2"
          ],
          "param_str": ""
        },
        {
          "type": "QUEST_COND_STATE_EQUAL",
          "param": [
            "1101415",
            "2"
          ],
          "param_str": ""
        },
        {
          "type": "QUEST_COND_STATE_EQUAL",
          "param": [
            "1101416",
            "2"
          ],
          "param_str": ""
        },
        {
          "type": "QUEST_COND_STATE_EQUAL",
          "param": [
            "1101406",
            "2"
          ],
          "param_str": ""
        }
      ],
      "priority": 5,
      "initDialog": 110141201,
      "npcId": [
        12344
      ],
      "performCfg": "QuestDialogue/AQ/Liyue4_11014/Q1101412",
      "heroTalk": "TALK_HERO_MAIN",
      "questId": 11014,
      "prePerformCfg": "",
      "lowPriority": true
    },
    {
      "id": 1101414,
      "beginWay": "TALK_BEGIN_MANUAL",
      "activeMode": "PLAY_MODE_SINGLE",
      "beginCondComb": "LOGIC_OR",
      "beginCond": [
        {
          "type": "QUEST_COND_STATE_EQUAL",
          "param": [
            "1101401",
            "2"
          ],
          "param_str": ""
        },
        {
          "type": "QUEST_COND_STATE_EQUAL",
          "param": [
            "1101402",
            "2"
          ],
          "param_str": ""
        },
        {
          "type": "QUEST_COND_STATE_EQUAL",
          "param": [
            "1101417",
            "2"
          ],
          "param_str": ""
        },
        {
          "type": "QUEST_COND_STATE_EQUAL",
          "param": [
            "1101418",
            "2"
          ],
          "param_str": ""
        },
        {
          "type": "QUEST_COND_STATE_EQUAL",
          "param": [
            "1101403",
            "2"
          ],
          "param_str": ""
        }
      ],
      "priority": 5,
      "initDialog": 110141401,
      "npcId": [
        12345
      ],
      "performCfg": "QuestDialogue/AQ/Liyue4_11014/Q1101414",
      "heroTalk": "TALK_HERO_MAIN",
      "questId": 11014,
      "prePerformCfg": "",
      "lowPriority": true
    },
    {
      "id": 1101415,
      "beginWay": "TALK_BEGIN_MANUAL",
      "activeMode": "PLAY_MODE_SINGLE",
      "beginCondComb": "LOGIC_OR",
      "beginCond": [
        {
          "type": "QUEST_COND_STATE_EQUAL",
          "param": [
            "1101404",
            "2"
          ],
          "param_str": ""
        },
        {
          "type": "QUEST_COND_STATE_EQUAL",
          "param": [
            "1101414",
            "2"
          ],
          "param_str": ""
        },
        {
          "type": "QUEST_COND_STATE_EQUAL",
          "param": [
            "1101415",
            "2"
          ],
          "param_str": ""
        },
        {
          "type": "QUEST_COND_STATE_EQUAL",
          "param": [
            "1101416",
            "2"
          ],
          "param_str": ""
        },
        {
          "type": "QUEST_COND_STATE_EQUAL",
          "param": [
            "1101406",
            "2"
          ],
          "param_str": ""
        }
      ],
      "priority": 5,
      "initDialog": 110141401,
      "npcId": [
        12345
      ],
      "performCfg": "QuestDialogue/AQ/Liyue4_11014/Q1101414",
      "heroTalk": "TALK_HERO_MAIN",
      "questId": 11014,
      "prePerformCfg": "",
      "lowPriority": true
    },
    {
      "id": 1101416,
      "beginWay": "TALK_BEGIN_MANUAL",
      "activeMode": "PLAY_MODE_SINGLE",
      "beginCondComb": "LOGIC_OR",
      "beginCond": [
        {
          "type": "QUEST_COND_STATE_EQUAL",
          "param": [
            "1101401",
            "2"
          ],
          "param_str": ""
        },
        {
          "type": "QUEST_COND_STATE_EQUAL",
          "param": [
            "1101402",
            "2"
          ],
          "param_str": ""
        },
        {
          "type": "QUEST_COND_STATE_EQUAL",
          "param": [
            "1101417",
            "2"
          ],
          "param_str": ""
        },
        {
          "type": "QUEST_COND_STATE_EQUAL",
          "param": [
            "1101418",
            "2"
          ],
          "param_str": ""
        },
        {
          "type": "QUEST_COND_STATE_EQUAL",
          "param": [
            "1101403",
            "2"
          ],
          "param_str": ""
        }
      ],
      "priority": 5,
      "initDialog": 110141601,
      "npcId": [
        12346
      ],
      "performCfg": "QuestDialogue/AQ/Liyue4_11014/Q1101416",
      "heroTalk": "TALK_HERO_MAIN",
      "questId": 11014,
      "prePerformCfg": "",
      "lowPriority": true
    },
    {
      "id": 1101417,
      "beginWay": "TALK_BEGIN_MANUAL",
      "activeMode": "PLAY_MODE_SINGLE",
      "beginCondComb": "LOGIC_OR",
      "beginCond": [
        {
          "type": "QUEST_COND_STATE_EQUAL",
          "param": [
            "1101404",
            "2"
          ],
          "param_str": ""
        },
        {
          "type": "QUEST_COND_STATE_EQUAL",
          "param": [
            "1101414",
            "2"
          ],
          "param_str": ""
        },
        {
          "type": "QUEST_COND_STATE_EQUAL",
          "param": [
            "1101415",
            "2"
          ],
          "param_str": ""
        },
        {
          "type": "QUEST_COND_STATE_EQUAL",
          "param": [
            "1101416",
            "2"
          ],
          "param_str": ""
        },
        {
          "type": "QUEST_COND_STATE_EQUAL",
          "param": [
            "1101406",
            "2"
          ],
          "param_str": ""
        }
      ],
      "priority": 5,
      "initDialog": 110141601,
      "npcId": [
        12346
      ],
      "performCfg": "QuestDialogue/AQ/Liyue4_11014/Q1101416",
      "heroTalk": "TALK_HERO_MAIN",
      "questId": 11014,
      "prePerformCfg": "",
      "lowPriority": true
    },
    {
      "id": 1101418,
      "beginWay": "TALK_BEGIN_MANUAL",
      "activeMode": "PLAY_MODE_SINGLE",
      "beginCondComb": "LOGIC_OR",
      "beginCond": [
        {
          "type": "QUEST_COND_STATE_EQUAL",
          "param": [
            "1101401",
            "2"
          ],
          "param_str": ""
        },
        {
          "type": "QUEST_COND_STATE_EQUAL",
          "param": [
            "1101402",
            "2"
          ],
          "param_str": ""
        },
        {
          "type": "QUEST_COND_STATE_EQUAL",
          "param": [
            "1101417",
            "2"
          ],
          "param_str": ""
        },
        {
          "type": "QUEST_COND_STATE_EQUAL",
          "param": [
            "1101418",
            "2"
          ],
          "param_str": ""
        },
        {
          "type": "QUEST_COND_STATE_EQUAL",
          "param": [
            "1101403",
            "2"
          ],
          "param_str": ""
        }
      ],
      "priority": 5,
      "initDialog": 110141801,
      "npcId": [
        12371
      ],
      "performCfg": "QuestDialogue/AQ/Liyue4_11014/Q1101418",
      "heroTalk": "TALK_HERO_MAIN",
      "questId": 11014,
      "prePerformCfg": "",
      "lowPriority": true
    },
    {
      "id": 1101419,
      "beginWay": "TALK_BEGIN_MANUAL",
      "activeMode": "PLAY_MODE_SINGLE",
      "beginCondComb": "LOGIC_OR",
      "beginCond": [
        {
          "type": "QUEST_COND_STATE_EQUAL",
          "param": [
            "1101404",
            "2"
          ],
          "param_str": ""
        },
        {
          "type": "QUEST_COND_STATE_EQUAL",
          "param": [
            "1101414",
            "2"
          ],
          "param_str": ""
        },
        {
          "type": "QUEST_COND_STATE_EQUAL",
          "param": [
            "1101415",
            "2"
          ],
          "param_str": ""
        },
        {
          "type": "QUEST_COND_STATE_EQUAL",
          "param": [
            "1101416",
            "2"
          ],
          "param_str": ""
        },
        {
          "type": "QUEST_COND_STATE_EQUAL",
          "param": [
            "1101406",
            "2"
          ],
          "param_str": ""
        }
      ],
      "priority": 5,
      "initDialog": 110141801,
      "npcId": [
        12371
      ],
      "performCfg": "QuestDialogue/AQ/Liyue4_11014/Q1101418",
      "heroTalk": "TALK_HERO_MAIN",
      "questId": 11014,
      "prePerformCfg": "",
      "lowPriority": true
    },
    {
      "id": 1101420,
      "beginWay": "TALK_BEGIN_MANUAL",
      "activeMode": "PLAY_MODE_SINGLE",
      "beginCondComb": "LOGIC_OR",
      "beginCond": [
        {
          "type": "QUEST_COND_STATE_EQUAL",
          "param": [
            "1101401",
            "2"
          ],
          "param_str": ""
        },
        {
          "type": "QUEST_COND_STATE_EQUAL",
          "param": [
            "1101402",
            "2"
          ],
          "param_str": ""
        },
        {
          "type": "QUEST_COND_STATE_EQUAL",
          "param": [
            "1101417",
            "2"
          ],
          "param_str": ""
        },
        {
          "type": "QUEST_COND_STATE_EQUAL",
          "param": [
            "1101418",
            "2"
          ],
          "param_str": ""
        },
        {
          "type": "QUEST_COND_STATE_EQUAL",
          "param": [
            "1101403",
            "2"
          ],
          "param_str": ""
        }
      ],
      "priority": 5,
      "initDialog": 110142001,
      "npcId": [
        12372
      ],
      "performCfg": "QuestDialogue/AQ/Liyue4_11014/Q1101420",
      "heroTalk": "TALK_HERO_MAIN",
      "questId": 11014,
      "prePerformCfg": "",
      "lowPriority": true
    },
    {
      "id": 1101421,
      "beginWay": "TALK_BEGIN_MANUAL",
      "activeMode": "PLAY_MODE_SINGLE",
      "beginCondComb": "LOGIC_OR",
      "beginCond": [
        {
          "type": "QUEST_COND_STATE_EQUAL",
          "param": [
            "1101404",
            "2"
          ],
          "param_str": ""
        },
        {
          "type": "QUEST_COND_STATE_EQUAL",
          "param": [
            "1101414",
            "2"
          ],
          "param_str": ""
        },
        {
          "type": "QUEST_COND_STATE_EQUAL",
          "param": [
            "1101415",
            "2"
          ],
          "param_str": ""
        },
        {
          "type": "QUEST_COND_STATE_EQUAL",
          "param": [
            "1101416",
            "2"
          ],
          "param_str": ""
        },
        {
          "type": "QUEST_COND_STATE_EQUAL",
          "param": [
            "1101406",
            "2"
          ],
          "param_str": ""
        }
      ],
      "priority": 5,
      "initDialog": 110142001,
      "npcId": [
        12372
      ],
      "performCfg": "QuestDialogue/AQ/Liyue4_11014/Q1101420",
      "heroTalk": "TALK_HERO_MAIN",
      "questId": 11014,
      "prePerformCfg": "",
      "lowPriority": true
    },
    {
      "id": 1101422,
      "beginWay": "TALK_BEGIN_MANUAL",
      "activeMode": "PLAY_MODE_SINGLE",
      "beginCondComb": "LOGIC_OR",
      "beginCond": [
        {
          "type": "QUEST_COND_STATE_EQUAL",
          "param": [
            "1101401",
            "2"
          ],
          "param_str": ""
        },
        {
          "type": "QUEST_COND_STATE_EQUAL",
          "param": [
            "1101402",
            "2"
          ],
          "param_str": ""
        },
        {
          "type": "QUEST_COND_STATE_EQUAL",
          "param": [
            "1101417",
            "2"
          ],
          "param_str": ""
        },
        {
          "type": "QUEST_COND_STATE_EQUAL",
          "param": [
            "1101418",
            "2"
          ],
          "param_str": ""
        },
        {
          "type": "QUEST_COND_STATE_EQUAL",
          "param": [
            "1101403",
            "2"
          ],
          "param_str": ""
        }
      ],
      "priority": 5,
      "initDialog": 110142201,
      "npcId": [
        12348
      ],
      "performCfg": "QuestDialogue/AQ/Liyue4_11014/Q1101422",
      "heroTalk": "TALK_HERO_MAIN",
      "questId": 11014,
      "prePerformCfg": "",
      "lowPriority": true
    },
    {
      "id": 1101423,
      "beginWay": "TALK_BEGIN_MANUAL",
      "activeMode": "PLAY_MODE_SINGLE",
      "beginCondComb": "LOGIC_OR",
      "beginCond": [
        {
          "type": "QUEST_COND_STATE_EQUAL",
          "param": [
            "1101404",
            "2"
          ],
          "param_str": ""
        },
        {
          "type": "QUEST_COND_STATE_EQUAL",
          "param": [
            "1101414",
            "2"
          ],
          "param_str": ""
        },
        {
          "type": "QUEST_COND_STATE_EQUAL",
          "param": [
            "1101415",
            "2"
          ],
          "param_str": ""
        },
        {
          "type": "QUEST_COND_STATE_EQUAL",
          "param": [
            "1101416",
            "2"
          ],
          "param_str": ""
        },
        {
          "type": "QUEST_COND_STATE_EQUAL",
          "param": [
            "1101406",
            "2"
          ],
          "param_str": ""
        }
      ],
      "priority": 5,
      "initDialog": 110142201,
      "npcId": [
        12348
      ],
      "performCfg": "QuestDialogue/AQ/Liyue4_11014/Q1101422",
      "heroTalk": "TALK_HERO_MAIN",
      "questId": 11014,
      "prePerformCfg": "",
      "lowPriority": true
    },
    {
      "id": 1101424,
      "beginWay": "TALK_BEGIN_MANUAL",
      "activeMode": "PLAY_MODE_SINGLE",
      "beginCondComb": "LOGIC_OR",
      "beginCond": [
        {
          "type": "QUEST_COND_STATE_EQUAL",
          "param": [
            "1101407",
            "2"
          ],
          "param_str": ""
        },
        {
          "type": "QUEST_COND_STATE_EQUAL",
          "param": [
            "1101410",
            "2"
          ],
          "param_str": ""
        },
        {
          "type": "QUEST_COND_STATE_EQUAL",
          "param": [
            "1101422",
            "2"
          ],
          "param_str": ""
        },
        {
          "type": "QUEST_COND_STATE_EQUAL",
          "param": [
            "1101423",
            "2"
          ],
          "param_str": ""
        },
        {
          "type": "QUEST_COND_STATE_EQUAL",
          "param": [
            "1101424",
            "2"
          ],
          "param_str": ""
        }
      ],
      "priority": 5,
      "initDialog": 110142401,
      "npcId": [
        12344
      ],
      "performCfg": "QuestDialogue/AQ/Liyue4_11014/Q1101424",
      "heroTalk": "TALK_HERO_MAIN",
      "questId": 11014,
      "prePerformCfg": "",
      "lowPriority": true
    },
    {
      "id": 1101425,
      "beginWay": "TALK_BEGIN_MANUAL",
      "activeMode": "PLAY_MODE_SINGLE",
      "beginCondComb": "LOGIC_OR",
      "beginCond": [
        {
          "type": "QUEST_COND_STATE_EQUAL",
          "param": [
            "1101407",
            "2"
          ],
          "param_str": ""
        },
        {
          "type": "QUEST_COND_STATE_EQUAL",
          "param": [
            "1101410",
            "2"
          ],
          "param_str": ""
        },
        {
          "type": "QUEST_COND_STATE_EQUAL",
          "param": [
            "1101422",
            "2"
          ],
          "param_str": ""
        },
        {
          "type": "QUEST_COND_STATE_EQUAL",
          "param": [
            "1101423",
            "2"
          ],
          "param_str": ""
        },
        {
          "type": "QUEST_COND_STATE_EQUAL",
          "param": [
            "1101424",
            "2"
          ],
          "param_str": ""
        }
      ],
      "priority": 5,
      "initDialog": 110142501,
      "npcId": [
        12345
      ],
      "performCfg": "QuestDialogue/AQ/Liyue4_11014/Q1101425",
      "heroTalk": "TALK_HERO_MAIN",
      "questId": 11014,
      "prePerformCfg": "",
      "lowPriority": true
    },
    {
      "id": 1101426,
      "beginWay": "TALK_BEGIN_MANUAL",
      "activeMode": "PLAY_MODE_SINGLE",
      "beginCondComb": "LOGIC_OR",
      "beginCond": [
        {
          "type": "QUEST_COND_STATE_EQUAL",
          "param": [
            "1101407",
            "2"
          ],
          "param_str": ""
        },
        {
          "type": "QUEST_COND_STATE_EQUAL",
          "param": [
            "1101410",
            "2"
          ],
          "param_str": ""
        },
        {
          "type": "QUEST_COND_STATE_EQUAL",
          "param": [
            "1101422",
            "2"
          ],
          "param_str": ""
        },
        {
          "type": "QUEST_COND_STATE_EQUAL",
          "param": [
            "1101423",
            "2"
          ],
          "param_str": ""
        },
        {
          "type": "QUEST_COND_STATE_EQUAL",
          "param": [
            "1101424",
            "2"
          ],
          "param_str": ""
        }
      ],
      "priority": 5,
      "initDialog": 110142601,
      "npcId": [
        12346
      ],
      "performCfg": "QuestDialogue/AQ/Liyue4_11014/Q1101426",
      "heroTalk": "TALK_HERO_MAIN",
      "questId": 11014,
      "prePerformCfg": "",
      "lowPriority": true
    },
    {
      "id": 1101427,
      "beginWay": "TALK_BEGIN_MANUAL",
      "activeMode": "PLAY_MODE_SINGLE",
      "beginCondComb": "LOGIC_OR",
      "beginCond": [
        {
          "type": "QUEST_COND_STATE_EQUAL",
          "param": [
            "1101407",
            "2"
          ],
          "param_str": ""
        },
        {
          "type": "QUEST_COND_STATE_EQUAL",
          "param": [
            "1101410",
            "2"
          ],
          "param_str": ""
        },
        {
          "type": "QUEST_COND_STATE_EQUAL",
          "param": [
            "1101422",
            "2"
          ],
          "param_str": ""
        },
        {
          "type": "QUEST_COND_STATE_EQUAL",
          "param": [
            "1101423",
            "2"
          ],
          "param_str": ""
        },
        {
          "type": "QUEST_COND_STATE_EQUAL",
          "param": [
            "1101424",
            "2"
          ],
          "param_str": ""
        }
      ],
      "priority": 5,
      "initDialog": 110142701,
      "npcId": [
        12371
      ],
      "performCfg": "QuestDialogue/AQ/Liyue4_11014/Q1101427",
      "heroTalk": "TALK_HERO_MAIN",
      "questId": 11014,
      "prePerformCfg": "",
      "lowPriority": true
    },
    {
      "id": 1101428,
      "beginWay": "TALK_BEGIN_MANUAL",
      "activeMode": "PLAY_MODE_SINGLE",
      "beginCondComb": "LOGIC_OR",
      "beginCond": [
        {
          "type": "QUEST_COND_STATE_EQUAL",
          "param": [
            "1101407",
            "2"
          ],
          "param_str": ""
        },
        {
          "type": "QUEST_COND_STATE_EQUAL",
          "param": [
            "1101410",
            "2"
          ],
          "param_str": ""
        },
        {
          "type": "QUEST_COND_STATE_EQUAL",
          "param": [
            "1101422",
            "2"
          ],
          "param_str": ""
        },
        {
          "type": "QUEST_COND_STATE_EQUAL",
          "param": [
            "1101423",
            "2"
          ],
          "param_str": ""
        },
        {
          "type": "QUEST_COND_STATE_EQUAL",
          "param": [
            "1101424",
            "2"
          ],
          "param_str": ""
        }
      ],
      "priority": 5,
      "initDialog": 110142801,
      "npcId": [
        12372
      ],
      "performCfg": "QuestDialogue/AQ/Liyue4_11014/Q1101428",
      "heroTalk": "TALK_HERO_MAIN",
      "questId": 11014,
      "prePerformCfg": "",
      "lowPriority": true
    },
    {
      "id": 1101429,
      "beginWay": "TALK_BEGIN_MANUAL",
      "activeMode": "PLAY_MODE_SINGLE",
      "beginCondComb": "LOGIC_OR",
      "beginCond": [
        {
          "type": "QUEST_COND_STATE_EQUAL",
          "param": [
            "1101407",
            "2"
          ],
          "param_str": ""
        },
        {
          "type": "QUEST_COND_STATE_EQUAL",
          "param": [
            "1101410",
            "2"
          ],
          "param_str": ""
        },
        {
          "type": "QUEST_COND_STATE_EQUAL",
          "param": [
            "1101422",
            "2"
          ],
          "param_str": ""
        },
        {
          "type": "QUEST_COND_STATE_EQUAL",
          "param": [
            "1101423",
            "2"
          ],
          "param_str": ""
        },
        {
          "type": "QUEST_COND_STATE_EQUAL",
          "param": [
            "1101424",
            "2"
          ],
          "param_str": ""
        }
      ],
      "priority": 5,
      "initDialog": 110142901,
      "npcId": [
        12348
      ],
      "performCfg": "QuestDialogue/AQ/Liyue4_11014/Q1101429",
      "heroTalk": "TALK_HERO_MAIN",
      "questId": 11014,
      "prePerformCfg": "",
      "lowPriority": true
    },
    {
      "id": 1101430,
      "beginWay": "TALK_BEGIN_MANUAL",
      "activeMode": "PLAY_MODE_SINGLE",
      "beginCondComb": "LOGIC_OR",
      "beginCond": [
        {
          "type": "QUEST_COND_STATE_EQUAL",
          "param": [
            "1101401",
            "2"
          ],
          "param_str": ""
        },
        {
          "type": "QUEST_COND_STATE_EQUAL",
          "param": [
            "1101402",
            "2"
          ],
          "param_str": ""
        },
        {
          "type": "QUEST_COND_STATE_EQUAL",
          "param": [
            "1101417",
            "2"
          ],
          "param_str": ""
        },
        {
          "type": "QUEST_COND_STATE_EQUAL",
          "param": [
            "1101418",
            "2"
          ],
          "param_str": ""
        },
        {
          "type": "QUEST_COND_STATE_EQUAL",
          "param": [
            "1101403",
            "2"
          ],
          "param_str": ""
        }
      ],
      "priority": 5,
      "initDialog": 110143001,
      "npcId": [
        10233
      ],
      "performCfg": "QuestDialogue/AQ/Liyue4_11014/Q1101430",
      "heroTalk": "TALK_HERO_MAIN",
      "questId": 11014,
      "prePerformCfg": "",
      "lowPriority": true
    },
    {
      "id": 1101431,
      "beginWay": "TALK_BEGIN_MANUAL",
      "activeMode": "PLAY_MODE_SINGLE",
      "beginCondComb": "LOGIC_OR",
      "beginCond": [
        {
          "type": "QUEST_COND_STATE_EQUAL",
          "param": [
            "1101404",
            "2"
          ],
          "param_str": ""
        },
        {
          "type": "QUEST_COND_STATE_EQUAL",
          "param": [
            "1101414",
            "2"
          ],
          "param_str": ""
        },
        {
          "type": "QUEST_COND_STATE_EQUAL",
          "param": [
            "1101415",
            "2"
          ],
          "param_str": ""
        },
        {
          "type": "QUEST_COND_STATE_EQUAL",
          "param": [
            "1101416",
            "2"
          ],
          "param_str": ""
        },
        {
          "type": "QUEST_COND_STATE_EQUAL",
          "param": [
            "1101406",
            "2"
          ],
          "param_str": ""
        }
      ],
      "priority": 5,
      "initDialog": 110143001,
      "npcId": [
        10233
      ],
      "performCfg": "QuestDialogue/AQ/Liyue4_11014/Q1101430",
      "heroTalk": "TALK_HERO_MAIN",
      "questId": 11014,
      "prePerformCfg": "",
      "lowPriority": true
    },
    {
      "id": 1101432,
      "beginWay": "TALK_BEGIN_MANUAL",
      "activeMode": "PLAY_MODE_SINGLE",
      "beginCondComb": "LOGIC_OR",
      "beginCond": [
        {
          "type": "QUEST_COND_STATE_EQUAL",
          "param": [
            "1101407",
            "2"
          ],
          "param_str": ""
        },
        {
          "type": "QUEST_COND_STATE_EQUAL",
          "param": [
            "1101410",
            "2"
          ],
          "param_str": ""
        },
        {
          "type": "QUEST_COND_STATE_EQUAL",
          "param": [
            "1101422",
            "2"
          ],
          "param_str": ""
        },
        {
          "type": "QUEST_COND_STATE_EQUAL",
          "param": [
            "1101423",
            "2"
          ],
          "param_str": ""
        },
        {
          "type": "QUEST_COND_STATE_EQUAL",
          "param": [
            "1101424",
            "2"
          ],
          "param_str": ""
        }
      ],
      "priority": 5,
      "initDialog": 110143001,
      "npcId": [
        10233
      ],
      "performCfg": "QuestDialogue/AQ/Liyue4_11014/Q1101430",
      "heroTalk": "TALK_HERO_MAIN",
      "questId": 11014,
      "prePerformCfg": "",
      "lowPriority": true
    },
    {
      "id": 1101433,
      "beginWay": "TALK_BEGIN_MANUAL",
      "activeMode": "PLAY_MODE_SINGLE",
      "beginCondComb": "LOGIC_OR",
      "beginCond": [
        {
          "type": "QUEST_COND_STATE_EQUAL",
          "param": [
            "1101407",
            "2"
          ],
          "param_str": ""
        },
        {
          "type": "QUEST_COND_STATE_EQUAL",
          "param": [
            "1101410",
            "2"
          ],
          "param_str": ""
        },
        {
          "type": "QUEST_COND_STATE_EQUAL",
          "param": [
            "1101422",
            "2"
          ],
          "param_str": ""
        },
        {
          "type": "QUEST_COND_STATE_EQUAL",
          "param": [
            "1101423",
            "2"
          ],
          "param_str": ""
        },
        {
          "type": "QUEST_COND_STATE_EQUAL",
          "param": [
            "1101424",
            "2"
          ],
          "param_str": ""
        }
      ],
      "priority": 5,
      "initDialog": 110143301,
      "npcId": [
        10204
      ],
      "performCfg": "QuestDialogue/AQ/Liyue4_11014/Q1101433",
      "heroTalk": "TALK_HERO_MAIN",
      "questId": 11014,
      "prePerformCfg": "",
      "questIdleTalk": true,
      "lowPriority": true
    },
    {
      "id": 1101434,
      "beginWay": "TALK_BEGIN_MANUAL",
      "activeMode": "PLAY_MODE_SINGLE",
      "beginCondComb": "LOGIC_OR",
      "beginCond": [
        {
          "type": "QUEST_COND_STATE_EQUAL",
          "param": [
            "1101401",
            "2"
          ],
          "param_str": ""
        },
        {
          "type": "QUEST_COND_STATE_EQUAL",
          "param": [
            "1101402",
            "2"
          ],
          "param_str": ""
        },
        {
          "type": "QUEST_COND_STATE_EQUAL",
          "param": [
            "1101417",
            "2"
          ],
          "param_str": ""
        },
        {
          "type": "QUEST_COND_STATE_EQUAL",
          "param": [
            "1101418",
            "2"
          ],
          "param_str": ""
        },
        {
          "type": "QUEST_COND_STATE_EQUAL",
          "param": [
            "1101403",
            "2"
          ],
          "param_str": ""
        }
      ],
      "priority": 5,
      "initDialog": 110133001,
      "npcId": [
        1016
      ],
      "performCfg": "QuestDialogue/AQ/Liyue4_11013/Q1101330",
      "heroTalk": "TALK_HERO_MAIN",
      "questId": 11014,
      "prePerformCfg": "",
      "lowPriority": true
    },
    {
      "id": 1101435,
      "beginWay": "TALK_BEGIN_MANUAL",
      "activeMode": "PLAY_MODE_SINGLE",
      "beginCondComb": "LOGIC_OR",
      "beginCond": [
        {
          "type": "QUEST_COND_STATE_EQUAL",
          "param": [
            "1101404",
            "2"
          ],
          "param_str": ""
        },
        {
          "type": "QUEST_COND_STATE_EQUAL",
          "param": [
            "1101414",
            "2"
          ],
          "param_str": ""
        },
        {
          "type": "QUEST_COND_STATE_EQUAL",
          "param": [
            "1101415",
            "2"
          ],
          "param_str": ""
        },
        {
          "type": "QUEST_COND_STATE_EQUAL",
          "param": [
            "1101416",
            "2"
          ],
          "param_str": ""
        },
        {
          "type": "QUEST_COND_STATE_EQUAL",
          "param": [
            "1101406",
            "2"
          ],
          "param_str": ""
        }
      ],
      "priority": 5,
      "initDialog": 110133001,
      "npcId": [
        1016
      ],
      "performCfg": "QuestDialogue/AQ/Liyue4_11013/Q1101330",
      "heroTalk": "TALK_HERO_MAIN",
      "questId": 11014,
      "prePerformCfg": "",
      "lowPriority": true
    },
    {
      "id": 1101436,
      "beginWay": "TALK_BEGIN_MANUAL",
      "activeMode": "PLAY_MODE_SINGLE",
      "beginCondComb": "LOGIC_OR",
      "beginCond": [
        {
          "type": "QUEST_COND_STATE_EQUAL",
          "param": [
            "1101407",
            "2"
          ],
          "param_str": ""
        },
        {
          "type": "QUEST_COND_STATE_EQUAL",
          "param": [
            "1101410",
            "2"
          ],
          "param_str": ""
        },
        {
          "type": "QUEST_COND_STATE_EQUAL",
          "param": [
            "1101422",
            "2"
          ],
          "param_str": ""
        },
        {
          "type": "QUEST_COND_STATE_EQUAL",
          "param": [
            "1101423",
            "2"
          ],
          "param_str": ""
        },
        {
          "type": "QUEST_COND_STATE_EQUAL",
          "param": [
            "1101424",
            "2"
          ],
          "param_str": ""
        }
      ],
      "priority": 5,
      "initDialog": 110133001,
      "npcId": [
        1016
      ],
      "performCfg": "QuestDialogue/AQ/Liyue4_11013/Q1101330",
      "heroTalk": "TALK_HERO_MAIN",
      "questId": 11014,
      "prePerformCfg": "",
      "lowPriority": true
    },
    {
      "id": 1101437,
      "beginWay": "TALK_BEGIN_MANUAL",
      "activeMode": "PLAY_MODE_SINGLE",
      "beginCond": [
        {
          "type": "QUEST_COND_STATE_EQUAL",
          "param": [
            "1101424",
            "2"
          ],
          "param_str": ""
        }
      ],
      "priority": 5,
      "initDialog": 110143701,
      "npcId": [
        1005
      ],
      "performCfg": "QuestDialogue/AQ/Liyue4_11014/Q1101437",
      "heroTalk": "TALK_HERO_MAIN",
      "questId": 11014,
      "prePerformCfg": "",
      "lockGameTime": true
    },
    {
      "id": 1101438,
      "beginWay": "TALK_BEGIN_MANUAL",
      "activeMode": "PLAY_MODE_SINGLE",
      "beginCondComb": "LOGIC_A_AND_ETCOR",
      "beginCond": [
        {
          "type": "QUEST_COND_STATE_EQUAL",
          "param": [
            "1101401",
            "2"
          ],
          "param_str": ""
        },
        {
          "type": "QUEST_COND_STATE_EQUAL",
          "param": [
            "200004"
          ],
          "param_str": ""
        },
        {
          "type": "QUEST_COND_STATE_EQUAL",
          "param": [
            "200004",
            "1"
          ],
          "param_str": ""
        },
        {
          "type": "QUEST_COND_STATE_EQUAL",
          "param": [
            "200004",
            "2"
          ],
          "param_str": ""
        }
      ],
      "priority": 5,
      "initDialog": 110143801,
      "npcId": [
        2143,
        1031
      ],
      "performCfg": "QuestDialogue/AQ/Liyue4_11014/Q1101438",
      "heroTalk": "TALK_HERO_MAIN",
      "questId": 11014,
      "prePerformCfg": ""
    }
  ]
}