{
  "id": 11029,
  "type": "LQ",
  "series": 2037,
  "titleTextMapHash": 117975431,
  "descTextMapHash": 615062974,
  "luaPath": "Actor/Quest/LQ11029",
  "rewardIdList": [
    111029
  ],
  "chapterId": 2037,
  "subQuests": [
    {
      "mainId": 11029,
      "subId": 1102901,
      "order": 2,
      "descTextMapHash": 3082428148,
      "acceptCond": [
        {
          "type": "QUEST_COND_UNKNOWN",
          "param": [
            0,
            0
          ]
        }
      ],
      "finishCond": [],
      "failCond": [],
      "guide": {
        "type": "QUEST_GUIDE_NPC",
        "param": [
          "13136",
          "0"
        ],
        "guideScene": 3,
        "guideStyle": "QUEST_GUIDE_STYLE_TARGET",
        "guideLayer": "QUEST_GUIDE_LAYER_SCENE"
      },
      "finishExec": [],
      "failExec": [],
      "beginExec": []
    },
    {
      "mainId": 11029,
      "subId": 1102902,
      "order": 3,
      "descTextMapHash": 1371400684,
      "acceptCond": [
        {
          "type": "QUEST_COND_UNKNOWN",
          "param": [
            0,
            0
          ]
        }
      ],
      "finishCond": [],
      "failCond": [],
      "guide": {
        "type": "QUEST_GUIDE_NPC",
        "param": [
          "13136"
        ],
        "guideScene": 3,
        "guideStyle": "QUEST_GUIDE_STYLE_TARGET",
        "guideLayer": "QUEST_GUIDE_LAYER_SCENE"
      },
      "finishExec": [],
      "failExec": [],
      "beginExec": []
    },
    {
      "mainId": 11029,
      "subId": 1102903,
      "order": 5,
      "descTextMapHash": 2790133444,
      "acceptCond": [
        {
          "type": "QUEST_COND_UNKNOWN",
          "param": [
            0,
            0
          ]
        }
      ],
      "finishCond": [],
      "failCond": [],
      "guide": {
        "param": [
          "30"
        ],
        "guideScene": 20182
      },
      "finishExec": [],
      "failExec": [],
      "beginExec": []
    },
    {
      "mainId": 11029,
      "subId": 1102904,
      "order": 9,
      "descTextMapHash": 1935555148,
      "acceptCond": [
        {
          "type": "QUEST_COND_UNKNOWN",
          "param": [
            0,
            0
          ]
        }
      ],
      "finishCond": [],
      "failCond": [],
      "guide": {
        "type": "QUEST_GUIDE_NPC",
        "param": [
          "10234"
        ],
        "guideScene": 20182,
        "guideStyle": "QUEST_GUIDE_STYLE_TARGET",
        "guideLayer": "QUEST_GUIDE_LAYER_SCENE"
      },
      "finishExec": [],
      "failExec": [],
      "beginExec": []
    },
    {
      "mainId": 11029,
      "subId": 1102905,
      "order": 11,
      "descTextMapHash": 2890648316,
      "acceptCond": [
        {
          "type": "QUEST_COND_UNKNOWN",
          "param": [
            0,
            0
          ]
        }
      ],
      "finishCond": [],
      "failCond": [],
      "guide": {
        "type": "QUEST_GUIDE_LOCATION",
        "param": [
          "Q1102905_T1102905_N1068",
          "0"
        ],
        "guideScene": 1082,
        "guideStyle": "QUEST_GUIDE_STYLE_POINT",
        "guideLayer": "QUEST_GUIDE_LAYER_SCENE"
      },
      "finishExec": [],
      "failExec": [],
      "beginExec": []
    },
    {
      "mainId": 11029,
      "subId": 1102906,
      "order": 13,
      "descTextMapHash": 348790196,
      "acceptCond": [
        {
          "type": "QUEST_COND_UNKNOWN",
          "param": [
            0,
            0
          ]
        }
      ],
      "finishCond": [],
      "failCond": [],
      "guide": {
        "type": "QUEST_GUIDE_NPC",
        "param": [
          "13137"
        ],
        "guideScene": 3,
        "guideStyle": "QUEST_GUIDE_STYLE_TARGET",
        "guideLayer": "QUEST_GUIDE_LAYER_SCENE"
      },
      "finishExec": [],
      "failExec": [],
      "beginExec": []
    },
    {
      "mainId": 11029,
      "subId": 1102907,
      "order": 14,
      "descTextMapHash": 778660868,
      "acceptCond": [
        {
          "type": "QUEST_COND_UNKNOWN",
          "param": [
            0,
            0
          ]
        }
      ],
      "finishCond": [],
      "failCond": [],
      "guide": {
        "type": "QUEST_GUIDE_NPC",
        "param": [
          "13137"
        ],
        "guideScene": 3,
        "guideStyle": "QUEST_GUIDE_STYLE_TARGET",
        "guideLayer": "QUEST_GUIDE_LAYER_SCENE"
      },
      "finishExec": [],
      "failExec": [],
      "beginExec": []
    },
    {
      "mainId": 11029,
      "subId": 1102908,
      "order": 1,
      "descTextMapHash": 2305467260,
      "acceptCond": [
        {
          "type": "QUEST_COND_UNKNOWN",
          "param": [
            0,
            0
          ]
        }
      ],
      "finishCond": [],
      "failCond": [],
      "guide": {
        "type": "QUEST_GUIDE_LOCATION",
        "param": [
          "guide_Q1102908",
          "0"
        ],
        "guideScene": 3,
        "guideStyle": "QUEST_GUIDE_STYLE_POINT",
        "guideLayer": "QUEST_GUIDE_LAYER_SCENE"
      },
      "finishExec": [],
      "failExec": [],
      "beginExec": []
    },
    {
      "mainId": 11029,
      "subId": 1102909,
      "order": 6,
      "descTextMapHash": 2487807540,
      "acceptCond": [
        {
          "type": "QUEST_COND_UNKNOWN",
          "param": [
            0,
            0
          ]
        }
      ],
      "finishCond": [],
      "failCond": [],
      "guide": {
        "guideScene": 20182
      },
      "finishExec": [],
      "failExec": [],
      "beginExec": []
    },
    {
      "mainId": 11029,
      "subId": 1102910,
      "order": 7,
      "descTextMapHash": 745951772,
      "acceptCond": [
        {
          "type": "QUEST_COND_UNKNOWN",
          "param": [
            0,
            0
          ]
        }
      ],
      "finishCond": [],
      "failCond": [],
      "guide": {
        "guideScene": 20182
      },
      "finishExec": [],
      "failExec": [],
      "beginExec": []
    },
    {
      "mainId": 11029,
      "subId": 1102911,
      "order": 8,
      "descTextMapHash": 358242948,
      "acceptCond": [
        {
          "type": "QUEST_COND_UNKNOWN",
          "param": [
            0,
            0
          ]
        }
      ],
      "finishCond": [],
      "failCond": [],
      "guide": {
        "guideScene": 20182
      },
      "finishExec": [],
      "failExec": [],
      "beginExec": []
    },
    {
      "mainId": 11029,
      "subId": 1102912,
      "order": 4,
      "descTextMapHash": 3289415876,
      "acceptCond": [
        {
          "type": "QUEST_COND_UNKNOWN",
          "param": [
            0,
            0
          ]
        }
      ],
      "finishCond": [],
      "failCond": [],
      "guide": {
        "type": "QUEST_GUIDE_LOCATION",
        "param": [
          "[3_3987:1681.447,209.777,867.260,0.000,125.524,0.000]"
        ],
        "guideScene": 3,
        "guideStyle": "QUEST_GUIDE_STYLE_POINT",
        "guideLayer": "QUEST_GUIDE_LAYER_SCENE"
      },
      "finishExec": [],
      "failExec": [],
      "beginExec": []
    },
    {
      "mainId": 11029,
      "subId": 1102913,
      "order": 12,
      "descTextMapHash": 3538007372,
      "acceptCond": [
        {
          "type": "QUEST_COND_UNKNOWN",
          "param": [
            0,
            0
          ]
        }
      ],
      "finishCond": [],
      "failCond": [],
      "guide": {
        "type": "QUEST_GUIDE_NPC",
        "param": [
          "13137"
        ],
        "guideScene": 3
      },
      "finishExec": [],
      "failExec": [],
      "beginExec": []
    },
    {
      "mainId": 11029,
      "subId": 1102914,
      "order": 10,
      "showType": "QUEST_HIDDEN",
      "descTextMapHash": 3309642068,
      "acceptCond": [
        {
          "type": "QUEST_COND_UNKNOWN",
          "param": [
            0,
            0
          ]
        }
      ],
      "finishCond": [],
      "failCond": [],
      "guide": {},
      "finishExec": [],
      "failExec": [],
      "beginExec": []
    }
  ],
  "talks": [
    {
      "id": 1102902,
      "beginWay": "TALK_BEGIN_MANUAL",
      "activeMode": "PLAY_MODE_SINGLE",
      "beginCond": [
        {
          "type": "QUEST_COND_STATE_EQUAL",
          "param": [
            "1102902",
            "2"
          ],
          "param_str": ""
        }
      ],
      "priority": 5,
      "initDialog": 110290201,
      "npcId": [
        13136
      ],
      "performCfg": "QuestDialogue/LQ/Baizhu_11029/Q1102902",
      "heroTalk": "TALK_HERO_MAIN",
      "questId": 11029,
      "prePerformCfg": "",
      "lockGameTime": true
    },
    {
      "id": 1102903,
      "beginWay": "TALK_BEGIN_MANUAL",
      "activeMode": "PLAY_MODE_SINGLE",
      "beginCond": [
        {
          "type": "QUEST_COND_STATE_EQUAL",
          "param": [
            "1102903",
            "2"
          ],
          "param_str": ""
        }
      ],
      "priority": 5,
      "initDialog": 110290301,
      "npcId": [
        1068
      ],
      "performCfg": "QuestDialogue/LQ/Baizhu_11029/Q1102903",
      "heroTalk": "TALK_HERO_MAIN",
      "questId": 11029,
      "prePerformCfg": "",
      "lockGameTime": true
    },
    {
      "id": 1102904,
      "beginWay": "TALK_BEGIN_MANUAL",
      "activeMode": "PLAY_MODE_SINGLE",
      "beginCond": [
        {
          "type": "QUEST_COND_STATE_EQUAL",
          "param": [
            "1102904",
            "2"
          ],
          "param_str": ""
        }
      ],
      "priority": 5,
      "initDialog": 110290401,
      "npcId": [
        13136,
        1068,
        13137,
        13135
      ],
      "performCfg": "QuestDialogue/LQ/Baizhu_11029/Q1102904",
      "heroTalk": "TALK_HERO_MAIN",
      "questId": 11029,
      "prePerformCfg": "",
      "lockGameTime": true
    },
    {
      "id": 1102905,
      "beginWay": "TALK_BEGIN_MANUAL",
      "activeMode": "PLAY_MODE_SINGLE",
      "beginCond": [
        {
          "type": "QUEST_COND_STATE_EQUAL",
          "param": [
            "1102905",
            "2"
          ],
          "param_str": ""
        }
      ],
      "priority": 5,
      "initDialog": 110290501,
      "npcId": [
        13137,
        13135,
        13260,
        1068,
        1021,
        10233
      ],
      "performCfg": "QuestDialogue/LQ/Baizhu_11029/Q1102905",
      "heroTalk": "TALK_HERO_MAIN",
      "questId": 11029,
      "prePerformCfg": "",
      "lockGameTime": true
    },
    {
      "id": 1102907,
      "beginWay": "TALK_BEGIN_MANUAL",
      "activeMode": "PLAY_MODE_SINGLE",
      "beginCond": [
        {
          "type": "QUEST_COND_STATE_EQUAL",
          "param": [
            "1102907",
            "2"
          ],
          "param_str": ""
        }
      ],
      "priority": 5,
      "initDialog": 110290701,
      "npcId": [
        13137,
        1068,
        13135,
        10233
      ],
      "performCfg": "QuestDialogue/LQ/Baizhu_11029/Q1102907",
      "heroTalk": "TALK_HERO_MAIN",
      "questId": 11029,
      "prePerformCfg": "",
      "lockGameTime": true
    },
    {
      "id": 1102908,
      "beginWay": "TALK_BEGIN_MANUAL",
      "activeMode": "PLAY_MODE_SINGLE",
      "beginCond": [
        {
          "type": "QUEST_COND_STATE_EQUAL",
          "param": [
            "1102908",
            "2"
          ],
          "param_str": ""
        }
      ],
      "priority": 5,
      "initDialog": 110290801,
      "npcId": [
        1068,
        13136
      ],
      "performCfg": "QuestDialogue/LQ/Baizhu_11029/Q1102908",
      "heroTalk": "TALK_HERO_MAIN",
      "questId": 11029,
      "prePerformCfg": "",
      "lockGameTime": true
    },
    {
      "id": 1102910,
      "beginWay": "TALK_BEGIN_MANUAL",
      "activeMode": "PLAY_MODE_SINGLE",
      "beginCond": [
        {
          "type": "QUEST_COND_STATE_EQUAL",
          "param": [
            "1102910",
            "2"
          ],
          "param_str": ""
        }
      ],
      "priority": 5,
      "initDialog": 110291001,
      "npcId": [
        1068,
        13136
      ],
      "performCfg": "QuestDialogue/LQ/Baizhu_11029/Q1102910",
      "heroTalk": "TALK_HERO_MAIN",
      "questId": 11029,
      "prePerformCfg": "",
      "lockGameTime": true
    },
    {
      "id": 1102911,
      "beginWay": "TALK_BEGIN_MANUAL",
      "activeMode": "PLAY_MODE_SINGLE",
      "beginCond": [
        {
          "type": "QUEST_COND_STATE_EQUAL",
          "param": [
            "1102908",
            "2"
          ],
          "param_str": ""
        }
      ],
      "priority": 4,
      "initDialog": 110291101,
      "npcId": [
        10233
      ],
      "performCfg": "QuestDialogue/LQ/Baizhu_11029/Q1102911",
      "heroTalk": "TALK_HERO_MAIN",
      "questId": 11029,
      "prePerformCfg": "",
      "lowPriority": true
    },
    {
      "id": 1102912,
      "beginWay": "TALK_BEGIN_MANUAL",
      "activeMode": "PLAY_MODE_SINGLE",
      "beginCondComb": "LOGIC_OR",
      "beginCond": [
        {
          "type": "QUEST_COND_STATE_EQUAL",
          "param": [
            "1102901",
            "2"
          ],
          "param_str": ""
        },
        {
          "type": "QUEST_COND_STATE_EQUAL",
          "param": [
            "1102902",
            "2"
          ],
          "param_str": ""
        },
        {
          "type": "QUEST_COND_STATE_EQUAL",
          "param": [
            "1102912",
            "2"
          ],
          "param_str": ""
        }
      ],
      "priority": 4,
      "initDialog": 110291201,
      "npcId": [
        10204
      ],
      "performCfg": "QuestDialogue/LQ/Baizhu_11029/Q1102912",
      "heroTalk": "TALK_HERO_MAIN",
      "questId": 11029,
      "prePerformCfg": "",
      "lowPriority": true
    },
    {
      "id": 1102913,
      "beginWay": "TALK_BEGIN_MANUAL",
      "activeMode": "PLAY_MODE_SINGLE",
      "beginCond": [
        {
          "type": "QUEST_COND_STATE_EQUAL",
          "param": [
            "1102913",
            "2"
          ],
          "param_str": ""
        }
      ],
      "priority": 4,
      "initDialog": 110291301,
      "npcId": [
        10233,
        13260
      ],
      "performCfg": "QuestDialogue/LQ/Baizhu_11029/Q1102913",
      "questId": 11029,
      "prePerformCfg": "",
      "lowPriority": true
    },
    {
      "id": 1102915,
      "beginWay": "TALK_BEGIN_MANUAL",
      "activeMode": "PLAY_MODE_SINGLE",
      "beginCondComb": "LOGIC_OR",
      "beginCond": [
        {
          "type": "QUEST_COND_STATE_EQUAL",
          "param": [
            "1102906",
            "2"
          ],
          "param_str": ""
        },
        {
          "type": "QUEST_COND_STATE_EQUAL",
          "param": [
            "1102907",
            "2"
          ],
          "param_str": ""
        }
      ],
      "initDialog": 110291501,
      "npcId": [
        13175
      ],
      "performCfg": "",
      "questId": 11029,
      "prePerformCfg": ""
    }
  ],
  "videoKey": 8878640560529176
}