{
  "id": 11045,
  "type": "LQ",
  "series": 2017,
  "titleTextMapHash": 1999819415,
  "descTextMapHash": 1679458902,
  "luaPath": "Actor/Quest/LQ11045",
  "rewardIdList": [
    111045
  ],
  "chapterId": 2017,
  "subQuests": [
    {
      "subId": 1104501,
      "mainId": 11045,
      "order": 1,
      "descTextMapHash": 347916044,
      "acceptCond": [
        {
          "type": "QUEST_COND_STATE_EQUAL",
          "param": [
            1104303,
            3,
            0,
            0,
            0
          ],
          "param_str": ""
        }
      ],
      "finishCond": [
        {
          "type": "QUEST_CONTENT_COMPLETE_TALK",
          "param": [
            1104501,
            0
          ],
          "param_str": ""
        }
      ],
      "failCond": [],
      "guide": {
        "type": "QUEST_GUIDE_LOCATION",
        "param": [
          "Q11045Mark1"
        ],
        "guideScene": 3,
        "guideStyle": "QUEST_GUIDE_STYLE_POINT"
      },
      "isRewind": true,
      "finishExec": [
        {
          "type": "QUEST_EXEC_UNREGISTER_DYNAMIC_GROUP",
          "param": [
            "133002936"
          ],
          "param_str": ""
        }
      ],
      "failExec": [],
      "beginExec": [
        {
          "type": "QUEST_EXEC_REFRESH_GROUP_SUITE",
          "param": [
            "3",
            "133105304,2"
          ],
          "param_str": ""
        },
        {
          "type": "QUEST_EXEC_REGISTER_DYNAMIC_GROUP",
          "param": [
            "3",
            "133105305"
          ],
          "param_str": ""
        }
      ],
      "exclusiveNpcList": [
        1018,
        158701
      ],
      "exclusiveNpcPriority": 1010
    },
    {
      "subId": 1104502,
      "mainId": 11045,
      "order": 2,
      "subIdSet": 1,
      "descTextMapHash": 3325682268,
      "acceptCond": [
        {
          "type": "QUEST_COND_STATE_EQUAL",
          "param": [
            1104501,
            3,
            0,
            0,
            0
          ],
          "param_str": ""
        }
      ],
      "finishCond": [
        {
          "type": "QUEST_CONTENT_LUA_NOTIFY",
          "param": [
            0,
            0
          ],
          "param_str": "1331059041",
          "count": 1
        }
      ],
      "failCond": [],
      "guide": {
        "type": "QUEST_GUIDE_LOCATION",
        "param": [
          "Q11045Gad1",
          "30"
        ],
        "guideScene": 3,
        "guideStyle": "QUEST_GUIDE_STYLE_POINT"
      },
      "isRewind": true,
      "finishExec": [
        {
          "type": "QUEST_EXEC_ADD_QUEST_PROGRESS",
          "param": [
            "1104511",
            "1"
          ],
          "param_str": ""
        },
        {
          "type": "QUEST_EXEC_NOTIFY_GROUP_LUA",
          "param": [
            "3",
            "133105904"
          ],
          "param_str": ""
        }
      ],
      "failExec": [],
      "beginExec": [
        {
          "type": "QUEST_EXEC_REGISTER_DYNAMIC_GROUP",
          "param": [
            "3",
            "133105305"
          ],
          "param_str": ""
        }
      ],
      "exclusiveNpcList": [
        1018,
        158701
      ],
      "exclusiveNpcPriority": 1010
    },
    {
      "subId": 1104503,
      "mainId": 11045,
      "order": 9,
      "descTextMapHash": 4260031620,
      "showType": "QUEST_HIDDEN",
      "acceptCond": [
        {
          "type": "QUEST_COND_STATE_EQUAL",
          "param": [
            1104507,
            3,
            0,
            0,
            0
          ],
          "param_str": ""
        }
      ],
      "finishCond": [
        {
          "type": "QUEST_CONTENT_GAME_TIME_TICK",
          "param": [
            0,
            0
          ],
          "param_str": "0,24"
        }
      ],
      "failCond": [],
      "guide": {
        "type": "QUEST_GUIDE_LOCATION",
        "param": [
          "Q11045Gad1",
          "30"
        ],
        "guideScene": 3,
        "guideStyle": "QUEST_GUIDE_STYLE_POINT"
      },
      "isRewind": true,
      "finishExec": [
        {
          "type": "QUEST_EXEC_NOTIFY_GROUP_LUA",
          "param": [
            "3",
            "133008442"
          ],
          "param_str": ""
        }
      ],
      "failExec": [],
      "beginExec": [
        {
          "type": "QUEST_EXEC_REGISTER_DYNAMIC_GROUP",
          "param": [
            "3",
            "133105305"
          ],
          "param_str": ""
        }
      ],
      "exclusiveNpcList": [
        1018,
        158701
      ],
      "exclusiveNpcPriority": 1010
    },
    {
      "subId": 1104504,
      "mainId": 11045,
      "order": 10,
      "descTextMapHash": 3979124012,
      "acceptCond": [
        {
          "type": "QUEST_COND_STATE_EQUAL",
          "param": [
            1104503,
            3,
            0,
            0,
            0
          ],
          "param_str": ""
        }
      ],
      "finishCond": [
        {
          "type": "QUEST_CONTENT_COMPLETE_TALK",
          "param": [
            1104504,
            0
          ],
          "param_str": ""
        }
      ],
      "failCond": [],
      "guide": {
        "type": "QUEST_GUIDE_LOCATION",
        "param": [
          "Q11045Albedo2"
        ],
        "guideScene": 3,
        "guideStyle": "QUEST_GUIDE_STYLE_POINT"
      },
      "isRewind": true,
      "finishExec": [
        {
          "type": "QUEST_EXEC_NOTIFY_GROUP_LUA",
          "param": [
            "3",
            "133002929"
          ],
          "param_str": ""
        },
        {
          "type": "QUEST_EXEC_DEL_ALL_SPECIFIC_PACK_ITEM",
          "param": [
            "100716,100717,100718,100719,100720"
          ],
          "param_str": ""
        }
      ],
      "failExec": [],
      "beginExec": [
        {
          "type": "QUEST_EXEC_REGISTER_DYNAMIC_GROUP",
          "param": [
            "3",
            "133105305"
          ],
          "param_str": ""
        }
      ],
      "exclusiveNpcList": [
        1018,
        158701
      ],
      "exclusiveNpcPriority": 1010
    },
    {
      "subId": 1104505,
      "mainId": 11045,
      "order": 11,
      "isMpBlock": true,
      "descTextMapHash": 3677720004,
      "acceptCond": [
        {
          "type": "QUEST_COND_STATE_EQUAL",
          "param": [
            1104504,
            3,
            0,
            0,
            0
          ],
          "param_str": ""
        }
      ],
      "finishCond": [
        {
          "type": "QUEST_CONTENT_COMPLETE_TALK",
          "param": [
            1104505,
            0
          ],
          "param_str": ""
        }
      ],
      "failCond": [],
      "guide": {
        "type": "QUEST_GUIDE_NPC",
        "param": [
          "1018"
        ],
        "guideScene": 3,
        "guideStyle": "QUEST_GUIDE_STYLE_TARGET"
      },
      "finishParent": true,
      "isRewind": true,
      "finishExec": [
        {
          "type": "QUEST_EXEC_UNREGISTER_DYNAMIC_GROUP",
          "param": [
            "133105305"
          ],
          "param_str": ""
        },
        {
          "type": "QUEST_EXEC_REFRESH_GROUP_SUITE",
          "param": [
            "3",
            "133002939,1;133105304,1"
          ],
          "param_str": ""
        }
      ],
      "failExec": [],
      "beginExec": [
        {
          "type": "QUEST_EXEC_REFRESH_GROUP_SUITE",
          "param": [
            "3",
            "133002939,1"
          ],
          "param_str": ""
        },
        {
          "type": "QUEST_EXEC_UNREGISTER_DYNAMIC_GROUP",
          "param": [
            "133002940"
          ],
          "param_str": ""
        }
      ],
      "exclusiveNpcList": [
        1018,
        158701
      ],
      "exclusiveNpcPriority": 1010
    },
    {
      "subId": 1104506,
      "mainId": 11045,
      "order": 4,
      "descTextMapHash": 3849038156,
      "showType": "QUEST_HIDDEN",
      "acceptCond": [
        {
          "type": "QUEST_COND_STATE_EQUAL",
          "param": [
            1104501,
            3,
            0,
            0,
            0
          ],
          "param_str": ""
        }
      ],
      "finishCond": [
        {
          "type": "QUEST_CONTENT_LUA_NOTIFY",
          "param": [
            0,
            0
          ],
          "param_str": "133105300",
          "count": 1
        }
      ],
      "failCond": [],
      "guide": {
        "param": []
      },
      "isRewind": true,
      "finishExec": [
        {
          "type": "QUEST_EXEC_ADD_QUEST_PROGRESS",
          "param": [
            "1104509",
            "1"
          ],
          "param_str": ""
        },
        {
          "type": "QUEST_EXEC_NOTIFY_GROUP_LUA",
          "param": [
            "3",
            "133105300"
          ],
          "param_str": ""
        }
      ],
      "failExec": [],
      "beginExec": [
        {
          "type": "QUEST_EXEC_REGISTER_DYNAMIC_GROUP",
          "param": [
            "3",
            "133105305"
          ],
          "param_str": ""
        }
      ],
      "exclusiveNpcList": [
        1018,
        158701
      ],
      "exclusiveNpcPriority": 1010
    },
    {
      "subId": 1104507,
      "mainId": 11045,
      "order": 8,
      "descTextMapHash": 218929500,
      "acceptCond": [
        {
          "type": "QUEST_COND_STATE_EQUAL",
          "param": [
            1104511,
            3,
            0,
            0,
            0
          ],
          "param_str": ""
        }
      ],
      "finishCond": [
        {
          "type": "QUEST_CONTENT_LUA_NOTIFY",
          "param": [
            0,
            0
          ],
          "param_str": "133105304",
          "count": 1
        }
      ],
      "failCond": [],
      "guide": {
        "type": "QUEST_GUIDE_LOCATION",
        "param": [
          "Q11045OpenMark"
        ],
        "guideScene": 3,
        "guideStyle": "QUEST_GUIDE_STYLE_TARGET"
      },
      "isRewind": true,
      "finishExec": [],
      "failExec": [],
      "beginExec": [
        {
          "type": "QUEST_EXEC_REGISTER_DYNAMIC_GROUP",
          "param": [
            "3",
            "133105305"
          ],
          "param_str": ""
        },
        {
          "type": "QUEST_EXEC_NOTIFY_GROUP_LUA",
          "param": [
            "3",
            "133105304"
          ],
          "param_str": ""
        }
      ],
      "exclusiveNpcList": [
        1018,
        158701
      ],
      "exclusiveNpcPriority": 1010
    },
    {
      "subId": 1104508,
      "mainId": 11045,
      "order": 3,
      "descTextMapHash": 1551703556,
      "showType": "QUEST_HIDDEN",
      "acceptCond": [
        {
          "type": "QUEST_COND_STATE_EQUAL",
          "param": [
            1104501,
            3,
            0,
            0,
            0
          ],
          "param_str": ""
        }
      ],
      "finishCond": [
        {
          "type": "QUEST_CONTENT_LUA_NOTIFY",
          "param": [
            0,
            0
          ],
          "param_str": "133105301",
          "count": 1
        }
      ],
      "failCond": [],
      "guide": {
        "param": []
      },
      "isRewind": true,
      "finishExec": [
        {
          "type": "QUEST_EXEC_ADD_QUEST_PROGRESS",
          "param": [
            "1104509",
            "1"
          ],
          "param_str": ""
        },
        {
          "type": "QUEST_EXEC_NOTIFY_GROUP_LUA",
          "param": [
            "3",
            "133105301"
          ],
          "param_str": ""
        }
      ],
      "failExec": [],
      "beginExec": [],
      "exclusiveNpcList": [
        1018,
        158701
      ],
      "exclusiveNpcPriority": 1010
    },
    {
      "subId": 1104509,
      "mainId": 11045,
      "order": 5,
      "subIdSet": 1,
      "descTextMapHash": 3716860052,
      "acceptCond": [
        {
          "type": "QUEST_COND_STATE_EQUAL",
          "param": [
            1104501,
            3,
            0,
            0,
            0
          ],
          "param_str": ""
        }
      ],
      "finishCond": [
        {
          "type": "QUEST_CONTENT_ADD_QUEST_PROGRESS",
          "param": [
            1104509,
            0
          ],
          "param_str": "",
          "count": 2
        }
      ],
      "failCond": [],
      "guide": {
        "type": "QUEST_GUIDE_LOCATION",
        "param": [
          "Q11045Gad2",
          "30"
        ],
        "guideScene": 3,
        "guideStyle": "QUEST_GUIDE_STYLE_POINT"
      },
      "isRewind": true,
      "finishExec": [
        {
          "type": "QUEST_EXEC_ADD_QUEST_PROGRESS",
          "param": [
            "1104511",
            "1"
          ],
          "param_str": ""
        },
        {
          "type": "QUEST_EXEC_NOTIFY_GROUP_LUA",
          "param": [
            "3",
            "133105301"
          ],
          "param_str": ""
        }
      ],
      "failExec": [],
      "beginExec": [],
      "exclusiveNpcList": [
        1018,
        158701
      ],
      "exclusiveNpcPriority": 1010
    },
    {
      "subId": 1104510,
      "mainId": 11045,
      "order": 7,
      "descTextMapHash": 3147159148,
      "showType": "QUEST_HIDDEN",
      "acceptCond": [
        {
          "type": "QUEST_COND_STATE_EQUAL",
          "param": [
            1104501,
            3,
            0,
            0,
            0
          ],
          "param_str": ""
        }
      ],
      "finishCond": [
        {
          "type": "QUEST_CONTENT_ADD_QUEST_PROGRESS",
          "param": [
            1104510,
            0
          ],
          "param_str": "",
          "count": 1
        }
      ],
      "failCond": [],
      "guide": {
        "param": []
      },
      "isRewind": true,
      "finishExec": [],
      "failExec": [],
      "beginExec": [
        {
          "type": "QUEST_EXEC_NOTIFY_GROUP_LUA",
          "param": [
            "3",
            "133105904"
          ],
          "param_str": ""
        },
        {
          "type": "QUEST_EXEC_NOTIFY_GROUP_LUA",
          "param": [
            "3",
            "133105301"
          ],
          "param_str": ""
        },
        {
          "type": "QUEST_EXEC_NOTIFY_GROUP_LUA",
          "param": [
            "3",
            "133105300"
          ],
          "param_str": ""
        },
        {
          "type": "QUEST_EXEC_REGISTER_DYNAMIC_GROUP",
          "param": [
            "3",
            "133105305"
          ],
          "param_str": ""
        }
      ],
      "exclusiveNpcList": [
        1018,
        158701
      ],
      "exclusiveNpcPriority": 1010
    },
    {
      "subId": 1104511,
      "mainId": 11045,
      "order": 6,
      "descTextMapHash": 526387948,
      "showType": "QUEST_HIDDEN",
      "acceptCond": [
        {
          "type": "QUEST_COND_STATE_EQUAL",
          "param": [
            1104501,
            3,
            0,
            0,
            0
          ],
          "param_str": ""
        }
      ],
      "finishCond": [
        {
          "type": "QUEST_CONTENT_ADD_QUEST_PROGRESS",
          "param": [
            1104511,
            0
          ],
          "param_str": "",
          "count": 2
        }
      ],
      "failCond": [],
      "guide": {
        "param": []
      },
      "isRewind": true,
      "finishExec": [
        {
          "type": "QUEST_EXEC_ADD_QUEST_PROGRESS",
          "param": [
            "1104510",
            "1"
          ],
          "param_str": ""
        }
      ],
      "failExec": [],
      "beginExec": [],
      "exclusiveNpcList": [
        1018,
        158701
      ],
      "exclusiveNpcPriority": 1010
    },
    {
      "subId": 1104512,
      "mainId": 11045,
      "order": 12,
      "descTextMapHash": 3737551660,
      "showType": "QUEST_HIDDEN",
      "acceptCond": [
        {
          "type": "QUEST_COND_STATE_EQUAL",
          "param": [
            1104504,
            3,
            0,
            0,
            0
          ],
          "param_str": ""
        }
      ],
      "finishCond": [
        {
          "type": "QUEST_CONTENT_FINISH_PLOT",
          "param": [
            1104512,
            0
          ],
          "param_str": ""
        }
      ],
      "failCond": [],
      "guide": {
        "param": []
      },
      "finishExec": [
        {
          "type": "QUEST_EXEC_REFRESH_GROUP_SUITE",
          "param": [
            "3",
            "133002939,2"
          ],
          "param_str": ""
        }
      ],
      "failExec": [],
      "beginExec": []
    },
    {
      "subId": 1104513,
      "mainId": 11045,
      "order": 13,
      "descTextMapHash": 235162596,
      "showType": "QUEST_HIDDEN",
      "acceptCond": [
        {
          "type": "QUEST_COND_STATE_EQUAL",
          "param": [
            1104504,
            3,
            0,
            0,
            0
          ],
          "param_str": ""
        }
      ],
      "finishCond": [
        {
          "type": "QUEST_CONTENT_FINISH_PLOT",
          "param": [
            1104513,
            0
          ],
          "param_str": ""
        }
      ],
      "failCond": [],
      "guide": {
        "param": []
      },
      "finishExec": [
        {
          "type": "QUEST_EXEC_NOTIFY_GROUP_LUA",
          "param": [
            "3",
            "133002939"
          ],
          "param_str": ""
        }
      ],
      "failExec": [],
      "beginExec": []
    },
    {
      "subId": 1104514,
      "mainId": 11045,
      "order": 14,
      "descTextMapHash": 1966986404,
      "showType": "QUEST_HIDDEN",
      "acceptCond": [
        {
          "type": "QUEST_COND_STATE_EQUAL",
          "param": [
            1104504,
            3,
            0,
            0,
            0
          ],
          "param_str": ""
        }
      ],
      "finishCond": [
        {
          "type": "QUEST_CONTENT_FINISH_PLOT",
          "param": [
            1104514,
            0
          ],
          "param_str": ""
        }
      ],
      "failCond": [],
      "guide": {
        "param": []
      },
      "finishExec": [
        {
          "type": "QUEST_EXEC_NOTIFY_GROUP_LUA",
          "param": [
            "3",
            "133002939"
          ],
          "param_str": ""
        }
      ],
      "failExec": [],
      "beginExec": []
    },
    {
      "subId": 1104515,
      "mainId": 11045,
      "order": 15,
      "descTextMapHash": 2925816012,
      "showType": "QUEST_HIDDEN",
      "acceptCond": [
        {
          "type": "QUEST_COND_STATE_EQUAL",
          "param": [
            1104504,
            3,
            0,
            0,
            0
          ],
          "param_str": ""
        }
      ],
      "finishCond": [
        {
          "type": "QUEST_CONTENT_FINISH_PLOT",
          "param": [
            1104515,
            0
          ],
          "param_str": ""
        }
      ],
      "failCond": [],
      "guide": {
        "param": []
      },
      "finishExec": [
        {
          "type": "QUEST_EXEC_REGISTER_DYNAMIC_GROUP",
          "param": [
            "3",
            "133002940"
          ],
          "param_str": ""
        }
      ],
      "failExec": [],
      "beginExec": []
    },
    {
      "subId": 1104516,
      "mainId": 11045,
      "order": 16,
      "descTextMapHash": 2633440228,
      "showType": "QUEST_HIDDEN",
      "acceptCond": [
        {
          "type": "QUEST_COND_STATE_EQUAL",
          "param": [
            1104504,
            3,
            0,
            0,
            0
          ],
          "param_str": ""
        }
      ],
      "finishCond": [
        {
          "type": "QUEST_CONTENT_FINISH_PLOT",
          "param": [
            1104516,
            0
          ],
          "param_str": ""
        }
      ],
      "failCond": [],
      "guide": {
        "param": []
      },
      "finishExec": [
        {
          "type": "QUEST_EXEC_UNREGISTER_DYNAMIC_GROUP",
          "param": [
            "133002940"
          ],
          "param_str": ""
        }
      ],
      "failExec": [],
      "beginExec": []
    }
  ],
  "talks": [
    {
      "id": 1104501,
      "beginWay": "TALK_BEGIN_MANUAL",
      "activeMode": "PLAY_MODE_SINGLE",
      "beginCond": [
        {
          "type": "QUEST_COND_STATE_EQUAL",
          "param": [
            "1104501",
            "2"
          ],
          "param_str": ""
        }
      ],
      "initDialog": 110450101,
      "npcId": [
        1018
      ],
      "performCfg": "QuestDialogue/LQ/Albedo1_11045/Q1104501",
      "questId": 11045,
      "prePerformCfg": "",
      "lockGameTime": true
    },
    {
      "id": 1104504,
      "beginWay": "TALK_BEGIN_MANUAL",
      "activeMode": "PLAY_MODE_SINGLE",
      "beginCond": [
        {
          "type": "QUEST_COND_STATE_EQUAL",
          "param": [
            "1104504",
            "2"
          ],
          "param_str": ""
        }
      ],
      "initDialog": 110450461,
      "npcId": [
        1018
      ],
      "performCfg": "QuestDialogue/LQ/Albedo1_11045/Q1104504",
      "questId": 11045,
      "prePerformCfg": "",
      "lockGameTime": true
    },
    {
      "id": 1104505,
      "beginWay": "TALK_BEGIN_MANUAL",
      "activeMode": "PLAY_MODE_SINGLE",
      "beginCond": [
        {
          "type": "QUEST_COND_STATE_EQUAL",
          "param": [
            "1104505",
            "2"
          ],
          "param_str": ""
        }
      ],
      "initDialog": 110450501,
      "npcId": [
        1018
      ],
      "performCfg": "QuestDialogue/LQ/Albedo1_11045/Q1104505",
      "questId": 11045,
      "prePerformCfg": "",
      "lockGameTime": true
    },
    {
      "id": 1104506,
      "beginWay": "TALK_BEGIN_MANUAL",
      "activeMode": "PLAY_MODE_SINGLE",
      "beginCond": [
        {
          "type": "QUEST_COND_STATE_EQUAL",
          "param": [
            "1104505",
            "2"
          ],
          "param_str": ""
        }
      ],
      "initDialog": 110450621,
      "npcId": [
        158701
      ],
      "performCfg": "QuestDialogue/LQ/Albedo1_11045/Q1104506",
      "questId": 11045,
      "prePerformCfg": "",
      "lockGameTime": true
    }
  ]
}