{
  "id": 11041,
  "type": "LQ",
  "series": 2017,
  "titleTextMapHash": 4266694655,
  "descTextMapHash": 2081197334,
  "luaPath": "Actor/Quest/LQ11041",
  "suggestTrackMainQuestList": [
    11042
  ],
  "rewardIdList": [
    111041
  ],
  "chapterId": 2017,
  "subQuests": [
    {
      "subId": 1104101,
      "mainId": 11041,
      "order": 1,
      "descTextMapHash": 1774425284,
      "acceptCond": [
        {
          "type": "QUEST_COND_STATE_EQUAL",
          "param": [
            1104004,
            3,
            0,
            0,
            0
          ],
          "param_str": ""
        }
      ],
      "finishCond": [
        {
          "type": "QUEST_CONTENT_FINISH_PLOT",
          "param": [
            1104101,
            0
          ],
          "param_str": ""
        }
      ],
      "failCond": [],
      "guide": {
        "type": "QUEST_GUIDE_LOCATION",
        "param": [
          "Q11041FootMark1",
          "35"
        ],
        "guideScene": 3
      },
      "isRewind": true,
      "finishExec": [],
      "failExec": [],
      "beginExec": [],
      "exclusiveNpcList": [
        1018
      ],
      "exclusiveNpcPriority": 1010
    },
    {
      "subId": 1104102,
      "mainId": 11041,
      "order": 2,
      "descTextMapHash": 553832100,
      "acceptCond": [
        {
          "type": "QUEST_COND_STATE_EQUAL",
          "param": [
            1104101,
            3,
            0,
            0,
            0
          ],
          "param_str": ""
        }
      ],
      "finishCond": [
        {
          "type": "QUEST_CONTENT_FINISH_PLOT",
          "param": [
            1104102,
            0
          ],
          "param_str": ""
        }
      ],
      "failCond": [],
      "guide": {
        "type": "QUEST_GUIDE_LOCATION",
        "param": [
          "Q11041FootMark2",
          "35"
        ],
        "guideScene": 3
      },
      "isRewind": true,
      "finishExec": [],
      "failExec": [],
      "beginExec": [],
      "exclusiveNpcList": [
        1018
      ],
      "exclusiveNpcPriority": 1010
    },
    {
      "subId": 1104103,
      "mainId": 11041,
      "order": 6,
      "descTextMapHash": 3507539908,
      "acceptCond": [
        {
          "type": "QUEST_COND_STATE_EQUAL",
          "param": [
            1104109,
            3,
            0,
            0,
            0
          ],
          "param_str": ""
        }
      ],
      "finishCond": [
        {
          "type": "QUEST_CONTENT_FINISH_PLOT",
          "param": [
            1104103,
            0
          ],
          "param_str": ""
        }
      ],
      "failCond": [],
      "guide": {
        "type": "QUEST_GUIDE_LOCATION",
        "param": [
          "Q11041FootMark6",
          "35"
        ],
        "guideScene": 3
      },
      "isRewind": true,
      "finishExec": [],
      "failExec": [],
      "beginExec": [
        {
          "type": "QUEST_EXEC_REGISTER_DYNAMIC_GROUP",
          "param": [
            "3",
            "133002431"
          ],
          "param_str": ""
        }
      ],
      "exclusiveNpcList": [
        1018
      ],
      "exclusiveNpcPriority": 1010
    },
    {
      "subId": 1104104,
      "mainId": 11041,
      "order": 7,
      "descTextMapHash": 1180690028,
      "acceptCond": [
        {
          "type": "QUEST_COND_STATE_EQUAL",
          "param": [
            1104103,
            3,
            0,
            0,
            0
          ],
          "param_str": ""
        }
      ],
      "finishCond": [
        {
          "type": "QUEST_CONTENT_COMPLETE_TALK",
          "param": [
            1104104,
            0
          ],
          "param_str": ""
        }
      ],
      "failCond": [],
      "guide": {
        "type": "QUEST_GUIDE_LOCATION",
        "param": [
          "Q11041Qiuqiu1",
          "15"
        ],
        "guideScene": 3
      },
      "isRewind": true,
      "finishExec": [],
      "failExec": [],
      "beginExec": [
        {
          "type": "QUEST_EXEC_REGISTER_DYNAMIC_GROUP",
          "param": [
            "3",
            "133002431"
          ],
          "param_str": ""
        }
      ],
      "exclusiveNpcList": [
        1018
      ],
      "exclusiveNpcPriority": 1010
    },
    {
      "subId": 1104105,
      "mainId": 11041,
      "order": 8,
      "descTextMapHash": 2843919956,
      "acceptCond": [
        {
          "type": "QUEST_COND_STATE_EQUAL",
          "param": [
            1104104,
            3,
            0,
            0,
            0
          ],
          "param_str": ""
        }
      ],
      "finishCond": [
        {
          "type": "QUEST_CONTENT_CLEAR_GROUP_MONSTER",
          "param": [
            133001915,
            0
          ],
          "param_str": ""
        }
      ],
      "failCond": [],
      "guide": {
        "type": "QUEST_GUIDE_LOCATION",
        "param": [
          "Q11041Qiuqiu1",
          "15"
        ],
        "guideScene": 3
      },
      "isRewind": true,
      "finishExec": [],
      "failExec": [],
      "beginExec": [
        {
          "type": "QUEST_EXEC_REFRESH_GROUP_SUITE",
          "param": [
            "3",
            "133001915,2"
          ],
          "param_str": ""
        }
      ],
      "exclusiveNpcList": [
        1018
      ],
      "exclusiveNpcPriority": 1010
    },
    {
      "subId": 1104106,
      "mainId": 11041,
      "order": 9,
      "descTextMapHash": 2127703980,
      "acceptCond": [
        {
          "type": "QUEST_COND_STATE_EQUAL",
          "param": [
            1104105,
            3,
            0,
            0,
            0
          ],
          "param_str": ""
        }
      ],
      "finishCond": [
        {
          "type": "QUEST_CONTENT_COMPLETE_TALK",
          "param": [
            1104106,
            0
          ],
          "param_str": ""
        }
      ],
      "failCond": [],
      "guide": {
        "type": "QUEST_GUIDE_NPC",
        "param": [
          "1018"
        ],
        "guideScene": 3,
        "guideStyle": "QUEST_GUIDE_STYLE_START",
        "guideLayer": "QUEST_GUIDE_LAYER_SCENE"
      },
      "finishParent": true,
      "isRewind": true,
      "finishExec": [],
      "failExec": [],
      "beginExec": [],
      "exclusiveNpcList": [
        1018
      ],
      "exclusiveNpcPriority": 1010
    },
    {
      "subId": 1104107,
      "mainId": 11041,
      "order": 3,
      "descTextMapHash": 2947254260,
      "acceptCond": [
        {
          "type": "QUEST_COND_STATE_EQUAL",
          "param": [
            1104102,
            3,
            0,
            0,
            0
          ],
          "param_str": ""
        }
      ],
      "finishCond": [
        {
          "type": "QUEST_CONTENT_FINISH_PLOT",
          "param": [
            1104107,
            0
          ],
          "param_str": ""
        }
      ],
      "failCond": [],
      "guide": {
        "type": "QUEST_GUIDE_LOCATION",
        "param": [
          "Q11041FootMark3",
          "35"
        ],
        "guideScene": 3
      },
      "isRewind": true,
      "finishExec": [],
      "failExec": [],
      "beginExec": [],
      "exclusiveNpcList": [
        1018
      ],
      "exclusiveNpcPriority": 1010
    },
    {
      "subId": 1104108,
      "mainId": 11041,
      "order": 4,
      "descTextMapHash": 2152911380,
      "acceptCond": [
        {
          "type": "QUEST_COND_STATE_EQUAL",
          "param": [
            1104107,
            3,
            0,
            0,
            0
          ],
          "param_str": ""
        }
      ],
      "finishCond": [
        {
          "type": "QUEST_CONTENT_FINISH_PLOT",
          "param": [
            1104108,
            0
          ],
          "param_str": ""
        }
      ],
      "failCond": [],
      "guide": {
        "type": "QUEST_GUIDE_LOCATION",
        "param": [
          "Q11041FootMark4",
          "35"
        ],
        "guideScene": 3
      },
      "isRewind": true,
      "finishExec": [],
      "failExec": [],
      "beginExec": [],
      "exclusiveNpcList": [
        1018
      ],
      "exclusiveNpcPriority": 1010
    },
    {
      "subId": 1104109,
      "mainId": 11041,
      "order": 5,
      "descTextMapHash": 3200112572,
      "acceptCond": [
        {
          "type": "QUEST_COND_STATE_EQUAL",
          "param": [
            1104108,
            3,
            0,
            0,
            0
          ],
          "param_str": ""
        }
      ],
      "finishCond": [
        {
          "type": "QUEST_CONTENT_FINISH_PLOT",
          "param": [
            1104109,
            0
          ],
          "param_str": ""
        }
      ],
      "failCond": [],
      "guide": {
        "type": "QUEST_GUIDE_LOCATION",
        "param": [
          "Q11041FootMark5",
          "35"
        ],
        "guideScene": 3
      },
      "isRewind": true,
      "finishExec": [],
      "failExec": [],
      "beginExec": [],
      "exclusiveNpcList": [
        1018
      ],
      "exclusiveNpcPriority": 1010
    }
  ],
  "talks": [
    {
      "id": 1104104,
      "beginWay": "TALK_BEGIN_MANUAL",
      "activeMode": "PLAY_MODE_SINGLE",
      "beginCond": [
        {
          "type": "QUEST_COND_STATE_EQUAL",
          "param": [
            "1104104",
            "2"
          ],
          "param_str": ""
        }
      ],
      "initDialog": 110410401,
      "npcId": [
        1018
      ],
      "performCfg": "QuestDialogue/LQ/Albedo1_11041/Q1104104",
      "questId": 11041,
      "prePerformCfg": "",
      "lockGameTime": true
    },
    {
      "id": 1104106,
      "beginWay": "TALK_BEGIN_MANUAL",
      "activeMode": "PLAY_MODE_SINGLE",
      "beginCond": [
        {
          "type": "QUEST_COND_STATE_EQUAL",
          "param": [
            "1104106",
            "2"
          ],
          "param_str": ""
        }
      ],
      "initDialog": 110410601,
      "npcId": [
        1018
      ],
      "performCfg": "QuestDialogue/LQ/Albedo1_11041/Q1104106",
      "questId": 11041,
      "prePerformCfg": "",
      "lockGameTime": true
    }
  ]
}