{
  "id": 12009,
  "type": "LQ",
  "series": 2026,
  "titleTextMapHash": 1010134295,
  "descTextMapHash": 666834846,
  "luaPath": "Actor/Quest/LQ12009",
  "suggestTrackMainQuestList": [
    12025
  ],
  "rewardIdList": [
    112009
  ],
  "chapterId": 2026,
  "subQuests": [
    {
      "subId": 1200901,
      "mainId": 12009,
      "order": 1,
      "descTextMapHash": 3008292676,
      "acceptCondComb": "LOGIC_AND",
      "acceptCond": [
        {
          "type": "QUEST_COND_PERSONAL_LINE_UNLOCK",
          "param": [
            16,
            0,
            0,
            0,
            0
          ],
          "param_str": ""
        },
        {
          "type": "QUEST_COND_PLAYER_LEVEL_EQUAL_GREATER",
          "param": [
            40,
            0,
            0,
            0,
            0
          ],
          "param_str": ""
        },
        {
          "type": "QUEST_COND_QUEST_GLOBAL_VAR_EQUAL",
          "param": [
            1202401,
            1,
            0,
            0,
            0
          ],
          "param_str": ""
        }
      ],
      "finishCond": [
        {
          "type": "QUEST_CONTENT_COMPLETE_TALK",
          "param": [
            1200901,
            0
          ],
          "param_str": ""
        }
      ],
      "failCond": [],
      "guide": {
        "type": "QUEST_GUIDE_NPC",
        "param": [
          "3004"
        ],
        "guideScene": 3,
        "guideStyle": "QUEST_GUIDE_STYLE_START",
        "guideLayer": "QUEST_GUIDE_LAYER_SCENE"
      },
      "isRewind": true,
      "finishExec": [],
      "failExec": [],
      "beginExec": [],
      "exclusiveNpcList": [
        3004,
        3006,
        3020,
        3005
      ],
      "exclusiveNpcPriority": 1100
    },
    {
      "subId": 1200902,
      "mainId": 12009,
      "order": 2,
      "subIdSet": 120091,
      "descTextMapHash": 783045252,
      "acceptCond": [
        {
          "type": "QUEST_COND_STATE_EQUAL",
          "param": [
            1200901,
            3,
            0,
            0,
            0
          ],
          "param_str": ""
        }
      ],
      "finishCond": [
        {
          "type": "QUEST_CONTENT_COMPLETE_TALK",
          "param": [
            1200902,
            0
          ],
          "param_str": ""
        }
      ],
      "failCond": [],
      "guide": {
        "type": "QUEST_GUIDE_NPC",
        "param": [
          "3006"
        ],
        "guideScene": 3,
        "guideStyle": "QUEST_GUIDE_STYLE_TARGET",
        "guideLayer": "QUEST_GUIDE_LAYER_SCENE"
      },
      "finishExec": [],
      "failExec": [],
      "beginExec": [],
      "exclusiveNpcList": [
        3006,
        3020,
        3005
      ],
      "exclusiveNpcPriority": 1100
    },
    {
      "subId": 1200903,
      "mainId": 12009,
      "order": 3,
      "subIdSet": 120091,
      "descTextMapHash": 273352716,
      "acceptCond": [
        {
          "type": "QUEST_COND_STATE_EQUAL",
          "param": [
            1200901,
            3,
            0,
            0,
            0
          ],
          "param_str": ""
        }
      ],
      "finishCond": [
        {
          "type": "QUEST_CONTENT_COMPLETE_TALK",
          "param": [
            1200903,
            0
          ],
          "param_str": ""
        }
      ],
      "failCond": [],
      "guide": {
        "type": "QUEST_GUIDE_NPC",
        "param": [
          "3005"
        ],
        "guideScene": 3,
        "guideStyle": "QUEST_GUIDE_STYLE_TARGET",
        "guideLayer": "QUEST_GUIDE_LAYER_SCENE"
      },
      "finishExec": [],
      "failExec": [],
      "beginExec": [],
      "exclusiveNpcList": [
        3006,
        3020,
        3005
      ],
      "exclusiveNpcPriority": 1100
    },
    {
      "subId": 1200904,
      "mainId": 12009,
      "order": 4,
      "subIdSet": 120091,
      "descTextMapHash": 3916100220,
      "acceptCond": [
        {
          "type": "QUEST_COND_STATE_EQUAL",
          "param": [
            1200901,
            3,
            0,
            0,
            0
          ],
          "param_str": ""
        }
      ],
      "finishCond": [
        {
          "type": "QUEST_CONTENT_COMPLETE_TALK",
          "param": [
            1200904,
            0
          ],
          "param_str": ""
        }
      ],
      "failCond": [],
      "guide": {
        "type": "QUEST_GUIDE_NPC",
        "param": [
          "3020"
        ],
        "guideScene": 3,
        "guideStyle": "QUEST_GUIDE_STYLE_TARGET",
        "guideLayer": "QUEST_GUIDE_LAYER_SCENE"
      },
      "finishExec": [],
      "failExec": [],
      "beginExec": [],
      "exclusiveNpcList": [
        3006,
        3020,
        3005
      ],
      "exclusiveNpcPriority": 1100
    },
    {
      "subId": 1200905,
      "mainId": 12009,
      "order": 6,
      "descTextMapHash": 2058930220,
      "acceptCondComb": "LOGIC_AND",
      "acceptCond": [
        {
          "type": "QUEST_COND_STATE_EQUAL",
          "param": [
            1200902,
            3,
            0,
            0,
            0
          ],
          "param_str": ""
        },
        {
          "type": "QUEST_COND_STATE_EQUAL",
          "param": [
            1200903,
            3,
            0,
            0,
            0
          ],
          "param_str": ""
        },
        {
          "type": "QUEST_COND_STATE_EQUAL",
          "param": [
            1200904,
            3,
            0,
            0,
            0
          ],
          "param_str": ""
        },
        {
          "type": "QUEST_COND_STATE_EQUAL",
          "param": [
            1200906,
            3,
            0,
            0,
            0
          ],
          "param_str": ""
        }
      ],
      "finishCond": [
        {
          "type": "QUEST_CONTENT_COMPLETE_TALK",
          "param": [
            1200905,
            0
          ],
          "param_str": ""
        }
      ],
      "failCond": [],
      "guide": {
        "type": "QUEST_GUIDE_NPC",
        "param": [
          "3041"
        ],
        "guideScene": 3,
        "guideStyle": "QUEST_GUIDE_STYLE_TARGET",
        "guideLayer": "QUEST_GUIDE_LAYER_SCENE"
      },
      "finishParent": true,
      "isRewind": true,
      "finishExec": [],
      "failExec": [],
      "beginExec": [],
      "exclusiveNpcList": [
        3041,
        3006,
        3020,
        3005
      ],
      "exclusiveNpcPriority": 1100
    },
    {
      "subId": 1200906,
      "mainId": 12009,
      "order": 5,
      "descTextMapHash": 3273785524,
      "showType": "QUEST_HIDDEN",
      "acceptCond": [
        {
          "type": "QUEST_COND_STATE_EQUAL",
          "param": [
            1200901,
            3,
            0,
            0,
            0
          ],
          "param_str": ""
        }
      ],
      "finishCond": [
        {
          "type": "QUEST_CONTENT_QUEST_STATE_EQUAL",
          "param": [
            1200902,
            3
          ],
          "param_str": ""
        },
        {
          "type": "QUEST_CONTENT_QUEST_STATE_EQUAL",
          "param": [
            1200903,
            3
          ],
          "param_str": ""
        },
        {
          "type": "QUEST_CONTENT_QUEST_STATE_EQUAL",
          "param": [
            1200904,
            3
          ],
          "param_str": ""
        }
      ],
      "failCond": [],
      "guide": {
        "param": []
      },
      "isRewind": true,
      "finishExec": [],
      "failExec": [],
      "beginExec": [],
      "exclusiveNpcList": [
        3006,
        3020,
        3005
      ],
      "exclusiveNpcPriority": 1100
    }
  ],
  "talks": [
    {
      "id": 1200901,
      "beginWay": "TALK_BEGIN_MANUAL",
      "activeMode": "PLAY_MODE_SINGLE",
      "beginCond": [
        {
          "type": "QUEST_COND_STATE_EQUAL",
          "param": [
            "1200901",
            "2"
          ],
          "param_str": ""
        }
      ],
      "priority": 5,
      "initDialog": 120090101,
      "npcId": [
        1005,
        3004
      ],
      "performCfg": "QuestDialogue/LQ/Itto1_12009/Q1200901",
      "heroTalk": "TALK_HERO_MAIN",
      "questId": 12009,
      "prePerformCfg": ""
    },
    {
      "id": 1200902,
      "beginWay": "TALK_BEGIN_MANUAL",
      "activeMode": "PLAY_MODE_SINGLE",
      "beginCond": [
        {
          "type": "QUEST_COND_STATE_EQUAL",
          "param": [
            "1200902",
            "2"
          ],
          "param_str": ""
        }
      ],
      "priority": 5,
      "initDialog": 120090201,
      "npcId": [
        3006,
        1005
      ],
      "performCfg": "QuestDialogue/LQ/Itto1_12009/Q1200902",
      "heroTalk": "TALK_HERO_MAIN",
      "questId": 12009,
      "prePerformCfg": ""
    },
    {
      "id": 1200903,
      "beginWay": "TALK_BEGIN_MANUAL",
      "activeMode": "PLAY_MODE_SINGLE",
      "beginCond": [
        {
          "type": "QUEST_COND_STATE_EQUAL",
          "param": [
            "1200903",
            "2"
          ],
          "param_str": ""
        }
      ],
      "priority": 5,
      "initDialog": 120090301,
      "npcId": [
        3005,
        1005
      ],
      "performCfg": "QuestDialogue/LQ/Itto1_12009/Q1200903",
      "heroTalk": "TALK_HERO_MAIN",
      "questId": 12009,
      "prePerformCfg": ""
    },
    {
      "id": 1200904,
      "beginWay": "TALK_BEGIN_MANUAL",
      "activeMode": "PLAY_MODE_SINGLE",
      "beginCond": [
        {
          "type": "QUEST_COND_STATE_EQUAL",
          "param": [
            "1200904",
            "2"
          ],
          "param_str": ""
        }
      ],
      "priority": 5,
      "initDialog": 120090401,
      "npcId": [
        3020,
        1005
      ],
      "performCfg": "QuestDialogue/LQ/Itto1_12009/Q1200904",
      "heroTalk": "TALK_HERO_MAIN",
      "questId": 12009,
      "prePerformCfg": ""
    },
    {
      "id": 1200905,
      "beginWay": "TALK_BEGIN_MANUAL",
      "activeMode": "PLAY_MODE_SINGLE",
      "beginCond": [
        {
          "type": "QUEST_COND_STATE_EQUAL",
          "param": [
            "1200905",
            "2"
          ],
          "param_str": ""
        }
      ],
      "priority": 5,
      "initDialog": 120090501,
      "npcId": [
        1005,
        3041
      ],
      "performCfg": "QuestDialogue/LQ/Itto1_12009/Q1200905",
      "heroTalk": "TALK_HERO_MAIN",
      "questId": 12009,
      "prePerformCfg": ""
    },
    {
      "id": 1200907,
      "beginWay": "TALK_BEGIN_MANUAL",
      "activeMode": "PLAY_MODE_SINGLE",
      "beginCond": [
        {
          "type": "QUEST_COND_STATE_EQUAL",
          "param": [
            "99902",
            "3"
          ],
          "param_str": ""
        }
      ],
      "priority": 5,
      "initDialog": 120090701,
      "npcId": [
        3004
      ],
      "performCfg": "QuestDialogue/LQ/Itto1_12009/Q1200907",
      "heroTalk": "TALK_HERO_MAIN",
      "questId": 12009,
      "prePerformCfg": ""
    },
    {
      "id": 1200909,
      "beginWay": "TALK_BEGIN_MANUAL",
      "activeMode": "PLAY_MODE_SINGLE",
      "beginCondComb": "LOGIC_OR",
      "beginCond": [
        {
          "type": "QUEST_COND_STATE_EQUAL",
          "param": [
            "1200902",
            "2"
          ],
          "param_str": ""
        },
        {
          "type": "QUEST_COND_STATE_EQUAL",
          "param": [
            "1200903",
            "2"
          ],
          "param_str": ""
        },
        {
          "type": "QUEST_COND_STATE_EQUAL",
          "param": [
            "1200904",
            "2"
          ],
          "param_str": ""
        },
        {
          "type": "QUEST_COND_STATE_EQUAL",
          "param": [
            "1200905",
            "2"
          ],
          "param_str": ""
        }
      ],
      "priority": 4,
      "initDialog": 120090901,
      "npcId": [
        3006
      ],
      "performCfg": "QuestDialogue/LQ/Itto1_12009/Q1200909",
      "heroTalk": "TALK_HERO_MAIN",
      "questId": 12009,
      "prePerformCfg": ""
    },
    {
      "id": 1200911,
      "beginWay": "TALK_BEGIN_MANUAL",
      "activeMode": "PLAY_MODE_SINGLE",
      "beginCondComb": "LOGIC_OR",
      "beginCond": [
        {
          "type": "QUEST_COND_STATE_EQUAL",
          "param": [
            "1200902",
            "2"
          ],
          "param_str": ""
        },
        {
          "type": "QUEST_COND_STATE_EQUAL",
          "param": [
            "1200903",
            "2"
          ],
          "param_str": ""
        },
        {
          "type": "QUEST_COND_STATE_EQUAL",
          "param": [
            "1200904",
            "2"
          ],
          "param_str": ""
        },
        {
          "type": "QUEST_COND_STATE_EQUAL",
          "param": [
            "1200905",
            "2"
          ],
          "param_str": ""
        }
      ],
      "priority": 4,
      "initDialog": 120091101,
      "npcId": [
        3005
      ],
      "performCfg": "QuestDialogue/LQ/Itto1_12009/Q1200911",
      "heroTalk": "TALK_HERO_MAIN",
      "questId": 12009,
      "prePerformCfg": ""
    },
    {
      "id": 1200913,
      "beginWay": "TALK_BEGIN_MANUAL",
      "activeMode": "PLAY_MODE_SINGLE",
      "beginCondComb": "LOGIC_OR",
      "beginCond": [
        {
          "type": "QUEST_COND_STATE_EQUAL",
          "param": [
            "1200902",
            "2"
          ],
          "param_str": ""
        },
        {
          "type": "QUEST_COND_STATE_EQUAL",
          "param": [
            "1200903",
            "2"
          ],
          "param_str": ""
        },
        {
          "type": "QUEST_COND_STATE_EQUAL",
          "param": [
            "1200904",
            "2"
          ],
          "param_str": ""
        },
        {
          "type": "QUEST_COND_STATE_EQUAL",
          "param": [
            "1200905",
            "2"
          ],
          "param_str": ""
        }
      ],
      "priority": 4,
      "initDialog": 120091301,
      "npcId": [
        3020
      ],
      "performCfg": "QuestDialogue/LQ/Itto1_12009/Q1200913",
      "heroTalk": "TALK_HERO_MAIN",
      "questId": 12009,
      "prePerformCfg": ""
    }
  ]
}