{
  "id": 12033,
  "type": "LQ",
  "series": 2028,
  "titleTextMapHash": 369304799,
  "descTextMapHash": 2474851750,
  "luaPath": "Actor/Quest/LQ12033",
  "suggestTrackMainQuestList": [
    12034
  ],
  "rewardIdList": [
    112033
  ],
  "chapterId": 2028,
  "subQuests": [
    {
      "subId": 1203301,
      "mainId": 12033,
      "order": 1,
      "descTextMapHash": 1315322188,
      "acceptCond": [
        {
          "type": "QUEST_COND_PERSONAL_LINE_UNLOCK",
          "param": [
            19,
            0,
            0,
            0,
            0
          ],
          "param_str": ""
        }
      ],
      "finishCond": [
        {
          "type": "QUEST_CONTENT_FINISH_PLOT",
          "param": [
            1203301,
            0
          ],
          "param_str": ""
        }
      ],
      "failCond": [],
      "guide": {
        "type": "QUEST_GUIDE_LOCATION",
        "param": [
          "Q1203301_N12077",
          "25"
        ],
        "guideScene": 3,
        "guideStyle": "QUEST_GUIDE_STYLE_TARGET",
        "guideLayer": "QUEST_GUIDE_LAYER_SCENE"
      },
      "isRewind": true,
      "finishExec": [],
      "failExec": [],
      "beginExec": [
        {
          "type": "QUEST_EXEC_REFRESH_GROUP_SUITE",
          "param": [
            "3",
            "133221075,2"
          ],
          "param_str": ""
        },
        {
          "type": "QUEST_EXEC_REGISTER_DYNAMIC_GROUP",
          "param": [
            "3",
            "133209068"
          ],
          "param_str": ""
        }
      ],
      "exclusiveNpcList": [
        12077,
        3173,
        3016
      ],
      "exclusiveNpcPriority": 1100
    },
    {
      "subId": 1203302,
      "mainId": 12033,
      "order": 2,
      "descTextMapHash": 1741347100,
      "acceptCond": [
        {
          "type": "QUEST_COND_STATE_EQUAL",
          "param": [
            1203301,
            3,
            0,
            0,
            0
          ],
          "param_str": ""
        }
      ],
      "finishCond": [
        {
          "type": "QUEST_CONTENT_COMPLETE_TALK",
          "param": [
            1203301,
            0
          ],
          "param_str": ""
        }
      ],
      "failCond": [],
      "guide": {
        "type": "QUEST_GUIDE_NPC",
        "param": [
          "12077"
        ],
        "guideScene": 3,
        "guideStyle": "QUEST_GUIDE_STYLE_TARGET",
        "guideLayer": "QUEST_GUIDE_LAYER_SCENE"
      },
      "isRewind": true,
      "finishExec": [],
      "failExec": [],
      "beginExec": [
        {
          "type": "QUEST_EXEC_REGISTER_DYNAMIC_GROUP_ONLY",
          "param": [
            "133209068"
          ],
          "param_str": ""
        }
      ],
      "exclusiveNpcList": [
        12077,
        3173,
        3016
      ],
      "exclusiveNpcPriority": 1100
    },
    {
      "subId": 1203303,
      "mainId": 12033,
      "order": 3,
      "descTextMapHash": 3800505260,
      "acceptCond": [
        {
          "type": "QUEST_COND_STATE_EQUAL",
          "param": [
            1203302,
            3,
            0,
            0,
            0
          ],
          "param_str": ""
        }
      ],
      "finishCond": [
        {
          "type": "QUEST_CONTENT_COMPLETE_TALK",
          "param": [
            1203302,
            0
          ],
          "param_str": ""
        }
      ],
      "failCond": [],
      "guide": {
        "type": "QUEST_GUIDE_LOCATION",
        "param": [
          "Q1203303_guide"
        ],
        "guideScene": 3,
        "guideStyle": "QUEST_GUIDE_STYLE_POINT",
        "guideLayer": "QUEST_GUIDE_LAYER_SCENE"
      },
      "isRewind": true,
      "finishExec": [],
      "failExec": [],
      "beginExec": [
        {
          "type": "QUEST_EXEC_REGISTER_DYNAMIC_GROUP_ONLY",
          "param": [
            "133209068"
          ],
          "param_str": ""
        }
      ],
      "exclusiveNpcList": [
        12077,
        3173,
        3016,
        3099
      ],
      "exclusiveNpcPriority": 1100,
      "exclusivePlaceList": [
        1911101
      ]
    },
    {
      "subId": 1203304,
      "mainId": 12033,
      "order": 4,
      "descTextMapHash": 1130447052,
      "acceptCond": [
        {
          "type": "QUEST_COND_STATE_EQUAL",
          "param": [
            1203303,
            3,
            0,
            0,
            0
          ],
          "param_str": ""
        }
      ],
      "finishCond": [
        {
          "type": "QUEST_CONTENT_ENTER_ROOM",
          "param": [
            1061,
            0
          ],
          "param_str": ""
        }
      ],
      "failCond": [],
      "guide": {
        "type": "QUEST_GUIDE_NPC",
        "param": [
          "1047"
        ],
        "guideScene": 1061,
        "guideStyle": "QUEST_GUIDE_STYLE_TARGET",
        "guideLayer": "QUEST_GUIDE_LAYER_SCENE"
      },
      "isRewind": true,
      "finishExec": [],
      "failExec": [],
      "beginExec": [
        {
          "type": "QUEST_EXEC_REGISTER_DYNAMIC_GROUP_ONLY",
          "param": [
            "133209068"
          ],
          "param_str": ""
        },
        {
          "type": "QUEST_EXEC_REFRESH_GROUP_SUITE",
          "param": [
            "1061",
            "201061002,2"
          ],
          "param_str": ""
        }
      ],
      "exclusiveNpcList": [
        12077,
        1033,
        1047,
        3173,
        3016,
        3099
      ],
      "exclusiveNpcPriority": 1100,
      "exclusivePlaceList": [
        1911101
      ]
    },
    {
      "subId": 1203305,
      "mainId": 12033,
      "order": 5,
      "descTextMapHash": 3735859628,
      "acceptCond": [
        {
          "type": "QUEST_COND_STATE_EQUAL",
          "param": [
            1203304,
            3,
            0,
            0,
            0
          ],
          "param_str": ""
        }
      ],
      "finishCond": [
        {
          "type": "QUEST_CONTENT_COMPLETE_TALK",
          "param": [
            1203304,
            0
          ],
          "param_str": ""
        }
      ],
      "failCond": [],
      "guide": {
        "type": "QUEST_GUIDE_NPC",
        "param": [
          "1033"
        ],
        "guideScene": 1061,
        "guideStyle": "QUEST_GUIDE_STYLE_TARGET",
        "guideLayer": "QUEST_GUIDE_LAYER_SCENE"
      },
      "isRewind": true,
      "finishExec": [],
      "failExec": [],
      "beginExec": [
        {
          "type": "QUEST_EXEC_REGISTER_DYNAMIC_GROUP_ONLY",
          "param": [
            "133209068"
          ],
          "param_str": ""
        }
      ],
      "exclusiveNpcList": [
        12077,
        1033,
        1047,
        3173,
        3016,
        3099
      ],
      "exclusiveNpcPriority": 1100,
      "exclusivePlaceList": [
        1911101
      ]
    },
    {
      "subId": 1203306,
      "mainId": 12033,
      "order": 6,
      "descTextMapHash": 3582425916,
      "acceptCond": [
        {
          "type": "QUEST_COND_STATE_EQUAL",
          "param": [
            1203305,
            3,
            0,
            0,
            0
          ],
          "param_str": ""
        }
      ],
      "finishCond": [
        {
          "type": "QUEST_CONTENT_COMPLETE_TALK",
          "param": [
            1203306,
            0
          ],
          "param_str": ""
        }
      ],
      "failCond": [],
      "guide": {
        "type": "QUEST_GUIDE_NPC",
        "param": [
          "12077"
        ],
        "guideScene": 3,
        "guideStyle": "QUEST_GUIDE_STYLE_TARGET",
        "guideLayer": "QUEST_GUIDE_LAYER_SCENE"
      },
      "isRewind": true,
      "finishExec": [
        {
          "type": "QUEST_EXEC_REFRESH_GROUP_SUITE",
          "param": [
            "1061",
            "201061002,1"
          ],
          "param_str": ""
        }
      ],
      "failExec": [],
      "beginExec": [
        {
          "type": "QUEST_EXEC_REGISTER_DYNAMIC_GROUP_ONLY",
          "param": [
            "133209068"
          ],
          "param_str": ""
        }
      ],
      "exclusiveNpcList": [
        12077,
        1033,
        1047,
        3173,
        3016,
        3099
      ],
      "exclusiveNpcPriority": 1100,
      "exclusivePlaceList": [
        1911101
      ]
    },
    {
      "subId": 1203307,
      "mainId": 12033,
      "order": 7,
      "descTextMapHash": 3726864196,
      "acceptCond": [
        {
          "type": "QUEST_COND_STATE_EQUAL",
          "param": [
            1203306,
            3,
            0,
            0,
            0
          ],
          "param_str": ""
        }
      ],
      "finishCond": [
        {
          "type": "QUEST_CONTENT_COMPLETE_TALK",
          "param": [
            1203307,
            0
          ],
          "param_str": ""
        }
      ],
      "failCond": [],
      "guide": {
        "type": "QUEST_GUIDE_NPC",
        "param": [
          "3054"
        ],
        "guideScene": 1064,
        "guideStyle": "QUEST_GUIDE_STYLE_TARGET",
        "guideLayer": "QUEST_GUIDE_LAYER_SCENE"
      },
      "isRewind": true,
      "finishExec": [],
      "failExec": [],
      "beginExec": [
        {
          "type": "QUEST_EXEC_REGISTER_DYNAMIC_GROUP_ONLY",
          "param": [
            "133209068"
          ],
          "param_str": ""
        }
      ],
      "exclusiveNpcList": [
        12077,
        1047,
        3054,
        3173,
        3016,
        3057
      ],
      "exclusiveNpcPriority": 1100
    },
    {
      "subId": 1203308,
      "mainId": 12033,
      "order": 10,
      "descTextMapHash": 1749437892,
      "acceptCond": [
        {
          "type": "QUEST_COND_STATE_EQUAL",
          "param": [
            1203312,
            3,
            0,
            0,
            0
          ],
          "param_str": ""
        }
      ],
      "finishCond": [
        {
          "type": "QUEST_CONTENT_FINISH_PLOT",
          "param": [
            1203308,
            0
          ],
          "param_str": ""
        }
      ],
      "failCond": [],
      "guide": {
        "type": "QUEST_GUIDE_LOCATION",
        "param": [
          "Q1203308_N12445",
          "10"
        ],
        "guideScene": 3,
        "guideStyle": "QUEST_GUIDE_STYLE_TARGET",
        "guideLayer": "QUEST_GUIDE_LAYER_SCENE"
      },
      "isRewind": true,
      "finishExec": [],
      "failExec": [],
      "beginExec": [
        {
          "type": "QUEST_EXEC_REGISTER_DYNAMIC_GROUP_ONLY",
          "param": [
            "133209068"
          ],
          "param_str": ""
        }
      ],
      "exclusiveNpcList": [
        3054,
        12445,
        12446,
        3173,
        3086,
        12484,
        3016
      ],
      "exclusiveNpcPriority": 1100,
      "exclusivePlaceList": [
        72278
      ]
    },
    {
      "subId": 1203309,
      "mainId": 12033,
      "order": 11,
      "descTextMapHash": 1355486436,
      "acceptCond": [
        {
          "type": "QUEST_COND_STATE_EQUAL",
          "param": [
            1203308,
            3,
            0,
            0,
            0
          ],
          "param_str": ""
        }
      ],
      "finishCond": [
        {
          "type": "QUEST_CONTENT_COMPLETE_TALK",
          "param": [
            1203310,
            0
          ],
          "param_str": ""
        }
      ],
      "failCond": [],
      "guide": {
        "type": "QUEST_GUIDE_NPC",
        "param": [
          "12445"
        ],
        "guideScene": 3,
        "guideStyle": "QUEST_GUIDE_STYLE_TARGET",
        "guideLayer": "QUEST_GUIDE_LAYER_SCENE"
      },
      "isRewind": true,
      "finishExec": [],
      "failExec": [],
      "beginExec": [
        {
          "type": "QUEST_EXEC_REGISTER_DYNAMIC_GROUP_ONLY",
          "param": [
            "133209068"
          ],
          "param_str": ""
        }
      ],
      "exclusiveNpcList": [
        1047,
        12445,
        12446,
        3173,
        3086,
        12484,
        3016
      ],
      "exclusiveNpcPriority": 1100,
      "exclusivePlaceList": [
        72278
      ]
    },
    {
      "subId": 1203310,
      "mainId": 12033,
      "order": 13,
      "descTextMapHash": 2284850852,
      "acceptCond": [
        {
          "type": "QUEST_COND_STATE_EQUAL",
          "param": [
            1203309,
            3,
            0,
            0,
            0
          ],
          "param_str": ""
        }
      ],
      "finishCond": [
        {
          "type": "QUEST_CONTENT_COMPLETE_TALK",
          "param": [
            1203320,
            0
          ],
          "param_str": ""
        }
      ],
      "failCond": [],
      "guide": {
        "type": "QUEST_GUIDE_NPC",
        "param": [
          "3173"
        ],
        "guideScene": 3,
        "guideStyle": "QUEST_GUIDE_STYLE_TARGET",
        "guideLayer": "QUEST_GUIDE_LAYER_SCENE"
      },
      "isRewind": true,
      "finishExec": [],
      "failExec": [],
      "beginExec": [
        {
          "type": "QUEST_EXEC_REGISTER_DYNAMIC_GROUP_ONLY",
          "param": [
            "133209068"
          ],
          "param_str": ""
        }
      ],
      "exclusiveNpcList": [
        1047,
        12445,
        12446,
        3173,
        3086,
        12484,
        12447,
        3016,
        3093
      ],
      "exclusiveNpcPriority": 1100,
      "exclusivePlaceList": [
        72278
      ]
    },
    {
      "subId": 1203311,
      "mainId": 12033,
      "order": 14,
      "descTextMapHash": 308611244,
      "acceptCond": [
        {
          "type": "QUEST_COND_STATE_EQUAL",
          "param": [
            1203310,
            3,
            0,
            0,
            0
          ],
          "param_str": ""
        }
      ],
      "finishCond": [
        {
          "type": "QUEST_CONTENT_COMPLETE_TALK",
          "param": [
            1203322,
            0
          ],
          "param_str": ""
        }
      ],
      "failCond": [],
      "guide": {
        "type": "QUEST_GUIDE_NPC",
        "param": [
          "3086"
        ],
        "guideScene": 3,
        "guideStyle": "QUEST_GUIDE_STYLE_TARGET",
        "guideLayer": "QUEST_GUIDE_LAYER_SCENE"
      },
      "isRewind": true,
      "finishExec": [],
      "failExec": [],
      "beginExec": [
        {
          "type": "QUEST_EXEC_REGISTER_DYNAMIC_GROUP_ONLY",
          "param": [
            "133209068"
          ],
          "param_str": ""
        },
        {
          "type": "QUEST_EXEC_REGISTER_DYNAMIC_GROUP",
          "param": [
            "3",
            "133209069"
          ],
          "param_str": ""
        }
      ],
      "exclusiveNpcList": [
        1047,
        3173,
        3086,
        3016,
        3093
      ],
      "exclusiveNpcPriority": 1100,
      "exclusivePlaceList": [
        72278
      ]
    },
    {
      "subId": 1203312,
      "mainId": 12033,
      "order": 8,
      "descTextMapHash": 4204547884,
      "acceptCond": [
        {
          "type": "QUEST_COND_STATE_EQUAL",
          "param": [
            1203307,
            3,
            0,
            0,
            0
          ],
          "param_str": ""
        }
      ],
      "finishCond": [
        {
          "type": "QUEST_CONTENT_COMPLETE_TALK",
          "param": [
            1203309,
            0
          ],
          "param_str": ""
        }
      ],
      "failCond": [],
      "guide": {
        "type": "QUEST_GUIDE_LOCATION",
        "param": [
          "Q1203312_N1047"
        ],
        "guideScene": 3,
        "guideStyle": "QUEST_GUIDE_STYLE_POINT",
        "guideLayer": "QUEST_GUIDE_LAYER_SCENE"
      },
      "isRewind": true,
      "finishExec": [],
      "failExec": [],
      "beginExec": [
        {
          "type": "QUEST_EXEC_REGISTER_DYNAMIC_GROUP_ONLY",
          "param": [
            "133209068"
          ],
          "param_str": ""
        }
      ],
      "exclusiveNpcList": [
        1047,
        3054,
        3173,
        3016
      ],
      "exclusiveNpcPriority": 1100
    },
    {
      "subId": 1203313,
      "mainId": 12033,
      "order": 15,
      "descTextMapHash": 1132484492,
      "acceptCond": [
        {
          "type": "QUEST_COND_STATE_EQUAL",
          "param": [
            1203311,
            3,
            0,
            0,
            0
          ],
          "param_str": ""
        }
      ],
      "finishCond": [
        {
          "type": "QUEST_CONTENT_COMPLETE_TALK",
          "param": [
            1203324,
            0
          ],
          "param_str": ""
        }
      ],
      "failCond": [],
      "guide": {
        "type": "QUEST_GUIDE_LOCATION",
        "param": [
          "Q1203313_N12447"
        ],
        "guideScene": 3,
        "guideStyle": "QUEST_GUIDE_STYLE_POINT",
        "guideLayer": "QUEST_GUIDE_LAYER_SCENE"
      },
      "finishParent": true,
      "isRewind": true,
      "finishExec": [
        {
          "type": "QUEST_EXEC_UNREGISTER_DYNAMIC_GROUP",
          "param": [
            "133209068"
          ],
          "param_str": ""
        },
        {
          "type": "QUEST_EXEC_UNREGISTER_DYNAMIC_GROUP",
          "param": [
            "133209069"
          ],
          "param_str": ""
        }
      ],
      "failExec": [],
      "beginExec": [
        {
          "type": "QUEST_EXEC_REGISTER_DYNAMIC_GROUP_ONLY",
          "param": [
            "133209068"
          ],
          "param_str": ""
        },
        {
          "type": "QUEST_EXEC_REGISTER_DYNAMIC_GROUP_ONLY",
          "param": [
            "133209069"
          ],
          "param_str": ""
        }
      ],
      "exclusiveNpcList": [
        1047,
        3173,
        3086,
        12447,
        3016
      ],
      "exclusiveNpcPriority": 1100,
      "exclusivePlaceList": [
        72278
      ]
    }
  ],
  "talks": [
    {
      "id": 1203301,
      "beginWay": "TALK_BEGIN_MANUAL",
      "activeMode": "PLAY_MODE_SINGLE",
      "beginCond": [
        {
          "type": "QUEST_COND_STATE_EQUAL",
          "param": [
            "1203302",
            "2"
          ],
          "param_str": ""
        }
      ],
      "priority": 5,
      "initDialog": 120330101,
      "npcId": [
        12077,
        12485
      ],
      "performCfg": "QuestDialogue/LQ/Ayato1_12033/Q1203301",
      "heroTalk": "TALK_HERO_MAIN",
      "questId": 12033,
      "prePerformCfg": ""
    },
    {
      "id": 1203302,
      "beginWay": "TALK_BEGIN_MANUAL",
      "activeMode": "PLAY_MODE_SINGLE",
      "beginCond": [
        {
          "type": "QUEST_COND_STATE_EQUAL",
          "param": [
            "1203303",
            "2"
          ],
          "param_str": ""
        }
      ],
      "priority": 5,
      "initDialog": 120330201,
      "npcId": [
        12077,
        12485
      ],
      "performCfg": "QuestDialogue/LQ/Ayato1_12033/Q1203302",
      "heroTalk": "TALK_HERO_MAIN",
      "questId": 12033,
      "prePerformCfg": ""
    },
    {
      "id": 1203303,
      "beginWay": "TALK_BEGIN_MANUAL",
      "activeMode": "PLAY_MODE_SINGLE",
      "beginCondComb": "LOGIC_OR",
      "beginCond": [
        {
          "type": "QUEST_COND_STATE_EQUAL",
          "param": [
            "1203305",
            "2"
          ],
          "param_str": ""
        },
        {
          "type": "QUEST_COND_STATE_EQUAL",
          "param": [
            "1203304",
            "2"
          ],
          "param_str": ""
        }
      ],
      "priority": 5,
      "initDialog": 120330301,
      "npcId": [
        12077,
        12485
      ],
      "performCfg": "QuestDialogue/LQ/Ayato1_12033/Q1203303",
      "heroTalk": "TALK_HERO_MAIN",
      "questId": 12033,
      "prePerformCfg": ""
    },
    {
      "id": 1203304,
      "beginWay": "TALK_BEGIN_MANUAL",
      "activeMode": "PLAY_MODE_SINGLE",
      "beginCond": [
        {
          "type": "QUEST_COND_STATE_EQUAL",
          "param": [
            "1203305",
            "2"
          ],
          "param_str": ""
        }
      ],
      "priority": 5,
      "initDialog": 120330401,
      "npcId": [
        1047,
        1033
      ],
      "performCfg": "QuestDialogue/LQ/Ayato1_12033/Q1203304",
      "heroTalk": "TALK_HERO_MAIN",
      "questId": 12033,
      "prePerformCfg": "",
      "lockGameTime": true
    },
    {
      "id": 1203305,
      "beginWay": "TALK_BEGIN_MANUAL",
      "activeMode": "PLAY_MODE_SINGLE",
      "beginCond": [
        {
          "type": "QUEST_COND_STATE_EQUAL",
          "param": [
            "1203306",
            "2"
          ],
          "param_str": ""
        }
      ],
      "priority": 5,
      "initDialog": 120330501,
      "npcId": [
        1033
      ],
      "performCfg": "QuestDialogue/LQ/Ayato1_12033/Q1203305",
      "heroTalk": "TALK_HERO_MAIN",
      "questId": 12033,
      "prePerformCfg": ""
    },
    {
      "id": 1203306,
      "beginWay": "TALK_BEGIN_MANUAL",
      "activeMode": "PLAY_MODE_SINGLE",
      "beginCond": [
        {
          "type": "QUEST_COND_STATE_EQUAL",
          "param": [
            "1203306",
            "2"
          ],
          "param_str": ""
        }
      ],
      "priority": 5,
      "initDialog": 120330601,
      "npcId": [
        12077,
        12485
      ],
      "performCfg": "QuestDialogue/LQ/Ayato1_12033/Q1203306",
      "heroTalk": "TALK_HERO_MAIN",
      "questId": 12033,
      "prePerformCfg": ""
    },
    {
      "id": 1203307,
      "beginWay": "TALK_BEGIN_MANUAL",
      "activeMode": "PLAY_MODE_SINGLE",
      "beginCond": [
        {
          "type": "QUEST_COND_STATE_EQUAL",
          "param": [
            "1203307",
            "2"
          ],
          "param_str": ""
        }
      ],
      "priority": 5,
      "initDialog": 120330701,
      "npcId": [
        3054
      ],
      "performCfg": "QuestDialogue/LQ/Ayato1_12033/Q1203307",
      "heroTalk": "TALK_HERO_MAIN",
      "questId": 12033,
      "prePerformCfg": ""
    },
    {
      "id": 1203308,
      "beginWay": "TALK_BEGIN_MANUAL",
      "activeMode": "PLAY_MODE_SINGLE",
      "beginCondComb": "LOGIC_OR",
      "beginCond": [
        {
          "type": "QUEST_COND_STATE_EQUAL",
          "param": [
            "1203312",
            "2"
          ],
          "param_str": ""
        },
        {
          "type": "QUEST_COND_STATE_EQUAL",
          "param": [
            "1203308",
            "2"
          ],
          "param_str": ""
        }
      ],
      "priority": 5,
      "initDialog": 120330801,
      "npcId": [
        3054
      ],
      "performCfg": "QuestDialogue/LQ/Ayato1_12033/Q1203308",
      "heroTalk": "TALK_HERO_MAIN",
      "questId": 12033,
      "prePerformCfg": ""
    },
    {
      "id": 1203309,
      "beginWay": "TALK_BEGIN_MANUAL",
      "activeMode": "PLAY_MODE_SINGLE",
      "beginCond": [
        {
          "type": "QUEST_COND_STATE_EQUAL",
          "param": [
            "1203312",
            "2"
          ],
          "param_str": ""
        }
      ],
      "priority": 5,
      "initDialog": 120330901,
      "npcId": [
        1047
      ],
      "performCfg": "QuestDialogue/LQ/Ayato1_12033/Q1203309",
      "heroTalk": "TALK_HERO_MAIN",
      "questId": 12033,
      "prePerformCfg": ""
    },
    {
      "id": 1203310,
      "beginWay": "TALK_BEGIN_MANUAL",
      "activeMode": "PLAY_MODE_SINGLE",
      "beginCond": [
        {
          "type": "QUEST_COND_STATE_EQUAL",
          "param": [
            "1203309",
            "2"
          ],
          "param_str": ""
        }
      ],
      "priority": 5,
      "initDialog": 120331001,
      "npcId": [
        12445,
        12446,
        12484
      ],
      "performCfg": "QuestDialogue/LQ/Ayato1_12033/Q1203310",
      "heroTalk": "TALK_HERO_MAIN",
      "questId": 12033,
      "prePerformCfg": "",
      "crowdLOD0List": [
        2,
        3
      ]
    },
    {
      "id": 1203311,
      "beginWay": "TALK_BEGIN_MANUAL",
      "activeMode": "PLAY_MODE_SINGLE",
      "beginCond": [
        {
          "type": "QUEST_COND_STATE_EQUAL",
          "param": [
            "1203310",
            "2"
          ],
          "param_str": ""
        }
      ],
      "priority": 5,
      "initDialog": 120331101,
      "npcId": [
        12445,
        12446,
        12484
      ],
      "performCfg": "QuestDialogue/LQ/Ayato1_12033/Q1203311",
      "heroTalk": "TALK_HERO_MAIN",
      "questId": 12033,
      "prePerformCfg": ""
    },
    {
      "id": 1203312,
      "beginWay": "TALK_BEGIN_MANUAL",
      "activeMode": "PLAY_MODE_SINGLE",
      "beginCondComb": "LOGIC_OR",
      "beginCond": [
        {
          "type": "QUEST_COND_STATE_EQUAL",
          "param": [
            "1203306",
            "2"
          ],
          "param_str": ""
        },
        {
          "type": "QUEST_COND_STATE_EQUAL",
          "param": [
            "1203307",
            "2"
          ],
          "param_str": ""
        },
        {
          "type": "QUEST_COND_STATE_EQUAL",
          "param": [
            "1203312",
            "2"
          ],
          "param_str": ""
        },
        {
          "type": "QUEST_COND_STATE_EQUAL",
          "param": [
            "1203308",
            "2"
          ],
          "param_str": ""
        },
        {
          "type": "QUEST_COND_STATE_EQUAL",
          "param": [
            "1203309",
            "2"
          ],
          "param_str": ""
        }
      ],
      "priority": 5,
      "initDialog": 120331201,
      "npcId": [
        3173
      ],
      "performCfg": "QuestDialogue/LQ/Ayato1_12033/Q1203312",
      "heroTalk": "TALK_HERO_MAIN",
      "questId": 12033,
      "prePerformCfg": "",
      "finishExec": [
        {
          "type": "TALK_EXEC_SET_QUEST_VAR",
          "param": [
            "0",
            "1",
            "12033"
          ],
          "param_str": ""
        }
      ]
    },
    {
      "id": 1203313,
      "beginWay": "TALK_BEGIN_MANUAL",
      "activeMode": "PLAY_MODE_SINGLE",
      "beginCondComb": "LOGIC_AND",
      "beginCond": [
        {
          "type": "QUEST_COND_STATE_EQUAL",
          "param": [
            "1203310",
            "2"
          ],
          "param_str": ""
        },
        {
          "type": "QUEST_COND_QUEST_VAR_EQUAL",
          "param": [
            "0",
            "0",
            "12033"
          ],
          "param_str": ""
        }
      ],
      "priority": 5,
      "nextTalks": [
        1203315
      ],
      "initDialog": 120331301,
      "npcId": [
        3173
      ],
      "performCfg": "QuestDialogue/LQ/Ayato1_12033/Q1203313",
      "heroTalk": "TALK_HERO_MAIN",
      "questId": 12033,
      "prePerformCfg": ""
    },
    {
      "id": 1203314,
      "beginWay": "TALK_BEGIN_MANUAL",
      "activeMode": "PLAY_MODE_SINGLE",
      "beginCondComb": "LOGIC_AND",
      "beginCond": [
        {
          "type": "QUEST_COND_STATE_EQUAL",
          "param": [
            "1203310",
            "2"
          ],
          "param_str": ""
        },
        {
          "type": "QUEST_COND_QUEST_VAR_EQUAL",
          "param": [
            "0",
            "1",
            "12033"
          ],
          "param_str": ""
        }
      ],
      "priority": 5,
      "nextTalks": [
        1203315
      ],
      "initDialog": 120331401,
      "npcId": [
        3173
      ],
      "performCfg": "QuestDialogue/LQ/Ayato1_12033/Q1203314",
      "heroTalk": "TALK_HERO_MAIN",
      "questId": 12033,
      "prePerformCfg": ""
    },
    {
      "id": 1203315,
      "activeMode": "PLAY_MODE_SINGLE",
      "beginCond": [
        {
          "type": "QUEST_COND_STATE_EQUAL",
          "param": [
            "1203310",
            "2"
          ],
          "param_str": ""
        }
      ],
      "priority": 5,
      "nextTalks": [
        1203316,
        1203317,
        1203318,
        1203319
      ],
      "initDialog": 120331501,
      "npcId": [
        3173
      ],
      "performCfg": "QuestDialogue/LQ/Ayato1_12033/Q1203315",
      "heroTalk": "TALK_HERO_MAIN",
      "questId": 12033,
      "prePerformCfg": ""
    },
    {
      "id": 1203316,
      "activeMode": "PLAY_MODE_SINGLE",
      "beginCond": [
        {
          "type": "QUEST_COND_STATE_EQUAL",
          "param": [
            "1203310",
            "2"
          ],
          "param_str": ""
        }
      ],
      "priority": 5,
      "nextTalks": [
        1203320
      ],
      "initDialog": 120331601,
      "npcId": [
        3173
      ],
      "performCfg": "QuestDialogue/LQ/Ayato1_12033/Q1203316",
      "heroTalk": "TALK_HERO_MAIN",
      "questId": 12033,
      "prePerformCfg": ""
    },
    {
      "id": 1203317,
      "activeMode": "PLAY_MODE_SINGLE",
      "beginCond": [
        {
          "type": "QUEST_COND_STATE_EQUAL",
          "param": [
            "1203310",
            "2"
          ],
          "param_str": ""
        }
      ],
      "priority": 5,
      "nextTalks": [
        1203320
      ],
      "initDialog": 120331701,
      "npcId": [
        3173
      ],
      "performCfg": "QuestDialogue/LQ/Ayato1_12033/Q1203317",
      "heroTalk": "TALK_HERO_MAIN",
      "questId": 12033,
      "prePerformCfg": ""
    },
    {
      "id": 1203318,
      "activeMode": "PLAY_MODE_SINGLE",
      "beginCond": [
        {
          "type": "QUEST_COND_STATE_EQUAL",
          "param": [
            "1203310",
            "2"
          ],
          "param_str": ""
        }
      ],
      "priority": 5,
      "nextTalks": [
        1203320
      ],
      "initDialog": 120331801,
      "npcId": [
        3173
      ],
      "performCfg": "QuestDialogue/LQ/Ayato1_12033/Q1203318",
      "heroTalk": "TALK_HERO_MAIN",
      "questId": 12033,
      "prePerformCfg": ""
    },
    {
      "id": 1203319,
      "activeMode": "PLAY_MODE_SINGLE",
      "beginCond": [
        {
          "type": "QUEST_COND_STATE_EQUAL",
          "param": [
            "1203310",
            "2"
          ],
          "param_str": ""
        }
      ],
      "priority": 5,
      "nextTalks": [
        1203320
      ],
      "initDialog": 120331901,
      "npcId": [
        3173
      ],
      "performCfg": "QuestDialogue/LQ/Ayato1_12033/Q1203319",
      "heroTalk": "TALK_HERO_MAIN",
      "questId": 12033,
      "prePerformCfg": ""
    },
    {
      "id": 1203320,
      "activeMode": "PLAY_MODE_SINGLE",
      "beginCond": [
        {
          "type": "QUEST_COND_STATE_EQUAL",
          "param": [
            "1203310",
            "2"
          ],
          "param_str": ""
        }
      ],
      "priority": 5,
      "initDialog": 120332001,
      "npcId": [
        3173
      ],
      "performCfg": "QuestDialogue/LQ/Ayato1_12033/Q1203320",
      "heroTalk": "TALK_HERO_MAIN",
      "questId": 12033,
      "prePerformCfg": ""
    },
    {
      "id": 1203321,
      "beginWay": "TALK_BEGIN_MANUAL",
      "activeMode": "PLAY_MODE_SINGLE",
      "beginCondComb": "LOGIC_OR",
      "beginCond": [
        {
          "type": "QUEST_COND_STATE_EQUAL",
          "param": [
            "1203311",
            "2"
          ],
          "param_str": ""
        },
        {
          "type": "QUEST_COND_STATE_EQUAL",
          "param": [
            "1203313",
            "2"
          ],
          "param_str": ""
        }
      ],
      "priority": 5,
      "initDialog": 120332101,
      "npcId": [
        3173
      ],
      "performCfg": "QuestDialogue/LQ/Ayato1_12033/Q1203321",
      "heroTalk": "TALK_HERO_MAIN",
      "questId": 12033,
      "prePerformCfg": ""
    },
    {
      "id": 1203322,
      "beginWay": "TALK_BEGIN_MANUAL",
      "activeMode": "PLAY_MODE_SINGLE",
      "beginCond": [
        {
          "type": "QUEST_COND_STATE_EQUAL",
          "param": [
            "1203311",
            "2"
          ],
          "param_str": ""
        }
      ],
      "priority": 5,
      "initDialog": 120332201,
      "npcId": [
        3086
      ],
      "performCfg": "QuestDialogue/LQ/Ayato1_12033/Q1203322",
      "heroTalk": "TALK_HERO_MAIN",
      "questId": 12033,
      "prePerformCfg": ""
    },
    {
      "id": 1203323,
      "beginWay": "TALK_BEGIN_MANUAL",
      "activeMode": "PLAY_MODE_SINGLE",
      "beginCond": [
        {
          "type": "QUEST_COND_STATE_EQUAL",
          "param": [
            "1203313",
            "2"
          ],
          "param_str": ""
        }
      ],
      "priority": 5,
      "initDialog": 120332301,
      "npcId": [
        3086
      ],
      "performCfg": "QuestDialogue/LQ/Ayato1_12033/Q1203323",
      "heroTalk": "TALK_HERO_MAIN",
      "questId": 12033,
      "prePerformCfg": ""
    },
    {
      "id": 1203324,
      "beginWay": "TALK_BEGIN_MANUAL",
      "activeMode": "PLAY_MODE_SINGLE",
      "beginCond": [
        {
          "type": "QUEST_COND_STATE_EQUAL",
          "param": [
            "1203313",
            "2"
          ],
          "param_str": ""
        }
      ],
      "priority": 5,
      "initDialog": 120332401,
      "npcId": [
        1047
      ],
      "performCfg": "QuestDialogue/LQ/Ayato1_12033/Q1203324",
      "heroTalk": "TALK_HERO_MAIN",
      "questId": 12033,
      "prePerformCfg": ""
    },
    {
      "id": 1203326,
      "beginWay": "TALK_BEGIN_MANUAL",
      "activeMode": "PLAY_MODE_SINGLE",
      "beginCondComb": "LOGIC_OR",
      "beginCond": [
        {
          "type": "QUEST_COND_STATE_EQUAL",
          "param": [
            "1203301",
            "2"
          ],
          "param_str": ""
        },
        {
          "type": "QUEST_COND_STATE_EQUAL",
          "param": [
            "1203302",
            "2"
          ],
          "param_str": ""
        },
        {
          "type": "QUEST_COND_STATE_EQUAL",
          "param": [
            "1203303",
            "2"
          ],
          "param_str": ""
        },
        {
          "type": "QUEST_COND_STATE_EQUAL",
          "param": [
            "1203304",
            "2"
          ],
          "param_str": ""
        },
        {
          "type": "QUEST_COND_STATE_EQUAL",
          "param": [
            "1203305",
            "2"
          ],
          "param_str": ""
        }
      ],
      "priority": 5,
      "initDialog": 120331202,
      "npcId": [
        3173
      ],
      "performCfg": "QuestDialogue/LQ/Ayato1_12033/Q1203326",
      "heroTalk": "TALK_HERO_MAIN",
      "questId": 12033,
      "prePerformCfg": ""
    }
  ]
}