{
  "id": 13003,
  "type": "LQ",
  "series": 13000,
  "titleTextMapHash": 2376344271,
  "descTextMapHash": 891967110,
  "luaPath": "Actor/Quest/LQ13003",
  "rewardIdList": [
    113003
  ],
  "chapterId": 2030,
  "subQuests": [
    {
      "mainId": 13003,
      "subId": 1300301,
      "order": 1,
      "descTextMapHash": 3368444500,
      "acceptCond": [
        {
          "type": "QUEST_COND_UNKNOWN",
          "param": [
            0,
            0
          ]
        }
      ],
      "finishCond": [],
      "failCond": [],
      "guide": {
        "type": "QUEST_GUIDE_NPC",
        "param": [
          "4019"
        ],
        "guideScene": 3,
        "guideStyle": "QUEST_GUIDE_STYLE_TARGET",
        "guideLayer": "QUEST_GUIDE_LAYER_SCENE"
      },
      "finishExec": [],
      "failExec": [],
      "beginExec": []
    },
    {
      "mainId": 13003,
      "subId": 1300302,
      "order": 2,
      "descTextMapHash": 2158784492,
      "acceptCond": [
        {
          "type": "QUEST_COND_UNKNOWN",
          "param": [
            0,
            0
          ]
        }
      ],
      "finishCond": [],
      "failCond": [],
      "guide": {},
      "finishExec": [],
      "failExec": [],
      "beginExec": []
    },
    {
      "mainId": 13003,
      "subId": 1300303,
      "order": 3,
      "descTextMapHash": 2409885156,
      "acceptCond": [
        {
          "type": "QUEST_COND_UNKNOWN",
          "param": [
            0,
            0
          ]
        }
      ],
      "finishCond": [],
      "failCond": [],
      "guide": {
        "type": "QUEST_GUIDE_NPC",
        "param": [
          "1050"
        ],
        "guideScene": 3,
        "guideStyle": "QUEST_GUIDE_STYLE_TARGET",
        "guideLayer": "QUEST_GUIDE_LAYER_SCENE"
      },
      "finishExec": [],
      "failExec": [],
      "beginExec": []
    }
  ],
  "talks": [
    {
      "id": 1300301,
      "beginWay": "TALK_BEGIN_MANUAL",
      "activeMode": "PLAY_MODE_SINGLE",
      "beginCond": [
        {
          "type": "QUEST_COND_STATE_EQUAL",
          "param": [
            "1300301",
            "2"
          ],
          "param_str": ""
        }
      ],
      "priority": 5,
      "initDialog": 130030101,
      "npcId": [
        4019
      ],
      "performCfg": "QuestDialogue/LQ/Tighnari1_13003/Q1300301",
      "heroTalk": "TALK_HERO_MAIN",
      "questId": 13003,
      "prePerformCfg": ""
    },
    {
      "id": 1300303,
      "beginWay": "TALK_BEGIN_MANUAL",
      "activeMode": "PLAY_MODE_SINGLE",
      "beginCond": [
        {
          "type": "QUEST_COND_STATE_EQUAL",
          "param": [
            "1300303",
            "2"
          ],
          "param_str": ""
        }
      ],
      "priority": 5,
      "initDialog": 130030301,
      "npcId": [
        1050,
        12686
      ],
      "performCfg": "QuestDialogue/LQ/Tighnari1_13003/Q1300303",
      "heroTalk": "TALK_HERO_MAIN",
      "questId": 13003,
      "prePerformCfg": ""
    },
    {
      "id": 1300304,
      "beginWay": "TALK_BEGIN_MANUAL",
      "activeMode": "PLAY_MODE_SINGLE",
      "beginCond": [
        {
          "type": "QUEST_COND_STATE_EQUAL",
          "param": [
            "1300303",
            "2"
          ],
          "param_str": ""
        }
      ],
      "priority": 5,
      "initDialog": 130030401,
      "npcId": [
        12747
      ],
      "performCfg": "QuestDialogue/LQ/Tighnari1_13003/Q1300304",
      "questId": 13003,
      "prePerformCfg": ""
    },
    {
      "id": 1300305,
      "beginWay": "TALK_BEGIN_MANUAL",
      "activeMode": "PLAY_MODE_SINGLE",
      "beginCond": [
        {
          "type": "QUEST_COND_STATE_EQUAL",
          "param": [
            "1300303",
            "2"
          ],
          "param_str": ""
        }
      ],
      "priority": 5,
      "initDialog": 130030501,
      "npcId": [
        12748
      ],
      "performCfg": "QuestDialogue/LQ/Tighnari1_13003/Q1300305",
      "questId": 13003,
      "prePerformCfg": ""
    }
  ]
}