{
  "id": 13008,
  "type": "LQ",
  "series": 2033,
  "titleTextMapHash": 2102836735,
  "descTextMapHash": 3302378998,
  "luaPath": "Actor/Quest/LQ13008",
  "rewardIdList": [
    113008
  ],
  "chapterId": 2033,
  "subQuests": [
    {
      "mainId": 13008,
      "subId": 1300801,
      "order": 1,
      "descTextMapHash": 2296409212,
      "acceptCond": [
        {
          "type": "QUEST_COND_UNKNOWN",
          "param": [
            0,
            0
          ]
        }
      ],
      "finishCond": [],
      "failCond": [],
      "guide": {},
      "finishExec": [],
      "failExec": [],
      "beginExec": []
    },
    {
      "mainId": 13008,
      "subId": 1300802,
      "order": 2,
      "descTextMapHash": 3865362828,
      "acceptCond": [
        {
          "type": "QUEST_COND_UNKNOWN",
          "param": [
            0,
            0
          ]
        }
      ],
      "finishCond": [],
      "failCond": [],
      "guide": {
        "type": "QUEST_GUIDE_NPC",
        "param": [
          "12714"
        ],
        "guideScene": 3,
        "guideStyle": "QUEST_GUIDE_STYLE_TARGET",
        "guideLayer": "QUEST_GUIDE_LAYER_SCENE"
      },
      "finishExec": [],
      "failExec": [],
      "beginExec": []
    },
    {
      "mainId": 13008,
      "subId": 1300803,
      "order": 9,
      "showType": "QUEST_HIDDEN",
      "acceptCond": [
        {
          "type": "QUEST_COND_UNKNOWN",
          "param": [
            0,
            0
          ]
        }
      ],
      "finishCond": [],
      "failCond": [],
      "guide": {
        "guideScene": 3,
        "guideStyle": "QUEST_GUIDE_STYLE_TARGET",
        "guideLayer": "QUEST_GUIDE_LAYER_SCENE"
      },
      "finishExec": [],
      "failExec": [],
      "beginExec": []
    },
    {
      "mainId": 13008,
      "subId": 1300804,
      "order": 4,
      "descTextMapHash": 753196796,
      "acceptCond": [
        {
          "type": "QUEST_COND_UNKNOWN",
          "param": [
            0,
            0
          ]
        }
      ],
      "finishCond": [],
      "failCond": [],
      "guide": {
        "type": "QUEST_GUIDE_NPC",
        "param": [
          "1054"
        ],
        "guideScene": 3,
        "guideStyle": "QUEST_GUIDE_STYLE_TARGET",
        "guideLayer": "QUEST_GUIDE_LAYER_SCENE"
      },
      "finishExec": [],
      "failExec": [],
      "beginExec": []
    },
    {
      "mainId": 13008,
      "subId": 1300805,
      "order": 8,
      "showType": "QUEST_HIDDEN",
      "acceptCond": [
        {
          "type": "QUEST_COND_UNKNOWN",
          "param": [
            0,
            0
          ]
        }
      ],
      "finishCond": [],
      "failCond": [],
      "guide": {
        "guideScene": 3,
        "guideStyle": "QUEST_GUIDE_STYLE_TARGET",
        "guideLayer": "QUEST_GUIDE_LAYER_SCENE"
      },
      "finishExec": [],
      "failExec": [],
      "beginExec": []
    },
    {
      "mainId": 13008,
      "subId": 1300806,
      "order": 5,
      "descTextMapHash": 1855404884,
      "acceptCond": [
        {
          "type": "QUEST_COND_UNKNOWN",
          "param": [
            0,
            0
          ]
        }
      ],
      "finishCond": [],
      "failCond": [],
      "guide": {},
      "finishExec": [],
      "failExec": [],
      "beginExec": []
    },
    {
      "mainId": 13008,
      "subId": 1300807,
      "order": 6,
      "descTextMapHash": 3237121284,
      "acceptCond": [
        {
          "type": "QUEST_COND_UNKNOWN",
          "param": [
            0,
            0
          ]
        }
      ],
      "finishCond": [],
      "failCond": [],
      "guide": {
        "type": "QUEST_GUIDE_NPC",
        "param": [
          "12713"
        ],
        "guideScene": 3,
        "guideStyle": "QUEST_GUIDE_STYLE_TARGET",
        "guideLayer": "QUEST_GUIDE_LAYER_SCENE"
      },
      "finishExec": [],
      "failExec": [],
      "beginExec": []
    },
    {
      "mainId": 13008,
      "subId": 1300808,
      "order": 7,
      "showType": "QUEST_HIDDEN",
      "acceptCond": [
        {
          "type": "QUEST_COND_UNKNOWN",
          "param": [
            0,
            0
          ]
        }
      ],
      "finishCond": [],
      "failCond": [],
      "guide": {
        "guideScene": 3,
        "guideStyle": "QUEST_GUIDE_STYLE_TARGET",
        "guideLayer": "QUEST_GUIDE_LAYER_SCENE"
      },
      "finishExec": [],
      "failExec": [],
      "beginExec": []
    }
  ],
  "talks": [
    {
      "id": 1300717,
      "beginWay": "TALK_BEGIN_MANUAL",
      "activeMode": "PLAY_MODE_SINGLE",
      "beginCond": [
        {
          "type": "QUEST_COND_STATE_EQUAL",
          "param": [
            "1300801",
            "2"
          ],
          "param_str": ""
        }
      ],
      "priority": 5,
      "initDialog": 130071701,
      "npcId": [
        12713,
        1054
      ],
      "performCfg": "QuestDialogue/LQ/Nilou1_13007/Q1300717",
      "heroTalk": "TALK_HERO_MAIN",
      "questId": 13008,
      "prePerformCfg": ""
    },
    {
      "id": 1300801,
      "beginWay": "TALK_BEGIN_MANUAL",
      "activeMode": "PLAY_MODE_SINGLE",
      "beginCond": [
        {
          "type": "QUEST_COND_STATE_EQUAL",
          "param": [
            "1300802",
            "2"
          ],
          "param_str": ""
        }
      ],
      "priority": 5,
      "initDialog": 130080101,
      "npcId": [
        12771,
        12714
      ],
      "performCfg": "QuestDialogue/LQ/Nilou1_13008/Q1300801",
      "heroTalk": "TALK_HERO_MAIN",
      "questId": 13008,
      "prePerformCfg": ""
    },
    {
      "id": 1300802,
      "activeMode": "PLAY_MODE_SINGLE",
      "beginCond": [
        {
          "type": "QUEST_COND_STATE_EQUAL",
          "param": [
            "1300802",
            "2"
          ],
          "param_str": ""
        }
      ],
      "priority": 5,
      "initDialog": 130080118,
      "npcId": [
        12771,
        12714
      ],
      "performCfg": "QuestDialogue/LQ/Nilou1_13008/Q1300802",
      "heroTalk": "TALK_HERO_MAIN",
      "questId": 13008,
      "prePerformCfg": ""
    },
    {
      "id": 1300803,
      "beginWay": "TALK_BEGIN_MANUAL",
      "activeMode": "PLAY_MODE_SINGLE",
      "beginCond": [
        {
          "type": "QUEST_COND_STATE_EQUAL",
          "param": [
            "1300804",
            "2"
          ],
          "param_str": ""
        }
      ],
      "priority": 5,
      "initDialog": 130080301,
      "npcId": [
        12713
      ],
      "performCfg": "QuestDialogue/LQ/Nilou1_13008/Q1300803",
      "heroTalk": "TALK_HERO_MAIN",
      "questId": 13008,
      "prePerformCfg": ""
    },
    {
      "id": 1300804,
      "beginWay": "TALK_BEGIN_MANUAL",
      "activeMode": "PLAY_MODE_SINGLE",
      "beginCond": [
        {
          "type": "QUEST_COND_STATE_EQUAL",
          "param": [
            "1300804",
            "2"
          ],
          "param_str": ""
        }
      ],
      "priority": 5,
      "initDialog": 130080401,
      "npcId": [
        1054
      ],
      "performCfg": "QuestDialogue/LQ/Nilou1_13008/Q1300804",
      "heroTalk": "TALK_HERO_MAIN",
      "questId": 13008,
      "prePerformCfg": ""
    },
    {
      "id": 1300805,
      "beginWay": "TALK_BEGIN_MANUAL",
      "activeMode": "PLAY_MODE_SINGLE",
      "beginCond": [
        {
          "type": "QUEST_COND_STATE_EQUAL",
          "param": [
            "1300806",
            "2"
          ],
          "param_str": ""
        }
      ],
      "priority": 5,
      "initDialog": 130080501,
      "npcId": [
        1054
      ],
      "performCfg": "QuestDialogue/LQ/Nilou1_13008/Q1300805",
      "heroTalk": "TALK_HERO_MAIN",
      "questId": 13008,
      "prePerformCfg": ""
    },
    {
      "id": 1300806,
      "beginWay": "TALK_BEGIN_MANUAL",
      "activeMode": "PLAY_MODE_SINGLE",
      "beginCond": [
        {
          "type": "QUEST_COND_STATE_EQUAL",
          "param": [
            "1300807",
            "2"
          ],
          "param_str": ""
        }
      ],
      "priority": 5,
      "initDialog": 130080601,
      "npcId": [
        1054,
        12713
      ],
      "performCfg": "QuestDialogue/LQ/Nilou1_13008/Q1300806",
      "heroTalk": "TALK_HERO_MAIN",
      "questId": 13008,
      "prePerformCfg": ""
    },
    {
      "id": 1300807,
      "activeMode": "PLAY_MODE_SINGLE",
      "beginCond": [
        {
          "type": "QUEST_COND_STATE_EQUAL",
          "param": [
            "1300802",
            "2"
          ],
          "param_str": ""
        }
      ],
      "priority": 5,
      "initDialog": 130080131,
      "npcId": [
        12771,
        12714
      ],
      "performCfg": "QuestDialogue/LQ/Nilou1_13008/Q1300807",
      "heroTalk": "TALK_HERO_MAIN",
      "questId": 13008,
      "prePerformCfg": ""
    },
    {
      "id": 1300808,
      "activeMode": "PLAY_MODE_SINGLE",
      "beginCond": [
        {
          "type": "QUEST_COND_STATE_EQUAL",
          "param": [
            "1300802",
            "2"
          ],
          "param_str": ""
        }
      ],
      "priority": 5,
      "initDialog": 130080153,
      "npcId": [
        12771,
        12714
      ],
      "performCfg": "QuestDialogue/LQ/Nilou1_13008/Q1300808",
      "heroTalk": "TALK_HERO_MAIN",
      "questId": 13008,
      "prePerformCfg": ""
    },
    {
      "id": 1300809,
      "activeMode": "PLAY_MODE_SINGLE",
      "beginCond": [
        {
          "type": "QUEST_COND_STATE_EQUAL",
          "param": [
            "1300802",
            "2"
          ],
          "param_str": ""
        }
      ],
      "priority": 5,
      "initDialog": 130080188,
      "npcId": [
        12771,
        12714
      ],
      "performCfg": "QuestDialogue/LQ/Nilou1_13008/Q1300809",
      "heroTalk": "TALK_HERO_MAIN",
      "questId": 13008,
      "prePerformCfg": ""
    },
    {
      "id": 1300810,
      "activeMode": "PLAY_MODE_SINGLE",
      "beginCond": [
        {
          "type": "QUEST_COND_STATE_EQUAL",
          "param": [
            "1300802",
            "2"
          ],
          "param_str": ""
        }
      ],
      "priority": 5,
      "initDialog": 130080213,
      "npcId": [
        12771,
        12714
      ],
      "performCfg": "QuestDialogue/LQ/Nilou1_13008/Q1300810",
      "heroTalk": "TALK_HERO_MAIN",
      "questId": 13008,
      "prePerformCfg": ""
    },
    {
      "id": 1300811,
      "beginWay": "TALK_BEGIN_MANUAL",
      "activeMode": "PLAY_MODE_SINGLE",
      "beginCondComb": "LOGIC_OR",
      "beginCond": [
        {
          "type": "QUEST_COND_STATE_EQUAL",
          "param": [
            "1300801",
            "2"
          ],
          "param_str": ""
        },
        {
          "type": "QUEST_COND_STATE_EQUAL",
          "param": [
            "1300802",
            "2"
          ],
          "param_str": ""
        }
      ],
      "priority": 5,
      "initDialog": 130062901,
      "npcId": [
        12880
      ],
      "performCfg": "",
      "heroTalk": "TALK_HERO_MAIN",
      "questId": 13008,
      "prePerformCfg": ""
    }
  ]
}