{
  "id": 13019,
  "type": "LQ",
  "series": 2039,
  "titleTextMapHash": 910488743,
  "descTextMapHash": 978320830,
  "luaPath": "Actor/Quest/LQ13019",
  "suggestTrackMainQuestList": [
    13027
  ],
  "rewardIdList": [
    113019
  ],
  "chapterId": 2039,
  "subQuests": [
    {
      "mainId": 13019,
      "subId": 1301901,
      "order": 1,
      "descTextMapHash": 4178431940,
      "acceptCond": [
        {
          "type": "QUEST_COND_UNKNOWN",
          "param": [
            0,
            0
          ]
        }
      ],
      "finishCond": [],
      "failCond": [],
      "guide": {
        "type": "QUEST_GUIDE_LOCATION",
        "autoGuide": "QUEST_GUIDE_AUTO_ENABLE",
        "param": [
          "[3_330201375:-520.148,227.346,2693.918,0.000,261.102,0.000]"
        ],
        "guideScene": 3,
        "guideStyle": "QUEST_GUIDE_STYLE_POINT",
        "guideLayer": "QUEST_GUIDE_LAYER_SCENE"
      },
      "finishExec": [],
      "failExec": [],
      "beginExec": []
    },
    {
      "mainId": 13019,
      "subId": 1301902,
      "order": 2,
      "descTextMapHash": 3988323380,
      "acceptCond": [
        {
          "type": "QUEST_COND_UNKNOWN",
          "param": [
            0,
            0
          ]
        }
      ],
      "finishCond": [],
      "failCond": [],
      "guide": {
        "type": "QUEST_GUIDE_NPC",
        "autoGuide": "QUEST_GUIDE_AUTO_ENABLE",
        "param": [
          "13163"
        ],
        "guideScene": 3,
        "guideStyle": "QUEST_GUIDE_STYLE_TARGET",
        "guideLayer": "QUEST_GUIDE_LAYER_SCENE"
      },
      "finishExec": [],
      "failExec": [],
      "beginExec": []
    },
    {
      "mainId": 13019,
      "subId": 1301903,
      "order": 3,
      "descTextMapHash": 2544091916,
      "acceptCond": [
        {
          "type": "QUEST_COND_UNKNOWN",
          "param": [
            0,
            0
          ]
        }
      ],
      "finishCond": [],
      "failCond": [],
      "guide": {
        "type": "QUEST_GUIDE_NPC",
        "autoGuide": "QUEST_GUIDE_AUTO_ENABLE",
        "param": [
          "13162"
        ],
        "guideScene": 3,
        "guideStyle": "QUEST_GUIDE_STYLE_TARGET",
        "guideLayer": "QUEST_GUIDE_LAYER_SCENE"
      },
      "finishExec": [],
      "failExec": [],
      "beginExec": []
    },
    {
      "mainId": 13019,
      "subId": 1301904,
      "order": 5,
      "descTextMapHash": 1205983644,
      "acceptCond": [
        {
          "type": "QUEST_COND_UNKNOWN",
          "param": [
            0,
            0
          ]
        }
      ],
      "finishCond": [],
      "failCond": [],
      "guide": {
        "type": "QUEST_GUIDE_LOCATION",
        "autoGuide": "QUEST_GUIDE_AUTO_ENABLE",
        "param": [
          "Q13019AfterMet1Stop1"
        ],
        "guideScene": 3,
        "guideStyle": "QUEST_GUIDE_STYLE_POINT",
        "guideLayer": "QUEST_GUIDE_LAYER_SCENE"
      },
      "finishExec": [],
      "failExec": [],
      "beginExec": []
    },
    {
      "mainId": 13019,
      "subId": 1301905,
      "order": 6,
      "descTextMapHash": 644464948,
      "acceptCond": [
        {
          "type": "QUEST_COND_UNKNOWN",
          "param": [
            0,
            0
          ]
        }
      ],
      "finishCond": [],
      "failCond": [],
      "guide": {
        "type": "QUEST_GUIDE_NPC",
        "autoGuide": "QUEST_GUIDE_AUTO_ENABLE",
        "param": [
          "13162"
        ],
        "guideScene": 3,
        "guideStyle": "QUEST_GUIDE_STYLE_TARGET",
        "guideLayer": "QUEST_GUIDE_LAYER_SCENE"
      },
      "finishExec": [],
      "failExec": [],
      "beginExec": []
    },
    {
      "mainId": 13019,
      "subId": 1301906,
      "order": 7,
      "descTextMapHash": 3631049188,
      "acceptCond": [
        {
          "type": "QUEST_COND_UNKNOWN",
          "param": [
            0,
            0
          ]
        }
      ],
      "finishCond": [],
      "failCond": [],
      "guide": {
        "type": "QUEST_GUIDE_LOCATION",
        "autoGuide": "QUEST_GUIDE_AUTO_ENABLE",
        "param": [
          "[3_330201474:-550.417,201.417,2942.445]",
          "30"
        ],
        "guideScene": 3,
        "guideStyle": "QUEST_GUIDE_STYLE_TARGET",
        "guideLayer": "QUEST_GUIDE_LAYER_SCENE"
      },
      "finishExec": [],
      "failExec": [],
      "beginExec": []
    },
    {
      "mainId": 13019,
      "subId": 1301907,
      "order": 9,
      "descTextMapHash": 3943678804,
      "acceptCond": [
        {
          "type": "QUEST_COND_UNKNOWN",
          "param": [
            0,
            0
          ]
        }
      ],
      "finishCond": [],
      "failCond": [],
      "guide": {
        "type": "QUEST_GUIDE_NPC",
        "autoGuide": "QUEST_GUIDE_AUTO_ENABLE",
        "param": [
          "13162"
        ],
        "guideScene": 3,
        "guideStyle": "QUEST_GUIDE_STYLE_TARGET",
        "guideLayer": "QUEST_GUIDE_LAYER_SCENE"
      },
      "finishExec": [],
      "failExec": [],
      "beginExec": []
    },
    {
      "mainId": 13019,
      "subId": 1301908,
      "order": 10,
      "descTextMapHash": 1720308356,
      "acceptCond": [
        {
          "type": "QUEST_COND_UNKNOWN",
          "param": [
            0,
            0
          ]
        }
      ],
      "finishCond": [],
      "failCond": [],
      "guide": {
        "type": "QUEST_GUIDE_LOCATION",
        "autoGuide": "QUEST_GUIDE_AUTO_ENABLE",
        "param": [
          "[3_330201479:-593.550,211.467,2983.429,0.000,268.165,0.000]",
          "35"
        ],
        "guideScene": 3,
        "guideStyle": "QUEST_GUIDE_STYLE_TARGET",
        "guideLayer": "QUEST_GUIDE_LAYER_SCENE"
      },
      "finishExec": [],
      "failExec": [],
      "beginExec": []
    },
    {
      "mainId": 13019,
      "subId": 1301909,
      "order": 12,
      "descTextMapHash": 2962800780,
      "acceptCond": [
        {
          "type": "QUEST_COND_UNKNOWN",
          "param": [
            0,
            0
          ]
        }
      ],
      "finishCond": [],
      "failCond": [],
      "guide": {
        "type": "QUEST_GUIDE_NPC",
        "autoGuide": "QUEST_GUIDE_AUTO_ENABLE",
        "param": [
          "13162"
        ],
        "guideScene": 3,
        "guideStyle": "QUEST_GUIDE_STYLE_TARGET",
        "guideLayer": "QUEST_GUIDE_LAYER_SCENE"
      },
      "finishExec": [],
      "failExec": [],
      "beginExec": []
    },
    {
      "mainId": 13019,
      "subId": 1301910,
      "order": 13,
      "descTextMapHash": 2896577484,
      "acceptCond": [
        {
          "type": "QUEST_COND_UNKNOWN",
          "param": [
            0,
            0
          ]
        }
      ],
      "finishCond": [],
      "failCond": [],
      "guide": {
        "type": "QUEST_GUIDE_NPC",
        "autoGuide": "QUEST_GUIDE_AUTO_ENABLE",
        "param": [
          "13162"
        ],
        "guideScene": 3,
        "guideStyle": "QUEST_GUIDE_STYLE_TARGET",
        "guideLayer": "QUEST_GUIDE_LAYER_SCENE"
      },
      "finishExec": [],
      "failExec": [],
      "beginExec": []
    },
    {
      "mainId": 13019,
      "subId": 1301911,
      "order": 17,
      "descTextMapHash": 3418430700,
      "acceptCond": [
        {
          "type": "QUEST_COND_UNKNOWN",
          "param": [
            0,
            0
          ]
        }
      ],
      "finishCond": [],
      "failCond": [],
      "guide": {
        "type": "QUEST_GUIDE_LOCATION",
        "autoGuide": "QUEST_GUIDE_AUTO_ENABLE",
        "param": [
          "Q13019DeadZoneNahida",
          "68"
        ],
        "guideScene": 3,
        "guideStyle": "QUEST_GUIDE_STYLE_POINT",
        "guideLayer": "QUEST_GUIDE_LAYER_SCENE"
      },
      "finishExec": [],
      "failExec": [],
      "beginExec": []
    },
    {
      "mainId": 13019,
      "subId": 1301912,
      "order": 18,
      "descTextMapHash": 2706302212,
      "acceptCond": [
        {
          "type": "QUEST_COND_UNKNOWN",
          "param": [
            0,
            0
          ]
        }
      ],
      "finishCond": [],
      "failCond": [],
      "guide": {
        "type": "QUEST_GUIDE_LOCATION",
        "autoGuide": "QUEST_GUIDE_AUTO_ENABLE",
        "param": [
          "Q13019DeadZoneMon"
        ],
        "guideScene": 3,
        "guideStyle": "QUEST_GUIDE_STYLE_POINT",
        "guideLayer": "QUEST_GUIDE_LAYER_SCENE"
      },
      "finishExec": [],
      "failExec": [],
      "beginExec": []
    },
    {
      "mainId": 13019,
      "subId": 1301913,
      "order": 19,
      "descTextMapHash": 2490590596,
      "acceptCond": [
        {
          "type": "QUEST_COND_UNKNOWN",
          "param": [
            0,
            0
          ]
        }
      ],
      "finishCond": [],
      "failCond": [],
      "guide": {
        "type": "QUEST_GUIDE_LOCATION",
        "autoGuide": "QUEST_GUIDE_AUTO_ENABLE",
        "param": [
          "Q13019HideStartNahida"
        ],
        "guideScene": 3,
        "guideStyle": "QUEST_GUIDE_STYLE_POINT",
        "guideLayer": "QUEST_GUIDE_LAYER_SCENE"
      },
      "finishExec": [],
      "failExec": [],
      "beginExec": []
    },
    {
      "mainId": 13019,
      "subId": 1301914,
      "order": 20,
      "descTextMapHash": 3690670092,
      "acceptCond": [
        {
          "type": "QUEST_COND_UNKNOWN",
          "param": [
            0,
            0
          ]
        }
      ],
      "finishCond": [],
      "failCond": [],
      "guide": {
        "type": "QUEST_GUIDE_LOCATION",
        "autoGuide": "QUEST_GUIDE_AUTO_ENABLE",
        "param": [
          "Q13019HideDecision1Nahida"
        ],
        "guideScene": 3,
        "guideStyle": "QUEST_GUIDE_STYLE_POINT",
        "guideLayer": "QUEST_GUIDE_LAYER_SCENE"
      },
      "finishExec": [],
      "failExec": [],
      "beginExec": []
    },
    {
      "mainId": 13019,
      "subId": 1301915,
      "order": 21,
      "descTextMapHash": 3212258844,
      "acceptCond": [
        {
          "type": "QUEST_COND_UNKNOWN",
          "param": [
            0,
            0
          ]
        }
      ],
      "finishCond": [],
      "failCond": [],
      "guide": {
        "type": "QUEST_GUIDE_LOCATION",
        "autoGuide": "QUEST_GUIDE_AUTO_ENABLE",
        "param": [
          "Q13019HidePlayerWatchPos"
        ],
        "guideScene": 3,
        "guideStyle": "QUEST_GUIDE_STYLE_POINT",
        "guideLayer": "QUEST_GUIDE_LAYER_SCENE"
      },
      "finishExec": [],
      "failExec": [],
      "beginExec": []
    },
    {
      "mainId": 13019,
      "subId": 1301916,
      "order": 23,
      "descTextMapHash": 3297471116,
      "acceptCond": [
        {
          "type": "QUEST_COND_UNKNOWN",
          "param": [
            0,
            0
          ]
        }
      ],
      "finishCond": [],
      "failCond": [],
      "guide": {
        "type": "QUEST_GUIDE_LOCATION",
        "autoGuide": "QUEST_GUIDE_AUTO_ENABLE",
        "param": [
          "Q13019HideFinNahidaPos"
        ],
        "guideScene": 3,
        "guideStyle": "QUEST_GUIDE_STYLE_POINT",
        "guideLayer": "QUEST_GUIDE_LAYER_SCENE"
      },
      "finishExec": [],
      "failExec": [],
      "beginExec": []
    },
    {
      "mainId": 13019,
      "subId": 1301917,
      "order": 93,
      "descTextMapHash": 4090979788,
      "acceptCond": [
        {
          "type": "QUEST_COND_UNKNOWN",
          "param": [
            0,
            0
          ]
        }
      ],
      "finishCond": [],
      "failCond": [],
      "guide": {
        "guideScene": 3,
        "guideLayer": "QUEST_GUIDE_LAYER_SCENE"
      },
      "finishExec": [],
      "failExec": [],
      "beginExec": []
    },
    {
      "mainId": 13019,
      "subId": 1301918,
      "order": 25,
      "descTextMapHash": 2350304692,
      "acceptCond": [
        {
          "type": "QUEST_COND_UNKNOWN",
          "param": [
            0,
            0
          ]
        }
      ],
      "finishCond": [],
      "failCond": [],
      "guide": {
        "type": "QUEST_GUIDE_LOCATION",
        "autoGuide": "QUEST_GUIDE_AUTO_ENABLE",
        "param": [
          "[3_331500126:583.111,283.714,2508.252]",
          "25"
        ],
        "guideScene": 3,
        "guideStyle": "QUEST_GUIDE_STYLE_TARGET",
        "guideLayer": "QUEST_GUIDE_LAYER_SCENE"
      },
      "finishExec": [],
      "failExec": [],
      "beginExec": []
    },
    {
      "mainId": 13019,
      "subId": 1301919,
      "order": 27,
      "descTextMapHash": 1616991092,
      "acceptCond": [
        {
          "type": "QUEST_COND_UNKNOWN",
          "param": [
            0,
            0
          ]
        }
      ],
      "finishCond": [],
      "failCond": [],
      "guide": {
        "type": "QUEST_GUIDE_LOCATION",
        "autoGuide": "QUEST_GUIDE_AUTO_ENABLE",
        "param": [
          "[3_331500125:596.735,290.933,2534.805]",
          "30"
        ],
        "guideScene": 3,
        "guideStyle": "QUEST_GUIDE_STYLE_TARGET",
        "guideLayer": "QUEST_GUIDE_LAYER_SCENE"
      },
      "finishExec": [],
      "failExec": [],
      "beginExec": []
    },
    {
      "mainId": 13019,
      "subId": 1301920,
      "order": 28,
      "descTextMapHash": 306833028,
      "acceptCond": [
        {
          "type": "QUEST_COND_UNKNOWN",
          "param": [
            0,
            0
          ]
        }
      ],
      "finishCond": [],
      "failCond": [],
      "guide": {
        "type": "QUEST_GUIDE_LOCATION",
        "autoGuide": "QUEST_GUIDE_AUTO_ENABLE",
        "param": [
          "Q13019Mon2FlowerPos"
        ],
        "guideScene": 3,
        "guideStyle": "QUEST_GUIDE_STYLE_POINT",
        "guideLayer": "QUEST_GUIDE_LAYER_SCENE"
      },
      "finishExec": [],
      "failExec": [],
      "beginExec": []
    },
    {
      "mainId": 13019,
      "subId": 1301921,
      "order": 29,
      "descTextMapHash": 1041416348,
      "acceptCond": [
        {
          "type": "QUEST_COND_UNKNOWN",
          "param": [
            0,
            0
          ]
        }
      ],
      "finishCond": [],
      "failCond": [],
      "guide": {
        "type": "QUEST_GUIDE_NPC",
        "autoGuide": "QUEST_GUIDE_AUTO_ENABLE",
        "param": [
          "13165"
        ],
        "guideScene": 3,
        "guideStyle": "QUEST_GUIDE_STYLE_TARGET",
        "guideLayer": "QUEST_GUIDE_LAYER_SCENE"
      },
      "finishExec": [],
      "failExec": [],
      "beginExec": []
    },
    {
      "mainId": 13019,
      "subId": 1301922,
      "order": 4,
      "descTextMapHash": 3762338404,
      "acceptCond": [
        {
          "type": "QUEST_COND_UNKNOWN",
          "param": [
            0,
            0
          ]
        }
      ],
      "finishCond": [],
      "failCond": [],
      "guide": {
        "type": "QUEST_GUIDE_LOCATION",
        "autoGuide": "QUEST_GUIDE_AUTO_ENABLE",
        "param": [
          "Q13019Met1P2Xun"
        ],
        "guideScene": 3,
        "guideStyle": "QUEST_GUIDE_STYLE_POINT",
        "guideLayer": "QUEST_GUIDE_LAYER_SCENE"
      },
      "finishExec": [],
      "failExec": [],
      "beginExec": []
    },
    {
      "mainId": 13019,
      "subId": 1301923,
      "order": 8,
      "descTextMapHash": 2062572604,
      "acceptCond": [
        {
          "type": "QUEST_COND_UNKNOWN",
          "param": [
            0,
            0
          ]
        }
      ],
      "finishCond": [],
      "failCond": [],
      "guide": {
        "type": "QUEST_GUIDE_NPC",
        "autoGuide": "QUEST_GUIDE_AUTO_ENABLE",
        "param": [
          "13162"
        ],
        "guideScene": 3,
        "guideStyle": "QUEST_GUIDE_STYLE_TARGET",
        "guideLayer": "QUEST_GUIDE_LAYER_SCENE"
      },
      "finishExec": [],
      "failExec": [],
      "beginExec": []
    },
    {
      "mainId": 13019,
      "subId": 1301924,
      "order": 11,
      "descTextMapHash": 4018090388,
      "acceptCond": [
        {
          "type": "QUEST_COND_UNKNOWN",
          "param": [
            0,
            0
          ]
        }
      ],
      "finishCond": [],
      "failCond": [],
      "guide": {
        "type": "QUEST_GUIDE_LOCATION",
        "autoGuide": "QUEST_GUIDE_AUTO_ENABLE",
        "param": [
          "Q13019AfterMet1Stop3"
        ],
        "guideScene": 3,
        "guideStyle": "QUEST_GUIDE_STYLE_POINT",
        "guideLayer": "QUEST_GUIDE_LAYER_SCENE"
      },
      "finishExec": [],
      "failExec": [],
      "beginExec": []
    },
    {
      "mainId": 13019,
      "subId": 1301925,
      "order": 15,
      "showType": "QUEST_HIDDEN",
      "descTextMapHash": 3941043164,
      "acceptCond": [
        {
          "type": "QUEST_COND_UNKNOWN",
          "param": [
            0,
            0
          ]
        }
      ],
      "finishCond": [],
      "failCond": [],
      "guide": {
        "guideScene": 3,
        "guideLayer": "QUEST_GUIDE_LAYER_SCENE"
      },
      "finishExec": [],
      "failExec": [],
      "beginExec": []
    },
    {
      "mainId": 13019,
      "subId": 1301926,
      "order": 16,
      "descTextMapHash": 3464081052,
      "acceptCond": [
        {
          "type": "QUEST_COND_UNKNOWN",
          "param": [
            0,
            0
          ]
        }
      ],
      "finishCond": [],
      "failCond": [],
      "guide": {
        "type": "QUEST_GUIDE_LOCATION",
        "autoGuide": "QUEST_GUIDE_AUTO_ENABLE",
        "param": [
          "Q13019DeadZoneNahida",
          "68"
        ],
        "guideScene": 3,
        "guideStyle": "QUEST_GUIDE_STYLE_TARGET",
        "guideLayer": "QUEST_GUIDE_LAYER_SCENE"
      },
      "finishExec": [],
      "failExec": [],
      "beginExec": []
    },
    {
      "mainId": 13019,
      "subId": 1301927,
      "order": 14,
      "showType": "QUEST_HIDDEN",
      "descTextMapHash": 367060372,
      "acceptCond": [
        {
          "type": "QUEST_COND_UNKNOWN",
          "param": [
            0,
            0
          ]
        }
      ],
      "finishCond": [],
      "failCond": [],
      "guide": {
        "guideScene": 3,
        "guideLayer": "QUEST_GUIDE_LAYER_SCENE"
      },
      "finishExec": [],
      "failExec": [],
      "beginExec": []
    },
    {
      "mainId": 13019,
      "subId": 1301928,
      "order": 22,
      "showType": "QUEST_HIDDEN",
      "descTextMapHash": 1593848460,
      "acceptCond": [
        {
          "type": "QUEST_COND_UNKNOWN",
          "param": [
            0,
            0
          ]
        }
      ],
      "finishCond": [],
      "failCond": [],
      "guide": {
        "guideScene": 3,
        "guideLayer": "QUEST_GUIDE_LAYER_SCENE"
      },
      "finishExec": [],
      "failExec": [],
      "beginExec": []
    },
    {
      "mainId": 13019,
      "subId": 1301929,
      "order": 24,
      "showType": "QUEST_HIDDEN",
      "descTextMapHash": 852125716,
      "acceptCond": [
        {
          "type": "QUEST_COND_UNKNOWN",
          "param": [
            0,
            0
          ]
        }
      ],
      "finishCond": [],
      "failCond": [],
      "guide": {
        "guideScene": 3,
        "guideLayer": "QUEST_GUIDE_LAYER_SCENE"
      },
      "finishExec": [],
      "failExec": [],
      "beginExec": []
    },
    {
      "mainId": 13019,
      "subId": 1301930,
      "order": 26,
      "descTextMapHash": 2100239140,
      "acceptCond": [
        {
          "type": "QUEST_COND_UNKNOWN",
          "param": [
            0,
            0
          ]
        }
      ],
      "finishCond": [],
      "failCond": [],
      "guide": {
        "type": "QUEST_GUIDE_LOCATION",
        "autoGuide": "QUEST_GUIDE_AUTO_ENABLE",
        "param": [
          "[3_331500126:583.111,283.714,2508.252]"
        ],
        "guideScene": 3,
        "guideStyle": "QUEST_GUIDE_STYLE_TARGET",
        "guideLayer": "QUEST_GUIDE_LAYER_SCENE"
      },
      "finishExec": [],
      "failExec": [],
      "beginExec": []
    }
  ],
  "talks": [
    {
      "id": 1301901,
      "beginWay": "TALK_BEGIN_MANUAL",
      "activeMode": "PLAY_MODE_SINGLE",
      "beginCond": [
        {
          "type": "QUEST_COND_STATE_EQUAL",
          "param": [
            "1301901",
            "2"
          ],
          "param_str": ""
        }
      ],
      "priority": 5,
      "nextTalks": [
        1301928,
        1301929
      ],
      "initDialog": 130190101,
      "npcId": [
        1056
      ],
      "performCfg": "QuestDialogue/LQ/Nahida2_13019/Q1301901",
      "heroTalk": "TALK_HERO_MAIN",
      "questId": 13019,
      "prePerformCfg": ""
    },
    {
      "id": 1301902,
      "beginWay": "TALK_BEGIN_MANUAL",
      "activeMode": "PLAY_MODE_SINGLE",
      "beginCond": [
        {
          "type": "QUEST_COND_STATE_EQUAL",
          "param": [
            "1301903",
            "2"
          ],
          "param_str": ""
        }
      ],
      "priority": 5,
      "initDialog": 130190201,
      "npcId": [
        13162
      ],
      "performCfg": "QuestDialogue/LQ/Nahida2_13019/Q1301902",
      "heroTalk": "TALK_HERO_MAIN",
      "questId": 13019,
      "prePerformCfg": ""
    },
    {
      "id": 1301903,
      "beginWay": "TALK_BEGIN_MANUAL",
      "activeMode": "PLAY_MODE_SINGLE",
      "beginCond": [
        {
          "type": "QUEST_COND_STATE_EQUAL",
          "param": [
            "1301904",
            "2"
          ],
          "param_str": ""
        }
      ],
      "priority": 5,
      "initDialog": 130190301,
      "npcId": [
        13162
      ],
      "performCfg": "QuestDialogue/LQ/Nahida2_13019/Q1301903",
      "heroTalk": "TALK_HERO_MAIN",
      "questId": 13019,
      "prePerformCfg": ""
    },
    {
      "id": 1301904,
      "beginWay": "TALK_BEGIN_MANUAL",
      "activeMode": "PLAY_MODE_SINGLE",
      "beginCond": [
        {
          "type": "QUEST_COND_STATE_EQUAL",
          "param": [
            "1301910",
            "2"
          ],
          "param_str": ""
        }
      ],
      "priority": 5,
      "initDialog": 130190401,
      "npcId": [
        13162
      ],
      "performCfg": "QuestDialogue/LQ/Nahida2_13019/Q1301904",
      "heroTalk": "TALK_HERO_MAIN",
      "questId": 13019,
      "prePerformCfg": ""
    },
    {
      "id": 1301905,
      "beginWay": "TALK_BEGIN_MANUAL",
      "activeMode": "PLAY_MODE_SINGLE",
      "beginCond": [
        {
          "type": "QUEST_COND_STATE_EQUAL",
          "param": [
            "1301912",
            "2"
          ],
          "param_str": ""
        }
      ],
      "priority": 5,
      "initDialog": 130190501,
      "npcId": [
        13162
      ],
      "performCfg": "QuestDialogue/LQ/Nahida2_13019/Q1301905",
      "heroTalk": "TALK_HERO_MAIN",
      "questId": 13019,
      "prePerformCfg": ""
    },
    {
      "id": 1301906,
      "beginWay": "TALK_BEGIN_MANUAL",
      "activeMode": "PLAY_MODE_SINGLE",
      "beginCond": [
        {
          "type": "QUEST_COND_STATE_EQUAL",
          "param": [
            "1301913",
            "2"
          ],
          "param_str": ""
        }
      ],
      "priority": 5,
      "initDialog": 130190601,
      "npcId": [
        1056
      ],
      "performCfg": "QuestDialogue/LQ/Nahida2_13019/Q1301906",
      "heroTalk": "TALK_HERO_MAIN",
      "questId": 13019,
      "prePerformCfg": ""
    },
    {
      "id": 1301907,
      "beginWay": "TALK_BEGIN_MANUAL",
      "activeMode": "PLAY_MODE_SINGLE",
      "beginCond": [
        {
          "type": "QUEST_COND_STATE_EQUAL",
          "param": [
            "1301914",
            "2"
          ],
          "param_str": ""
        }
      ],
      "priority": 5,
      "initDialog": 130190701,
      "npcId": [
        13167
      ],
      "performCfg": "QuestDialogue/LQ/Nahida2_13019/Q1301907",
      "heroTalk": "TALK_HERO_MAIN",
      "questId": 13019,
      "prePerformCfg": ""
    },
    {
      "id": 1301908,
      "beginWay": "TALK_BEGIN_MANUAL",
      "activeMode": "PLAY_MODE_SINGLE",
      "beginCond": [
        {
          "type": "QUEST_COND_STATE_EQUAL",
          "param": [
            "1301916",
            "2"
          ],
          "param_str": ""
        }
      ],
      "priority": 5,
      "initDialog": 130190801,
      "npcId": [
        13167
      ],
      "performCfg": "QuestDialogue/LQ/Nahida2_13019/Q1301908",
      "heroTalk": "TALK_HERO_MAIN",
      "questId": 13019,
      "prePerformCfg": ""
    },
    {
      "id": 1301910,
      "beginWay": "TALK_BEGIN_MANUAL",
      "activeMode": "PLAY_MODE_SINGLE",
      "beginCond": [
        {
          "type": "QUEST_COND_STATE_EQUAL",
          "param": [
            "1301920",
            "2"
          ],
          "param_str": ""
        }
      ],
      "priority": 5,
      "initDialog": 130191001,
      "npcId": [
        1056
      ],
      "performCfg": "QuestDialogue/LQ/Nahida2_13019/Q1301910",
      "heroTalk": "TALK_HERO_MAIN",
      "questId": 13019,
      "prePerformCfg": ""
    },
    {
      "id": 1301911,
      "beginWay": "TALK_BEGIN_MANUAL",
      "activeMode": "PLAY_MODE_SINGLE",
      "beginCond": [
        {
          "type": "QUEST_COND_STATE_EQUAL",
          "param": [
            "1301921",
            "2"
          ],
          "param_str": ""
        }
      ],
      "priority": 5,
      "initDialog": 130191101,
      "npcId": [
        13165
      ],
      "performCfg": "QuestDialogue/LQ/Nahida2_13019/Q1301911",
      "heroTalk": "TALK_HERO_MAIN",
      "questId": 13019,
      "prePerformCfg": ""
    },
    {
      "id": 1301912,
      "beginWay": "TALK_BEGIN_MANUAL",
      "activeMode": "PLAY_MODE_SINGLE",
      "beginCond": [
        {
          "type": "QUEST_COND_STATE_EQUAL",
          "param": [
            "1301922",
            "2"
          ],
          "param_str": ""
        }
      ],
      "priority": 5,
      "nextTalks": [
        1301913,
        1301914
      ],
      "initDialog": 130191201,
      "npcId": [
        1056,
        13162
      ],
      "performCfg": "QuestDialogue/LQ/Nahida2_13019/Q1301912",
      "heroTalk": "TALK_HERO_MAIN",
      "questId": 13019,
      "prePerformCfg": ""
    },
    {
      "id": 1301913,
      "activeMode": "PLAY_MODE_SINGLE",
      "beginCondComb": "LOGIC_A_AND_ETCOR",
      "beginCond": [
        {
          "type": "QUEST_COND_STATE_EQUAL",
          "param": [
            "1301922",
            "2"
          ],
          "param_str": ""
        },
        {
          "type": "QUEST_COND_STATE_EQUAL",
          "param": [
            "7302515",
            "0"
          ],
          "param_str": ""
        },
        {
          "type": "QUEST_COND_STATE_EQUAL",
          "param": [
            "7302515",
            "1"
          ],
          "param_str": ""
        },
        {
          "type": "QUEST_COND_STATE_EQUAL",
          "param": [
            "7302515",
            "2"
          ],
          "param_str": ""
        }
      ],
      "priority": 5,
      "nextTalks": [
        1301915
      ],
      "initDialog": 130191301,
      "npcId": [
        1056
      ],
      "performCfg": "QuestDialogue/LQ/Nahida2_13019/Q1301913",
      "heroTalk": "TALK_HERO_MAIN",
      "questId": 13019,
      "prePerformCfg": ""
    },
    {
      "id": 1301914,
      "activeMode": "PLAY_MODE_SINGLE",
      "beginCondComb": "LOGIC_AND",
      "beginCond": [
        {
          "type": "QUEST_COND_STATE_EQUAL",
          "param": [
            "1301922",
            "2"
          ],
          "param_str": ""
        },
        {
          "type": "QUEST_COND_STATE_EQUAL",
          "param": [
            "7302515",
            "3"
          ],
          "param_str": ""
        }
      ],
      "priority": 5,
      "nextTalks": [
        1301915
      ],
      "initDialog": 130191401,
      "npcId": [
        1056
      ],
      "performCfg": "QuestDialogue/LQ/Nahida2_13019/Q1301914",
      "heroTalk": "TALK_HERO_MAIN",
      "questId": 13019,
      "prePerformCfg": ""
    },
    {
      "id": 1301915,
      "activeMode": "PLAY_MODE_SINGLE",
      "beginCond": [
        {
          "type": "QUEST_COND_STATE_EQUAL",
          "param": [
            "1301922",
            "2"
          ],
          "param_str": ""
        }
      ],
      "priority": 5,
      "initDialog": 130191501,
      "npcId": [
        1056,
        13162
      ],
      "performCfg": "QuestDialogue/LQ/Nahida2_13019/Q1301915",
      "heroTalk": "TALK_HERO_MAIN",
      "questId": 13019,
      "prePerformCfg": ""
    },
    {
      "id": 1301916,
      "beginWay": "TALK_BEGIN_MANUAL",
      "activeMode": "PLAY_MODE_SINGLE",
      "beginCond": [
        {
          "type": "QUEST_COND_STATE_EQUAL",
          "param": [
            "1301923",
            "2"
          ],
          "param_str": ""
        }
      ],
      "priority": 5,
      "initDialog": 130191601,
      "npcId": [
        13162
      ],
      "performCfg": "QuestDialogue/LQ/Nahida2_13019/Q1301916",
      "heroTalk": "TALK_HERO_MAIN",
      "questId": 13019,
      "prePerformCfg": ""
    },
    {
      "id": 1301917,
      "beginWay": "TALK_BEGIN_MANUAL",
      "activeMode": "PLAY_MODE_SINGLE",
      "beginCond": [
        {
          "type": "QUEST_COND_STATE_EQUAL",
          "param": [
            "1301924",
            "2"
          ],
          "param_str": ""
        }
      ],
      "priority": 5,
      "initDialog": 130191701,
      "npcId": [
        13162
      ],
      "performCfg": "QuestDialogue/LQ/Nahida2_13019/Q1301917",
      "heroTalk": "TALK_HERO_MAIN",
      "questId": 13019,
      "prePerformCfg": ""
    },
    {
      "id": 1301918,
      "beginWay": "TALK_BEGIN_MANUAL",
      "activeMode": "PLAY_MODE_SINGLE",
      "beginCond": [
        {
          "type": "QUEST_COND_STATE_EQUAL",
          "param": [
            "99902",
            "3"
          ],
          "param_str": ""
        }
      ],
      "priority": 5,
      "initDialog": 130191801,
      "npcId": [
        13163,
        13164
      ],
      "performCfg": "QuestDialogue/LQ/Nahida2_13019/Q1301918",
      "heroTalk": "TALK_HERO_MAIN",
      "questId": 13019,
      "prePerformCfg": "",
      "lowPriority": true
    },
    {
      "id": 1301920,
      "beginWay": "TALK_BEGIN_MANUAL",
      "activeMode": "PLAY_MODE_SINGLE",
      "beginCondComb": "LOGIC_OR",
      "beginCond": [
        {
          "type": "QUEST_COND_STATE_EQUAL",
          "param": [
            "1301918",
            "2"
          ],
          "param_str": ""
        },
        {
          "type": "QUEST_COND_STATE_EQUAL",
          "param": [
            "1301919",
            "2"
          ],
          "param_str": ""
        },
        {
          "type": "QUEST_COND_STATE_EQUAL",
          "param": [
            "1301920",
            "2"
          ],
          "param_str": ""
        }
      ],
      "priority": 5,
      "initDialog": 130192001,
      "npcId": [
        13165
      ],
      "performCfg": "QuestDialogue/LQ/Nahida2_13019/Q1301920",
      "heroTalk": "TALK_HERO_MAIN",
      "questId": 13019,
      "prePerformCfg": ""
    },
    {
      "id": 1301921,
      "beginWay": "TALK_BEGIN_MANUAL",
      "activeMode": "PLAY_MODE_SINGLE",
      "beginCondComb": "LOGIC_OR",
      "beginCond": [
        {
          "type": "QUEST_COND_STATE_EQUAL",
          "param": [
            "1301918",
            "2"
          ],
          "param_str": ""
        },
        {
          "type": "QUEST_COND_STATE_EQUAL",
          "param": [
            "1301919",
            "2"
          ],
          "param_str": ""
        },
        {
          "type": "QUEST_COND_STATE_EQUAL",
          "param": [
            "1301920",
            "2"
          ],
          "param_str": ""
        }
      ],
      "priority": 5,
      "initDialog": 130192101,
      "npcId": [
        13162
      ],
      "performCfg": "QuestDialogue/LQ/Nahida2_13019/Q1301921",
      "heroTalk": "TALK_HERO_MAIN",
      "questId": 13019,
      "prePerformCfg": ""
    },
    {
      "id": 1301922,
      "beginWay": "TALK_BEGIN_MANUAL",
      "activeMode": "PLAY_MODE_SINGLE",
      "beginCondComb": "LOGIC_OR",
      "beginCond": [
        {
          "type": "QUEST_COND_STATE_EQUAL",
          "param": [
            "1301918",
            "2"
          ],
          "param_str": ""
        },
        {
          "type": "QUEST_COND_STATE_EQUAL",
          "param": [
            "1301919",
            "2"
          ],
          "param_str": ""
        },
        {
          "type": "QUEST_COND_STATE_EQUAL",
          "param": [
            "1301920",
            "2"
          ],
          "param_str": ""
        },
        {
          "type": "QUEST_COND_STATE_EQUAL",
          "param": [
            "1301921",
            "2"
          ],
          "param_str": ""
        }
      ],
      "priority": 5,
      "initDialog": 130192201,
      "npcId": [
        13214
      ],
      "performCfg": "QuestDialogue/LQ/Nahida2_13019/Q1301922",
      "heroTalk": "TALK_HERO_MAIN",
      "questId": 13019,
      "prePerformCfg": "",
      "lowPriority": true
    },
    {
      "id": 1301923,
      "beginWay": "TALK_BEGIN_MANUAL",
      "activeMode": "PLAY_MODE_SINGLE",
      "beginCondComb": "LOGIC_OR",
      "beginCond": [
        {
          "type": "QUEST_COND_STATE_EQUAL",
          "param": [
            "1301918",
            "2"
          ],
          "param_str": ""
        },
        {
          "type": "QUEST_COND_STATE_EQUAL",
          "param": [
            "1301919",
            "2"
          ],
          "param_str": ""
        },
        {
          "type": "QUEST_COND_STATE_EQUAL",
          "param": [
            "1301920",
            "2"
          ],
          "param_str": ""
        },
        {
          "type": "QUEST_COND_STATE_EQUAL",
          "param": [
            "1301921",
            "2"
          ],
          "param_str": ""
        }
      ],
      "priority": 5,
      "initDialog": 130192301,
      "npcId": [
        13216
      ],
      "performCfg": "QuestDialogue/LQ/Nahida2_13019/Q1301923",
      "heroTalk": "TALK_HERO_MAIN",
      "questId": 13019,
      "prePerformCfg": "",
      "lowPriority": true
    },
    {
      "id": 1301924,
      "beginWay": "TALK_BEGIN_MANUAL",
      "activeMode": "PLAY_MODE_SINGLE",
      "beginCondComb": "LOGIC_OR",
      "beginCond": [
        {
          "type": "QUEST_COND_STATE_EQUAL",
          "param": [
            "1301918",
            "2"
          ],
          "param_str": ""
        },
        {
          "type": "QUEST_COND_STATE_EQUAL",
          "param": [
            "1301919",
            "2"
          ],
          "param_str": ""
        },
        {
          "type": "QUEST_COND_STATE_EQUAL",
          "param": [
            "1301920",
            "2"
          ],
          "param_str": ""
        },
        {
          "type": "QUEST_COND_STATE_EQUAL",
          "param": [
            "1301921",
            "2"
          ],
          "param_str": ""
        }
      ],
      "priority": 5,
      "initDialog": 130192401,
      "npcId": [
        13217
      ],
      "performCfg": "QuestDialogue/LQ/Nahida2_13019/Q1301924",
      "heroTalk": "TALK_HERO_MAIN",
      "questId": 13019,
      "prePerformCfg": "",
      "lowPriority": true
    },
    {
      "id": 1301925,
      "beginWay": "TALK_BEGIN_MANUAL",
      "activeMode": "PLAY_MODE_SINGLE",
      "beginCondComb": "LOGIC_OR",
      "beginCond": [
        {
          "type": "QUEST_COND_STATE_EQUAL",
          "param": [
            "1301918",
            "2"
          ],
          "param_str": ""
        },
        {
          "type": "QUEST_COND_STATE_EQUAL",
          "param": [
            "1301919",
            "2"
          ],
          "param_str": ""
        },
        {
          "type": "QUEST_COND_STATE_EQUAL",
          "param": [
            "1301920",
            "2"
          ],
          "param_str": ""
        },
        {
          "type": "QUEST_COND_STATE_EQUAL",
          "param": [
            "1301921",
            "2"
          ],
          "param_str": ""
        }
      ],
      "priority": 5,
      "initDialog": 130192501,
      "npcId": [
        13215
      ],
      "performCfg": "QuestDialogue/LQ/Nahida2_13019/Q1301925",
      "heroTalk": "TALK_HERO_MAIN",
      "questId": 13019,
      "prePerformCfg": "",
      "lowPriority": true
    },
    {
      "id": 1301926,
      "beginWay": "TALK_BEGIN_MANUAL",
      "activeMode": "PLAY_MODE_SINGLE",
      "beginCondComb": "LOGIC_OR",
      "beginCond": [
        {
          "type": "QUEST_COND_STATE_EQUAL",
          "param": [
            "1301918",
            "2"
          ],
          "param_str": ""
        },
        {
          "type": "QUEST_COND_STATE_EQUAL",
          "param": [
            "1301919",
            "2"
          ],
          "param_str": ""
        },
        {
          "type": "QUEST_COND_STATE_EQUAL",
          "param": [
            "1301920",
            "2"
          ],
          "param_str": ""
        },
        {
          "type": "QUEST_COND_STATE_EQUAL",
          "param": [
            "1301921",
            "2"
          ],
          "param_str": ""
        }
      ],
      "priority": 5,
      "initDialog": 130192601,
      "npcId": [
        13218
      ],
      "performCfg": "QuestDialogue/LQ/Nahida2_13019/Q1301926",
      "heroTalk": "TALK_HERO_MAIN",
      "questId": 13019,
      "prePerformCfg": "",
      "lowPriority": true
    },
    {
      "id": 1301927,
      "beginWay": "TALK_BEGIN_MANUAL",
      "activeMode": "PLAY_MODE_SINGLE",
      "beginCondComb": "LOGIC_OR",
      "beginCond": [
        {
          "type": "QUEST_COND_STATE_EQUAL",
          "param": [
            "1301918",
            "2"
          ],
          "param_str": ""
        },
        {
          "type": "QUEST_COND_STATE_EQUAL",
          "param": [
            "1301919",
            "2"
          ],
          "param_str": ""
        },
        {
          "type": "QUEST_COND_STATE_EQUAL",
          "param": [
            "1301920",
            "2"
          ],
          "param_str": ""
        },
        {
          "type": "QUEST_COND_STATE_EQUAL",
          "param": [
            "1301921",
            "2"
          ],
          "param_str": ""
        }
      ],
      "priority": 5,
      "initDialog": 130192701,
      "npcId": [
        13219
      ],
      "performCfg": "QuestDialogue/LQ/Nahida2_13019/Q1301927",
      "heroTalk": "TALK_HERO_MAIN",
      "questId": 13019,
      "prePerformCfg": "",
      "lowPriority": true
    },
    {
      "id": 1301928,
      "activeMode": "PLAY_MODE_SINGLE",
      "beginCondComb": "LOGIC_AND",
      "beginCond": [
        {
          "type": "QUEST_COND_STATE_EQUAL",
          "param": [
            "1301901",
            "2"
          ],
          "param_str": ""
        },
        {
          "type": "QUEST_COND_QUEST_GLOBAL_VAR_EQUAL",
          "param": [
            "4008110",
            "0"
          ],
          "param_str": ""
        }
      ],
      "priority": 5,
      "initDialog": 130190146,
      "npcId": [
        1056
      ],
      "performCfg": "QuestDialogue/LQ/Nahida2_13019/Q1301928",
      "heroTalk": "TALK_HERO_MAIN",
      "questId": 13019,
      "prePerformCfg": ""
    },
    {
      "id": 1301929,
      "activeMode": "PLAY_MODE_SINGLE",
      "beginCondComb": "LOGIC_AND",
      "beginCond": [
        {
          "type": "QUEST_COND_STATE_EQUAL",
          "param": [
            "1301901",
            "2"
          ],
          "param_str": ""
        },
        {
          "type": "QUEST_COND_QUEST_GLOBAL_VAR_EQUAL",
          "param": [
            "4008110",
            "1"
          ],
          "param_str": ""
        }
      ],
      "priority": 5,
      "initDialog": 130190147,
      "npcId": [
        1056
      ],
      "performCfg": "QuestDialogue/LQ/Nahida2_13019/Q1301929",
      "heroTalk": "TALK_HERO_MAIN",
      "questId": 13019,
      "prePerformCfg": ""
    },
    {
      "id": 1301930,
      "beginWay": "TALK_BEGIN_MANUAL",
      "activeMode": "PLAY_MODE_SINGLE",
      "beginCondComb": "LOGIC_OR",
      "beginCond": [
        {
          "type": "QUEST_COND_STATE_EQUAL",
          "param": [
            "1301904",
            "2"
          ],
          "param_str": ""
        },
        {
          "type": "QUEST_COND_STATE_EQUAL",
          "param": [
            "1301905",
            "2"
          ],
          "param_str": ""
        },
        {
          "type": "QUEST_COND_STATE_EQUAL",
          "param": [
            "1301906",
            "2"
          ],
          "param_str": ""
        },
        {
          "type": "QUEST_COND_STATE_EQUAL",
          "param": [
            "1301923",
            "2"
          ],
          "param_str": ""
        },
        {
          "type": "QUEST_COND_STATE_EQUAL",
          "param": [
            "1301907",
            "2"
          ],
          "param_str": ""
        },
        {
          "type": "QUEST_COND_STATE_EQUAL",
          "param": [
            "1301908",
            "2"
          ],
          "param_str": ""
        }
      ],
      "priority": 5,
      "initDialog": 130191801,
      "npcId": [
        13163
      ],
      "performCfg": "QuestDialogue/LQ/Nahida2_13019/Q1301930",
      "heroTalk": "TALK_HERO_MAIN",
      "questId": 13019,
      "prePerformCfg": "",
      "lowPriority": true
    },
    {
      "id": 1301931,
      "beginWay": "TALK_BEGIN_MANUAL",
      "activeMode": "PLAY_MODE_SINGLE",
      "beginCondComb": "LOGIC_OR",
      "beginCond": [
        {
          "type": "QUEST_COND_STATE_EQUAL",
          "param": [
            "1301904",
            "2"
          ],
          "param_str": ""
        },
        {
          "type": "QUEST_COND_STATE_EQUAL",
          "param": [
            "1301905",
            "2"
          ],
          "param_str": ""
        },
        {
          "type": "QUEST_COND_STATE_EQUAL",
          "param": [
            "1301906",
            "2"
          ],
          "param_str": ""
        },
        {
          "type": "QUEST_COND_STATE_EQUAL",
          "param": [
            "1301923",
            "2"
          ],
          "param_str": ""
        },
        {
          "type": "QUEST_COND_STATE_EQUAL",
          "param": [
            "1301907",
            "2"
          ],
          "param_str": ""
        },
        {
          "type": "QUEST_COND_STATE_EQUAL",
          "param": [
            "1301908",
            "2"
          ],
          "param_str": ""
        }
      ],
      "priority": 5,
      "initDialog": 130191802,
      "npcId": [
        13164
      ],
      "performCfg": "QuestDialogue/LQ/Nahida2_13019/Q1301931",
      "heroTalk": "TALK_HERO_MAIN",
      "questId": 13019,
      "prePerformCfg": "",
      "lowPriority": true
    },
    {
      "id": 1301932,
      "beginWay": "TALK_BEGIN_MANUAL",
      "activeMode": "PLAY_MODE_SINGLE",
      "beginCondComb": "LOGIC_OR",
      "beginCond": [
        {
          "type": "QUEST_COND_STATE_EQUAL",
          "param": [
            "1301924",
            "2"
          ],
          "param_str": ""
        },
        {
          "type": "QUEST_COND_STATE_EQUAL",
          "param": [
            "1301909",
            "2"
          ],
          "param_str": ""
        },
        {
          "type": "QUEST_COND_STATE_EQUAL",
          "param": [
            "1301910",
            "2"
          ],
          "param_str": ""
        },
        {
          "type": "QUEST_COND_STATE_EQUAL",
          "param": [
            "1301926",
            "2"
          ],
          "param_str": ""
        },
        {
          "type": "QUEST_COND_STATE_EQUAL",
          "param": [
            "1301911",
            "2"
          ],
          "param_str": ""
        },
        {
          "type": "QUEST_COND_STATE_EQUAL",
          "param": [
            "1301912",
            "2"
          ],
          "param_str": ""
        }
      ],
      "priority": 5,
      "initDialog": 130191801,
      "npcId": [
        13163
      ],
      "performCfg": "QuestDialogue/LQ/Nahida2_13019/Q1301930",
      "heroTalk": "TALK_HERO_MAIN",
      "questId": 13019,
      "prePerformCfg": "",
      "lowPriority": true
    },
    {
      "id": 1301933,
      "beginWay": "TALK_BEGIN_MANUAL",
      "activeMode": "PLAY_MODE_SINGLE",
      "beginCondComb": "LOGIC_OR",
      "beginCond": [
        {
          "type": "QUEST_COND_STATE_EQUAL",
          "param": [
            "1301913",
            "2"
          ],
          "param_str": ""
        },
        {
          "type": "QUEST_COND_STATE_EQUAL",
          "param": [
            "1301914",
            "2"
          ],
          "param_str": ""
        },
        {
          "type": "QUEST_COND_STATE_EQUAL",
          "param": [
            "1301915",
            "2"
          ],
          "param_str": ""
        },
        {
          "type": "QUEST_COND_STATE_EQUAL",
          "param": [
            "1301916",
            "2"
          ],
          "param_str": ""
        },
        {
          "type": "QUEST_COND_STATE_EQUAL",
          "param": [
            "1301918",
            "2"
          ],
          "param_str": ""
        },
        {
          "type": "QUEST_COND_STATE_EQUAL",
          "param": [
            "1301919",
            "2"
          ],
          "param_str": ""
        }
      ],
      "priority": 5,
      "initDialog": 130191801,
      "npcId": [
        13163
      ],
      "performCfg": "QuestDialogue/LQ/Nahida2_13019/Q1301930",
      "heroTalk": "TALK_HERO_MAIN",
      "questId": 13019,
      "prePerformCfg": "",
      "lowPriority": true
    },
    {
      "id": 1301934,
      "beginWay": "TALK_BEGIN_MANUAL",
      "activeMode": "PLAY_MODE_SINGLE",
      "beginCondComb": "LOGIC_OR",
      "beginCond": [
        {
          "type": "QUEST_COND_STATE_EQUAL",
          "param": [
            "1301920",
            "2"
          ],
          "param_str": ""
        },
        {
          "type": "QUEST_COND_STATE_EQUAL",
          "param": [
            "1301921",
            "2"
          ],
          "param_str": ""
        }
      ],
      "priority": 5,
      "initDialog": 130191801,
      "npcId": [
        13163
      ],
      "performCfg": "QuestDialogue/LQ/Nahida2_13019/Q1301930",
      "heroTalk": "TALK_HERO_MAIN",
      "questId": 13019,
      "prePerformCfg": "",
      "lowPriority": true
    },
    {
      "id": 1301935,
      "beginWay": "TALK_BEGIN_MANUAL",
      "activeMode": "PLAY_MODE_SINGLE",
      "beginCondComb": "LOGIC_OR",
      "beginCond": [
        {
          "type": "QUEST_COND_STATE_EQUAL",
          "param": [
            "1301924",
            "2"
          ],
          "param_str": ""
        },
        {
          "type": "QUEST_COND_STATE_EQUAL",
          "param": [
            "1301909",
            "2"
          ],
          "param_str": ""
        },
        {
          "type": "QUEST_COND_STATE_EQUAL",
          "param": [
            "1301910",
            "2"
          ],
          "param_str": ""
        },
        {
          "type": "QUEST_COND_STATE_EQUAL",
          "param": [
            "1301926",
            "2"
          ],
          "param_str": ""
        },
        {
          "type": "QUEST_COND_STATE_EQUAL",
          "param": [
            "1301911",
            "2"
          ],
          "param_str": ""
        },
        {
          "type": "QUEST_COND_STATE_EQUAL",
          "param": [
            "1301912",
            "2"
          ],
          "param_str": ""
        }
      ],
      "priority": 5,
      "initDialog": 130191802,
      "npcId": [
        13164
      ],
      "performCfg": "QuestDialogue/LQ/Nahida2_13019/Q1301931",
      "heroTalk": "TALK_HERO_MAIN",
      "questId": 13019,
      "prePerformCfg": "",
      "lowPriority": true
    },
    {
      "id": 1301936,
      "beginWay": "TALK_BEGIN_MANUAL",
      "activeMode": "PLAY_MODE_SINGLE",
      "beginCondComb": "LOGIC_OR",
      "beginCond": [
        {
          "type": "QUEST_COND_STATE_EQUAL",
          "param": [
            "1301913",
            "2"
          ],
          "param_str": ""
        },
        {
          "type": "QUEST_COND_STATE_EQUAL",
          "param": [
            "1301914",
            "2"
          ],
          "param_str": ""
        },
        {
          "type": "QUEST_COND_STATE_EQUAL",
          "param": [
            "1301915",
            "2"
          ],
          "param_str": ""
        },
        {
          "type": "QUEST_COND_STATE_EQUAL",
          "param": [
            "1301916",
            "2"
          ],
          "param_str": ""
        },
        {
          "type": "QUEST_COND_STATE_EQUAL",
          "param": [
            "1301918",
            "2"
          ],
          "param_str": ""
        },
        {
          "type": "QUEST_COND_STATE_EQUAL",
          "param": [
            "1301919",
            "2"
          ],
          "param_str": ""
        }
      ],
      "priority": 5,
      "initDialog": 130191802,
      "npcId": [
        13164
      ],
      "performCfg": "QuestDialogue/LQ/Nahida2_13019/Q1301931",
      "heroTalk": "TALK_HERO_MAIN",
      "questId": 13019,
      "prePerformCfg": "",
      "lowPriority": true
    },
    {
      "id": 1301937,
      "beginWay": "TALK_BEGIN_MANUAL",
      "activeMode": "PLAY_MODE_SINGLE",
      "beginCondComb": "LOGIC_OR",
      "beginCond": [
        {
          "type": "QUEST_COND_STATE_EQUAL",
          "param": [
            "1301920",
            "2"
          ],
          "param_str": ""
        },
        {
          "type": "QUEST_COND_STATE_EQUAL",
          "param": [
            "1301921",
            "2"
          ],
          "param_str": ""
        }
      ],
      "priority": 5,
      "initDialog": 130191802,
      "npcId": [
        13164
      ],
      "performCfg": "QuestDialogue/LQ/Nahida2_13019/Q1301931",
      "heroTalk": "TALK_HERO_MAIN",
      "questId": 13019,
      "prePerformCfg": "",
      "lowPriority": true
    },
    {
      "id": 1301938,
      "beginWay": "TALK_BEGIN_MANUAL",
      "activeMode": "PLAY_MODE_SINGLE",
      "beginCondComb": "LOGIC_AND",
      "beginCond": [
        {
          "type": "QUEST_COND_STATE_EQUAL",
          "param": [
            "1301918",
            "2"
          ],
          "param_str": ""
        },
        {
          "type": "QUEST_COND_ITEM_GIVING_ACTIVED",
          "param": [
            "1301918"
          ],
          "param_str": ""
        }
      ],
      "priority": 5,
      "initDialog": 130193801,
      "npcId": [
        13298
      ],
      "performCfg": "QuestDialogue/LQ/Nahida2_13019/Q1301938",
      "heroTalk": "TALK_HERO_MAIN",
      "questId": 13019,
      "prePerformCfg": ""
    }
  ]
}