{
  "id": 13017,
  "type": "LQ",
  "series": 2033,
  "titleTextMapHash": 402592631,
  "descTextMapHash": 638695926,
  "luaPath": "Actor/Quest/LQ13017",
  "showType": "QUEST_HIDDEN",
  "rewardIdList": [
    113017
  ],
  "subQuests": [
    {
      "mainId": 13017,
      "subId": 1301701,
      "order": 1,
      "showType": "QUEST_HIDDEN",
      "acceptCond": [
        {
          "type": "QUEST_COND_UNKNOWN",
          "param": [
            0,
            0
          ]
        }
      ],
      "finishCond": [],
      "failCond": [],
      "guide": {},
      "finishExec": [],
      "failExec": [],
      "beginExec": []
    }
  ]
}