{
  "id": 19057,
  "type": "LQ",
  "series": 105901,
  "titleTextMapHash": 444750495,
  "descTextMapHash": 3245384550,
  "luaPath": "Actor/Quest/LQ19057",
  "chapterId": 105901,
  "subQuests": [
    {
      "subId": 1905701,
      "mainId": 19057,
      "order": 1,
      "descTextMapHash": 3122489340,
      "acceptCondComb": "LOGIC_AND",
      "acceptCond": [
        {
          "type": "QUEST_COND_STATE_EQUAL",
          "param": [
            1905608,
            3,
            0,
            0,
            0
          ],
          "param_str": ""
        },
        {
          "type": "QUEST_COND_MAIN_COOP_ENTER_SAVE_POINT",
          "param": [
            105901,
            190560801,
            0,
            0,
            0
          ],
          "param_str": ""
        }
      ],
      "finishCond": [
        {
          "type": "QUEST_CONTENT_FINISH_PLOT",
          "param": [
            1905701,
            0
          ],
          "param_str": ""
        }
      ],
      "failCond": [],
      "guide": {
        "type": "QUEST_GUIDE_LOCATION",
        "param": [
          "Q1905701_N3002",
          "10"
        ],
        "guideScene": 3,
        "guideStyle": "QUEST_GUIDE_STYLE_TARGET",
        "guideLayer": "QUEST_GUIDE_LAYER_SCENE"
      },
      "isRewind": true,
      "finishExec": [],
      "failExec": [],
      "beginExec": [],
      "exclusiveNpcList": [
        3106
      ],
      "exclusiveNpcPriority": 1100
    },
    {
      "subId": 1905702,
      "mainId": 19057,
      "order": 3,
      "descTextMapHash": 33116220,
      "acceptCond": [
        {
          "type": "QUEST_COND_STATE_EQUAL",
          "param": [
            1905707,
            3,
            0,
            0,
            0
          ],
          "param_str": ""
        }
      ],
      "finishCond": [
        {
          "type": "QUEST_CONTENT_MAIN_COOP_ENTER_SAVE_POINT",
          "param": [
            105901,
            190570201
          ],
          "param_str": ""
        }
      ],
      "failCond": [],
      "guide": {
        "type": "QUEST_GUIDE_NPC",
        "param": [
          "12553"
        ],
        "guideScene": 3,
        "guideStyle": "QUEST_GUIDE_STYLE_TARGET",
        "guideLayer": "QUEST_GUIDE_LAYER_SCENE"
      },
      "isRewind": true,
      "finishExec": [],
      "failExec": [],
      "beginExec": [],
      "exclusiveNpcList": [
        12552,
        12553,
        3106,
        1057
      ],
      "exclusiveNpcPriority": 1100
    },
    {
      "subId": 1905703,
      "mainId": 19057,
      "order": 5,
      "descTextMapHash": 767862436,
      "acceptCond": [
        {
          "type": "QUEST_COND_STATE_EQUAL",
          "param": [
            1905708,
            3,
            0,
            0,
            0
          ],
          "param_str": ""
        }
      ],
      "finishCond": [
        {
          "type": "QUEST_CONTENT_MAIN_COOP_ENTER_SAVE_POINT",
          "param": [
            105901,
            190570301
          ],
          "param_str": ""
        }
      ],
      "failCond": [],
      "guide": {
        "type": "QUEST_GUIDE_NPC",
        "param": [
          "1044"
        ],
        "guideScene": 3,
        "guideStyle": "QUEST_GUIDE_STYLE_TARGET",
        "guideLayer": "QUEST_GUIDE_LAYER_SCENE"
      },
      "isRewind": true,
      "finishExec": [
        {
          "type": "QUEST_EXEC_SET_QUEST_GLOBAL_VAR",
          "param": [
            "19057",
            "1"
          ],
          "param_str": ""
        }
      ],
      "failExec": [],
      "beginExec": [
        {
          "type": "QUEST_EXEC_REGISTER_DYNAMIC_GROUP_ONLY",
          "param": [
            "133220768"
          ],
          "param_str": ""
        }
      ],
      "exclusiveNpcList": [
        1044,
        12553,
        1057,
        12549
      ],
      "exclusiveNpcPriority": 1100
    },
    {
      "subId": 1905704,
      "mainId": 19057,
      "order": 6,
      "descTextMapHash": 2006497956,
      "acceptCond": [
        {
          "type": "QUEST_COND_STATE_EQUAL",
          "param": [
            1905703,
            3,
            0,
            0,
            0
          ],
          "param_str": ""
        }
      ],
      "finishCond": [
        {
          "type": "QUEST_CONTENT_GAME_TIME_TICK",
          "param": [
            1,
            0
          ],
          "param_str": "20,24"
        }
      ],
      "failCond": [],
      "guide": {
        "param": []
      },
      "showGuide": "QUEST_GUIDE_ITEM_DISABLE",
      "isRewind": true,
      "finishExec": [
        {
          "type": "QUEST_EXEC_UNREGISTER_DYNAMIC_GROUP",
          "param": [
            "133220768",
            "1"
          ],
          "param_str": ""
        }
      ],
      "failExec": [],
      "beginExec": [
        {
          "type": "QUEST_EXEC_REGISTER_DYNAMIC_GROUP_ONLY",
          "param": [
            "133220768"
          ],
          "param_str": ""
        },
        {
          "type": "QUEST_EXEC_NOTIFY_GROUP_LUA",
          "param": [
            "3",
            "133220768"
          ],
          "param_str": ""
        }
      ]
    },
    {
      "subId": 1905705,
      "mainId": 19057,
      "order": 7,
      "descTextMapHash": 4172374956,
      "acceptCond": [
        {
          "type": "QUEST_COND_STATE_EQUAL",
          "param": [
            1905704,
            3,
            0,
            0,
            0
          ],
          "param_str": ""
        }
      ],
      "finishCond": [
        {
          "type": "QUEST_CONTENT_MAIN_COOP_ENTER_SAVE_POINT",
          "param": [
            105901,
            190570401
          ],
          "param_str": ""
        }
      ],
      "failCond": [],
      "guide": {
        "type": "QUEST_GUIDE_LOCATION",
        "param": [
          "Q1905802_guide"
        ],
        "guideScene": 3,
        "guideStyle": "QUEST_GUIDE_STYLE_POINT",
        "guideLayer": "QUEST_GUIDE_LAYER_SCENE"
      },
      "finishParent": true,
      "isRewind": true,
      "finishExec": [
        {
          "type": "QUEST_EXEC_UNREGISTER_DYNAMIC_GROUP",
          "param": [
            "133220777"
          ],
          "param_str": ""
        },
        {
          "type": "QUEST_EXEC_DEL_ALL_SPECIFIC_PACK_ITEM",
          "param": [
            "101916"
          ],
          "param_str": ""
        }
      ],
      "failExec": [],
      "beginExec": [
        {
          "type": "QUEST_EXEC_REGISTER_DYNAMIC_GROUP",
          "param": [
            "3",
            "133220777"
          ],
          "param_str": ""
        }
      ],
      "exclusiveNpcList": [
        1044,
        12552,
        12553,
        1057,
        3045,
        12276,
        12277,
        12278
      ],
      "exclusiveNpcPriority": 1100,
      "exclusivePlaceList": [
        1202910
      ]
    },
    {
      "subId": 1905706,
      "mainId": 19057,
      "order": 8,
      "descTextMapHash": 1379164212,
      "showType": "QUEST_HIDDEN",
      "acceptCond": [
        {
          "type": "QUEST_COND_STATE_EQUAL",
          "param": [
            1905704,
            3,
            0,
            0,
            0
          ],
          "param_str": ""
        }
      ],
      "finishCond": [
        {
          "type": "QUEST_CONTENT_MAIN_COOP_ENTER_SAVE_POINT",
          "param": [
            105901,
            190570402
          ],
          "param_str": ""
        }
      ],
      "failCond": [],
      "guide": {
        "param": [],
        "guideScene": 3,
        "guideLayer": "QUEST_GUIDE_LAYER_SCENE"
      },
      "showGuide": "QUEST_GUIDE_ITEM_DISABLE",
      "finishParent": true,
      "finishExec": [
        {
          "type": "QUEST_EXEC_UNREGISTER_DYNAMIC_GROUP",
          "param": [
            "133220777"
          ],
          "param_str": ""
        },
        {
          "type": "QUEST_EXEC_DEL_ALL_SPECIFIC_PACK_ITEM",
          "param": [
            "101916"
          ],
          "param_str": ""
        }
      ],
      "failExec": [],
      "beginExec": [],
      "exclusiveNpcList": [
        1044,
        12552,
        12553,
        1057,
        3045,
        12276,
        12277,
        12278
      ],
      "exclusiveNpcPriority": 1100,
      "exclusivePlaceList": [
        1202910
      ]
    },
    {
      "subId": 1905707,
      "mainId": 19057,
      "order": 2,
      "descTextMapHash": 1488216604,
      "acceptCond": [
        {
          "type": "QUEST_COND_STATE_EQUAL",
          "param": [
            1905701,
            3,
            0,
            0,
            0
          ],
          "param_str": ""
        }
      ],
      "finishCond": [
        {
          "type": "QUEST_CONTENT_MAIN_COOP_ENTER_SAVE_POINT",
          "param": [
            105901,
            190570101
          ],
          "param_str": ""
        }
      ],
      "failCond": [],
      "guide": {
        "type": "QUEST_GUIDE_NPC",
        "param": [
          "3106"
        ],
        "guideScene": 3,
        "guideStyle": "QUEST_GUIDE_STYLE_TARGET",
        "guideLayer": "QUEST_GUIDE_LAYER_SCENE"
      },
      "isRewind": true,
      "finishExec": [],
      "failExec": [],
      "beginExec": [],
      "exclusiveNpcList": [
        12552,
        3106,
        1057
      ],
      "exclusiveNpcPriority": 1100
    },
    {
      "subId": 1905708,
      "mainId": 19057,
      "order": 4,
      "descTextMapHash": 2966663668,
      "acceptCond": [
        {
          "type": "QUEST_COND_STATE_EQUAL",
          "param": [
            1905702,
            3,
            0,
            0,
            0
          ],
          "param_str": ""
        }
      ],
      "finishCond": [
        {
          "type": "QUEST_CONTENT_FINISH_PLOT",
          "param": [
            1905708,
            0
          ],
          "param_str": ""
        }
      ],
      "failCond": [],
      "guide": {
        "type": "QUEST_GUIDE_LOCATION",
        "param": [
          "Q1905703_N1044",
          "20"
        ],
        "guideScene": 3,
        "guideStyle": "QUEST_GUIDE_STYLE_TARGET",
        "guideLayer": "QUEST_GUIDE_LAYER_SCENE"
      },
      "isRewind": true,
      "finishExec": [],
      "failExec": [],
      "beginExec": [
        {
          "type": "QUEST_EXEC_REGISTER_DYNAMIC_GROUP",
          "param": [
            "3",
            "133220768"
          ],
          "param_str": ""
        }
      ],
      "exclusiveNpcList": [
        1044,
        12553,
        12549
      ],
      "exclusiveNpcPriority": 1100
    }
  ],
  "talks": [
    {
      "id": 1905707,
      "beginWay": "TALK_BEGIN_MANUAL",
      "activeMode": "PLAY_MODE_SINGLE",
      "beginCond": [
        {
          "type": "QUEST_COND_STATE_EQUAL",
          "param": [
            "1905702",
            "2"
          ],
          "param_str": ""
        }
      ],
      "priority": 5,
      "initDialog": 190570701,
      "npcId": [
        12552
      ],
      "performCfg": "QuestDialogue/COOP/Coop105901SimpleTalk/Q1905707",
      "heroTalk": "TALK_HERO_MAIN",
      "questId": 19057,
      "prePerformCfg": ""
    },
    {
      "id": 1905708,
      "beginWay": "TALK_BEGIN_MANUAL",
      "activeMode": "PLAY_MODE_SINGLE",
      "beginCond": [
        {
          "type": "QUEST_COND_STATE_EQUAL",
          "param": [
            "1905702",
            "2"
          ],
          "param_str": ""
        }
      ],
      "priority": 5,
      "initDialog": 190570801,
      "npcId": [
        3106
      ],
      "performCfg": "QuestDialogue/COOP/Coop105901SimpleTalk/Q1905708",
      "heroTalk": "TALK_HERO_MAIN",
      "questId": 19057,
      "prePerformCfg": ""
    },
    {
      "id": 1905709,
      "beginWay": "TALK_BEGIN_MANUAL",
      "activeMode": "PLAY_MODE_SINGLE",
      "beginCondComb": "LOGIC_OR",
      "beginCond": [
        {
          "type": "QUEST_COND_STATE_EQUAL",
          "param": [
            "1905703",
            "2"
          ],
          "param_str": ""
        },
        {
          "type": "QUEST_COND_STATE_EQUAL",
          "param": [
            "1905708",
            "2"
          ],
          "param_str": ""
        }
      ],
      "priority": 5,
      "initDialog": 190570901,
      "npcId": [
        12553
      ],
      "performCfg": "QuestDialogue/COOP/Coop105901SimpleTalk/Q1905709",
      "heroTalk": "TALK_HERO_MAIN",
      "questId": 19057,
      "prePerformCfg": ""
    }
  ]
}