{
  "id": 19063,
  "type": "LQ",
  "series": 103401,
  "titleTextMapHash": 3601757511,
  "descTextMapHash": 3512867222,
  "luaPath": "Actor/Quest/LQ19063",
  "chapterId": 103401,
  "subQuests": [
    {
      "subId": 1906301,
      "mainId": 19063,
      "order": 1,
      "descTextMapHash": 691401140,
      "showType": "QUEST_HIDDEN",
      "acceptCond": [
        {
          "type": "QUEST_COND_STATE_EQUAL",
          "param": [
            99902,
            3,
            0,
            0,
            0
          ],
          "param_str": ""
        }
      ],
      "finishCond": [
        {
          "type": "QUEST_CONTENT_MAIN_COOP_ENTER_ANY_SAVE_POINT",
          "param": [
            103401,
            0
          ],
          "param_str": ""
        }
      ],
      "failCond": [],
      "guide": {
        "type": "QUEST_GUIDE_LOCATION",
        "autoGuide": "QUEST_GUIDE_AUTO_ENABLE",
        "param": [
          "Q19063LiarHENoel"
        ],
        "guideScene": 3,
        "guideStyle": "QUEST_GUIDE_STYLE_POINT",
        "guideLayer": "QUEST_GUIDE_LAYER_SCENE"
      },
      "finishParent": true,
      "failParentShow": "QUEST_HIDDEN",
      "finishExec": [],
      "failExec": [],
      "beginExec": []
    }
  ]
}