{
  "id": 19107,
  "type": "LQ",
  "series": 103901,
  "titleTextMapHash": 2117494375,
  "descTextMapHash": 2053436630,
  "luaPath": "Actor/Quest/LQ19107",
  "chapterId": 103901,
  "subQuests": [
    {
      "subId": 1910701,
      "mainId": 19107,
      "order": 1,
      "descTextMapHash": 2991444684,
      "acceptCond": [
        {
          "type": "QUEST_COND_STATE_EQUAL",
          "param": [
            1910608,
            3,
            0,
            0,
            0
          ],
          "param_str": ""
        }
      ],
      "finishCond": [
        {
          "type": "QUEST_CONTENT_MAIN_COOP_ENTER_SAVE_POINT",
          "param": [
            103901,
            70101
          ],
          "param_str": ""
        }
      ],
      "failCond": [],
      "guide": {
        "type": "QUEST_GUIDE_NPC",
        "autoGuide": "QUEST_GUIDE_AUTO_ENABLE",
        "param": [
          "502"
        ],
        "guideScene": 1018,
        "guideStyle": "QUEST_GUIDE_STYLE_TARGET",
        "guideLayer": "QUEST_GUIDE_LAYER_SCENE"
      },
      "isRewind": true,
      "finishExec": [],
      "failExec": [],
      "beginExec": [],
      "exclusiveNpcList": [
        502,
        1529,
        1527,
        10806,
        1531
      ],
      "exclusiveNpcPriority": 1100
    },
    {
      "subId": 1910702,
      "mainId": 19107,
      "order": 2,
      "descTextMapHash": 1258497484,
      "acceptCond": [
        {
          "type": "QUEST_COND_STATE_EQUAL",
          "param": [
            1910701,
            3,
            0,
            0,
            0
          ],
          "param_str": ""
        }
      ],
      "finishCond": [
        {
          "type": "QUEST_CONTENT_MAIN_COOP_ENTER_SAVE_POINT",
          "param": [
            103901,
            70201
          ],
          "param_str": ""
        }
      ],
      "failCond": [],
      "guide": {
        "type": "QUEST_GUIDE_LOCATION",
        "autoGuide": "QUEST_GUIDE_AUTO_ENABLE",
        "param": [
          "COOP103901Deskt01"
        ],
        "guideScene": 1018,
        "guideStyle": "QUEST_GUIDE_STYLE_POINT",
        "guideLayer": "QUEST_GUIDE_LAYER_SCENE"
      },
      "isRewind": true,
      "finishExec": [],
      "failExec": [],
      "beginExec": [],
      "exclusiveNpcList": [
        502,
        1529,
        1527,
        10806,
        1531
      ],
      "exclusiveNpcPriority": 1100
    },
    {
      "subId": 1910703,
      "mainId": 19107,
      "order": 3,
      "descTextMapHash": 500385244,
      "acceptCond": [
        {
          "type": "QUEST_COND_STATE_EQUAL",
          "param": [
            1910702,
            3,
            0,
            0,
            0
          ],
          "param_str": ""
        }
      ],
      "finishCond": [
        {
          "type": "QUEST_CONTENT_FINISH_ITEM_GIVING",
          "param": [
            1910703,
            0
          ],
          "param_str": ""
        }
      ],
      "failCond": [],
      "guide": {
        "type": "QUEST_GUIDE_NPC",
        "autoGuide": "QUEST_GUIDE_AUTO_ENABLE",
        "param": [
          "502"
        ],
        "guideScene": 1018,
        "guideStyle": "QUEST_GUIDE_STYLE_TARGET",
        "guideLayer": "QUEST_GUIDE_LAYER_SCENE"
      },
      "isRewind": true,
      "finishExec": [],
      "failExec": [],
      "beginExec": [
        {
          "type": "QUEST_EXEC_ACTIVE_ITEM_GIVING",
          "param": [
            "1910703"
          ],
          "param_str": ""
        }
      ],
      "exclusiveNpcList": [
        502,
        1529,
        1527,
        10806,
        1531
      ],
      "exclusiveNpcPriority": 1100
    },
    {
      "subId": 1910704,
      "mainId": 19107,
      "order": 4,
      "descTextMapHash": 1885444772,
      "acceptCond": [
        {
          "type": "QUEST_COND_STATE_EQUAL",
          "param": [
            1910703,
            3,
            0,
            0,
            0
          ],
          "param_str": ""
        }
      ],
      "finishCond": [
        {
          "type": "QUEST_CONTENT_MAIN_COOP_ENTER_SAVE_POINT",
          "param": [
            103901,
            70301
          ],
          "param_str": ""
        }
      ],
      "failCond": [],
      "guide": {
        "type": "QUEST_GUIDE_NPC",
        "autoGuide": "QUEST_GUIDE_AUTO_ENABLE",
        "param": [
          "502"
        ],
        "guideScene": 1018,
        "guideStyle": "QUEST_GUIDE_STYLE_TARGET",
        "guideLayer": "QUEST_GUIDE_LAYER_SCENE"
      },
      "isRewind": true,
      "finishExec": [],
      "failExec": [],
      "beginExec": [],
      "exclusiveNpcList": [
        502,
        1529,
        1527,
        10806,
        1531
      ],
      "exclusiveNpcPriority": 1100
    },
    {
      "subId": 1910705,
      "mainId": 19107,
      "order": 5,
      "descTextMapHash": 3065996004,
      "acceptCond": [
        {
          "type": "QUEST_COND_STATE_EQUAL",
          "param": [
            1910704,
            3,
            0,
            0,
            0
          ],
          "param_str": ""
        }
      ],
      "finishCond": [
        {
          "type": "QUEST_CONTENT_MAIN_COOP_ENTER_SAVE_POINT",
          "param": [
            103901,
            70401
          ],
          "param_str": ""
        }
      ],
      "failCond": [],
      "guide": {
        "type": "QUEST_GUIDE_LOCATION",
        "autoGuide": "QUEST_GUIDE_AUTO_ENABLE",
        "param": [
          "COOP103901Deskt01"
        ],
        "guideScene": 1018,
        "guideStyle": "QUEST_GUIDE_STYLE_POINT",
        "guideLayer": "QUEST_GUIDE_LAYER_SCENE"
      },
      "isRewind": true,
      "finishExec": [],
      "failExec": [],
      "beginExec": [],
      "exclusiveNpcList": [
        502,
        1529,
        1527,
        10806,
        1531
      ],
      "exclusiveNpcPriority": 1100
    },
    {
      "subId": 1910706,
      "mainId": 19107,
      "order": 6,
      "isMpBlock": true,
      "descTextMapHash": 1052098604,
      "acceptCond": [
        {
          "type": "QUEST_COND_STATE_EQUAL",
          "param": [
            1910705,
            3,
            0,
            0,
            0
          ],
          "param_str": ""
        }
      ],
      "finishCond": [
        {
          "type": "QUEST_CONTENT_MAIN_COOP_ENTER_SAVE_POINT",
          "param": [
            103901,
            105
          ],
          "param_str": ""
        }
      ],
      "failCond": [],
      "guide": {
        "type": "QUEST_GUIDE_NPC",
        "autoGuide": "QUEST_GUIDE_AUTO_ENABLE",
        "param": [
          "502"
        ],
        "guideScene": 1018,
        "guideStyle": "QUEST_GUIDE_STYLE_TARGET",
        "guideLayer": "QUEST_GUIDE_LAYER_SCENE"
      },
      "finishParent": true,
      "isRewind": true,
      "finishExec": [
        {
          "type": "QUEST_EXEC_DEL_ALL_SPECIFIC_PACK_ITEM",
          "param": [
            "100840"
          ],
          "param_str": ""
        },
        {
          "type": "QUEST_EXEC_DEL_ALL_SPECIFIC_PACK_ITEM",
          "param": [
            "100828"
          ],
          "param_str": ""
        },
        {
          "type": "QUEST_EXEC_DEL_ALL_SPECIFIC_PACK_ITEM",
          "param": [
            "100846"
          ],
          "param_str": ""
        }
      ],
      "failExec": [],
      "beginExec": [],
      "exclusiveNpcList": [
        502,
        1529,
        1527,
        10806,
        1531
      ],
      "exclusiveNpcPriority": 1100
    }
  ],
  "talks": [
    {
      "id": 1910703,
      "beginWay": "TALK_BEGIN_MANUAL",
      "activeMode": "PLAY_MODE_SINGLE",
      "beginCondComb": "LOGIC_AND",
      "beginCond": [
        {
          "type": "QUEST_COND_STATE_EQUAL",
          "param": [
            "1910703",
            "2"
          ],
          "param_str": ""
        },
        {
          "type": "QUEST_COND_ITEM_GIVING_ACTIVED",
          "param": [
            "1910703"
          ],
          "param_str": ""
        }
      ],
      "priority": 5,
      "initDialog": 191070301,
      "npcId": [
        502
      ],
      "performCfg": "QuestDialogue/COOP/Coop103901SimpleTalk/Q1910703",
      "heroTalk": "TALK_HERO_MAIN",
      "questId": 19107,
      "prePerformCfg": ""
    },
    {
      "id": 1910795,
      "beginWay": "TALK_BEGIN_MANUAL",
      "activeMode": "PLAY_MODE_SINGLE",
      "beginCond": [
        {
          "type": "QUEST_COND_STATE_EQUAL",
          "param": [
            "1910706",
            "2"
          ],
          "param_str": ""
        }
      ],
      "priority": 5,
      "initDialog": 191079501,
      "npcId": [
        152701,
        152901
      ],
      "performCfg": "QuestDialogue/COOP/Coop103901SimpleTalk/Q1910795",
      "heroTalk": "TALK_HERO_MAIN",
      "questId": 19107,
      "prePerformCfg": ""
    },
    {
      "id": 1910797,
      "beginWay": "TALK_BEGIN_MANUAL",
      "activeMode": "PLAY_MODE_SINGLE",
      "beginCondComb": "LOGIC_OR",
      "beginCond": [
        {
          "type": "QUEST_COND_STATE_EQUAL",
          "param": [
            "1910703",
            "2"
          ],
          "param_str": ""
        },
        {
          "type": "QUEST_COND_STATE_EQUAL",
          "param": [
            "1910704",
            "2"
          ],
          "param_str": ""
        }
      ],
      "priority": 5,
      "initDialog": 191079701,
      "npcId": [
        152701,
        152901
      ],
      "performCfg": "QuestDialogue/COOP/Coop103901SimpleTalk/Q1910797",
      "heroTalk": "TALK_HERO_MAIN",
      "questId": 19107,
      "prePerformCfg": ""
    },
    {
      "id": 1910798,
      "beginWay": "TALK_BEGIN_MANUAL",
      "activeMode": "PLAY_MODE_SINGLE",
      "beginCond": [
        {
          "type": "QUEST_COND_STATE_EQUAL",
          "param": [
            "1910702",
            "2"
          ],
          "param_str": ""
        }
      ],
      "priority": 5,
      "initDialog": 191079801,
      "npcId": [
        152701,
        152901
      ],
      "performCfg": "QuestDialogue/COOP/Coop103901SimpleTalk/Q1910798",
      "heroTalk": "TALK_HERO_MAIN",
      "questId": 19107,
      "prePerformCfg": ""
    },
    {
      "id": 1910799,
      "beginWay": "TALK_BEGIN_MANUAL",
      "activeMode": "PLAY_MODE_SINGLE",
      "beginCond": [
        {
          "type": "QUEST_COND_STATE_EQUAL",
          "param": [
            "1910702",
            "2"
          ],
          "param_str": ""
        }
      ],
      "priority": 5,
      "initDialog": 191079901,
      "npcId": [
        502
      ],
      "performCfg": "QuestDialogue/COOP/Coop103901SimpleTalk/Q1910799",
      "heroTalk": "TALK_HERO_MAIN",
      "questId": 19107,
      "prePerformCfg": ""
    }
  ]
}