{
  "id": 20039,
  "type": "IQ",
  "titleTextMapHash": 4246844257,
  "descTextMapHash": 4000464455,
  "luaPath": "Actor/Quest/IQ20039",
  "rewardIdList": [
    500031,
    500032,
    500033
  ],
  "subQuests": [
    {
      "subId": 2003901,
      "mainId": 20039,
      "order": 1,
      "descTextMapHash": 3678464064,
      "acceptCond": [
        {
          "type": "QUEST_COND_DAILY_TASK_START",
          "param": [
            21200,
            0,
            0
          ],
          "param_str": ""
        }
      ],
      "finishCond": [
        {
          "type": "QUEST_CONTENT_COMPLETE_TALK",
          "param": [
            2003901,
            0
          ],
          "param_str": ""
        }
      ],
      "failCond": [],
      "guide": {
        "type": "QUEST_GUIDE_NPC",
        "param": [
          "1587"
        ],
        "guideScene": 3,
        "guideStyle": "QUEST_GUIDE_STYLE_START",
        "guideLayer": "QUEST_GUIDE_LAYER_UI"
      },
      "isRewind": true,
      "finishExec": [],
      "failExec": [],
      "beginExec": [],
      "exclusiveNpcList": [
        1587
      ]
    },
    {
      "subId": 2003902,
      "mainId": 20039,
      "order": 3,
      "descTextMapHash": 2321247200,
      "showType": "QUEST_HIDDEN",
      "acceptCondComb": "LOGIC_AND",
      "acceptCond": [
        {
          "type": "QUEST_COND_DAILY_TASK_START",
          "param": [
            21200,
            0,
            0
          ],
          "param_str": ""
        },
        {
          "type": "QUEST_COND_STATE_EQUAL",
          "param": [
            2003901,
            3,
            0
          ],
          "param_str": ""
        }
      ],
      "finishCond": [
        {
          "type": "QUEST_CONTENT_COMPLETE_TALK",
          "param": [
            2003902,
            0
          ],
          "param_str": ""
        }
      ],
      "failCond": [],
      "guide": {
        "param": []
      },
      "finishExec": [],
      "failExec": [],
      "beginExec": [],
      "exclusiveNpcList": [
        1587
      ]
    },
    {
      "subId": 2003903,
      "mainId": 20039,
      "order": 4,
      "descTextMapHash": 3456296016,
      "showType": "QUEST_HIDDEN",
      "acceptCondComb": "LOGIC_AND",
      "acceptCond": [
        {
          "type": "QUEST_COND_DAILY_TASK_START",
          "param": [
            21200,
            0,
            0
          ],
          "param_str": ""
        },
        {
          "type": "QUEST_COND_STATE_EQUAL",
          "param": [
            2003901,
            3,
            0
          ],
          "param_str": ""
        }
      ],
      "finishCond": [
        {
          "type": "QUEST_CONTENT_COMPLETE_TALK",
          "param": [
            2003903,
            0
          ],
          "param_str": ""
        }
      ],
      "failCond": [],
      "guide": {
        "param": []
      },
      "finishExec": [],
      "failExec": [],
      "beginExec": [],
      "exclusiveNpcList": [
        1587
      ]
    },
    {
      "subId": 2003904,
      "mainId": 20039,
      "order": 2,
      "descTextMapHash": 421380968,
      "showType": "QUEST_HIDDEN",
      "acceptCondComb": "LOGIC_AND",
      "acceptCond": [
        {
          "type": "QUEST_COND_DAILY_TASK_START",
          "param": [
            21200,
            0,
            0
          ],
          "param_str": ""
        },
        {
          "type": "QUEST_COND_STATE_EQUAL",
          "param": [
            2003901,
            3,
            0
          ],
          "param_str": ""
        }
      ],
      "finishCond": [
        {
          "type": "QUEST_CONTENT_FINISH_PLOT",
          "param": [
            2003904,
            0
          ],
          "param_str": ""
        }
      ],
      "failCond": [
        {
          "type": "QUEST_CONTENT_NOT_FINISH_PLOT",
          "param": [
            2003904,
            0
          ],
          "param_str": ""
        }
      ],
      "guide": {
        "param": []
      },
      "finishExec": [],
      "failExec": [],
      "beginExec": [],
      "exclusiveNpcList": [
        1587
      ]
    },
    {
      "subId": 2003905,
      "mainId": 20039,
      "order": 2,
      "descTextMapHash": 2517209928,
      "showType": "QUEST_HIDDEN",
      "acceptCondComb": "LOGIC_AND",
      "acceptCond": [
        {
          "type": "QUEST_COND_DAILY_TASK_START",
          "param": [
            21200,
            0,
            0
          ],
          "param_str": ""
        },
        {
          "type": "QUEST_COND_STATE_EQUAL",
          "param": [
            2003901,
            3,
            0
          ],
          "param_str": ""
        }
      ],
      "finishCond": [
        {
          "type": "QUEST_CONTENT_FINISH_PLOT",
          "param": [
            2003905,
            0
          ],
          "param_str": ""
        }
      ],
      "failCond": [
        {
          "type": "QUEST_CONTENT_NOT_FINISH_PLOT",
          "param": [
            2003905,
            0
          ],
          "param_str": ""
        }
      ],
      "guide": {
        "param": []
      },
      "finishExec": [],
      "failExec": [],
      "beginExec": [],
      "exclusiveNpcList": [
        1587
      ]
    },
    {
      "subId": 2003906,
      "mainId": 20039,
      "order": 2,
      "descTextMapHash": 2047911360,
      "showType": "QUEST_HIDDEN",
      "acceptCondComb": "LOGIC_AND",
      "acceptCond": [
        {
          "type": "QUEST_COND_DAILY_TASK_START",
          "param": [
            21200,
            0,
            0
          ],
          "param_str": ""
        },
        {
          "type": "QUEST_COND_STATE_EQUAL",
          "param": [
            2003901,
            3,
            0
          ],
          "param_str": ""
        }
      ],
      "finishCond": [
        {
          "type": "QUEST_CONTENT_FINISH_PLOT",
          "param": [
            2003906,
            0
          ],
          "param_str": ""
        }
      ],
      "failCond": [
        {
          "type": "QUEST_CONTENT_NOT_FINISH_PLOT",
          "param": [
            2003906,
            0
          ],
          "param_str": ""
        }
      ],
      "guide": {
        "param": []
      },
      "finishExec": [],
      "failExec": [],
      "beginExec": [],
      "exclusiveNpcList": [
        1587
      ]
    },
    {
      "subId": 2003907,
      "mainId": 20039,
      "order": 7,
      "descTextMapHash": 4018875384,
      "acceptCondComb": "LOGIC_AND",
      "acceptCond": [
        {
          "type": "QUEST_COND_DAILY_TASK_START",
          "param": [
            21200,
            0,
            0
          ],
          "param_str": ""
        },
        {
          "type": "QUEST_COND_STATE_EQUAL",
          "param": [
            2003904,
            3,
            0
          ],
          "param_str": ""
        }
      ],
      "finishCond": [
        {
          "type": "QUEST_CONTENT_FINISH_PLOT",
          "param": [
            2003907,
            0
          ],
          "param_str": ""
        }
      ],
      "failCond": [],
      "guide": {
        "param": []
      },
      "isRewind": true,
      "finishExec": [],
      "failExec": [],
      "beginExec": [],
      "exclusiveNpcList": [
        1587
      ]
    },
    {
      "subId": 2003908,
      "mainId": 20039,
      "order": 8,
      "descTextMapHash": 558375664,
      "acceptCondComb": "LOGIC_AND",
      "acceptCond": [
        {
          "type": "QUEST_COND_DAILY_TASK_START",
          "param": [
            21200,
            0,
            0
          ],
          "param_str": ""
        },
        {
          "type": "QUEST_COND_STATE_EQUAL",
          "param": [
            2003905,
            3,
            0
          ],
          "param_str": ""
        }
      ],
      "finishCond": [
        {
          "type": "QUEST_CONTENT_FINISH_PLOT",
          "param": [
            2003908,
            0
          ],
          "param_str": ""
        }
      ],
      "failCond": [],
      "guide": {
        "param": []
      },
      "isRewind": true,
      "finishExec": [],
      "failExec": [],
      "beginExec": [],
      "exclusiveNpcList": [
        1587
      ]
    },
    {
      "subId": 2003909,
      "mainId": 20039,
      "order": 9,
      "descTextMapHash": 3818658312,
      "acceptCondComb": "LOGIC_AND",
      "acceptCond": [
        {
          "type": "QUEST_COND_DAILY_TASK_START",
          "param": [
            21200,
            0,
            0
          ],
          "param_str": ""
        },
        {
          "type": "QUEST_COND_STATE_EQUAL",
          "param": [
            2003906,
            3,
            0
          ],
          "param_str": ""
        }
      ],
      "finishCond": [
        {
          "type": "QUEST_CONTENT_FINISH_PLOT",
          "param": [
            2003909,
            0
          ],
          "param_str": ""
        }
      ],
      "failCond": [],
      "guide": {
        "param": []
      },
      "isRewind": true,
      "finishExec": [],
      "failExec": [],
      "beginExec": [],
      "exclusiveNpcList": [
        1587
      ]
    },
    {
      "subId": 2003910,
      "mainId": 20039,
      "order": 10,
      "descTextMapHash": 1843411880,
      "showType": "QUEST_HIDDEN",
      "acceptCondComb": "LOGIC_AND",
      "acceptCond": [
        {
          "type": "QUEST_COND_DAILY_TASK_START",
          "param": [
            21200,
            0,
            0
          ],
          "param_str": ""
        },
        {
          "type": "QUEST_COND_STATE_EQUAL",
          "param": [
            2003903,
            3,
            0
          ],
          "param_str": ""
        }
      ],
      "finishCond": [
        {
          "type": "QUEST_CONTENT_FINISH_PLOT",
          "param": [
            2003910,
            0
          ],
          "param_str": ""
        }
      ],
      "failCond": [],
      "guide": {
        "param": []
      },
      "finishExec": [],
      "failExec": [],
      "beginExec": [],
      "exclusiveNpcList": [
        1587
      ]
    },
    {
      "subId": 2003911,
      "mainId": 20039,
      "order": 11,
      "descTextMapHash": 2532265560,
      "showType": "QUEST_HIDDEN",
      "acceptCondComb": "LOGIC_AND",
      "acceptCond": [
        {
          "type": "QUEST_COND_DAILY_TASK_START",
          "param": [
            21200,
            0,
            0
          ],
          "param_str": ""
        },
        {
          "type": "QUEST_COND_STATE_EQUAL",
          "param": [
            2003903,
            3,
            0
          ],
          "param_str": ""
        }
      ],
      "finishCond": [
        {
          "type": "QUEST_CONTENT_FINISH_PLOT",
          "param": [
            2003911,
            0
          ],
          "param_str": ""
        }
      ],
      "failCond": [],
      "guide": {
        "param": []
      },
      "finishExec": [],
      "failExec": [],
      "beginExec": [],
      "exclusiveNpcList": [
        1587
      ]
    },
    {
      "subId": 2003912,
      "mainId": 20039,
      "order": 12,
      "descTextMapHash": 102900488,
      "showType": "QUEST_HIDDEN",
      "acceptCondComb": "LOGIC_AND",
      "acceptCond": [
        {
          "type": "QUEST_COND_DAILY_TASK_START",
          "param": [
            21200,
            0,
            0
          ],
          "param_str": ""
        },
        {
          "type": "QUEST_COND_STATE_EQUAL",
          "param": [
            2003903,
            3,
            0
          ],
          "param_str": ""
        }
      ],
      "finishCond": [
        {
          "type": "QUEST_CONTENT_FINISH_PLOT",
          "param": [
            2003912,
            0
          ],
          "param_str": ""
        }
      ],
      "failCond": [],
      "guide": {
        "param": []
      },
      "finishExec": [],
      "failExec": [],
      "beginExec": [],
      "exclusiveNpcList": [
        1587
      ]
    },
    {
      "subId": 2003913,
      "mainId": 20039,
      "order": 13,
      "descTextMapHash": 506215896,
      "acceptCondComb": "LOGIC_AND",
      "acceptCond": [
        {
          "type": "QUEST_COND_DAILY_TASK_START",
          "param": [
            21200,
            0,
            0
          ],
          "param_str": ""
        },
        {
          "type": "QUEST_COND_STATE_EQUAL",
          "param": [
            2003910,
            3,
            0
          ],
          "param_str": ""
        }
      ],
      "finishCond": [
        {
          "type": "QUEST_CONTENT_FINISH_PLOT",
          "param": [
            2003913,
            0
          ],
          "param_str": ""
        }
      ],
      "failCond": [],
      "guide": {
        "param": []
      },
      "isRewind": true,
      "finishExec": [],
      "failExec": [],
      "beginExec": [],
      "exclusiveNpcList": [
        1587
      ]
    },
    {
      "subId": 2003914,
      "mainId": 20039,
      "order": 14,
      "descTextMapHash": 1008054352,
      "acceptCondComb": "LOGIC_AND",
      "acceptCond": [
        {
          "type": "QUEST_COND_DAILY_TASK_START",
          "param": [
            21200,
            0,
            0
          ],
          "param_str": ""
        },
        {
          "type": "QUEST_COND_STATE_EQUAL",
          "param": [
            2003911,
            3,
            0
          ],
          "param_str": ""
        }
      ],
      "finishCond": [
        {
          "type": "QUEST_CONTENT_FINISH_PLOT",
          "param": [
            2003914,
            0
          ],
          "param_str": ""
        }
      ],
      "failCond": [],
      "guide": {
        "param": []
      },
      "isRewind": true,
      "finishExec": [],
      "failExec": [],
      "beginExec": [],
      "exclusiveNpcList": [
        1587
      ]
    },
    {
      "subId": 2003915,
      "mainId": 20039,
      "order": 15,
      "descTextMapHash": 3888413912,
      "acceptCondComb": "LOGIC_AND",
      "acceptCond": [
        {
          "type": "QUEST_COND_DAILY_TASK_START",
          "param": [
            21200,
            0,
            0
          ],
          "param_str": ""
        },
        {
          "type": "QUEST_COND_STATE_EQUAL",
          "param": [
            2003912,
            3,
            0
          ],
          "param_str": ""
        }
      ],
      "finishCond": [
        {
          "type": "QUEST_CONTENT_FINISH_PLOT",
          "param": [
            2003915,
            0
          ],
          "param_str": ""
        }
      ],
      "failCond": [],
      "guide": {
        "param": []
      },
      "isRewind": true,
      "finishExec": [],
      "failExec": [],
      "beginExec": [],
      "exclusiveNpcList": [
        1587
      ]
    },
    {
      "subId": 2003916,
      "mainId": 20039,
      "order": 16,
      "descTextMapHash": 1081623008,
      "acceptCondComb": "LOGIC_AND",
      "acceptCond": [
        {
          "type": "QUEST_COND_DAILY_TASK_START",
          "param": [
            21200,
            0,
            0
          ],
          "param_str": ""
        },
        {
          "type": "QUEST_COND_STATE_EQUAL",
          "param": [
            2003907,
            3,
            0
          ],
          "param_str": ""
        }
      ],
      "finishCond": [
        {
          "type": "QUEST_CONTENT_COMPLETE_TALK",
          "param": [
            2003910,
            0
          ],
          "param_str": ""
        }
      ],
      "failCond": [
        {
          "type": "QUEST_CONTENT_ITEM_LESS_THAN",
          "param": [
            111017,
            1
          ],
          "param_str": ""
        }
      ],
      "guide": {
        "type": "QUEST_GUIDE_NPC",
        "param": [
          "1587"
        ],
        "guideScene": 3,
        "guideStyle": "QUEST_GUIDE_STYLE_FINISH",
        "guideLayer": "QUEST_GUIDE_LAYER_SCENE"
      },
      "finishParent": true,
      "isRewind": true,
      "finishExec": [
        {
          "type": "QUEST_EXEC_NOTIFY_DAILY_TASK",
          "param": [
            "21200"
          ],
          "param_str": ""
        },
        {
          "type": "QUEST_EXEC_DEL_PACK_ITEM",
          "param": [
            "111017",
            "1"
          ],
          "param_str": ""
        },
        {
          "type": "QUEST_EXEC_UPDATE_PARENT_QUEST_REWARD_INDEX",
          "param": [
            "0"
          ],
          "param_str": ""
        }
      ],
      "failExec": [
        {
          "type": "QUEST_EXEC_ROLLBACK_QUEST",
          "param": [
            "2003907"
          ],
          "param_str": ""
        }
      ],
      "beginExec": [],
      "exclusiveNpcList": [
        1587
      ]
    },
    {
      "subId": 2003917,
      "mainId": 20039,
      "order": 17,
      "descTextMapHash": 2330051008,
      "acceptCondComb": "LOGIC_AND",
      "acceptCond": [
        {
          "type": "QUEST_COND_DAILY_TASK_START",
          "param": [
            21200,
            0,
            0
          ],
          "param_str": ""
        },
        {
          "type": "QUEST_COND_STATE_EQUAL",
          "param": [
            2003908,
            3,
            0
          ],
          "param_str": ""
        }
      ],
      "finishCond": [
        {
          "type": "QUEST_CONTENT_COMPLETE_TALK",
          "param": [
            2003911,
            0
          ],
          "param_str": ""
        }
      ],
      "failCond": [
        {
          "type": "QUEST_CONTENT_ITEM_LESS_THAN",
          "param": [
            111015,
            1
          ],
          "param_str": ""
        }
      ],
      "guide": {
        "type": "QUEST_GUIDE_NPC",
        "param": [
          "1587"
        ],
        "guideScene": 3,
        "guideStyle": "QUEST_GUIDE_STYLE_FINISH",
        "guideLayer": "QUEST_GUIDE_LAYER_SCENE"
      },
      "finishParent": true,
      "isRewind": true,
      "finishExec": [
        {
          "type": "QUEST_EXEC_NOTIFY_DAILY_TASK",
          "param": [
            "21200"
          ],
          "param_str": ""
        },
        {
          "type": "QUEST_EXEC_DEL_PACK_ITEM",
          "param": [
            "111015",
            "1"
          ],
          "param_str": ""
        },
        {
          "type": "QUEST_EXEC_UPDATE_PARENT_QUEST_REWARD_INDEX",
          "param": [
            "1"
          ],
          "param_str": ""
        }
      ],
      "failExec": [
        {
          "type": "QUEST_EXEC_ROLLBACK_QUEST",
          "param": [
            "2003908"
          ],
          "param_str": ""
        }
      ],
      "beginExec": [],
      "exclusiveNpcList": [
        1587
      ]
    },
    {
      "subId": 2003918,
      "mainId": 20039,
      "order": 18,
      "descTextMapHash": 4268647952,
      "acceptCondComb": "LOGIC_AND",
      "acceptCond": [
        {
          "type": "QUEST_COND_DAILY_TASK_START",
          "param": [
            21200,
            0,
            0
          ],
          "param_str": ""
        },
        {
          "type": "QUEST_COND_STATE_EQUAL",
          "param": [
            2003909,
            3,
            0
          ],
          "param_str": ""
        }
      ],
      "finishCond": [
        {
          "type": "QUEST_CONTENT_COMPLETE_TALK",
          "param": [
            2003912,
            0
          ],
          "param_str": ""
        }
      ],
      "failCond": [
        {
          "type": "QUEST_CONTENT_ITEM_LESS_THAN",
          "param": [
            111013,
            1
          ],
          "param_str": ""
        }
      ],
      "guide": {
        "type": "QUEST_GUIDE_NPC",
        "param": [
          "1587"
        ],
        "guideScene": 3,
        "guideStyle": "QUEST_GUIDE_STYLE_FINISH",
        "guideLayer": "QUEST_GUIDE_LAYER_SCENE"
      },
      "finishParent": true,
      "isRewind": true,
      "finishExec": [
        {
          "type": "QUEST_EXEC_NOTIFY_DAILY_TASK",
          "param": [
            "21200"
          ],
          "param_str": ""
        },
        {
          "type": "QUEST_EXEC_DEL_PACK_ITEM",
          "param": [
            "111013",
            "1"
          ],
          "param_str": ""
        },
        {
          "type": "QUEST_EXEC_UPDATE_PARENT_QUEST_REWARD_INDEX",
          "param": [
            "2"
          ],
          "param_str": ""
        }
      ],
      "failExec": [
        {
          "type": "QUEST_EXEC_ROLLBACK_QUEST",
          "param": [
            "2003909"
          ],
          "param_str": ""
        }
      ],
      "beginExec": [],
      "exclusiveNpcList": [
        1587
      ]
    },
    {
      "subId": 2003919,
      "mainId": 20039,
      "order": 19,
      "descTextMapHash": 2123003368,
      "acceptCondComb": "LOGIC_AND",
      "acceptCond": [
        {
          "type": "QUEST_COND_DAILY_TASK_START",
          "param": [
            21200,
            0,
            0
          ],
          "param_str": ""
        },
        {
          "type": "QUEST_COND_STATE_EQUAL",
          "param": [
            2003913,
            3,
            0
          ],
          "param_str": ""
        }
      ],
      "finishCond": [
        {
          "type": "QUEST_CONTENT_COMPLETE_TALK",
          "param": [
            2003913,
            0
          ],
          "param_str": ""
        }
      ],
      "failCond": [
        {
          "type": "QUEST_CONTENT_ITEM_LESS_THAN",
          "param": [
            112015,
            1
          ],
          "param_str": ""
        }
      ],
      "guide": {
        "type": "QUEST_GUIDE_NPC",
        "param": [
          "1587"
        ],
        "guideScene": 3,
        "guideStyle": "QUEST_GUIDE_STYLE_FINISH",
        "guideLayer": "QUEST_GUIDE_LAYER_SCENE"
      },
      "finishParent": true,
      "isRewind": true,
      "finishExec": [
        {
          "type": "QUEST_EXEC_NOTIFY_DAILY_TASK",
          "param": [
            "21200"
          ],
          "param_str": ""
        },
        {
          "type": "QUEST_EXEC_DEL_PACK_ITEM",
          "param": [
            "112015",
            "1"
          ],
          "param_str": ""
        }
      ],
      "failExec": [
        {
          "type": "QUEST_EXEC_ROLLBACK_QUEST",
          "param": [
            "2003913"
          ],
          "param_str": ""
        }
      ],
      "beginExec": [],
      "exclusiveNpcList": [
        1587
      ]
    },
    {
      "subId": 2003920,
      "mainId": 20039,
      "order": 20,
      "descTextMapHash": 710030472,
      "acceptCondComb": "LOGIC_AND",
      "acceptCond": [
        {
          "type": "QUEST_COND_DAILY_TASK_START",
          "param": [
            21200,
            0,
            0
          ],
          "param_str": ""
        },
        {
          "type": "QUEST_COND_STATE_EQUAL",
          "param": [
            2003914,
            3,
            0
          ],
          "param_str": ""
        }
      ],
      "finishCond": [
        {
          "type": "QUEST_CONTENT_COMPLETE_TALK",
          "param": [
            2003914,
            0
          ],
          "param_str": ""
        }
      ],
      "failCond": [
        {
          "type": "QUEST_CONTENT_ITEM_LESS_THAN",
          "param": [
            112006,
            1
          ],
          "param_str": ""
        }
      ],
      "guide": {
        "type": "QUEST_GUIDE_NPC",
        "param": [
          "1587"
        ],
        "guideScene": 3,
        "guideStyle": "QUEST_GUIDE_STYLE_FINISH",
        "guideLayer": "QUEST_GUIDE_LAYER_SCENE"
      },
      "finishParent": true,
      "isRewind": true,
      "finishExec": [
        {
          "type": "QUEST_EXEC_NOTIFY_DAILY_TASK",
          "param": [
            "21200"
          ],
          "param_str": ""
        },
        {
          "type": "QUEST_EXEC_DEL_PACK_ITEM",
          "param": [
            "112006",
            "1"
          ],
          "param_str": ""
        }
      ],
      "failExec": [
        {
          "type": "QUEST_EXEC_ROLLBACK_QUEST",
          "param": [
            "2003914"
          ],
          "param_str": ""
        }
      ],
      "beginExec": [],
      "exclusiveNpcList": [
        1587
      ]
    },
    {
      "subId": 2003921,
      "mainId": 20039,
      "order": 21,
      "descTextMapHash": 2297394752,
      "acceptCondComb": "LOGIC_AND",
      "acceptCond": [
        {
          "type": "QUEST_COND_DAILY_TASK_START",
          "param": [
            21200,
            0,
            0
          ],
          "param_str": ""
        },
        {
          "type": "QUEST_COND_STATE_EQUAL",
          "param": [
            2003915,
            3,
            0
          ],
          "param_str": ""
        }
      ],
      "finishCond": [
        {
          "type": "QUEST_CONTENT_COMPLETE_TALK",
          "param": [
            2003915,
            0
          ],
          "param_str": ""
        }
      ],
      "failCond": [
        {
          "type": "QUEST_CONTENT_ITEM_LESS_THAN",
          "param": [
            112003,
            1
          ],
          "param_str": ""
        }
      ],
      "guide": {
        "type": "QUEST_GUIDE_NPC",
        "param": [
          "1587"
        ],
        "guideScene": 3,
        "guideStyle": "QUEST_GUIDE_STYLE_FINISH",
        "guideLayer": "QUEST_GUIDE_LAYER_SCENE"
      },
      "finishParent": true,
      "isRewind": true,
      "finishExec": [
        {
          "type": "QUEST_EXEC_NOTIFY_DAILY_TASK",
          "param": [
            "21200"
          ],
          "param_str": ""
        },
        {
          "type": "QUEST_EXEC_DEL_PACK_ITEM",
          "param": [
            "112003",
            "1"
          ],
          "param_str": ""
        }
      ],
      "failExec": [
        {
          "type": "QUEST_EXEC_ROLLBACK_QUEST",
          "param": [
            "2003915"
          ],
          "param_str": ""
        }
      ],
      "beginExec": [],
      "exclusiveNpcList": [
        1587
      ]
    },
    {
      "subId": 2003922,
      "mainId": 20039,
      "order": 22,
      "descTextMapHash": 2842868352,
      "showType": "QUEST_HIDDEN",
      "acceptCondComb": "LOGIC_AND",
      "acceptCond": [
        {
          "type": "QUEST_COND_DAILY_TASK_START",
          "param": [
            21200,
            0,
            0
          ],
          "param_str": ""
        },
        {
          "type": "QUEST_COND_STATE_EQUAL",
          "param": [
            2003904,
            3,
            0
          ],
          "param_str": ""
        },
        {
          "type": "QUEST_COND_PACK_HAVE_ITEM",
          "param": [
            111017,
            1,
            0
          ],
          "param_str": ""
        }
      ],
      "finishCond": [
        {
          "type": "QUEST_CONTENT_FINISH_PLOT",
          "param": [
            2003907,
            0
          ],
          "param_str": ""
        }
      ],
      "failCond": [],
      "guide": {
        "param": []
      },
      "isRewind": true,
      "finishExec": [],
      "failExec": [],
      "beginExec": [],
      "exclusiveNpcList": [
        1587
      ]
    },
    {
      "subId": 2003923,
      "mainId": 20039,
      "order": 23,
      "descTextMapHash": 1517760808,
      "showType": "QUEST_HIDDEN",
      "acceptCondComb": "LOGIC_AND",
      "acceptCond": [
        {
          "type": "QUEST_COND_DAILY_TASK_START",
          "param": [
            21200,
            0,
            0
          ],
          "param_str": ""
        },
        {
          "type": "QUEST_COND_STATE_EQUAL",
          "param": [
            2003905,
            3,
            0
          ],
          "param_str": ""
        },
        {
          "type": "QUEST_COND_PACK_HAVE_ITEM",
          "param": [
            111015,
            1,
            0
          ],
          "param_str": ""
        }
      ],
      "finishCond": [
        {
          "type": "QUEST_CONTENT_FINISH_PLOT",
          "param": [
            2003908,
            0
          ],
          "param_str": ""
        }
      ],
      "failCond": [],
      "guide": {
        "param": []
      },
      "isRewind": true,
      "finishExec": [],
      "failExec": [],
      "beginExec": [],
      "exclusiveNpcList": [
        1587
      ]
    },
    {
      "subId": 2003924,
      "mainId": 20039,
      "order": 24,
      "descTextMapHash": 303487344,
      "showType": "QUEST_HIDDEN",
      "acceptCondComb": "LOGIC_AND",
      "acceptCond": [
        {
          "type": "QUEST_COND_DAILY_TASK_START",
          "param": [
            21200,
            0,
            0
          ],
          "param_str": ""
        },
        {
          "type": "QUEST_COND_STATE_EQUAL",
          "param": [
            2003906,
            3,
            0
          ],
          "param_str": ""
        },
        {
          "type": "QUEST_COND_PACK_HAVE_ITEM",
          "param": [
            111013,
            1,
            0
          ],
          "param_str": ""
        }
      ],
      "finishCond": [
        {
          "type": "QUEST_CONTENT_FINISH_PLOT",
          "param": [
            2003909,
            0
          ],
          "param_str": ""
        }
      ],
      "failCond": [],
      "guide": {
        "param": []
      },
      "isRewind": true,
      "finishExec": [],
      "failExec": [],
      "beginExec": [],
      "exclusiveNpcList": [
        1587
      ]
    },
    {
      "subId": 2003925,
      "mainId": 20039,
      "order": 25,
      "descTextMapHash": 723469552,
      "showType": "QUEST_HIDDEN",
      "acceptCondComb": "LOGIC_AND",
      "acceptCond": [
        {
          "type": "QUEST_COND_DAILY_TASK_START",
          "param": [
            21200,
            0,
            0
          ],
          "param_str": ""
        },
        {
          "type": "QUEST_COND_STATE_EQUAL",
          "param": [
            2003910,
            3,
            0
          ],
          "param_str": ""
        },
        {
          "type": "QUEST_COND_PACK_HAVE_ITEM",
          "param": [
            112015,
            1,
            0
          ],
          "param_str": ""
        }
      ],
      "finishCond": [
        {
          "type": "QUEST_CONTENT_FINISH_PLOT",
          "param": [
            2003913,
            0
          ],
          "param_str": ""
        }
      ],
      "failCond": [],
      "guide": {
        "param": []
      },
      "isRewind": true,
      "finishExec": [],
      "failExec": [],
      "beginExec": [],
      "exclusiveNpcList": [
        1587
      ]
    },
    {
      "subId": 2003926,
      "mainId": 20039,
      "order": 26,
      "descTextMapHash": 3076397400,
      "showType": "QUEST_HIDDEN",
      "acceptCondComb": "LOGIC_AND",
      "acceptCond": [
        {
          "type": "QUEST_COND_DAILY_TASK_START",
          "param": [
            21200,
            0,
            0
          ],
          "param_str": ""
        },
        {
          "type": "QUEST_COND_STATE_EQUAL",
          "param": [
            2003911,
            3,
            0
          ],
          "param_str": ""
        },
        {
          "type": "QUEST_COND_PACK_HAVE_ITEM",
          "param": [
            112006,
            1,
            0
          ],
          "param_str": ""
        }
      ],
      "finishCond": [
        {
          "type": "QUEST_CONTENT_FINISH_PLOT",
          "param": [
            2003914,
            0
          ],
          "param_str": ""
        }
      ],
      "failCond": [],
      "guide": {
        "param": []
      },
      "isRewind": true,
      "finishExec": [],
      "failExec": [],
      "beginExec": [],
      "exclusiveNpcList": [
        1587
      ]
    },
    {
      "subId": 2003927,
      "mainId": 20039,
      "order": 27,
      "descTextMapHash": 4008560928,
      "showType": "QUEST_HIDDEN",
      "acceptCondComb": "LOGIC_AND",
      "acceptCond": [
        {
          "type": "QUEST_COND_DAILY_TASK_START",
          "param": [
            21200,
            0,
            0
          ],
          "param_str": ""
        },
        {
          "type": "QUEST_COND_STATE_EQUAL",
          "param": [
            2003912,
            3,
            0
          ],
          "param_str": ""
        },
        {
          "type": "QUEST_COND_PACK_HAVE_ITEM",
          "param": [
            112003,
            1,
            0
          ],
          "param_str": ""
        }
      ],
      "finishCond": [
        {
          "type": "QUEST_CONTENT_FINISH_PLOT",
          "param": [
            2003915,
            0
          ],
          "param_str": ""
        }
      ],
      "failCond": [],
      "guide": {
        "param": []
      },
      "isRewind": true,
      "finishExec": [],
      "failExec": [],
      "beginExec": [],
      "exclusiveNpcList": [
        1587
      ]
    }
  ],
  "talks": [
    {
      "id": 2003901,
      "beginWay": "TALK_BEGIN_MANUAL",
      "beginCond": [
        {
          "type": "QUEST_COND_STATE_EQUAL",
          "param": [
            "2003901",
            "2"
          ],
          "param_str": ""
        }
      ],
      "priority": 2,
      "nextTalks": [
        2003902
      ],
      "initDialog": 200390101,
      "npcId": [
        1587
      ],
      "performCfg": "",
      "questId": 20039,
      "dontBlockDaily": true,
      "prePerformCfg": ""
    },
    {
      "id": 2003902,
      "priority": 1,
      "nextTalks": [
        2003904,
        2003905,
        2003906
      ],
      "initDialog": 200390201,
      "npcId": [
        1587
      ],
      "performCfg": "",
      "questId": 20039,
      "dontBlockDaily": true,
      "prePerformCfg": ""
    },
    {
      "id": 2003903,
      "priority": 1,
      "initDialog": 200390301,
      "npcId": [
        1587
      ],
      "performCfg": "",
      "questId": 20039,
      "dontBlockDaily": true,
      "prePerformCfg": ""
    },
    {
      "id": 2003904,
      "beginCond": [
        {
          "type": "QUEST_COND_STATE_EQUAL",
          "param": [
            "2003907",
            "2"
          ],
          "param_str": ""
        }
      ],
      "priority": 1,
      "initDialog": 200390401,
      "npcId": [
        1587
      ],
      "performCfg": "",
      "questId": 20039,
      "dontBlockDaily": true,
      "prePerformCfg": ""
    },
    {
      "id": 2003905,
      "beginCond": [
        {
          "type": "QUEST_COND_STATE_EQUAL",
          "param": [
            "2003908",
            "2"
          ],
          "param_str": ""
        }
      ],
      "priority": 1,
      "initDialog": 200390501,
      "npcId": [
        1587
      ],
      "performCfg": "",
      "questId": 20039,
      "dontBlockDaily": true,
      "prePerformCfg": ""
    },
    {
      "id": 2003906,
      "beginCond": [
        {
          "type": "QUEST_COND_STATE_EQUAL",
          "param": [
            "2003909",
            "2"
          ],
          "param_str": ""
        }
      ],
      "priority": 1,
      "initDialog": 200390601,
      "npcId": [
        1587
      ],
      "performCfg": "",
      "questId": 20039,
      "dontBlockDaily": true,
      "prePerformCfg": ""
    },
    {
      "id": 2003907,
      "beginCond": [
        {
          "type": "QUEST_COND_STATE_EQUAL",
          "param": [
            "2003907",
            "2"
          ],
          "param_str": ""
        }
      ],
      "priority": 1,
      "initDialog": 200390701,
      "npcId": [
        1587
      ],
      "performCfg": "",
      "questId": 20039,
      "dontBlockDaily": true,
      "prePerformCfg": ""
    },
    {
      "id": 2003908,
      "beginCond": [
        {
          "type": "QUEST_COND_STATE_EQUAL",
          "param": [
            "2003908",
            "2"
          ],
          "param_str": ""
        }
      ],
      "priority": 1,
      "initDialog": 200390801,
      "npcId": [
        1587
      ],
      "performCfg": "",
      "questId": 20039,
      "dontBlockDaily": true,
      "prePerformCfg": ""
    },
    {
      "id": 2003909,
      "beginCond": [
        {
          "type": "QUEST_COND_STATE_EQUAL",
          "param": [
            "2003909",
            "2"
          ],
          "param_str": ""
        }
      ],
      "priority": 1,
      "initDialog": 200390901,
      "npcId": [
        1587
      ],
      "performCfg": "",
      "questId": 20039,
      "dontBlockDaily": true,
      "prePerformCfg": ""
    },
    {
      "id": 2003910,
      "beginCondComb": "LOGIC_AND",
      "beginCond": [
        {
          "type": "QUEST_COND_STATE_EQUAL",
          "param": [
            "2003907",
            "3"
          ],
          "param_str": ""
        },
        {
          "type": "QUEST_COND_STATE_EQUAL",
          "param": [
            "2003916",
            "2"
          ],
          "param_str": ""
        }
      ],
      "priority": 1,
      "initDialog": 200391001,
      "npcId": [
        1587
      ],
      "performCfg": "",
      "questId": 20039,
      "dontBlockDaily": true,
      "prePerformCfg": ""
    },
    {
      "id": 2003911,
      "beginCondComb": "LOGIC_AND",
      "beginCond": [
        {
          "type": "QUEST_COND_STATE_EQUAL",
          "param": [
            "2003908",
            "3"
          ],
          "param_str": ""
        },
        {
          "type": "QUEST_COND_STATE_EQUAL",
          "param": [
            "2003917",
            "2"
          ],
          "param_str": ""
        }
      ],
      "priority": 1,
      "initDialog": 200391101,
      "npcId": [
        1587
      ],
      "performCfg": "",
      "questId": 20039,
      "dontBlockDaily": true,
      "prePerformCfg": ""
    },
    {
      "id": 2003912,
      "beginCondComb": "LOGIC_AND",
      "beginCond": [
        {
          "type": "QUEST_COND_STATE_EQUAL",
          "param": [
            "2003909",
            "3"
          ],
          "param_str": ""
        },
        {
          "type": "QUEST_COND_STATE_EQUAL",
          "param": [
            "2003918",
            "2"
          ],
          "param_str": ""
        }
      ],
      "priority": 1,
      "initDialog": 200391201,
      "npcId": [
        1587
      ],
      "performCfg": "",
      "questId": 20039,
      "dontBlockDaily": true,
      "prePerformCfg": ""
    },
    {
      "id": 2003913,
      "beginCondComb": "LOGIC_AND",
      "beginCond": [
        {
          "type": "QUEST_COND_STATE_EQUAL",
          "param": [
            "2003913",
            "3"
          ],
          "param_str": ""
        },
        {
          "type": "QUEST_COND_STATE_EQUAL",
          "param": [
            "2003919",
            "2"
          ],
          "param_str": ""
        }
      ],
      "priority": 1,
      "initDialog": 200391301,
      "npcId": [
        1587
      ],
      "performCfg": "",
      "questId": 20039,
      "dontBlockDaily": true,
      "prePerformCfg": ""
    },
    {
      "id": 2003914,
      "beginCondComb": "LOGIC_AND",
      "beginCond": [
        {
          "type": "QUEST_COND_STATE_EQUAL",
          "param": [
            "2003914",
            "3"
          ],
          "param_str": ""
        },
        {
          "type": "QUEST_COND_STATE_EQUAL",
          "param": [
            "2003920",
            "2"
          ],
          "param_str": ""
        }
      ],
      "priority": 1,
      "initDialog": 200391401,
      "npcId": [
        1587
      ],
      "performCfg": "",
      "questId": 20039,
      "dontBlockDaily": true,
      "prePerformCfg": ""
    },
    {
      "id": 2003915,
      "beginCondComb": "LOGIC_AND",
      "beginCond": [
        {
          "type": "QUEST_COND_STATE_EQUAL",
          "param": [
            "2003915",
            "3"
          ],
          "param_str": ""
        },
        {
          "type": "QUEST_COND_STATE_EQUAL",
          "param": [
            "2003921",
            "2"
          ],
          "param_str": ""
        }
      ],
      "priority": 1,
      "initDialog": 200391501,
      "npcId": [
        1587
      ],
      "performCfg": "",
      "questId": 20039,
      "dontBlockDaily": true,
      "prePerformCfg": ""
    }
  ]
}