{
  "id": 2006,
  "series": 1201,
  "titleTextMapHash": 4099676191,
  "descTextMapHash": 2475597846,
  "luaPath": "Actor/Quest/AQ2006",
  "suggestTrackMainQuestList": [
    2007
  ],
  "rewardIdList": [
    102006
  ],
  "chapterId": 1202,
  "subQuests": [
    {
      "subId": 200601,
      "mainId": 2006,
      "order": 1,
      "descTextMapHash": 158705964,
      "acceptCond": [
        {
          "type": "QUEST_COND_STATE_EQUAL",
          "param": [
            200505,
            3,
            0,
            0,
            0
          ],
          "param_str": ""
        }
      ],
      "finishCond": [
        {
          "type": "QUEST_CONTENT_COMPLETE_TALK",
          "param": [
            200601,
            0
          ],
          "param_str": ""
        }
      ],
      "failCond": [],
      "guide": {
        "type": "QUEST_GUIDE_NPC",
        "autoGuide": "QUEST_GUIDE_AUTO_ENABLE",
        "param": [
          "12005"
        ],
        "guideScene": 3,
        "guideStyle": "QUEST_GUIDE_STYLE_TARGET",
        "guideLayer": "QUEST_GUIDE_LAYER_SCENE"
      },
      "isRewind": true,
      "finishExec": [],
      "failExec": [],
      "beginExec": [],
      "exclusiveNpcList": [
        3034,
        3031,
        12005
      ],
      "exclusiveNpcPriority": 1000
    },
    {
      "subId": 200602,
      "mainId": 2006,
      "order": 2,
      "descTextMapHash": 1515476252,
      "acceptCond": [
        {
          "type": "QUEST_COND_STATE_EQUAL",
          "param": [
            200601,
            3,
            0,
            0,
            0
          ],
          "param_str": ""
        }
      ],
      "finishCond": [
        {
          "type": "QUEST_CONTENT_GAME_TIME_TICK",
          "param": [
            0,
            0
          ],
          "param_str": "18,24"
        }
      ],
      "failCond": [],
      "guide": {
        "param": []
      },
      "isRewind": true,
      "finishExec": [],
      "failExec": [],
      "beginExec": [],
      "exclusiveNpcList": [
        3034,
        3031,
        12005
      ],
      "exclusiveNpcPriority": 1000
    },
    {
      "subId": 200603,
      "mainId": 2006,
      "order": 3,
      "descTextMapHash": 4200424428,
      "acceptCond": [
        {
          "type": "QUEST_COND_STATE_EQUAL",
          "param": [
            200602,
            3,
            0,
            0,
            0
          ],
          "param_str": ""
        }
      ],
      "finishCond": [
        {
          "type": "QUEST_CONTENT_COMPLETE_TALK",
          "param": [
            200602,
            0
          ],
          "param_str": ""
        }
      ],
      "failCond": [],
      "guide": {
        "type": "QUEST_GUIDE_NPC",
        "autoGuide": "QUEST_GUIDE_AUTO_ENABLE",
        "param": [
          "12005"
        ],
        "guideScene": 3,
        "guideStyle": "QUEST_GUIDE_STYLE_TARGET",
        "guideLayer": "QUEST_GUIDE_LAYER_SCENE"
      },
      "isRewind": true,
      "finishExec": [],
      "failExec": [],
      "beginExec": [],
      "exclusiveNpcList": [
        3034,
        3031,
        12005,
        12006
      ],
      "exclusiveNpcPriority": 1000
    },
    {
      "subId": 200604,
      "mainId": 2006,
      "order": 6,
      "descTextMapHash": 2139850572,
      "acceptCond": [
        {
          "type": "QUEST_COND_STATE_EQUAL",
          "param": [
            200609,
            3,
            0,
            0,
            0
          ],
          "param_str": ""
        }
      ],
      "finishCond": [
        {
          "type": "QUEST_CONTENT_FINISH_PLOT",
          "param": [
            200604,
            0
          ],
          "param_str": ""
        }
      ],
      "failCond": [],
      "guide": {
        "type": "QUEST_GUIDE_LOCATION",
        "autoGuide": "QUEST_GUIDE_AUTO_ENABLE",
        "param": [
          "Q200605mass1",
          "20"
        ],
        "guideScene": 3,
        "guideStyle": "QUEST_GUIDE_STYLE_TARGET",
        "guideLayer": "QUEST_GUIDE_LAYER_SCENE"
      },
      "isRewind": true,
      "finishExec": [],
      "failExec": [],
      "beginExec": [],
      "exclusiveNpcList": [
        3034,
        3031,
        12005,
        12006
      ],
      "exclusiveNpcPriority": 1000
    },
    {
      "subId": 200605,
      "mainId": 2006,
      "order": 7,
      "descTextMapHash": 919530468,
      "acceptCond": [
        {
          "type": "QUEST_COND_STATE_EQUAL",
          "param": [
            200604,
            3,
            0,
            0,
            0
          ],
          "param_str": ""
        }
      ],
      "finishCond": [
        {
          "type": "QUEST_CONTENT_COMPLETE_TALK",
          "param": [
            200604,
            0
          ],
          "param_str": ""
        }
      ],
      "failCond": [],
      "guide": {
        "type": "QUEST_GUIDE_NPC",
        "autoGuide": "QUEST_GUIDE_AUTO_ENABLE",
        "param": [
          "12006"
        ],
        "guideScene": 3,
        "guideStyle": "QUEST_GUIDE_STYLE_TARGET",
        "guideLayer": "QUEST_GUIDE_LAYER_SCENE"
      },
      "isRewind": true,
      "finishExec": [],
      "failExec": [],
      "beginExec": [],
      "exclusiveNpcList": [
        3034,
        3031,
        12005,
        12006
      ],
      "exclusiveNpcPriority": 1000
    },
    {
      "subId": 200606,
      "mainId": 2006,
      "order": 8,
      "descTextMapHash": 1659041004,
      "acceptCond": [
        {
          "type": "QUEST_COND_STATE_EQUAL",
          "param": [
            200605,
            3,
            0,
            0,
            0
          ],
          "param_str": ""
        }
      ],
      "finishCond": [
        {
          "type": "QUEST_CONTENT_COMPLETE_TALK",
          "param": [
            200605,
            0
          ],
          "param_str": ""
        }
      ],
      "failCond": [],
      "guide": {
        "type": "QUEST_GUIDE_LOCATION",
        "autoGuide": "QUEST_GUIDE_AUTO_ENABLE",
        "param": [
          "Q200602mass1",
          "30"
        ],
        "guideScene": 3,
        "guideStyle": "QUEST_GUIDE_STYLE_TARGET",
        "guideLayer": "QUEST_GUIDE_LAYER_SCENE"
      },
      "isRewind": true,
      "finishExec": [],
      "failExec": [],
      "beginExec": [],
      "exclusiveNpcList": [
        12007,
        3034,
        3031,
        12005,
        12006,
        3105
      ],
      "exclusiveNpcPriority": 1000
    },
    {
      "subId": 200607,
      "mainId": 2006,
      "order": 9,
      "descTextMapHash": 3349802956,
      "acceptCond": [
        {
          "type": "QUEST_COND_STATE_EQUAL",
          "param": [
            200606,
            3,
            0,
            0,
            0
          ],
          "param_str": ""
        }
      ],
      "finishCond": [
        {
          "type": "QUEST_CONTENT_COMPLETE_TALK",
          "param": [
            200606,
            0
          ],
          "param_str": ""
        }
      ],
      "failCond": [],
      "guide": {
        "type": "QUEST_GUIDE_LOCATION",
        "autoGuide": "QUEST_GUIDE_AUTO_ENABLE",
        "param": [
          "Q200607born"
        ],
        "guideScene": 3,
        "guideStyle": "QUEST_GUIDE_STYLE_POINT",
        "guideLayer": "QUEST_GUIDE_LAYER_SCENE"
      },
      "finishParent": true,
      "isRewind": true,
      "finishExec": [],
      "failExec": [],
      "beginExec": [],
      "exclusiveNpcList": [
        1034,
        3034,
        3031,
        12005,
        12007,
        12006,
        3105
      ],
      "exclusiveNpcPriority": 1000
    },
    {
      "subId": 200608,
      "mainId": 2006,
      "order": 4,
      "descTextMapHash": 2596406892,
      "acceptCond": [
        {
          "type": "QUEST_COND_STATE_EQUAL",
          "param": [
            200603,
            3,
            0,
            0,
            0
          ],
          "param_str": ""
        }
      ],
      "finishCond": [
        {
          "type": "QUEST_CONTENT_FINISH_PLOT",
          "param": [
            200608,
            0
          ],
          "param_str": ""
        }
      ],
      "failCond": [],
      "guide": {
        "type": "QUEST_GUIDE_LOCATION",
        "autoGuide": "QUEST_GUIDE_AUTO_ENABLE",
        "param": [
          "Q200608task1"
        ],
        "guideScene": 3,
        "guideStyle": "QUEST_GUIDE_STYLE_POINT",
        "guideLayer": "QUEST_GUIDE_LAYER_SCENE"
      },
      "isRewind": true,
      "finishExec": [],
      "failExec": [],
      "beginExec": [],
      "exclusiveNpcList": [
        3034,
        3031,
        12005,
        12006
      ],
      "exclusiveNpcPriority": 1000
    },
    {
      "subId": 200609,
      "mainId": 2006,
      "order": 5,
      "descTextMapHash": 2321705852,
      "acceptCond": [
        {
          "type": "QUEST_COND_STATE_EQUAL",
          "param": [
            200608,
            3,
            0,
            0,
            0
          ],
          "param_str": ""
        }
      ],
      "finishCond": [
        {
          "type": "QUEST_CONTENT_FINISH_PLOT",
          "param": [
            200609,
            0
          ],
          "param_str": ""
        }
      ],
      "failCond": [],
      "guide": {
        "type": "QUEST_GUIDE_LOCATION",
        "autoGuide": "QUEST_GUIDE_AUTO_ENABLE",
        "param": [
          "Q200608task2"
        ],
        "guideScene": 3,
        "guideStyle": "QUEST_GUIDE_STYLE_POINT",
        "guideLayer": "QUEST_GUIDE_LAYER_SCENE"
      },
      "isRewind": true,
      "finishExec": [],
      "failExec": [],
      "beginExec": [],
      "exclusiveNpcList": [
        3034,
        3031,
        12005,
        12006
      ],
      "exclusiveNpcPriority": 1000
    },
    {
      "subId": 200610,
      "mainId": 2006,
      "order": 10,
      "descTextMapHash": 2284609068,
      "acceptCond": [
        {
          "type": "QUEST_COND_STATE_EQUAL",
          "param": [
            99902,
            3,
            0,
            0,
            0
          ],
          "param_str": ""
        }
      ],
      "finishCond": [
        {
          "type": "QUEST_CONTENT_FINISH_PLOT",
          "param": [
            200610,
            0
          ],
          "param_str": ""
        }
      ],
      "failCond": [],
      "guide": {
        "param": []
      },
      "finishExec": [],
      "failExec": [],
      "beginExec": []
    }
  ],
  "talks": [
    {
      "id": 200601,
      "beginWay": "TALK_BEGIN_MANUAL",
      "activeMode": "PLAY_MODE_SINGLE",
      "beginCond": [
        {
          "type": "QUEST_COND_STATE_EQUAL",
          "param": [
            "200601",
            "2"
          ],
          "param_str": ""
        }
      ],
      "priority": 5,
      "initDialog": 20060101,
      "npcId": [
        12005,
        3031
      ],
      "performCfg": "QuestDialogue/AQ/Inazuma1_2006/Q200601",
      "heroTalk": "TALK_HERO_MAIN",
      "questId": 2006,
      "prePerformCfg": ""
    },
    {
      "id": 200602,
      "beginWay": "TALK_BEGIN_MANUAL",
      "activeMode": "PLAY_MODE_SINGLE",
      "beginCond": [
        {
          "type": "QUEST_COND_STATE_EQUAL",
          "param": [
            "200603",
            "2"
          ],
          "param_str": ""
        }
      ],
      "priority": 5,
      "initDialog": 20060201,
      "npcId": [
        12005,
        1005
      ],
      "performCfg": "QuestDialogue/AQ/Inazuma1_2006/Q200602",
      "heroTalk": "TALK_HERO_MAIN",
      "questId": 2006,
      "prePerformCfg": ""
    },
    {
      "id": 200604,
      "beginWay": "TALK_BEGIN_MANUAL",
      "activeMode": "PLAY_MODE_SINGLE",
      "beginCond": [
        {
          "type": "QUEST_COND_STATE_EQUAL",
          "param": [
            "200605",
            "2"
          ],
          "param_str": ""
        }
      ],
      "priority": 5,
      "initDialog": 20060401,
      "npcId": [
        12006,
        1005
      ],
      "performCfg": "QuestDialogue/AQ/Inazuma1_2006/Q200604",
      "heroTalk": "TALK_HERO_MAIN",
      "questId": 2006,
      "prePerformCfg": ""
    },
    {
      "id": 200605,
      "beginWay": "TALK_BEGIN_MANUAL",
      "activeMode": "PLAY_MODE_SINGLE",
      "beginCond": [
        {
          "type": "QUEST_COND_STATE_EQUAL",
          "param": [
            "200606",
            "2"
          ],
          "param_str": ""
        }
      ],
      "priority": 5,
      "initDialog": 20060501,
      "npcId": [
        1005
      ],
      "performCfg": "QuestDialogue/AQ/Inazuma1_2006/Q200605",
      "heroTalk": "TALK_HERO_MAIN",
      "questId": 2006,
      "prePerformCfg": ""
    },
    {
      "id": 200606,
      "beginWay": "TALK_BEGIN_MANUAL",
      "activeMode": "PLAY_MODE_SINGLE",
      "beginCond": [
        {
          "type": "QUEST_COND_STATE_EQUAL",
          "param": [
            "200607",
            "2"
          ],
          "param_str": ""
        }
      ],
      "priority": 5,
      "initDialog": 20060601,
      "npcId": [
        1034
      ],
      "performCfg": "QuestDialogue/AQ/Inazuma1_2006/Q200606",
      "heroTalk": "TALK_HERO_MAIN",
      "questId": 2006,
      "prePerformCfg": ""
    },
    {
      "id": 200607,
      "beginWay": "TALK_BEGIN_MANUAL",
      "activeMode": "PLAY_MODE_SINGLE",
      "beginCondComb": "LOGIC_AND",
      "beginCond": [
        {
          "type": "QUEST_COND_STATE_EQUAL",
          "param": [
            "200601",
            "3"
          ],
          "param_str": ""
        },
        {
          "type": "QUEST_COND_STATE_EQUAL",
          "param": [
            "200602",
            "2"
          ],
          "param_str": ""
        }
      ],
      "priority": 5,
      "initDialog": 20060701,
      "npcId": [
        12005
      ],
      "performCfg": "QuestDialogue/AQ/Inazuma1_2006/Q200607",
      "heroTalk": "TALK_HERO_MAIN",
      "questId": 2006,
      "prePerformCfg": ""
    },
    {
      "id": 200608,
      "beginWay": "TALK_BEGIN_MANUAL",
      "activeMode": "PLAY_MODE_SINGLE",
      "beginCondComb": "LOGIC_AND",
      "beginCond": [
        {
          "type": "QUEST_COND_STATE_EQUAL",
          "param": [
            "200601",
            "3"
          ],
          "param_str": ""
        },
        {
          "type": "QUEST_COND_STATE_EQUAL",
          "param": [
            "200602",
            "2"
          ],
          "param_str": ""
        }
      ],
      "priority": 5,
      "initDialog": 20060801,
      "npcId": [
        3031
      ],
      "performCfg": "QuestDialogue/AQ/Inazuma1_2006/Q200608",
      "heroTalk": "TALK_HERO_MAIN",
      "questId": 2006,
      "prePerformCfg": ""
    },
    {
      "id": 7265202,
      "beginWay": "TALK_BEGIN_MANUAL",
      "activeMode": "PLAY_MODE_SINGLE",
      "beginCond": [
        {
          "type": "QUEST_COND_ACTIVITY_CLIENT_COND",
          "param": [
            "2006",
            "2006006",
            "1"
          ],
          "param_str": ""
        }
      ],
      "priority": 1,
      "initDialog": 726520201,
      "npcId": [
        30055
      ],
      "performCfg": "",
      "heroTalk": "TALK_HERO_MAIN",
      "loadType": "TALK_ACTIVITY",
      "questId": 2006,
      "prePerformCfg": ""
    },
    {
      "id": 7265302,
      "beginWay": "TALK_BEGIN_MANUAL",
      "activeMode": "PLAY_MODE_HOST",
      "beginCond": [
        {
          "type": "QUEST_COND_ACTIVITY_CLIENT_COND",
          "param": [
            "2006",
            "2006007",
            "1"
          ],
          "param_str": ""
        }
      ],
      "priority": 2,
      "initDialog": 726530201,
      "npcId": [
        30055
      ],
      "performCfg": "QuestDialogue/WQ/Daoqi_72653/Q7265302",
      "heroTalk": "TALK_HERO_MAIN",
      "loadType": "TALK_ACTIVITY",
      "questId": 2006,
      "prePerformCfg": ""
    },
    {
      "id": 7265402,
      "beginWay": "TALK_BEGIN_MANUAL",
      "activeMode": "PLAY_MODE_HOST",
      "beginCond": [
        {
          "type": "QUEST_COND_ACTIVITY_CLIENT_COND",
          "param": [
            "2006",
            "2006008",
            "1"
          ],
          "param_str": ""
        }
      ],
      "priority": 3,
      "initDialog": 726540201,
      "npcId": [
        30055
      ],
      "performCfg": "QuestDialogue/WQ/Daoqi_72654/Q7265402",
      "heroTalk": "TALK_HERO_MAIN",
      "loadType": "TALK_ACTIVITY",
      "questId": 2006,
      "prePerformCfg": ""
    },
    {
      "id": 7265504,
      "beginWay": "TALK_BEGIN_MANUAL",
      "activeMode": "PLAY_MODE_HOST",
      "beginCond": [
        {
          "type": "QUEST_COND_ACTIVITY_CLIENT_COND",
          "param": [
            "2006",
            "2006009",
            "1"
          ],
          "param_str": ""
        }
      ],
      "priority": 4,
      "initDialog": 726550401,
      "npcId": [
        30055
      ],
      "performCfg": "",
      "heroTalk": "TALK_HERO_MAIN",
      "loadType": "TALK_ACTIVITY",
      "questId": 2006,
      "prePerformCfg": ""
    }
  ]
}