{
  "id": 20104,
  "type": "IQ",
  "titleTextMapHash": 1518501975,
  "descTextMapHash": 3333074206,
  "luaPath": "Actor/Quest/IQ20104",
  "subQuests": [
    {
      "subId": 2010401,
      "mainId": 20104,
      "order": 1,
      "descTextMapHash": 3332217804,
      "acceptCondComb": "LOGIC_AND",
      "acceptCond": [
        {
          "type": "QUEST_COND_DAILY_TASK_START",
          "param": [
            24200,
            0,
            0,
            0,
            0
          ],
          "param_str": ""
        }
      ],
      "finishCond": [
        {
          "type": "QUEST_CONTENT_COMPLETE_TALK",
          "param": [
            2010401,
            0
          ],
          "param_str": ""
        }
      ],
      "failCond": [],
      "guide": {
        "type": "QUEST_GUIDE_NPC",
        "param": [
          "1596"
        ],
        "guideScene": 3,
        "guideStyle": "QUEST_GUIDE_STYLE_START",
        "guideLayer": "QUEST_GUIDE_LAYER_SCENE"
      },
      "isRewind": true,
      "finishExec": [
        {
          "type": "QUEST_EXEC_REFRESH_GROUP_SUITE",
          "param": [
            "3",
            "133002905,2"
          ],
          "param_str": ""
        },
        {
          "type": "QUEST_EXEC_REFRESH_GROUP_SUITE",
          "param": [
            "3",
            "133002906,2"
          ],
          "param_str": ""
        }
      ],
      "failExec": [],
      "beginExec": [
        {
          "type": "QUEST_EXEC_REFRESH_GROUP_SUITE_RANDOM",
          "param": [
            "3",
            "133002905,2"
          ],
          "param_str": ""
        },
        {
          "type": "QUEST_EXEC_REFRESH_GROUP_SUITE",
          "param": [
            "3",
            "133002906,2"
          ],
          "param_str": ""
        }
      ],
      "exclusiveNpcList": [
        1596,
        1595
      ],
      "exclusiveNpcPriority": 1100
    },
    {
      "subId": 2010402,
      "mainId": 20104,
      "order": 2,
      "subIdSet": 1,
      "descTextMapHash": 3573524292,
      "acceptCondComb": "LOGIC_AND",
      "acceptCond": [
        {
          "type": "QUEST_COND_DAILY_TASK_START",
          "param": [
            24200,
            0,
            0,
            0,
            0
          ],
          "param_str": ""
        },
        {
          "type": "QUEST_COND_STATE_EQUAL",
          "param": [
            2010401,
            3,
            0,
            0,
            0
          ],
          "param_str": ""
        }
      ],
      "finishCond": [
        {
          "type": "QUEST_CONTENT_LUA_NOTIFY",
          "param": [
            2010402,
            0
          ],
          "param_str": "1330029061",
          "count": 5
        }
      ],
      "failCond": [
        {
          "type": "QUEST_CONTENT_LUA_NOTIFY",
          "param": [
            0,
            0
          ],
          "param_str": "1330029051",
          "count": 1
        }
      ],
      "guide": {
        "type": "QUEST_GUIDE_LOCATION",
        "param": [
          "Q20104Target",
          "30"
        ],
        "guideScene": 3,
        "guideStyle": "QUEST_GUIDE_STYLE_POINT",
        "guideLayer": "QUEST_GUIDE_LAYER_SCENE"
      },
      "finishExec": [
        {
          "type": "QUEST_EXEC_ADD_QUEST_PROGRESS",
          "param": [
            "2010304",
            "1"
          ],
          "param_str": ""
        }
      ],
      "failExec": [],
      "beginExec": [],
      "exclusiveNpcList": [
        1596,
        1595
      ],
      "exclusiveNpcPriority": 1100
    },
    {
      "subId": 2010403,
      "mainId": 20104,
      "order": 3,
      "descTextMapHash": 1498063756,
      "showType": "QUEST_HIDDEN",
      "acceptCondComb": "LOGIC_AND",
      "acceptCond": [
        {
          "type": "QUEST_COND_DAILY_TASK_START",
          "param": [
            24200,
            0,
            0,
            0,
            0
          ],
          "param_str": ""
        },
        {
          "type": "QUEST_COND_STATE_EQUAL",
          "param": [
            2010401,
            3,
            0,
            0,
            0
          ],
          "param_str": ""
        }
      ],
      "finishCond": [
        {
          "type": "QUEST_CONTENT_LUA_NOTIFY",
          "param": [
            2010403,
            0
          ],
          "param_str": "1330029051",
          "count": 1
        }
      ],
      "failCond": [
        {
          "type": "QUEST_CONTENT_ADD_QUEST_PROGRESS",
          "param": [
            2010403,
            0
          ],
          "param_str": "",
          "count": 1
        }
      ],
      "guide": {
        "param": []
      },
      "finishExec": [],
      "failExec": [],
      "beginExec": [],
      "exclusiveNpcPriority": 1100
    },
    {
      "subId": 2010404,
      "mainId": 20104,
      "order": 4,
      "descTextMapHash": 3213579636,
      "acceptCondComb": "LOGIC_A_AND_ETCOR",
      "acceptCond": [
        {
          "type": "QUEST_COND_DAILY_TASK_START",
          "param": [
            24200,
            0,
            0,
            0,
            0
          ],
          "param_str": ""
        },
        {
          "type": "QUEST_COND_STATE_EQUAL",
          "param": [
            2010402,
            3,
            0,
            0,
            0
          ],
          "param_str": ""
        },
        {
          "type": "QUEST_COND_STATE_EQUAL",
          "param": [
            2010403,
            3,
            0,
            0,
            0
          ],
          "param_str": ""
        }
      ],
      "finishCondComb": "LOGIC_OR",
      "finishCond": [
        {
          "type": "QUEST_CONTENT_COMPLETE_TALK",
          "param": [
            2010402,
            0
          ],
          "param_str": ""
        },
        {
          "type": "QUEST_CONTENT_COMPLETE_TALK",
          "param": [
            2010403,
            0
          ],
          "param_str": ""
        }
      ],
      "failCond": [],
      "guide": {
        "type": "QUEST_GUIDE_NPC",
        "param": [
          "1596"
        ],
        "guideScene": 3,
        "guideStyle": "QUEST_GUIDE_STYLE_FINISH",
        "guideLayer": "QUEST_GUIDE_LAYER_SCENE"
      },
      "finishParent": true,
      "isRewind": true,
      "finishExec": [
        {
          "type": "QUEST_EXEC_NOTIFY_DAILY_TASK",
          "param": [
            "24200"
          ],
          "param_str": ""
        }
      ],
      "failExec": [],
      "beginExec": [],
      "exclusiveNpcList": [
        1596,
        1595
      ],
      "exclusiveNpcPriority": 1100
    },
    {
      "subId": 2010405,
      "mainId": 20104,
      "order": 5,
      "descTextMapHash": 2312736620,
      "acceptCondComb": "LOGIC_AND",
      "acceptCond": [
        {
          "type": "QUEST_COND_DAILY_TASK_START",
          "param": [
            24200,
            0,
            0,
            0,
            0
          ],
          "param_str": ""
        },
        {
          "type": "QUEST_COND_STATE_EQUAL",
          "param": [
            99902,
            3,
            0,
            0,
            0
          ],
          "param_str": ""
        }
      ],
      "finishCond": [
        {
          "type": "QUEST_CONTENT_COMPLETE_TALK",
          "param": [
            2010403,
            0
          ],
          "param_str": ""
        }
      ],
      "failCond": [],
      "guide": {
        "type": "QUEST_GUIDE_NPC",
        "param": [
          "1596"
        ],
        "guideScene": 3,
        "guideStyle": "QUEST_GUIDE_STYLE_FINISH",
        "guideLayer": "QUEST_GUIDE_LAYER_SCENE"
      },
      "finishParent": true,
      "isRewind": true,
      "finishExec": [
        {
          "type": "QUEST_EXEC_NOTIFY_DAILY_TASK",
          "param": [
            "24200"
          ],
          "param_str": ""
        }
      ],
      "failExec": [],
      "beginExec": [],
      "exclusiveNpcList": [
        1596,
        1595
      ],
      "exclusiveNpcPriority": 1100
    }
  ],
  "talks": [
    {
      "id": 2010401,
      "beginWay": "TALK_BEGIN_MANUAL",
      "beginCond": [
        {
          "type": "QUEST_COND_STATE_EQUAL",
          "param": [
            "2010401",
            "2"
          ],
          "param_str": ""
        }
      ],
      "initDialog": 201040101,
      "npcId": [
        1596
      ],
      "performCfg": "",
      "heroTalk": "TALK_HERO_MAIN",
      "questId": 20104,
      "prePerformCfg": ""
    },
    {
      "id": 2010402,
      "beginWay": "TALK_BEGIN_MANUAL",
      "beginCondComb": "LOGIC_AND",
      "beginCond": [
        {
          "type": "QUEST_COND_STATE_EQUAL",
          "param": [
            "2010404",
            "2"
          ],
          "param_str": ""
        },
        {
          "type": "QUEST_COND_STATE_EQUAL",
          "param": [
            "2010402",
            "3"
          ],
          "param_str": ""
        }
      ],
      "priority": 3,
      "initDialog": 201040201,
      "npcId": [
        1596
      ],
      "performCfg": "",
      "heroTalk": "TALK_HERO_MAIN",
      "questId": 20104,
      "prePerformCfg": ""
    },
    {
      "id": 2010403,
      "beginWay": "TALK_BEGIN_MANUAL",
      "beginCondComb": "LOGIC_AND",
      "beginCond": [
        {
          "type": "QUEST_COND_STATE_EQUAL",
          "param": [
            "2010404",
            "2"
          ],
          "param_str": ""
        },
        {
          "type": "QUEST_COND_STATE_EQUAL",
          "param": [
            "2010403",
            "3"
          ],
          "param_str": ""
        }
      ],
      "priority": 5,
      "initDialog": 201040301,
      "npcId": [
        1596
      ],
      "performCfg": "",
      "heroTalk": "TALK_HERO_MAIN",
      "questId": 20104,
      "prePerformCfg": ""
    },
    {
      "id": 2010405,
      "beginWay": "TALK_BEGIN_MANUAL",
      "beginCond": [
        {
          "type": "QUEST_COND_STATE_EQUAL",
          "param": [
            "2010402",
            "2"
          ],
          "param_str": ""
        }
      ],
      "initDialog": 201040501,
      "npcId": [
        1596
      ],
      "performCfg": "",
      "heroTalk": "TALK_HERO_MAIN",
      "questId": 20104,
      "prePerformCfg": ""
    },
    {
      "id": 2010406,
      "beginWay": "TALK_BEGIN_MANUAL",
      "beginCond": [
        {
          "type": "QUEST_COND_STATE_EQUAL",
          "param": [
            "2010402",
            "2"
          ],
          "param_str": ""
        }
      ],
      "initDialog": 201040601,
      "npcId": [
        1595
      ],
      "performCfg": "",
      "heroTalk": "TALK_HERO_MAIN",
      "questId": 20104,
      "prePerformCfg": ""
    }
  ]
}