{
  "id": 21036,
  "type": "IQ",
  "titleTextMapHash": 1384135359,
  "descTextMapHash": 2705275470,
  "luaPath": "Actor/Quest/IQ21036",
  "subQuests": [
    {
      "mainId": 21036,
      "subId": 2103601,
      "order": 1,
      "descTextMapHash": 2361864164,
      "acceptCond": [
        {
          "type": "QUEST_COND_UNKNOWN",
          "param": [
            0,
            0
          ]
        }
      ],
      "finishCond": [],
      "failCond": [],
      "guide": {
        "type": "QUEST_GUIDE_NPC",
        "autoGuide": "QUEST_GUIDE_AUTO_ENABLE",
        "param": [
          "2400"
        ],
        "guideScene": 3,
        "guideStyle": "QUEST_GUIDE_STYLE_TARGET",
        "guideLayer": "QUEST_GUIDE_LAYER_SCENE"
      },
      "finishExec": [],
      "failExec": [],
      "beginExec": []
    },
    {
      "mainId": 21036,
      "subId": 2103602,
      "order": 4,
      "descTextMapHash": 1355816468,
      "acceptCond": [
        {
          "type": "QUEST_COND_UNKNOWN",
          "param": [
            0,
            0
          ]
        }
      ],
      "finishCond": [],
      "failCond": [],
      "guide": {
        "type": "QUEST_GUIDE_LOCATION",
        "param": [
          "Q2103602",
          "25"
        ],
        "guideScene": 3,
        "guideStyle": "QUEST_GUIDE_STYLE_TARGET",
        "guideLayer": "QUEST_GUIDE_LAYER_SCENE"
      },
      "finishExec": [],
      "failExec": [],
      "beginExec": []
    },
    {
      "mainId": 21036,
      "subId": 2103603,
      "order": 6,
      "descTextMapHash": 775471708,
      "acceptCond": [
        {
          "type": "QUEST_COND_UNKNOWN",
          "param": [
            0,
            0
          ]
        }
      ],
      "finishCond": [],
      "failCond": [],
      "guide": {
        "guideScene": 3,
        "guideStyle": "QUEST_GUIDE_STYLE_POINT",
        "guideLayer": "QUEST_GUIDE_LAYER_SCENE"
      },
      "finishExec": [],
      "failExec": [],
      "beginExec": []
    },
    {
      "mainId": 21036,
      "subId": 2103604,
      "order": 7,
      "descTextMapHash": 151150444,
      "acceptCond": [
        {
          "type": "QUEST_COND_UNKNOWN",
          "param": [
            0,
            0
          ]
        }
      ],
      "finishCond": [],
      "failCond": [],
      "guide": {
        "type": "QUEST_GUIDE_NPC",
        "param": [
          "2400"
        ],
        "guideScene": 3,
        "guideStyle": "QUEST_GUIDE_STYLE_TARGET",
        "guideLayer": "QUEST_GUIDE_LAYER_SCENE"
      },
      "finishExec": [],
      "failExec": [],
      "beginExec": []
    },
    {
      "mainId": 21036,
      "subId": 2103605,
      "order": 8,
      "descTextMapHash": 3537999556,
      "acceptCond": [
        {
          "type": "QUEST_COND_UNKNOWN",
          "param": [
            0,
            0
          ]
        }
      ],
      "finishCond": [],
      "failCond": [],
      "guide": {
        "type": "QUEST_GUIDE_NPC",
        "param": [
          "2400"
        ],
        "guideScene": 3,
        "guideStyle": "QUEST_GUIDE_STYLE_TARGET",
        "guideLayer": "QUEST_GUIDE_LAYER_SCENE"
      },
      "finishExec": [],
      "failExec": [],
      "beginExec": []
    },
    {
      "mainId": 21036,
      "subId": 2103606,
      "order": 3,
      "showType": "QUEST_HIDDEN",
      "descTextMapHash": 1459935516,
      "acceptCond": [
        {
          "type": "QUEST_COND_UNKNOWN",
          "param": [
            0,
            0
          ]
        }
      ],
      "finishCond": [],
      "failCond": [],
      "guide": {
        "guideScene": 3,
        "guideStyle": "QUEST_GUIDE_STYLE_POINT",
        "guideLayer": "QUEST_GUIDE_LAYER_SCENE"
      },
      "finishExec": [],
      "failExec": [],
      "beginExec": []
    },
    {
      "mainId": 21036,
      "subId": 2103607,
      "order": 2,
      "showType": "QUEST_HIDDEN",
      "descTextMapHash": 2063699164,
      "acceptCond": [
        {
          "type": "QUEST_COND_UNKNOWN",
          "param": [
            0,
            0
          ]
        }
      ],
      "finishCond": [],
      "failCond": [],
      "guide": {
        "guideScene": 3,
        "guideStyle": "QUEST_GUIDE_STYLE_TARGET",
        "guideLayer": "QUEST_GUIDE_LAYER_SCENE"
      },
      "finishExec": [],
      "failExec": [],
      "beginExec": []
    },
    {
      "mainId": 21036,
      "subId": 2103608,
      "order": 5,
      "descTextMapHash": 33236996,
      "acceptCond": [
        {
          "type": "QUEST_COND_UNKNOWN",
          "param": [
            0,
            0
          ]
        }
      ],
      "finishCond": [],
      "failCond": [],
      "guide": {
        "type": "QUEST_GUIDE_LOCATION",
        "param": [
          "21036ParkourStart"
        ],
        "guideScene": 3,
        "guideStyle": "QUEST_GUIDE_STYLE_TARGET",
        "guideLayer": "QUEST_GUIDE_LAYER_SCENE"
      },
      "finishExec": [],
      "failExec": [],
      "beginExec": []
    }
  ],
  "talks": [
    {
      "id": 2103601,
      "beginWay": "TALK_BEGIN_MANUAL",
      "activeMode": "PLAY_MODE_HOST",
      "beginCond": [
        {
          "type": "QUEST_COND_STATE_EQUAL",
          "param": [
            "2103601",
            "2"
          ],
          "param_str": ""
        },
        {
          "type": "QUEST_COND_QUEST_GLOBAL_VAR_EQUAL",
          "param": [
            "2103601",
            "1"
          ],
          "param_str": ""
        }
      ],
      "priority": 10,
      "nextTalks": [
        2103602,
        2103603,
        2103609
      ],
      "initDialog": 210360101,
      "npcId": [
        2400
      ],
      "performCfg": "",
      "heroTalk": "TALK_HERO_MAIN",
      "questId": 21036,
      "prePerformCfg": ""
    },
    {
      "id": 2103602,
      "activeMode": "PLAY_MODE_HOST",
      "beginCond": [
        {
          "type": "QUEST_COND_STATE_EQUAL",
          "param": [
            "2103601",
            "2"
          ],
          "param_str": ""
        }
      ],
      "priority": 5,
      "initDialog": 210360201,
      "npcId": [
        2400
      ],
      "performCfg": "",
      "heroTalk": "TALK_HERO_MAIN",
      "questId": 21036,
      "prePerformCfg": ""
    },
    {
      "id": 2103603,
      "activeMode": "PLAY_MODE_HOST",
      "beginCondComb": "LOGIC_AND",
      "beginCond": [
        {
          "type": "QUEST_COND_STATE_EQUAL",
          "param": [
            "2103601",
            "2"
          ],
          "param_str": ""
        },
        {
          "type": "QUEST_COND_QUEST_GLOBAL_VAR_EQUAL",
          "param": [
            "2103602",
            "0"
          ],
          "param_str": ""
        }
      ],
      "priority": 5,
      "initDialog": 210360301,
      "npcId": [
        2400
      ],
      "performCfg": "",
      "heroTalk": "TALK_HERO_MAIN",
      "questId": 21036,
      "prePerformCfg": ""
    },
    {
      "id": 2103604,
      "beginWay": "TALK_BEGIN_MANUAL",
      "activeMode": "PLAY_MODE_HOST",
      "beginCond": [
        {
          "type": "QUEST_COND_STATE_EQUAL",
          "param": [
            "2103604",
            "2"
          ],
          "param_str": ""
        },
        {
          "type": "QUEST_COND_QUEST_GLOBAL_VAR_EQUAL",
          "param": [
            "2103601",
            "1"
          ],
          "param_str": ""
        }
      ],
      "priority": 5,
      "initDialog": 210360401,
      "npcId": [
        2400
      ],
      "performCfg": "QuestDialogue/IQ/Liyue_21036/Q2103604",
      "heroTalk": "TALK_HERO_MAIN",
      "questId": 21036,
      "prePerformCfg": ""
    },
    {
      "id": 2103605,
      "beginWay": "TALK_BEGIN_MANUAL",
      "activeMode": "PLAY_MODE_HOST",
      "beginCond": [
        {
          "type": "QUEST_COND_STATE_EQUAL",
          "param": [
            "2103605",
            "2"
          ],
          "param_str": ""
        },
        {
          "type": "QUEST_COND_QUEST_GLOBAL_VAR_EQUAL",
          "param": [
            "2103601",
            "1"
          ],
          "param_str": ""
        }
      ],
      "priority": 5,
      "initDialog": 210360501,
      "npcId": [
        2400
      ],
      "performCfg": "QuestDialogue/IQ/Liyue_21036/Q2103605",
      "heroTalk": "TALK_HERO_MAIN",
      "questId": 21036,
      "prePerformCfg": ""
    },
    {
      "id": 2103606,
      "beginWay": "TALK_BEGIN_MANUAL",
      "activeMode": "PLAY_MODE_HOST",
      "beginCond": [
        {
          "type": "QUEST_COND_STATE_EQUAL",
          "param": [
            "2103601",
            "2"
          ],
          "param_str": ""
        },
        {
          "type": "QUEST_COND_QUEST_GLOBAL_VAR_EQUAL",
          "param": [
            "2103601",
            "0"
          ],
          "param_str": ""
        }
      ],
      "priority": 10,
      "nextTalks": [
        2103602,
        2103603
      ],
      "initDialog": 210360601,
      "npcId": [
        2400
      ],
      "performCfg": "",
      "heroTalk": "TALK_HERO_MAIN",
      "questId": 21036,
      "prePerformCfg": ""
    },
    {
      "id": 2103607,
      "beginWay": "TALK_BEGIN_MANUAL",
      "activeMode": "PLAY_MODE_HOST",
      "beginCond": [
        {
          "type": "QUEST_COND_QUEST_GLOBAL_VAR_EQUAL",
          "param": [
            "2103601",
            "0"
          ],
          "param_str": ""
        },
        {
          "type": "QUEST_COND_STATE_EQUAL",
          "param": [
            "2103604",
            "2"
          ],
          "param_str": ""
        }
      ],
      "priority": 5,
      "initDialog": 210360701,
      "npcId": [
        2400
      ],
      "performCfg": "QuestDialogue/IQ/Liyue_21036/Q2103607",
      "heroTalk": "TALK_HERO_MAIN",
      "questId": 21036,
      "prePerformCfg": "",
      "finishExec": [
        {
          "type": "TALK_EXEC_SET_QUEST_GLOBAL_VAR",
          "param": [
            "2103601",
            "1"
          ],
          "param_str": ""
        }
      ]
    },
    {
      "id": 2103608,
      "beginWay": "TALK_BEGIN_MANUAL",
      "activeMode": "PLAY_MODE_HOST",
      "beginCond": [
        {
          "type": "QUEST_COND_QUEST_GLOBAL_VAR_EQUAL",
          "param": [
            "2103601",
            "0"
          ],
          "param_str": ""
        },
        {
          "type": "QUEST_COND_STATE_EQUAL",
          "param": [
            "2103605",
            "2"
          ],
          "param_str": ""
        }
      ],
      "priority": 5,
      "initDialog": 210360801,
      "npcId": [
        2400
      ],
      "performCfg": "QuestDialogue/IQ/Liyue_21036/Q2103608",
      "heroTalk": "TALK_HERO_MAIN",
      "questId": 21036,
      "prePerformCfg": "",
      "finishExec": [
        {
          "type": "TALK_EXEC_SET_QUEST_GLOBAL_VAR",
          "param": [
            "2103601",
            "1"
          ],
          "param_str": ""
        }
      ]
    },
    {
      "id": 2103609,
      "activeMode": "PLAY_MODE_HOST",
      "beginCondComb": "LOGIC_AND",
      "beginCond": [
        {
          "type": "QUEST_COND_STATE_EQUAL",
          "param": [
            "2103601",
            "2"
          ],
          "param_str": ""
        },
        {
          "type": "QUEST_COND_QUEST_GLOBAL_VAR_EQUAL",
          "param": [
            "2103602",
            "1"
          ],
          "param_str": ""
        }
      ],
      "priority": 5,
      "initDialog": 210360901,
      "npcId": [
        2400
      ],
      "performCfg": "",
      "heroTalk": "TALK_HERO_MAIN",
      "questId": 21036,
      "prePerformCfg": ""
    }
  ]
}