{
  "id": 21032,
  "type": "IQ",
  "titleTextMapHash": 4121107639,
  "descTextMapHash": 3465449694,
  "luaPath": "Actor/Quest/IQ21032",
  "subQuests": [
    {
      "mainId": 21032,
      "subId": 2103201,
      "order": 1,
      "descTextMapHash": 1768224164,
      "acceptCond": [
        {
          "type": "QUEST_COND_UNKNOWN",
          "param": [
            0,
            0
          ]
        }
      ],
      "finishCond": [],
      "failCond": [],
      "guide": {
        "type": "QUEST_GUIDE_NPC",
        "autoGuide": "QUEST_GUIDE_AUTO_ENABLE",
        "param": [
          "2400"
        ],
        "guideScene": 3,
        "guideStyle": "QUEST_GUIDE_STYLE_TARGET",
        "guideLayer": "QUEST_GUIDE_LAYER_SCENE"
      },
      "finishExec": [],
      "failExec": [],
      "beginExec": []
    },
    {
      "mainId": 21032,
      "subId": 2103202,
      "order": 2,
      "descTextMapHash": 1723030884,
      "acceptCond": [
        {
          "type": "QUEST_COND_UNKNOWN",
          "param": [
            0,
            0
          ]
        }
      ],
      "finishCond": [],
      "failCond": [],
      "guide": {
        "type": "QUEST_GUIDE_LOCATION",
        "param": [
          "Q2103602",
          "25"
        ],
        "guideScene": 3,
        "guideStyle": "QUEST_GUIDE_STYLE_TARGET",
        "guideLayer": "QUEST_GUIDE_LAYER_SCENE"
      },
      "finishExec": [],
      "failExec": [],
      "beginExec": []
    },
    {
      "mainId": 21032,
      "subId": 2103203,
      "order": 3,
      "descTextMapHash": 1984227916,
      "acceptCond": [
        {
          "type": "QUEST_COND_UNKNOWN",
          "param": [
            0,
            0
          ]
        }
      ],
      "finishCond": [],
      "failCond": [],
      "guide": {
        "guideScene": 3,
        "guideStyle": "QUEST_GUIDE_STYLE_POINT",
        "guideLayer": "QUEST_GUIDE_LAYER_SCENE"
      },
      "finishExec": [],
      "failExec": [],
      "beginExec": []
    },
    {
      "mainId": 21032,
      "subId": 2103204,
      "order": 4,
      "descTextMapHash": 3268596796,
      "acceptCond": [
        {
          "type": "QUEST_COND_UNKNOWN",
          "param": [
            0,
            0
          ]
        }
      ],
      "finishCond": [],
      "failCond": [],
      "guide": {
        "type": "QUEST_GUIDE_NPC",
        "param": [
          "2400"
        ],
        "guideScene": 3,
        "guideStyle": "QUEST_GUIDE_STYLE_TARGET",
        "guideLayer": "QUEST_GUIDE_LAYER_SCENE"
      },
      "finishExec": [],
      "failExec": [],
      "beginExec": []
    },
    {
      "mainId": 21032,
      "subId": 2103205,
      "order": 5,
      "descTextMapHash": 3591471492,
      "acceptCond": [
        {
          "type": "QUEST_COND_UNKNOWN",
          "param": [
            0,
            0
          ]
        }
      ],
      "finishCond": [],
      "failCond": [],
      "guide": {
        "type": "QUEST_GUIDE_NPC",
        "param": [
          "2400"
        ],
        "guideScene": 3,
        "guideStyle": "QUEST_GUIDE_STYLE_TARGET",
        "guideLayer": "QUEST_GUIDE_LAYER_SCENE"
      },
      "finishExec": [],
      "failExec": [],
      "beginExec": []
    }
  ],
  "talks": [
    {
      "id": 2103201,
      "beginWay": "TALK_BEGIN_MANUAL",
      "activeMode": "PLAY_MODE_HOST",
      "priority": 5,
      "initDialog": 210320101,
      "npcId": [
        2400
      ],
      "performCfg": "",
      "heroTalk": "TALK_HERO_MAIN",
      "questId": 21032,
      "prePerformCfg": ""
    },
    {
      "id": 2103202,
      "beginWay": "TALK_BEGIN_MANUAL",
      "activeMode": "PLAY_MODE_HOST",
      "priority": 5,
      "initDialog": 210320201,
      "npcId": [
        2400
      ],
      "performCfg": "",
      "heroTalk": "TALK_HERO_MAIN",
      "questId": 21032,
      "prePerformCfg": ""
    },
    {
      "id": 2103203,
      "beginWay": "TALK_BEGIN_MANUAL",
      "activeMode": "PLAY_MODE_HOST",
      "priority": 5,
      "initDialog": 210320301,
      "npcId": [
        2400
      ],
      "performCfg": "",
      "heroTalk": "TALK_HERO_MAIN",
      "questId": 21032,
      "prePerformCfg": ""
    },
    {
      "id": 2103204,
      "beginWay": "TALK_BEGIN_MANUAL",
      "activeMode": "PLAY_MODE_HOST",
      "priority": 5,
      "initDialog": 210320401,
      "npcId": [
        2400
      ],
      "performCfg": "",
      "heroTalk": "TALK_HERO_MAIN",
      "questId": 21032,
      "prePerformCfg": ""
    },
    {
      "id": 2103205,
      "beginWay": "TALK_BEGIN_MANUAL",
      "activeMode": "PLAY_MODE_HOST",
      "priority": 5,
      "initDialog": 210320501,
      "npcId": [
        2400
      ],
      "performCfg": "",
      "heroTalk": "TALK_HERO_MAIN",
      "questId": 21032,
      "prePerformCfg": ""
    }
  ]
}