{
  "id": 22025,
  "type": "IQ",
  "titleTextMapHash": 3945776711,
  "descTextMapHash": 3663234518,
  "luaPath": "Actor/Quest/IQ22025",
  "rewardIdList": [
    500153
  ],
  "subQuests": [
    {
      "subId": 2202501,
      "mainId": 22025,
      "order": 1,
      "descTextMapHash": 2161833268,
      "acceptCond": [
        {
          "type": "QUEST_COND_DAILY_TASK_START",
          "param": [
            41170,
            0,
            0,
            0,
            0
          ],
          "param_str": ""
        }
      ],
      "finishCond": [
        {
          "type": "QUEST_CONTENT_COMPLETE_TALK",
          "param": [
            2202501,
            0
          ],
          "param_str": ""
        }
      ],
      "failCond": [],
      "guide": {
        "type": "QUEST_GUIDE_NPC",
        "param": [
          "3022"
        ],
        "guideScene": 3,
        "guideStyle": "QUEST_GUIDE_STYLE_START",
        "guideLayer": "QUEST_GUIDE_LAYER_SCENE"
      },
      "isRewind": true,
      "finishExec": [],
      "failExec": [],
      "beginExec": [],
      "exclusiveNpcList": [
        3022
      ],
      "exclusiveNpcPriority": 1100
    },
    {
      "subId": 2202502,
      "mainId": 22025,
      "order": 2,
      "descTextMapHash": 923323244,
      "acceptCondComb": "LOGIC_AND",
      "acceptCond": [
        {
          "type": "QUEST_COND_STATE_EQUAL",
          "param": [
            2202501,
            3,
            0,
            0,
            0
          ],
          "param_str": ""
        },
        {
          "type": "QUEST_COND_DAILY_TASK_START",
          "param": [
            41170,
            0,
            0,
            0,
            0
          ],
          "param_str": ""
        }
      ],
      "finishCond": [
        {
          "type": "QUEST_CONTENT_COMPLETE_TALK",
          "param": [
            2202502,
            0
          ],
          "param_str": ""
        }
      ],
      "failCond": [],
      "guide": {
        "type": "QUEST_GUIDE_NPC",
        "param": [
          "3071"
        ],
        "guideScene": 3,
        "guideStyle": "QUEST_GUIDE_STYLE_TARGET",
        "guideLayer": "QUEST_GUIDE_LAYER_SCENE"
      },
      "isRewind": true,
      "finishExec": [],
      "failExec": [],
      "beginExec": [],
      "exclusiveNpcList": [
        3071,
        3072,
        3022
      ],
      "exclusiveNpcPriority": 1100,
      "exclusivePlaceList": [
        320904
      ]
    },
    {
      "subId": 2202503,
      "mainId": 22025,
      "order": 3,
      "descTextMapHash": 3076375660,
      "acceptCondComb": "LOGIC_AND",
      "acceptCond": [
        {
          "type": "QUEST_COND_STATE_EQUAL",
          "param": [
            2202502,
            3,
            0,
            0,
            0
          ],
          "param_str": ""
        },
        {
          "type": "QUEST_COND_DAILY_TASK_START",
          "param": [
            41170,
            0,
            0,
            0,
            0
          ],
          "param_str": ""
        }
      ],
      "finishCond": [
        {
          "type": "QUEST_CONTENT_COMPLETE_TALK",
          "param": [
            2202503,
            0
          ],
          "param_str": ""
        }
      ],
      "failCond": [],
      "guide": {
        "type": "QUEST_GUIDE_NPC",
        "param": [
          "3079"
        ],
        "guideScene": 3,
        "guideStyle": "QUEST_GUIDE_STYLE_TARGET",
        "guideLayer": "QUEST_GUIDE_LAYER_SCENE"
      },
      "isRewind": true,
      "finishExec": [],
      "failExec": [],
      "beginExec": [],
      "exclusiveNpcList": [
        3071,
        3072,
        3022,
        3079
      ],
      "exclusiveNpcPriority": 1100
    },
    {
      "subId": 2202504,
      "mainId": 22025,
      "order": 4,
      "descTextMapHash": 4074286460,
      "acceptCondComb": "LOGIC_AND",
      "acceptCond": [
        {
          "type": "QUEST_COND_STATE_EQUAL",
          "param": [
            2202503,
            3,
            0,
            0,
            0
          ],
          "param_str": ""
        },
        {
          "type": "QUEST_COND_DAILY_TASK_START",
          "param": [
            41170,
            0,
            0,
            0,
            0
          ],
          "param_str": ""
        }
      ],
      "finishCond": [
        {
          "type": "QUEST_CONTENT_COMPLETE_TALK",
          "param": [
            2202504,
            0
          ],
          "param_str": ""
        }
      ],
      "failCond": [],
      "guide": {
        "type": "QUEST_GUIDE_LOCATION",
        "param": [
          "Q2202503Paimon",
          "0"
        ],
        "guideScene": 3,
        "guideStyle": "QUEST_GUIDE_STYLE_TARGET",
        "guideLayer": "QUEST_GUIDE_LAYER_SCENE"
      },
      "showGuide": "QUEST_GUIDE_ITEM_DISABLE",
      "finishExec": [],
      "failExec": [],
      "beginExec": [],
      "exclusiveNpcList": [
        3022,
        3079
      ],
      "exclusiveNpcPriority": 1100
    },
    {
      "subId": 2202505,
      "mainId": 22025,
      "order": 5,
      "descTextMapHash": 3437670076,
      "acceptCondComb": "LOGIC_AND",
      "acceptCond": [
        {
          "type": "QUEST_COND_STATE_EQUAL",
          "param": [
            2202504,
            3,
            0,
            0,
            0
          ],
          "param_str": ""
        },
        {
          "type": "QUEST_COND_QUEST_VAR_EQUAL",
          "param": [
            0,
            1,
            0,
            0,
            0
          ],
          "param_str": ""
        },
        {
          "type": "QUEST_COND_DAILY_TASK_START",
          "param": [
            41170,
            0,
            0,
            0,
            0
          ],
          "param_str": ""
        }
      ],
      "finishCond": [
        {
          "type": "QUEST_CONTENT_FINISH_ITEM_GIVING",
          "param": [
            2202505,
            0
          ],
          "param_str": ""
        }
      ],
      "failCond": [],
      "guide": {
        "type": "QUEST_GUIDE_NPC",
        "param": [
          "3022"
        ],
        "guideScene": 3,
        "guideStyle": "QUEST_GUIDE_STYLE_TARGET",
        "guideLayer": "QUEST_GUIDE_LAYER_SCENE"
      },
      "isRewind": true,
      "finishExec": [],
      "failExec": [],
      "beginExec": [
        {
          "type": "QUEST_EXEC_ACTIVE_ITEM_GIVING",
          "param": [
            "2202505"
          ],
          "param_str": ""
        }
      ],
      "exclusiveNpcList": [
        3022
      ],
      "exclusiveNpcPriority": 1100
    },
    {
      "subId": 2202506,
      "mainId": 22025,
      "order": 6,
      "descTextMapHash": 2534897548,
      "acceptCondComb": "LOGIC_AND",
      "acceptCond": [
        {
          "type": "QUEST_COND_STATE_EQUAL",
          "param": [
            2202504,
            3,
            0,
            0,
            0
          ],
          "param_str": ""
        },
        {
          "type": "QUEST_COND_QUEST_VAR_EQUAL",
          "param": [
            0,
            2,
            0,
            0,
            0
          ],
          "param_str": ""
        },
        {
          "type": "QUEST_COND_DAILY_TASK_START",
          "param": [
            41170,
            0,
            0,
            0,
            0
          ],
          "param_str": ""
        }
      ],
      "finishCond": [
        {
          "type": "QUEST_CONTENT_FINISH_ITEM_GIVING",
          "param": [
            2202506,
            0
          ],
          "param_str": ""
        }
      ],
      "failCond": [],
      "guide": {
        "type": "QUEST_GUIDE_NPC",
        "param": [
          "3022"
        ],
        "guideScene": 3,
        "guideStyle": "QUEST_GUIDE_STYLE_TARGET",
        "guideLayer": "QUEST_GUIDE_LAYER_SCENE"
      },
      "isRewind": true,
      "finishExec": [],
      "failExec": [],
      "beginExec": [
        {
          "type": "QUEST_EXEC_ACTIVE_ITEM_GIVING",
          "param": [
            "2202506"
          ],
          "param_str": ""
        }
      ],
      "exclusiveNpcList": [
        3022
      ],
      "exclusiveNpcPriority": 1100
    },
    {
      "subId": 2202507,
      "mainId": 22025,
      "order": 7,
      "descTextMapHash": 1974805108,
      "acceptCondComb": "LOGIC_AND",
      "acceptCond": [
        {
          "type": "QUEST_COND_STATE_EQUAL",
          "param": [
            2202504,
            3,
            0,
            0,
            0
          ],
          "param_str": ""
        },
        {
          "type": "QUEST_COND_QUEST_VAR_EQUAL",
          "param": [
            0,
            3,
            0,
            0,
            0
          ],
          "param_str": ""
        },
        {
          "type": "QUEST_COND_DAILY_TASK_START",
          "param": [
            41170,
            0,
            0,
            0,
            0
          ],
          "param_str": ""
        }
      ],
      "finishCond": [
        {
          "type": "QUEST_CONTENT_FINISH_ITEM_GIVING",
          "param": [
            2202507,
            0
          ],
          "param_str": ""
        }
      ],
      "failCond": [],
      "guide": {
        "type": "QUEST_GUIDE_NPC",
        "param": [
          "3022"
        ],
        "guideScene": 3,
        "guideStyle": "QUEST_GUIDE_STYLE_TARGET",
        "guideLayer": "QUEST_GUIDE_LAYER_SCENE"
      },
      "isRewind": true,
      "finishExec": [],
      "failExec": [],
      "beginExec": [
        {
          "type": "QUEST_EXEC_ACTIVE_ITEM_GIVING",
          "param": [
            "2202507"
          ],
          "param_str": ""
        }
      ],
      "exclusiveNpcList": [
        3022
      ],
      "exclusiveNpcPriority": 1100
    },
    {
      "subId": 2202508,
      "mainId": 22025,
      "order": 8,
      "descTextMapHash": 3229829092,
      "acceptCondComb": "LOGIC_AND",
      "acceptCond": [
        {
          "type": "QUEST_COND_STATE_EQUAL",
          "param": [
            2202505,
            3,
            0,
            0,
            0
          ],
          "param_str": ""
        },
        {
          "type": "QUEST_COND_DAILY_TASK_START",
          "param": [
            41170,
            0,
            0,
            0,
            0
          ],
          "param_str": ""
        }
      ],
      "finishCond": [
        {
          "type": "QUEST_CONTENT_COMPLETE_TALK",
          "param": [
            2202506,
            0
          ],
          "param_str": ""
        }
      ],
      "failCond": [],
      "guide": {
        "type": "QUEST_GUIDE_NPC",
        "param": [
          "3022"
        ],
        "guideScene": 3,
        "guideStyle": "QUEST_GUIDE_STYLE_TARGET",
        "guideLayer": "QUEST_GUIDE_LAYER_SCENE"
      },
      "finishParent": true,
      "isRewind": true,
      "finishExec": [
        {
          "type": "QUEST_EXEC_SET_QUEST_GLOBAL_VAR",
          "param": [
            "2202501",
            "1"
          ],
          "param_str": ""
        },
        {
          "type": "QUEST_EXEC_NOTIFY_DAILY_TASK",
          "param": [
            "41170"
          ],
          "param_str": ""
        }
      ],
      "failExec": [],
      "beginExec": [],
      "exclusiveNpcList": [
        3022
      ],
      "exclusiveNpcPriority": 1100
    },
    {
      "subId": 2202509,
      "mainId": 22025,
      "order": 9,
      "descTextMapHash": 4183946484,
      "acceptCondComb": "LOGIC_AND",
      "acceptCond": [
        {
          "type": "QUEST_COND_STATE_EQUAL",
          "param": [
            2202506,
            3,
            0,
            0,
            0
          ],
          "param_str": ""
        },
        {
          "type": "QUEST_COND_DAILY_TASK_START",
          "param": [
            41170,
            0,
            0,
            0,
            0
          ],
          "param_str": ""
        }
      ],
      "finishCond": [
        {
          "type": "QUEST_CONTENT_COMPLETE_TALK",
          "param": [
            2202507,
            0
          ],
          "param_str": ""
        }
      ],
      "failCond": [],
      "guide": {
        "type": "QUEST_GUIDE_NPC",
        "param": [
          "3022"
        ],
        "guideScene": 3,
        "guideStyle": "QUEST_GUIDE_STYLE_TARGET",
        "guideLayer": "QUEST_GUIDE_LAYER_SCENE"
      },
      "finishParent": true,
      "isRewind": true,
      "finishExec": [
        {
          "type": "QUEST_EXEC_SET_QUEST_GLOBAL_VAR",
          "param": [
            "2202501",
            "1"
          ],
          "param_str": ""
        },
        {
          "type": "QUEST_EXEC_NOTIFY_DAILY_TASK",
          "param": [
            "41170"
          ],
          "param_str": ""
        }
      ],
      "failExec": [],
      "beginExec": [],
      "exclusiveNpcList": [
        3022
      ],
      "exclusiveNpcPriority": 1100
    },
    {
      "subId": 2202510,
      "mainId": 22025,
      "order": 10,
      "descTextMapHash": 1630137884,
      "acceptCondComb": "LOGIC_AND",
      "acceptCond": [
        {
          "type": "QUEST_COND_STATE_EQUAL",
          "param": [
            2202507,
            3,
            0,
            0,
            0
          ],
          "param_str": ""
        },
        {
          "type": "QUEST_COND_DAILY_TASK_START",
          "param": [
            41170,
            0,
            0,
            0,
            0
          ],
          "param_str": ""
        }
      ],
      "finishCond": [
        {
          "type": "QUEST_CONTENT_COMPLETE_TALK",
          "param": [
            2202508,
            0
          ],
          "param_str": ""
        }
      ],
      "failCond": [],
      "guide": {
        "type": "QUEST_GUIDE_NPC",
        "param": [
          "3022"
        ],
        "guideScene": 3,
        "guideStyle": "QUEST_GUIDE_STYLE_TARGET",
        "guideLayer": "QUEST_GUIDE_LAYER_SCENE"
      },
      "finishParent": true,
      "isRewind": true,
      "finishExec": [
        {
          "type": "QUEST_EXEC_SET_QUEST_GLOBAL_VAR",
          "param": [
            "2202501",
            "1"
          ],
          "param_str": ""
        },
        {
          "type": "QUEST_EXEC_NOTIFY_DAILY_TASK",
          "param": [
            "41170"
          ],
          "param_str": ""
        }
      ],
      "failExec": [],
      "beginExec": [],
      "exclusiveNpcList": [
        3022
      ],
      "exclusiveNpcPriority": 1100
    }
  ],
  "talks": [
    {
      "id": 2202501,
      "beginWay": "TALK_BEGIN_MANUAL",
      "activeMode": "PLAY_MODE_HOST",
      "beginCondComb": "LOGIC_AND",
      "beginCond": [
        {
          "type": "QUEST_COND_STATE_EQUAL",
          "param": [
            "2202501",
            "2"
          ],
          "param_str": ""
        }
      ],
      "priority": 5,
      "initDialog": 220250101,
      "npcId": [
        3022,
        1005
      ],
      "performCfg": "",
      "heroTalk": "TALK_HERO_MAIN",
      "questId": 22025,
      "prePerformCfg": "",
      "enableCameraDisplacement": true
    },
    {
      "id": 2202502,
      "beginWay": "TALK_BEGIN_MANUAL",
      "activeMode": "PLAY_MODE_HOST",
      "beginCondComb": "LOGIC_AND",
      "beginCond": [
        {
          "type": "QUEST_COND_STATE_EQUAL",
          "param": [
            "2202502",
            "2"
          ],
          "param_str": ""
        }
      ],
      "priority": 5,
      "initDialog": 220250201,
      "npcId": [
        3071
      ],
      "performCfg": "",
      "heroTalk": "TALK_HERO_MAIN",
      "questId": 22025,
      "prePerformCfg": ""
    },
    {
      "id": 2202503,
      "beginWay": "TALK_BEGIN_MANUAL",
      "activeMode": "PLAY_MODE_HOST",
      "beginCondComb": "LOGIC_AND",
      "beginCond": [
        {
          "type": "QUEST_COND_STATE_EQUAL",
          "param": [
            "2202503",
            "2"
          ],
          "param_str": ""
        }
      ],
      "priority": 5,
      "initDialog": 220250301,
      "npcId": [
        3079
      ],
      "performCfg": "",
      "heroTalk": "TALK_HERO_MAIN",
      "questId": 22025,
      "prePerformCfg": ""
    },
    {
      "id": 2202504,
      "beginWay": "TALK_BEGIN_MANUAL",
      "activeMode": "PLAY_MODE_HOST",
      "beginCondComb": "LOGIC_AND",
      "beginCond": [
        {
          "type": "QUEST_COND_STATE_EQUAL",
          "param": [
            "2202504",
            "2"
          ],
          "param_str": ""
        }
      ],
      "priority": 5,
      "initDialog": 220250401,
      "npcId": [
        1005
      ],
      "performCfg": "QuestDialogue/IQ/Inazuma_22025/Q2202504",
      "heroTalk": "TALK_HERO_MAIN",
      "questId": 22025,
      "prePerformCfg": "",
      "enableCameraDisplacement": true
    },
    {
      "id": 2202505,
      "beginWay": "TALK_BEGIN_MANUAL",
      "activeMode": "PLAY_MODE_HOST",
      "beginCondComb": "LOGIC_AND",
      "beginCond": [
        {
          "type": "QUEST_COND_STATE_EQUAL",
          "param": [
            "2202505",
            "2"
          ],
          "param_str": ""
        },
        {
          "type": "QUEST_COND_ITEM_GIVING_ACTIVED",
          "param": [
            "2202505"
          ],
          "param_str": ""
        }
      ],
      "priority": 5,
      "initDialog": 220250501,
      "npcId": [
        3022,
        1005
      ],
      "performCfg": "",
      "heroTalk": "TALK_HERO_MAIN",
      "questId": 22025,
      "prePerformCfg": "",
      "enableCameraDisplacement": true
    },
    {
      "id": 2202506,
      "beginWay": "TALK_BEGIN_AUTO",
      "activeMode": "PLAY_MODE_HOST",
      "beginCondComb": "LOGIC_AND",
      "beginCond": [
        {
          "type": "QUEST_COND_STATE_EQUAL",
          "param": [
            "2202508",
            "2"
          ],
          "param_str": ""
        },
        {
          "type": "QUEST_COND_ITEM_GIVING_FINISHED",
          "param": [
            "2202505"
          ],
          "param_str": ""
        }
      ],
      "priority": 5,
      "initDialog": 220250601,
      "npcId": [
        3022
      ],
      "performCfg": "",
      "heroTalk": "TALK_HERO_MAIN",
      "questId": 22025,
      "prePerformCfg": ""
    },
    {
      "id": 2202507,
      "beginWay": "TALK_BEGIN_AUTO",
      "activeMode": "PLAY_MODE_HOST",
      "beginCondComb": "LOGIC_AND",
      "beginCond": [
        {
          "type": "QUEST_COND_STATE_EQUAL",
          "param": [
            "2202509",
            "2"
          ],
          "param_str": ""
        },
        {
          "type": "QUEST_COND_ITEM_GIVING_FINISHED",
          "param": [
            "2202506"
          ],
          "param_str": ""
        }
      ],
      "priority": 5,
      "initDialog": 220250701,
      "npcId": [
        3022
      ],
      "performCfg": "",
      "heroTalk": "TALK_HERO_MAIN",
      "questId": 22025,
      "prePerformCfg": ""
    },
    {
      "id": 2202508,
      "beginWay": "TALK_BEGIN_AUTO",
      "activeMode": "PLAY_MODE_HOST",
      "beginCondComb": "LOGIC_AND",
      "beginCond": [
        {
          "type": "QUEST_COND_STATE_EQUAL",
          "param": [
            "2202510",
            "2"
          ],
          "param_str": ""
        },
        {
          "type": "QUEST_COND_ITEM_GIVING_FINISHED",
          "param": [
            "2202507"
          ],
          "param_str": ""
        }
      ],
      "priority": 5,
      "initDialog": 220250801,
      "npcId": [
        3022
      ],
      "performCfg": "",
      "heroTalk": "TALK_HERO_MAIN",
      "questId": 22025,
      "prePerformCfg": ""
    },
    {
      "id": 2202509,
      "beginWay": "TALK_BEGIN_MANUAL",
      "activeMode": "PLAY_MODE_HOST",
      "beginCondComb": "LOGIC_AND",
      "beginCond": [
        {
          "type": "QUEST_COND_STATE_EQUAL",
          "param": [
            "2202506",
            "2"
          ],
          "param_str": ""
        },
        {
          "type": "QUEST_COND_ITEM_GIVING_ACTIVED",
          "param": [
            "2202506"
          ],
          "param_str": ""
        }
      ],
      "priority": 5,
      "initDialog": 220250901,
      "npcId": [
        3022,
        1005
      ],
      "performCfg": "",
      "heroTalk": "TALK_HERO_MAIN",
      "questId": 22025,
      "prePerformCfg": "",
      "enableCameraDisplacement": true
    },
    {
      "id": 2202510,
      "beginWay": "TALK_BEGIN_MANUAL",
      "activeMode": "PLAY_MODE_HOST",
      "beginCondComb": "LOGIC_AND",
      "beginCond": [
        {
          "type": "QUEST_COND_STATE_EQUAL",
          "param": [
            "2202507",
            "2"
          ],
          "param_str": ""
        },
        {
          "type": "QUEST_COND_ITEM_GIVING_ACTIVED",
          "param": [
            "2202507"
          ],
          "param_str": ""
        }
      ],
      "priority": 5,
      "initDialog": 220251001,
      "npcId": [
        3022,
        1005
      ],
      "performCfg": "",
      "heroTalk": "TALK_HERO_MAIN",
      "questId": 22025,
      "prePerformCfg": "",
      "enableCameraDisplacement": true
    },
    {
      "id": 2202512,
      "beginWay": "TALK_BEGIN_MANUAL",
      "activeMode": "PLAY_MODE_HOST",
      "beginCondComb": "LOGIC_OR",
      "beginCond": [
        {
          "type": "QUEST_COND_STATE_EQUAL",
          "param": [
            "2202502",
            "2"
          ],
          "param_str": ""
        },
        {
          "type": "QUEST_COND_STATE_EQUAL",
          "param": [
            "2202503",
            "2"
          ],
          "param_str": ""
        },
        {
          "type": "QUEST_COND_STATE_EQUAL",
          "param": [
            "2202504",
            "2"
          ],
          "param_str": ""
        }
      ],
      "priority": 5,
      "initDialog": 220251201,
      "npcId": [
        3022
      ],
      "performCfg": "",
      "heroTalk": "TALK_HERO_MAIN",
      "questId": 22025,
      "prePerformCfg": "",
      "lowPriority": true
    }
  ]
}