{
  "id": 22033,
  "type": "IQ",
  "titleTextMapHash": 1306739359,
  "descTextMapHash": 3166345446,
  "luaPath": "Actor/Quest/IQ22033",
  "rewardIdList": [
    500152
  ],
  "subQuests": [
    {
      "subId": 2203301,
      "mainId": 22033,
      "order": 1,
      "descTextMapHash": 2194812332,
      "acceptCondComb": "LOGIC_AND",
      "acceptCond": [
        {
          "type": "QUEST_COND_DAILY_TASK_START",
          "param": [
            41162,
            0,
            0,
            0,
            0
          ],
          "param_str": ""
        }
      ],
      "finishCondComb": "LOGIC_OR",
      "finishCond": [
        {
          "type": "QUEST_CONTENT_COMPLETE_TALK",
          "param": [
            2203301,
            0
          ],
          "param_str": ""
        },
        {
          "type": "QUEST_CONTENT_COMPLETE_TALK",
          "param": [
            2203308,
            0
          ],
          "param_str": ""
        }
      ],
      "failCond": [],
      "guide": {
        "type": "QUEST_GUIDE_NPC",
        "param": [
          "3022",
          "SELECT_NPC_NONE"
        ],
        "guideScene": 3,
        "guideStyle": "QUEST_GUIDE_STYLE_START",
        "guideLayer": "QUEST_GUIDE_LAYER_SCENE"
      },
      "isRewind": true,
      "finishExec": [],
      "failExec": [],
      "beginExec": [],
      "exclusiveNpcList": [
        3022
      ],
      "exclusiveNpcPriority": 1100
    },
    {
      "subId": 2203302,
      "mainId": 22033,
      "order": 3,
      "descTextMapHash": 2435320508,
      "acceptCondComb": "LOGIC_AND",
      "acceptCond": [
        {
          "type": "QUEST_COND_STATE_EQUAL",
          "param": [
            2203301,
            3,
            0,
            0,
            0
          ],
          "param_str": ""
        },
        {
          "type": "QUEST_COND_DAILY_TASK_START",
          "param": [
            41162,
            0,
            0,
            0,
            0
          ],
          "param_str": ""
        }
      ],
      "finishCondComb": "LOGIC_AND",
      "finishCond": [
        {
          "type": "QUEST_CONTENT_FINISH_ITEM_GIVING",
          "param": [
            2203302,
            0
          ],
          "param_str": ""
        }
      ],
      "failCond": [],
      "guide": {
        "type": "QUEST_GUIDE_NPC",
        "param": [
          "3022",
          "SELECT_NPC_NONE"
        ],
        "guideScene": 3,
        "guideStyle": "QUEST_GUIDE_STYLE_TARGET",
        "guideLayer": "QUEST_GUIDE_LAYER_SCENE"
      },
      "isRewind": true,
      "finishExec": [],
      "failExec": [],
      "beginExec": [
        {
          "type": "QUEST_EXEC_ACTIVE_ITEM_GIVING",
          "param": [
            "2203302"
          ],
          "param_str": ""
        }
      ],
      "exclusiveNpcList": [
        3022
      ],
      "exclusiveNpcPriority": 1100
    },
    {
      "subId": 2203303,
      "mainId": 22033,
      "order": 4,
      "descTextMapHash": 1094825916,
      "acceptCondComb": "LOGIC_AND",
      "acceptCond": [
        {
          "type": "QUEST_COND_STATE_EQUAL",
          "param": [
            2203302,
            3,
            0,
            0,
            0
          ],
          "param_str": ""
        },
        {
          "type": "QUEST_COND_ITEM_GIVING_FINISHED",
          "param": [
            2203302,
            220330201,
            0,
            0,
            0
          ],
          "param_str": ""
        },
        {
          "type": "QUEST_COND_DAILY_TASK_START",
          "param": [
            41162,
            0,
            0,
            0,
            0
          ],
          "param_str": ""
        }
      ],
      "finishCondComb": "LOGIC_AND",
      "finishCond": [
        {
          "type": "QUEST_CONTENT_COMPLETE_TALK",
          "param": [
            2203303,
            0
          ],
          "param_str": ""
        }
      ],
      "failCond": [],
      "guide": {
        "type": "QUEST_GUIDE_NPC",
        "param": [
          "3022"
        ],
        "guideScene": 3,
        "guideStyle": "QUEST_GUIDE_STYLE_TARGET",
        "guideLayer": "QUEST_GUIDE_LAYER_SCENE"
      },
      "finishParent": true,
      "isRewind": true,
      "finishExec": [
        {
          "type": "QUEST_EXEC_NOTIFY_DAILY_TASK",
          "param": [
            "41162"
          ],
          "param_str": ""
        }
      ],
      "failExec": [],
      "beginExec": [],
      "exclusiveNpcList": [
        3022
      ],
      "exclusiveNpcPriority": 1100
    },
    {
      "subId": 2203304,
      "mainId": 22033,
      "order": 7,
      "descTextMapHash": 2492524620,
      "acceptCondComb": "LOGIC_AND",
      "acceptCond": [
        {
          "type": "QUEST_COND_STATE_EQUAL",
          "param": [
            99902,
            3,
            0,
            0,
            0
          ],
          "param_str": ""
        },
        {
          "type": "QUEST_COND_DAILY_TASK_START",
          "param": [
            41162,
            0,
            0,
            0,
            0
          ],
          "param_str": ""
        }
      ],
      "finishCondComb": "LOGIC_AND",
      "finishCond": [
        {
          "type": "QUEST_CONTENT_COMPLETE_TALK",
          "param": [
            2203304,
            0
          ],
          "param_str": ""
        }
      ],
      "failCond": [],
      "guide": {
        "type": "QUEST_GUIDE_NPC",
        "param": [
          "3022"
        ],
        "guideScene": 3,
        "guideStyle": "QUEST_GUIDE_STYLE_TARGET",
        "guideLayer": "QUEST_GUIDE_LAYER_SCENE"
      },
      "finishParent": true,
      "isRewind": true,
      "finishExec": [
        {
          "type": "QUEST_EXEC_NOTIFY_DAILY_TASK",
          "param": [
            "41162"
          ],
          "param_str": ""
        }
      ],
      "failExec": [],
      "beginExec": [],
      "exclusiveNpcList": [
        3022
      ],
      "exclusiveNpcPriority": 1100
    },
    {
      "subId": 2203305,
      "mainId": 22033,
      "order": 5,
      "descTextMapHash": 2520782860,
      "acceptCondComb": "LOGIC_AND",
      "acceptCond": [
        {
          "type": "QUEST_COND_STATE_EQUAL",
          "param": [
            2203302,
            3,
            0,
            0,
            0
          ],
          "param_str": ""
        },
        {
          "type": "QUEST_COND_ITEM_GIVING_FINISHED",
          "param": [
            2203302,
            220330203,
            0,
            0,
            0
          ],
          "param_str": ""
        },
        {
          "type": "QUEST_COND_DAILY_TASK_START",
          "param": [
            41162,
            0,
            0,
            0,
            0
          ],
          "param_str": ""
        }
      ],
      "finishCondComb": "LOGIC_AND",
      "finishCond": [
        {
          "type": "QUEST_CONTENT_COMPLETE_TALK",
          "param": [
            2203305,
            0
          ],
          "param_str": ""
        }
      ],
      "failCond": [],
      "guide": {
        "type": "QUEST_GUIDE_NPC",
        "param": [
          "3022"
        ],
        "guideScene": 3,
        "guideStyle": "QUEST_GUIDE_STYLE_TARGET",
        "guideLayer": "QUEST_GUIDE_LAYER_SCENE"
      },
      "finishParent": true,
      "isRewind": true,
      "finishExec": [
        {
          "type": "QUEST_EXEC_NOTIFY_DAILY_TASK",
          "param": [
            "41162"
          ],
          "param_str": ""
        }
      ],
      "failExec": [],
      "beginExec": [],
      "exclusiveNpcList": [
        3022
      ],
      "exclusiveNpcPriority": 1100
    },
    {
      "subId": 2203306,
      "mainId": 22033,
      "order": 6,
      "descTextMapHash": 949770460,
      "acceptCondComb": "LOGIC_AND",
      "acceptCond": [
        {
          "type": "QUEST_COND_STATE_EQUAL",
          "param": [
            2203302,
            3,
            0,
            0,
            0
          ],
          "param_str": ""
        },
        {
          "type": "QUEST_COND_ITEM_GIVING_FINISHED",
          "param": [
            2203302,
            220330204,
            0,
            0,
            0
          ],
          "param_str": ""
        },
        {
          "type": "QUEST_COND_DAILY_TASK_START",
          "param": [
            41162,
            0,
            0,
            0,
            0
          ],
          "param_str": ""
        }
      ],
      "finishCondComb": "LOGIC_AND",
      "finishCond": [
        {
          "type": "QUEST_CONTENT_COMPLETE_TALK",
          "param": [
            2203306,
            0
          ],
          "param_str": ""
        }
      ],
      "failCond": [],
      "guide": {
        "type": "QUEST_GUIDE_NPC",
        "param": [
          "3022"
        ],
        "guideScene": 3,
        "guideStyle": "QUEST_GUIDE_STYLE_TARGET",
        "guideLayer": "QUEST_GUIDE_LAYER_SCENE"
      },
      "finishParent": true,
      "isRewind": true,
      "finishExec": [
        {
          "type": "QUEST_EXEC_NOTIFY_DAILY_TASK",
          "param": [
            "41162"
          ],
          "param_str": ""
        },
        {
          "type": "QUEST_EXEC_SET_DAILY_TASK_VAR",
          "param": [
            "41170",
            "1",
            "1"
          ],
          "param_str": ""
        }
      ],
      "failExec": [],
      "beginExec": [],
      "exclusiveNpcList": [
        3022
      ],
      "exclusiveNpcPriority": 1100
    },
    {
      "subId": 2203307,
      "mainId": 22033,
      "order": 2,
      "descTextMapHash": 1913314692,
      "acceptCondComb": "LOGIC_AND",
      "acceptCond": [
        {
          "type": "QUEST_COND_STATE_EQUAL",
          "param": [
            2203301,
            3,
            0,
            0,
            0
          ],
          "param_str": ""
        },
        {
          "type": "QUEST_COND_DAILY_TASK_START",
          "param": [
            41162,
            0,
            0,
            0,
            0
          ],
          "param_str": ""
        }
      ],
      "finishCondComb": "LOGIC_AND",
      "finishCond": [
        {
          "type": "QUEST_CONTENT_COMPLETE_TALK",
          "param": [
            2203307,
            0
          ],
          "param_str": ""
        }
      ],
      "failCond": [],
      "guide": {
        "type": "QUEST_GUIDE_NPC",
        "param": [
          "1005"
        ],
        "guideScene": 3,
        "guideStyle": "QUEST_GUIDE_STYLE_TARGET",
        "guideLayer": "QUEST_GUIDE_LAYER_SCENE"
      },
      "finishExec": [],
      "failExec": [],
      "beginExec": [],
      "exclusiveNpcList": [
        3022
      ],
      "exclusiveNpcPriority": 1100
    }
  ],
  "talks": [
    {
      "id": 2203301,
      "beginWay": "TALK_BEGIN_MANUAL",
      "activeMode": "PLAY_MODE_HOST",
      "beginCondComb": "LOGIC_AND",
      "beginCond": [
        {
          "type": "QUEST_COND_STATE_EQUAL",
          "param": [
            "2203301",
            "2"
          ],
          "param_str": ""
        },
        {
          "type": "QUEST_COND_QUEST_GLOBAL_VAR_EQUAL",
          "param": [
            "12042",
            "0"
          ],
          "param_str": ""
        }
      ],
      "priority": 5,
      "initDialog": 220330101,
      "npcId": [
        3022
      ],
      "performCfg": "",
      "heroTalk": "TALK_HERO_MAIN",
      "questId": 22033,
      "prePerformCfg": "",
      "enableCameraDisplacement": true
    },
    {
      "id": 2203302,
      "beginWay": "TALK_BEGIN_MANUAL",
      "activeMode": "PLAY_MODE_HOST",
      "beginCondComb": "LOGIC_AND",
      "beginCond": [
        {
          "type": "QUEST_COND_STATE_EQUAL",
          "param": [
            "2203302",
            "2"
          ],
          "param_str": ""
        },
        {
          "type": "QUEST_COND_ITEM_GIVING_ACTIVED",
          "param": [
            "2203302"
          ],
          "param_str": ""
        }
      ],
      "priority": 5,
      "initDialog": 220330201,
      "npcId": [
        3022
      ],
      "performCfg": "",
      "heroTalk": "TALK_HERO_MAIN",
      "questId": 22033,
      "prePerformCfg": ""
    },
    {
      "id": 2203303,
      "beginWay": "TALK_BEGIN_AUTO",
      "activeMode": "PLAY_MODE_HOST",
      "beginCondComb": "LOGIC_AND",
      "beginCond": [
        {
          "type": "QUEST_COND_STATE_EQUAL",
          "param": [
            "2203303",
            "2"
          ],
          "param_str": ""
        }
      ],
      "priority": 5,
      "initDialog": 220330301,
      "npcId": [
        3022
      ],
      "performCfg": "",
      "heroTalk": "TALK_HERO_MAIN",
      "questId": 22033,
      "prePerformCfg": ""
    },
    {
      "id": 2203304,
      "beginWay": "TALK_BEGIN_AUTO",
      "activeMode": "PLAY_MODE_HOST",
      "beginCondComb": "LOGIC_AND",
      "beginCond": [
        {
          "type": "QUEST_COND_STATE_EQUAL",
          "param": [
            "2203304",
            "2"
          ],
          "param_str": ""
        }
      ],
      "priority": 5,
      "initDialog": 220330401,
      "npcId": [
        3022
      ],
      "performCfg": "",
      "heroTalk": "TALK_HERO_MAIN",
      "questId": 22033,
      "prePerformCfg": ""
    },
    {
      "id": 2203305,
      "beginWay": "TALK_BEGIN_AUTO",
      "activeMode": "PLAY_MODE_HOST",
      "beginCondComb": "LOGIC_AND",
      "beginCond": [
        {
          "type": "QUEST_COND_STATE_EQUAL",
          "param": [
            "2203305",
            "2"
          ],
          "param_str": ""
        }
      ],
      "priority": 5,
      "initDialog": 220330501,
      "npcId": [
        3022
      ],
      "performCfg": "",
      "heroTalk": "TALK_HERO_MAIN",
      "questId": 22033,
      "prePerformCfg": ""
    },
    {
      "id": 2203306,
      "beginWay": "TALK_BEGIN_AUTO",
      "activeMode": "PLAY_MODE_HOST",
      "beginCondComb": "LOGIC_AND",
      "beginCond": [
        {
          "type": "QUEST_COND_STATE_EQUAL",
          "param": [
            "2203306",
            "2"
          ],
          "param_str": ""
        }
      ],
      "priority": 5,
      "initDialog": 220330601,
      "npcId": [
        3022
      ],
      "performCfg": "",
      "heroTalk": "TALK_HERO_MAIN",
      "questId": 22033,
      "prePerformCfg": ""
    },
    {
      "id": 2203307,
      "beginWay": "TALK_BEGIN_MANUAL",
      "activeMode": "PLAY_MODE_HOST",
      "beginCondComb": "LOGIC_AND",
      "beginCond": [
        {
          "type": "QUEST_COND_STATE_EQUAL",
          "param": [
            "2203307",
            "2"
          ],
          "param_str": ""
        }
      ],
      "priority": 5,
      "initDialog": 220330701,
      "npcId": [
        1005
      ],
      "performCfg": "QuestDialogue/IQ/Inazuma_22033/Q2203307",
      "heroTalk": "TALK_HERO_MAIN",
      "questId": 22033,
      "prePerformCfg": ""
    },
    {
      "id": 2203308,
      "beginWay": "TALK_BEGIN_MANUAL",
      "activeMode": "PLAY_MODE_HOST",
      "beginCondComb": "LOGIC_AND",
      "beginCond": [
        {
          "type": "QUEST_COND_STATE_EQUAL",
          "param": [
            "2203301",
            "2"
          ],
          "param_str": ""
        },
        {
          "type": "QUEST_COND_QUEST_GLOBAL_VAR_EQUAL",
          "param": [
            "12042",
            "1"
          ],
          "param_str": ""
        }
      ],
      "priority": 7,
      "initDialog": 220330801,
      "npcId": [
        3022
      ],
      "performCfg": "",
      "heroTalk": "TALK_HERO_MAIN",
      "questId": 22033,
      "prePerformCfg": ""
    }
  ]
}