{
  "id": 23000,
  "type": "IQ",
  "titleTextMapHash": 2198761591,
  "descTextMapHash": 2857727406,
  "luaPath": "Actor/Quest/IQ23000",
  "subQuests": [
    {
      "mainId": 23000,
      "subId": 2300001,
      "order": 1,
      "descTextMapHash": 1242085764,
      "acceptCond": [
        {
          "type": "QUEST_COND_UNKNOWN",
          "param": [
            0,
            0
          ]
        }
      ],
      "finishCond": [],
      "failCond": [],
      "guide": {
        "type": "QUEST_GUIDE_NPC",
        "param": [
          "4003"
        ],
        "guideScene": 3
      },
      "finishExec": [],
      "failExec": [],
      "beginExec": []
    },
    {
      "mainId": 23000,
      "subId": 2300002,
      "order": 2,
      "descTextMapHash": 2101210052,
      "acceptCond": [
        {
          "type": "QUEST_COND_UNKNOWN",
          "param": [
            0,
            0
          ]
        }
      ],
      "finishCond": [],
      "failCond": [],
      "guide": {},
      "finishExec": [],
      "failExec": [],
      "beginExec": []
    },
    {
      "mainId": 23000,
      "subId": 2300003,
      "order": 3,
      "descTextMapHash": 1722139060,
      "acceptCond": [
        {
          "type": "QUEST_COND_UNKNOWN",
          "param": [
            0,
            0
          ]
        }
      ],
      "finishCond": [],
      "failCond": [],
      "guide": {
        "type": "QUEST_GUIDE_NPC",
        "param": [
          "4003"
        ],
        "guideScene": 1074
      },
      "finishExec": [],
      "failExec": [],
      "beginExec": []
    },
    {
      "mainId": 23000,
      "subId": 2300004,
      "order": 4,
      "descTextMapHash": 3812551244,
      "acceptCond": [
        {
          "type": "QUEST_COND_UNKNOWN",
          "param": [
            0,
            0
          ]
        }
      ],
      "finishCond": [],
      "failCond": [],
      "guide": {
        "type": "QUEST_GUIDE_NPC",
        "param": [
          "4003"
        ],
        "guideScene": 1074
      },
      "finishExec": [],
      "failExec": [],
      "beginExec": []
    }
  ],
  "talks": [
    {
      "id": 2300003,
      "beginWay": "TALK_BEGIN_MANUAL",
      "activeMode": "PLAY_MODE_HOST",
      "beginCond": [
        {
          "type": "QUEST_COND_STATE_EQUAL",
          "param": [
            "2300001",
            "2"
          ],
          "param_str": ""
        }
      ],
      "priority": 5,
      "nextTalks": [
        2300004,
        2300005,
        2300006
      ],
      "initDialog": 230000301,
      "npcId": [
        4003
      ],
      "performCfg": "QuestDialogue/IQ/Sumeru_23000/Q2300003",
      "heroTalk": "TALK_HERO_MAIN",
      "questId": 23000,
      "prePerformCfg": ""
    },
    {
      "id": 2300004,
      "activeMode": "PLAY_MODE_HOST",
      "beginCond": [
        {
          "type": "QUEST_COND_QUEST_GLOBAL_VAR_EQUAL",
          "param": [
            "10003",
            "1"
          ],
          "param_str": ""
        }
      ],
      "priority": 5,
      "nextTalks": [
        2300007,
        2300008
      ],
      "initDialog": 230000400,
      "npcId": [
        4003
      ],
      "performCfg": "QuestDialogue/IQ/Sumeru_23000/Q2300004",
      "heroTalk": "TALK_HERO_MAIN",
      "questId": 23000,
      "prePerformCfg": ""
    },
    {
      "id": 2300005,
      "activeMode": "PLAY_MODE_HOST",
      "beginCond": [
        {
          "type": "QUEST_COND_QUEST_GLOBAL_VAR_EQUAL",
          "param": [
            "10006",
            "1"
          ],
          "param_str": ""
        }
      ],
      "priority": 5,
      "nextTalks": [
        2300007,
        2300008
      ],
      "initDialog": 230000500,
      "npcId": [
        4003
      ],
      "performCfg": "QuestDialogue/IQ/Sumeru_23000/Q2300005",
      "heroTalk": "TALK_HERO_MAIN",
      "questId": 23000,
      "prePerformCfg": ""
    },
    {
      "id": 2300006,
      "activeMode": "PLAY_MODE_HOST",
      "beginCond": [
        {
          "type": "QUEST_COND_QUEST_GLOBAL_VAR_EQUAL",
          "param": [
            "10014",
            "1"
          ],
          "param_str": ""
        }
      ],
      "priority": 5,
      "nextTalks": [
        2300007,
        2300008
      ],
      "initDialog": 230000600,
      "npcId": [
        4003
      ],
      "performCfg": "QuestDialogue/IQ/Sumeru_23000/Q2300006",
      "heroTalk": "TALK_HERO_MAIN",
      "questId": 23000,
      "prePerformCfg": ""
    },
    {
      "id": 2300007,
      "activeMode": "PLAY_MODE_HOST",
      "beginCond": [
        {
          "type": "QUEST_COND_QUEST_VAR_GREATER",
          "param": [
            "1",
            "1",
            "23000"
          ],
          "param_str": ""
        }
      ],
      "priority": 5,
      "initDialog": 230000701,
      "npcId": [
        4003
      ],
      "performCfg": "QuestDialogue/IQ/Sumeru_23000/Q2300007",
      "heroTalk": "TALK_HERO_MAIN",
      "questId": 23000,
      "prePerformCfg": ""
    },
    {
      "id": 2300008,
      "activeMode": "PLAY_MODE_HOST",
      "beginCond": [
        {
          "type": "QUEST_COND_QUEST_VAR_LESS",
          "param": [
            "1",
            "2",
            "23000"
          ],
          "param_str": ""
        }
      ],
      "priority": 5,
      "initDialog": 230000801,
      "npcId": [
        4003
      ],
      "performCfg": "QuestDialogue/IQ/Sumeru_23000/Q2300008",
      "heroTalk": "TALK_HERO_MAIN",
      "questId": 23000,
      "prePerformCfg": ""
    },
    {
      "id": 2300009,
      "beginWay": "TALK_BEGIN_MANUAL",
      "activeMode": "PLAY_MODE_HOST",
      "beginCondComb": "LOGIC_OR",
      "beginCond": [
        {
          "type": "QUEST_COND_STATE_EQUAL",
          "param": [
            "2300002",
            "2"
          ],
          "param_str": ""
        },
        {
          "type": "QUEST_COND_STATE_EQUAL",
          "param": [
            "2300003",
            "2"
          ],
          "param_str": ""
        }
      ],
      "priority": 5,
      "initDialog": 230000901,
      "npcId": [
        4003
      ],
      "performCfg": "",
      "heroTalk": "TALK_HERO_MAIN",
      "questId": 23000,
      "prePerformCfg": ""
    },
    {
      "id": 2300010,
      "beginWay": "TALK_BEGIN_MANUAL",
      "activeMode": "PLAY_MODE_HOST",
      "beginCondComb": "LOGIC_AND",
      "beginCond": [
        {
          "type": "QUEST_COND_QUEST_VAR_EQUAL",
          "param": [
            "0",
            "0",
            "23000"
          ],
          "param_str": ""
        },
        {
          "type": "QUEST_COND_QUEST_VAR_LESS",
          "param": [
            "1",
            "2",
            "23000"
          ],
          "param_str": ""
        },
        {
          "type": "QUEST_COND_STATE_EQUAL",
          "param": [
            "2300004",
            "2"
          ],
          "param_str": ""
        }
      ],
      "priority": 5,
      "nextTalks": [
        2300013
      ],
      "initDialog": 230001001,
      "npcId": [
        4003,
        4001,
        4005
      ],
      "performCfg": "QuestDialogue/IQ/Sumeru_23000/Q2300010",
      "heroTalk": "TALK_HERO_MAIN",
      "questId": 23000,
      "prePerformCfg": "",
      "lockGameTime": true
    },
    {
      "id": 2300011,
      "beginWay": "TALK_BEGIN_MANUAL",
      "activeMode": "PLAY_MODE_HOST",
      "beginCondComb": "LOGIC_AND",
      "beginCond": [
        {
          "type": "QUEST_COND_QUEST_VAR_EQUAL",
          "param": [
            "0",
            "1",
            "23000"
          ],
          "param_str": ""
        },
        {
          "type": "QUEST_COND_QUEST_VAR_LESS",
          "param": [
            "1",
            "2",
            "23000"
          ],
          "param_str": ""
        },
        {
          "type": "QUEST_COND_STATE_EQUAL",
          "param": [
            "2300004",
            "2"
          ],
          "param_str": ""
        }
      ],
      "priority": 5,
      "nextTalks": [
        2300013
      ],
      "initDialog": 230001101,
      "npcId": [
        4003,
        4001,
        4005
      ],
      "performCfg": "QuestDialogue/IQ/Sumeru_23000/Q2300011",
      "heroTalk": "TALK_HERO_MAIN",
      "questId": 23000,
      "prePerformCfg": "",
      "lockGameTime": true
    },
    {
      "id": 2300012,
      "beginWay": "TALK_BEGIN_MANUAL",
      "activeMode": "PLAY_MODE_HOST",
      "beginCondComb": "LOGIC_AND",
      "beginCond": [
        {
          "type": "QUEST_COND_QUEST_VAR_EQUAL",
          "param": [
            "0",
            "2",
            "23000"
          ],
          "param_str": ""
        },
        {
          "type": "QUEST_COND_QUEST_VAR_LESS",
          "param": [
            "1",
            "2",
            "23000"
          ],
          "param_str": ""
        },
        {
          "type": "QUEST_COND_STATE_EQUAL",
          "param": [
            "2300004",
            "2"
          ],
          "param_str": ""
        }
      ],
      "priority": 5,
      "nextTalks": [
        2300013
      ],
      "initDialog": 230001201,
      "npcId": [
        4003,
        4001,
        4005
      ],
      "performCfg": "QuestDialogue/IQ/Sumeru_23000/Q2300012",
      "heroTalk": "TALK_HERO_MAIN",
      "questId": 23000,
      "prePerformCfg": "",
      "lockGameTime": true
    },
    {
      "id": 2300013,
      "activeMode": "PLAY_MODE_HOST",
      "priority": 5,
      "initDialog": 230001301,
      "npcId": [
        4003
      ],
      "performCfg": "QuestDialogue/IQ/Sumeru_23000/Q2300013",
      "heroTalk": "TALK_HERO_MAIN",
      "questId": 23000,
      "prePerformCfg": "",
      "lockGameTime": true
    },
    {
      "id": 2300014,
      "beginWay": "TALK_BEGIN_MANUAL",
      "activeMode": "PLAY_MODE_HOST",
      "beginCondComb": "LOGIC_AND",
      "beginCond": [
        {
          "type": "QUEST_COND_QUEST_VAR_EQUAL",
          "param": [
            "0",
            "0",
            "23000"
          ],
          "param_str": ""
        },
        {
          "type": "QUEST_COND_QUEST_VAR_GREATER",
          "param": [
            "1",
            "1",
            "23000"
          ],
          "param_str": ""
        },
        {
          "type": "QUEST_COND_STATE_EQUAL",
          "param": [
            "2300004",
            "2"
          ],
          "param_str": ""
        }
      ],
      "priority": 5,
      "nextTalks": [
        2300017
      ],
      "initDialog": 230001401,
      "npcId": [
        4003,
        4001,
        4005
      ],
      "performCfg": "QuestDialogue/IQ/Sumeru_23000/Q2300014",
      "heroTalk": "TALK_HERO_MAIN",
      "questId": 23000,
      "prePerformCfg": "",
      "lockGameTime": true
    },
    {
      "id": 2300015,
      "beginWay": "TALK_BEGIN_MANUAL",
      "activeMode": "PLAY_MODE_HOST",
      "beginCondComb": "LOGIC_AND",
      "beginCond": [
        {
          "type": "QUEST_COND_QUEST_VAR_EQUAL",
          "param": [
            "0",
            "1",
            "23000"
          ],
          "param_str": ""
        },
        {
          "type": "QUEST_COND_QUEST_VAR_GREATER",
          "param": [
            "1",
            "1",
            "23000"
          ],
          "param_str": ""
        },
        {
          "type": "QUEST_COND_STATE_EQUAL",
          "param": [
            "2300004",
            "2"
          ],
          "param_str": ""
        }
      ],
      "priority": 5,
      "nextTalks": [
        2300017
      ],
      "initDialog": 230001501,
      "npcId": [
        4003,
        4001,
        4005
      ],
      "performCfg": "QuestDialogue/IQ/Sumeru_23000/Q2300015",
      "heroTalk": "TALK_HERO_MAIN",
      "questId": 23000,
      "prePerformCfg": "",
      "lockGameTime": true
    },
    {
      "id": 2300016,
      "beginWay": "TALK_BEGIN_MANUAL",
      "activeMode": "PLAY_MODE_HOST",
      "beginCondComb": "LOGIC_AND",
      "beginCond": [
        {
          "type": "QUEST_COND_QUEST_VAR_EQUAL",
          "param": [
            "0",
            "2",
            "23000"
          ],
          "param_str": ""
        },
        {
          "type": "QUEST_COND_QUEST_VAR_GREATER",
          "param": [
            "1",
            "1",
            "23000"
          ],
          "param_str": ""
        },
        {
          "type": "QUEST_COND_STATE_EQUAL",
          "param": [
            "2300004",
            "2"
          ],
          "param_str": ""
        }
      ],
      "priority": 5,
      "nextTalks": [
        2300017
      ],
      "initDialog": 230001601,
      "npcId": [
        4003,
        4001,
        4005
      ],
      "performCfg": "QuestDialogue/IQ/Sumeru_23000/Q2300016",
      "heroTalk": "TALK_HERO_MAIN",
      "questId": 23000,
      "prePerformCfg": "",
      "lockGameTime": true
    },
    {
      "id": 2300017,
      "activeMode": "PLAY_MODE_HOST",
      "priority": 5,
      "initDialog": 230001701,
      "npcId": [
        4003
      ],
      "performCfg": "QuestDialogue/IQ/Sumeru_23000/Q2300017",
      "heroTalk": "TALK_HERO_MAIN",
      "questId": 23000,
      "prePerformCfg": "",
      "lockGameTime": true
    }
  ]
}