{
  "id": 23016,
  "type": "IQ",
  "titleTextMapHash": 3917235735,
  "descTextMapHash": 24014494,
  "luaPath": "Actor/Quest/IQ23016",
  "subQuests": [
    {
      "mainId": 23016,
      "subId": 2301601,
      "order": 1,
      "descTextMapHash": 2626007900,
      "acceptCond": [
        {
          "type": "QUEST_COND_UNKNOWN",
          "param": [
            0,
            0
          ]
        }
      ],
      "finishCond": [],
      "failCond": [],
      "guide": {
        "type": "QUEST_GUIDE_NPC",
        "param": [
          "20657"
        ],
        "guideScene": 3,
        "guideStyle": "QUEST_GUIDE_STYLE_TARGET",
        "guideLayer": "QUEST_GUIDE_LAYER_SCENE"
      },
      "finishExec": [],
      "failExec": [],
      "beginExec": []
    },
    {
      "mainId": 23016,
      "subId": 2301602,
      "order": 2,
      "descTextMapHash": 2752774924,
      "acceptCond": [
        {
          "type": "QUEST_COND_UNKNOWN",
          "param": [
            0,
            0
          ]
        }
      ],
      "finishCond": [],
      "failCond": [],
      "guide": {
        "type": "QUEST_GUIDE_NPC",
        "param": [
          "4042"
        ],
        "guideScene": 3,
        "guideStyle": "QUEST_GUIDE_STYLE_TARGET",
        "guideLayer": "QUEST_GUIDE_LAYER_SCENE"
      },
      "finishExec": [],
      "failExec": [],
      "beginExec": []
    },
    {
      "mainId": 23016,
      "subId": 2301603,
      "order": 3,
      "descTextMapHash": 1804874900,
      "acceptCond": [
        {
          "type": "QUEST_COND_UNKNOWN",
          "param": [
            0,
            0
          ]
        }
      ],
      "finishCond": [],
      "failCond": [],
      "guide": {
        "type": "QUEST_GUIDE_NPC",
        "param": [
          "20657"
        ],
        "guideScene": 3,
        "guideStyle": "QUEST_GUIDE_STYLE_TARGET",
        "guideLayer": "QUEST_GUIDE_LAYER_SCENE"
      },
      "finishExec": [],
      "failExec": [],
      "beginExec": []
    }
  ],
  "talks": [
    {
      "id": 2301601,
      "beginWay": "TALK_BEGIN_AUTO",
      "activeMode": "PLAY_MODE_HOST",
      "beginCond": [
        {
          "type": "QUEST_COND_STATE_EQUAL",
          "param": [
            "2301601",
            "2"
          ],
          "param_str": ""
        }
      ],
      "priority": 5,
      "initDialog": 230160101,
      "npcId": [
        20657,
        20658
      ],
      "performCfg": "QuestDialogue/IQ/Sumeru_23016/Q2301601",
      "heroTalk": "TALK_HERO_MAIN",
      "questId": 23016,
      "prePerformCfg": ""
    },
    {
      "id": 2301602,
      "beginWay": "TALK_BEGIN_MANUAL",
      "activeMode": "PLAY_MODE_HOST",
      "beginCond": [
        {
          "type": "QUEST_COND_STATE_EQUAL",
          "param": [
            "2301602",
            "2"
          ],
          "param_str": ""
        }
      ],
      "priority": 5,
      "initDialog": 230160201,
      "npcId": [
        4042
      ],
      "performCfg": "",
      "heroTalk": "TALK_HERO_MAIN",
      "questId": 23016,
      "prePerformCfg": ""
    },
    {
      "id": 2301603,
      "beginWay": "TALK_BEGIN_MANUAL",
      "activeMode": "PLAY_MODE_HOST",
      "beginCond": [
        {
          "type": "QUEST_COND_STATE_EQUAL",
          "param": [
            "2301603",
            "2"
          ],
          "param_str": ""
        }
      ],
      "priority": 5,
      "nextTalks": [
        2301632,
        2301633,
        2301631
      ],
      "initDialog": 230160301,
      "npcId": [
        20657,
        20658
      ],
      "performCfg": "QuestDialogue/IQ/Sumeru_23016/Q2301603",
      "heroTalk": "TALK_HERO_MAIN",
      "questId": 23016,
      "prePerformCfg": "",
      "finishExec": [
        {
          "type": "TALK_EXEC_SET_QUEST_VAR",
          "param": [
            "1",
            "0",
            "23016"
          ],
          "param_str": ""
        },
        {
          "type": "TALK_EXEC_SET_QUEST_VAR",
          "param": [
            "2",
            "0",
            "23016"
          ],
          "param_str": ""
        }
      ]
    },
    {
      "id": 2301631,
      "activeMode": "PLAY_MODE_HOST",
      "beginCond": [
        {
          "type": "QUEST_COND_STATE_EQUAL",
          "param": [
            "2301603",
            "2"
          ],
          "param_str": ""
        }
      ],
      "priority": 3,
      "nextTalks": [
        2301634
      ],
      "initDialog": 230163101,
      "npcId": [
        20657,
        20658
      ],
      "performCfg": "QuestDialogue/IQ/Sumeru_23016/Q2301631",
      "heroTalk": "TALK_HERO_MAIN",
      "questId": 23016,
      "prePerformCfg": "",
      "finishExec": [
        {
          "type": "TALK_EXEC_SET_QUEST_VAR",
          "param": [
            "1",
            "1",
            "23016"
          ],
          "param_str": ""
        }
      ]
    },
    {
      "id": 2301632,
      "activeMode": "PLAY_MODE_HOST",
      "beginCond": [
        {
          "type": "QUEST_COND_STATE_EQUAL",
          "param": [
            "2301603",
            "2"
          ],
          "param_str": ""
        }
      ],
      "priority": 3,
      "nextTalks": [
        2301634
      ],
      "initDialog": 230163201,
      "npcId": [
        20657,
        20658
      ],
      "performCfg": "QuestDialogue/IQ/Sumeru_23016/Q2301632",
      "heroTalk": "TALK_HERO_MAIN",
      "questId": 23016,
      "prePerformCfg": ""
    },
    {
      "id": 2301633,
      "activeMode": "PLAY_MODE_HOST",
      "beginCond": [
        {
          "type": "QUEST_COND_STATE_EQUAL",
          "param": [
            "2301603",
            "2"
          ],
          "param_str": ""
        }
      ],
      "priority": 3,
      "nextTalks": [
        2301634
      ],
      "initDialog": 230163301,
      "npcId": [
        20657,
        20658
      ],
      "performCfg": "QuestDialogue/IQ/Sumeru_23016/Q2301633",
      "heroTalk": "TALK_HERO_MAIN",
      "questId": 23016,
      "prePerformCfg": ""
    },
    {
      "id": 2301634,
      "activeMode": "PLAY_MODE_HOST",
      "beginCond": [
        {
          "type": "QUEST_COND_STATE_EQUAL",
          "param": [
            "2301603",
            "2"
          ],
          "param_str": ""
        }
      ],
      "priority": 3,
      "nextTalks": [
        2301636,
        2301635,
        2301637
      ],
      "initDialog": 230163401,
      "npcId": [
        20657,
        20658
      ],
      "performCfg": "QuestDialogue/IQ/Sumeru_23016/Q2301634",
      "heroTalk": "TALK_HERO_MAIN",
      "questId": 23016,
      "prePerformCfg": ""
    },
    {
      "id": 2301635,
      "activeMode": "PLAY_MODE_HOST",
      "beginCond": [
        {
          "type": "QUEST_COND_STATE_EQUAL",
          "param": [
            "2301603",
            "2"
          ],
          "param_str": ""
        }
      ],
      "priority": 3,
      "nextTalks": [
        2301638,
        2301639
      ],
      "initDialog": 230163501,
      "npcId": [
        20657,
        20658
      ],
      "performCfg": "QuestDialogue/IQ/Sumeru_23016/Q2301635",
      "heroTalk": "TALK_HERO_MAIN",
      "questId": 23016,
      "prePerformCfg": "",
      "finishExec": [
        {
          "type": "TALK_EXEC_SET_QUEST_VAR",
          "param": [
            "2",
            "1",
            "23016"
          ],
          "param_str": ""
        }
      ]
    },
    {
      "id": 2301636,
      "activeMode": "PLAY_MODE_HOST",
      "beginCond": [
        {
          "type": "QUEST_COND_STATE_EQUAL",
          "param": [
            "2301603",
            "2"
          ],
          "param_str": ""
        }
      ],
      "priority": 3,
      "nextTalks": [
        2301638,
        2301639
      ],
      "initDialog": 230163601,
      "npcId": [
        20657,
        20658
      ],
      "performCfg": "QuestDialogue/IQ/Sumeru_23016/Q2301636",
      "heroTalk": "TALK_HERO_MAIN",
      "questId": 23016,
      "prePerformCfg": ""
    },
    {
      "id": 2301637,
      "activeMode": "PLAY_MODE_HOST",
      "beginCond": [
        {
          "type": "QUEST_COND_STATE_EQUAL",
          "param": [
            "2301603",
            "2"
          ],
          "param_str": ""
        }
      ],
      "priority": 3,
      "nextTalks": [
        2301638,
        2301639
      ],
      "initDialog": 230163701,
      "npcId": [
        20657,
        20658
      ],
      "performCfg": "QuestDialogue/IQ/Sumeru_23016/Q2301637",
      "heroTalk": "TALK_HERO_MAIN",
      "questId": 23016,
      "prePerformCfg": ""
    },
    {
      "id": 2301638,
      "activeMode": "PLAY_MODE_HOST",
      "beginCondComb": "LOGIC_A_AND_ETCOR",
      "beginCond": [
        {
          "type": "QUEST_COND_STATE_EQUAL",
          "param": [
            "2301603",
            "2"
          ],
          "param_str": ""
        },
        {
          "type": "QUEST_COND_QUEST_VAR_EQUAL",
          "param": [
            "1",
            "0",
            "23016"
          ],
          "param_str": ""
        },
        {
          "type": "QUEST_COND_QUEST_VAR_EQUAL",
          "param": [
            "2",
            "0",
            "23016"
          ],
          "param_str": ""
        }
      ],
      "priority": 3,
      "nextTalks": [
        2301631,
        2301632,
        2301633
      ],
      "initDialog": 230163801,
      "npcId": [
        20657,
        20658
      ],
      "performCfg": "QuestDialogue/IQ/Sumeru_23016/Q2301638",
      "heroTalk": "TALK_HERO_MAIN",
      "questId": 23016,
      "prePerformCfg": "",
      "finishExec": [
        {
          "type": "TALK_EXEC_SET_QUEST_VAR",
          "param": [
            "1",
            "0",
            "23016"
          ],
          "param_str": ""
        },
        {
          "type": "TALK_EXEC_SET_QUEST_VAR",
          "param": [
            "2",
            "0",
            "23016"
          ],
          "param_str": ""
        }
      ]
    },
    {
      "id": 2301639,
      "activeMode": "PLAY_MODE_HOST",
      "beginCondComb": "LOGIC_AND",
      "beginCond": [
        {
          "type": "QUEST_COND_STATE_EQUAL",
          "param": [
            "2301603",
            "2"
          ],
          "param_str": ""
        },
        {
          "type": "QUEST_COND_QUEST_VAR_EQUAL",
          "param": [
            "1",
            "1",
            "23016"
          ],
          "param_str": ""
        },
        {
          "type": "QUEST_COND_QUEST_VAR_EQUAL",
          "param": [
            "2",
            "1",
            "23016"
          ],
          "param_str": ""
        }
      ],
      "priority": 3,
      "initDialog": 230163901,
      "npcId": [
        20657,
        20658
      ],
      "performCfg": "QuestDialogue/IQ/Sumeru_23016/Q2301639",
      "heroTalk": "TALK_HERO_MAIN",
      "questId": 23016,
      "prePerformCfg": ""
    },
    {
      "id": 2301650,
      "beginWay": "TALK_BEGIN_MANUAL",
      "activeMode": "PLAY_MODE_HOST",
      "beginCond": [
        {
          "type": "QUEST_COND_STATE_EQUAL",
          "param": [
            "2301602",
            "2"
          ],
          "param_str": ""
        }
      ],
      "priority": 5,
      "initDialog": 230165001,
      "npcId": [
        20658,
        20657
      ],
      "performCfg": "QuestDialogue/IQ/Sumeru_23016/Q2301650",
      "heroTalk": "TALK_HERO_MAIN",
      "questId": 23016,
      "prePerformCfg": ""
    },
    {
      "id": 2301651,
      "beginWay": "TALK_BEGIN_MANUAL",
      "activeMode": "PLAY_MODE_HOST",
      "beginCond": [
        {
          "type": "QUEST_COND_STATE_EQUAL",
          "param": [
            "2301603",
            "2"
          ],
          "param_str": ""
        }
      ],
      "priority": 5,
      "initDialog": 230165101,
      "npcId": [
        4042
      ],
      "performCfg": "",
      "heroTalk": "TALK_HERO_MAIN",
      "questId": 23016,
      "prePerformCfg": "",
      "stayFreeStyle": true
    },
    {
      "id": 2301652,
      "beginWay": "TALK_BEGIN_MANUAL",
      "activeMode": "PLAY_MODE_HOST",
      "beginCond": [
        {
          "type": "QUEST_COND_STATE_EQUAL",
          "param": [
            "2301601",
            "2"
          ],
          "param_str": ""
        }
      ],
      "priority": 5,
      "initDialog": 230165201,
      "npcId": [
        4042
      ],
      "performCfg": "",
      "heroTalk": "TALK_HERO_MAIN",
      "questId": 23016,
      "prePerformCfg": "",
      "stayFreeStyle": true
    }
  ]
}