{
  "id": 23026,
  "type": "IQ",
  "titleTextMapHash": 1882476447,
  "descTextMapHash": 2171644174,
  "luaPath": "Actor/Quest/IQ23026",
  "subQuests": [
    {
      "mainId": 23026,
      "subId": 2302601,
      "order": 1,
      "descTextMapHash": 397818756,
      "acceptCond": [
        {
          "type": "QUEST_COND_UNKNOWN",
          "param": [
            0,
            0
          ]
        }
      ],
      "finishCond": [],
      "failCond": [],
      "guide": {
        "type": "QUEST_GUIDE_NPC",
        "autoGuide": "QUEST_GUIDE_AUTO_ENABLE",
        "param": [
          "4083"
        ],
        "guideScene": 3,
        "guideStyle": "QUEST_GUIDE_STYLE_TARGET",
        "guideLayer": "QUEST_GUIDE_LAYER_SCENE"
      },
      "finishExec": [],
      "failExec": [],
      "beginExec": []
    },
    {
      "mainId": 23026,
      "subId": 2302602,
      "order": 2,
      "descTextMapHash": 2057900244,
      "acceptCond": [
        {
          "type": "QUEST_COND_UNKNOWN",
          "param": [
            0,
            0
          ]
        }
      ],
      "finishCond": [],
      "failCond": [],
      "guide": {
        "type": "QUEST_GUIDE_NPC",
        "autoGuide": "QUEST_GUIDE_AUTO_ENABLE",
        "param": [
          "4083"
        ],
        "guideScene": 3,
        "guideStyle": "QUEST_GUIDE_STYLE_FINISH",
        "guideLayer": "QUEST_GUIDE_LAYER_SCENE"
      },
      "finishExec": [],
      "failExec": [],
      "beginExec": []
    },
    {
      "mainId": 23026,
      "subId": 2302603,
      "order": 3,
      "descTextMapHash": 2223502340,
      "acceptCond": [
        {
          "type": "QUEST_COND_UNKNOWN",
          "param": [
            0,
            0
          ]
        }
      ],
      "finishCond": [],
      "failCond": [],
      "guide": {
        "type": "QUEST_GUIDE_NPC",
        "autoGuide": "QUEST_GUIDE_AUTO_ENABLE",
        "param": [
          "4083"
        ],
        "guideScene": 3,
        "guideStyle": "QUEST_GUIDE_STYLE_FINISH",
        "guideLayer": "QUEST_GUIDE_LAYER_SCENE"
      },
      "finishExec": [],
      "failExec": [],
      "beginExec": []
    },
    {
      "mainId": 23026,
      "subId": 2302604,
      "order": 4,
      "showType": "QUEST_HIDDEN",
      "descTextMapHash": 532655620,
      "acceptCond": [
        {
          "type": "QUEST_COND_UNKNOWN",
          "param": [
            0,
            0
          ]
        }
      ],
      "finishCond": [],
      "failCond": [],
      "guide": {},
      "finishExec": [],
      "failExec": [],
      "beginExec": []
    },
    {
      "mainId": 23026,
      "subId": 2302605,
      "order": 5,
      "showType": "QUEST_HIDDEN",
      "acceptCond": [
        {
          "type": "QUEST_COND_UNKNOWN",
          "param": [
            0,
            0
          ]
        }
      ],
      "finishCond": [],
      "failCond": [],
      "guide": {},
      "finishExec": [],
      "failExec": [],
      "beginExec": []
    },
    {
      "mainId": 23026,
      "subId": 2302606,
      "order": 6,
      "showType": "QUEST_HIDDEN",
      "acceptCond": [
        {
          "type": "QUEST_COND_UNKNOWN",
          "param": [
            0,
            0
          ]
        }
      ],
      "finishCond": [],
      "failCond": [],
      "guide": {},
      "finishExec": [],
      "failExec": [],
      "beginExec": []
    },
    {
      "mainId": 23026,
      "subId": 2302607,
      "order": 7,
      "showType": "QUEST_HIDDEN",
      "acceptCond": [
        {
          "type": "QUEST_COND_UNKNOWN",
          "param": [
            0,
            0
          ]
        }
      ],
      "finishCond": [],
      "failCond": [],
      "guide": {},
      "finishExec": [],
      "failExec": [],
      "beginExec": []
    },
    {
      "mainId": 23026,
      "subId": 2302608,
      "order": 8,
      "showType": "QUEST_HIDDEN",
      "acceptCond": [
        {
          "type": "QUEST_COND_UNKNOWN",
          "param": [
            0,
            0
          ]
        }
      ],
      "finishCond": [],
      "failCond": [],
      "guide": {},
      "finishExec": [],
      "failExec": [],
      "beginExec": []
    },
    {
      "mainId": 23026,
      "subId": 2302609,
      "order": 9,
      "showType": "QUEST_HIDDEN",
      "acceptCond": [
        {
          "type": "QUEST_COND_UNKNOWN",
          "param": [
            0,
            0
          ]
        }
      ],
      "finishCond": [],
      "failCond": [],
      "guide": {},
      "finishExec": [],
      "failExec": [],
      "beginExec": []
    },
    {
      "mainId": 23026,
      "subId": 2302610,
      "order": 10,
      "showType": "QUEST_HIDDEN",
      "acceptCond": [
        {
          "type": "QUEST_COND_UNKNOWN",
          "param": [
            0,
            0
          ]
        }
      ],
      "finishCond": [],
      "failCond": [],
      "guide": {},
      "finishExec": [],
      "failExec": [],
      "beginExec": []
    },
    {
      "mainId": 23026,
      "subId": 2302611,
      "order": 11,
      "showType": "QUEST_HIDDEN",
      "acceptCond": [
        {
          "type": "QUEST_COND_UNKNOWN",
          "param": [
            0,
            0
          ]
        }
      ],
      "finishCond": [],
      "failCond": [],
      "guide": {},
      "finishExec": [],
      "failExec": [],
      "beginExec": []
    },
    {
      "mainId": 23026,
      "subId": 2302612,
      "order": 12,
      "descTextMapHash": 2859592092,
      "acceptCond": [
        {
          "type": "QUEST_COND_UNKNOWN",
          "param": [
            0,
            0
          ]
        }
      ],
      "finishCond": [],
      "failCond": [],
      "guide": {
        "type": "QUEST_GUIDE_NPC",
        "autoGuide": "QUEST_GUIDE_AUTO_ENABLE",
        "param": [
          "4083"
        ],
        "guideScene": 3,
        "guideStyle": "QUEST_GUIDE_STYLE_TARGET",
        "guideLayer": "QUEST_GUIDE_LAYER_SCENE"
      },
      "finishExec": [],
      "failExec": [],
      "beginExec": []
    }
  ],
  "talks": [
    {
      "id": 2302601,
      "beginWay": "TALK_BEGIN_MANUAL",
      "activeMode": "PLAY_MODE_HOST",
      "beginCond": [
        {
          "type": "QUEST_COND_STATE_EQUAL",
          "param": [
            "2302601",
            "2"
          ],
          "param_str": ""
        }
      ],
      "priority": 5,
      "nextTalks": [
        2302602,
        2302603,
        2302604,
        2302605,
        2302606,
        2302607
      ],
      "initDialog": 230260101,
      "npcId": [
        4083,
        1005
      ],
      "performCfg": "QuestDialogue/IQ/Xumi_23026/Q2302601",
      "heroTalk": "TALK_HERO_MAIN",
      "questId": 23026,
      "prePerformCfg": ""
    },
    {
      "id": 2302602,
      "beginWay": "TALK_BEGIN_MANUAL",
      "activeMode": "PLAY_MODE_HOST",
      "beginCondComb": "LOGIC_AND",
      "beginCond": [
        {
          "type": "QUEST_COND_STATE_EQUAL",
          "param": [
            "2302601",
            "3"
          ],
          "param_str": ""
        },
        {
          "type": "QUEST_COND_QUEST_VAR_EQUAL",
          "param": [
            "0",
            "1",
            "23026"
          ],
          "param_str": ""
        },
        {
          "type": "QUEST_COND_QUEST_VAR_LESS",
          "param": [
            "1",
            "50",
            "23026"
          ],
          "param_str": ""
        }
      ],
      "priority": 5,
      "nextTalks": [
        2302603,
        2302604,
        2302605,
        2302606,
        2302607,
        2302608,
        2302609
      ],
      "initDialog": 230260201,
      "npcId": [
        4083
      ],
      "performCfg": "",
      "heroTalk": "TALK_HERO_MAIN",
      "questId": 23026,
      "prePerformCfg": ""
    },
    {
      "id": 2302603,
      "beginWay": "TALK_BEGIN_MANUAL",
      "activeMode": "PLAY_MODE_HOST",
      "beginCondComb": "LOGIC_AND",
      "beginCond": [
        {
          "type": "QUEST_COND_STATE_EQUAL",
          "param": [
            "2302601",
            "3"
          ],
          "param_str": ""
        },
        {
          "type": "QUEST_COND_QUEST_VAR_EQUAL",
          "param": [
            "0",
            "2",
            "23026"
          ],
          "param_str": ""
        },
        {
          "type": "QUEST_COND_QUEST_VAR_LESS",
          "param": [
            "1",
            "50",
            "23026"
          ],
          "param_str": ""
        }
      ],
      "priority": 5,
      "nextTalks": [
        2302602,
        2302604,
        2302605,
        2302606,
        2302607,
        2302608,
        2302609
      ],
      "initDialog": 230260301,
      "npcId": [
        4083
      ],
      "performCfg": "",
      "heroTalk": "TALK_HERO_MAIN",
      "questId": 23026,
      "prePerformCfg": ""
    },
    {
      "id": 2302604,
      "beginWay": "TALK_BEGIN_MANUAL",
      "activeMode": "PLAY_MODE_HOST",
      "beginCondComb": "LOGIC_AND",
      "beginCond": [
        {
          "type": "QUEST_COND_STATE_EQUAL",
          "param": [
            "2302601",
            "3"
          ],
          "param_str": ""
        },
        {
          "type": "QUEST_COND_QUEST_VAR_EQUAL",
          "param": [
            "0",
            "3",
            "23026"
          ],
          "param_str": ""
        },
        {
          "type": "QUEST_COND_QUEST_VAR_LESS",
          "param": [
            "1",
            "50",
            "23026"
          ],
          "param_str": ""
        }
      ],
      "priority": 5,
      "nextTalks": [
        2302603,
        2302602,
        2302605,
        2302606,
        2302607,
        2302608,
        2302609
      ],
      "initDialog": 230260401,
      "npcId": [
        4083
      ],
      "performCfg": "",
      "heroTalk": "TALK_HERO_MAIN",
      "questId": 23026,
      "prePerformCfg": ""
    },
    {
      "id": 2302605,
      "beginWay": "TALK_BEGIN_MANUAL",
      "activeMode": "PLAY_MODE_HOST",
      "beginCondComb": "LOGIC_AND",
      "beginCond": [
        {
          "type": "QUEST_COND_STATE_EQUAL",
          "param": [
            "2302601",
            "3"
          ],
          "param_str": ""
        },
        {
          "type": "QUEST_COND_QUEST_VAR_EQUAL",
          "param": [
            "0",
            "4",
            "23026"
          ],
          "param_str": ""
        },
        {
          "type": "QUEST_COND_QUEST_VAR_LESS",
          "param": [
            "1",
            "50",
            "23026"
          ],
          "param_str": ""
        }
      ],
      "priority": 5,
      "nextTalks": [
        2302603,
        2302604,
        2302602,
        2302606,
        2302607,
        2302608,
        2302609
      ],
      "initDialog": 230260501,
      "npcId": [
        4083
      ],
      "performCfg": "",
      "heroTalk": "TALK_HERO_MAIN",
      "questId": 23026,
      "prePerformCfg": ""
    },
    {
      "id": 2302606,
      "beginWay": "TALK_BEGIN_MANUAL",
      "activeMode": "PLAY_MODE_HOST",
      "beginCondComb": "LOGIC_AND",
      "beginCond": [
        {
          "type": "QUEST_COND_STATE_EQUAL",
          "param": [
            "2302601",
            "3"
          ],
          "param_str": ""
        },
        {
          "type": "QUEST_COND_QUEST_VAR_EQUAL",
          "param": [
            "0",
            "5",
            "23026"
          ],
          "param_str": ""
        },
        {
          "type": "QUEST_COND_QUEST_VAR_LESS",
          "param": [
            "1",
            "50",
            "23026"
          ],
          "param_str": ""
        }
      ],
      "priority": 5,
      "nextTalks": [
        2302603,
        2302604,
        2302605,
        2302602,
        2302607,
        2302608,
        2302609
      ],
      "initDialog": 230260601,
      "npcId": [
        4083
      ],
      "performCfg": "",
      "heroTalk": "TALK_HERO_MAIN",
      "questId": 23026,
      "prePerformCfg": ""
    },
    {
      "id": 2302607,
      "beginWay": "TALK_BEGIN_MANUAL",
      "activeMode": "PLAY_MODE_HOST",
      "beginCondComb": "LOGIC_AND",
      "beginCond": [
        {
          "type": "QUEST_COND_STATE_EQUAL",
          "param": [
            "2302601",
            "3"
          ],
          "param_str": ""
        },
        {
          "type": "QUEST_COND_QUEST_VAR_EQUAL",
          "param": [
            "0",
            "6",
            "23026"
          ],
          "param_str": ""
        },
        {
          "type": "QUEST_COND_QUEST_VAR_LESS",
          "param": [
            "1",
            "50",
            "23026"
          ],
          "param_str": ""
        }
      ],
      "priority": 5,
      "nextTalks": [
        2302603,
        2302604,
        2302605,
        2302606,
        2302602,
        2302608,
        2302609
      ],
      "initDialog": 230260701,
      "npcId": [
        4083
      ],
      "performCfg": "",
      "heroTalk": "TALK_HERO_MAIN",
      "questId": 23026,
      "prePerformCfg": ""
    },
    {
      "id": 2302608,
      "beginWay": "TALK_BEGIN_MANUAL",
      "activeMode": "PLAY_MODE_HOST",
      "beginCond": [
        {
          "type": "QUEST_COND_STATE_EQUAL",
          "param": [
            "2302602",
            "2"
          ],
          "param_str": ""
        }
      ],
      "priority": 5,
      "initDialog": 230260801,
      "npcId": [
        4083
      ],
      "performCfg": "",
      "heroTalk": "TALK_HERO_MAIN",
      "questId": 23026,
      "prePerformCfg": ""
    },
    {
      "id": 2302609,
      "beginWay": "TALK_BEGIN_MANUAL",
      "activeMode": "PLAY_MODE_HOST",
      "beginCond": [
        {
          "type": "QUEST_COND_STATE_EQUAL",
          "param": [
            "2302603",
            "2"
          ],
          "param_str": ""
        }
      ],
      "priority": 5,
      "initDialog": 230260901,
      "npcId": [
        4083
      ],
      "performCfg": "",
      "heroTalk": "TALK_HERO_MAIN",
      "questId": 23026,
      "prePerformCfg": ""
    }
  ]
}