{
  "id": 23020,
  "type": "IQ",
  "titleTextMapHash": 3939457863,
  "descTextMapHash": 1698022822,
  "luaPath": "Actor/Quest/IQ23020",
  "subQuests": [
    {
      "mainId": 23020,
      "subId": 2302001,
      "order": 1,
      "descTextMapHash": 3298621604,
      "acceptCond": [
        {
          "type": "QUEST_COND_UNKNOWN",
          "param": [
            0,
            0
          ]
        }
      ],
      "finishCond": [],
      "failCond": [],
      "guide": {
        "type": "QUEST_GUIDE_NPC",
        "param": [
          "4032 "
        ],
        "guideScene": 3,
        "guideStyle": "QUEST_GUIDE_STYLE_TARGET",
        "guideLayer": "QUEST_GUIDE_LAYER_SCENE"
      },
      "finishExec": [],
      "failExec": [],
      "beginExec": []
    },
    {
      "mainId": 23020,
      "subId": 2302002,
      "order": 2,
      "descTextMapHash": 2644028612,
      "acceptCond": [
        {
          "type": "QUEST_COND_UNKNOWN",
          "param": [
            0,
            0
          ]
        }
      ],
      "finishCond": [],
      "failCond": [],
      "guide": {
        "type": "QUEST_GUIDE_LOCATION",
        "param": [
          "Q2302001_GUIDE",
          "15"
        ],
        "guideScene": 3,
        "guideStyle": "QUEST_GUIDE_STYLE_POINT",
        "guideLayer": "QUEST_GUIDE_LAYER_SCENE"
      },
      "finishExec": [],
      "failExec": [],
      "beginExec": []
    },
    {
      "mainId": 23020,
      "subId": 2302003,
      "order": 3,
      "descTextMapHash": 3844929900,
      "acceptCond": [
        {
          "type": "QUEST_COND_UNKNOWN",
          "param": [
            0,
            0
          ]
        }
      ],
      "finishCond": [],
      "failCond": [],
      "guide": {
        "type": "QUEST_GUIDE_LOCATION",
        "param": [
          "Q2302001_GUIDE",
          "15"
        ],
        "guideScene": 3,
        "guideStyle": "QUEST_GUIDE_STYLE_POINT",
        "guideLayer": "QUEST_GUIDE_LAYER_SCENE"
      },
      "finishExec": [],
      "failExec": [],
      "beginExec": []
    },
    {
      "mainId": 23020,
      "subId": 2302004,
      "order": 4,
      "descTextMapHash": 430526460,
      "acceptCond": [
        {
          "type": "QUEST_COND_UNKNOWN",
          "param": [
            0,
            0
          ]
        }
      ],
      "finishCond": [],
      "failCond": [],
      "guide": {
        "type": "QUEST_GUIDE_NPC",
        "param": [
          "4032 "
        ],
        "guideScene": 3,
        "guideStyle": "QUEST_GUIDE_STYLE_TARGET",
        "guideLayer": "QUEST_GUIDE_LAYER_SCENE"
      },
      "finishExec": [],
      "failExec": [],
      "beginExec": []
    },
    {
      "mainId": 23020,
      "subId": 2302005,
      "order": 5,
      "descTextMapHash": 1317077700,
      "acceptCond": [
        {
          "type": "QUEST_COND_UNKNOWN",
          "param": [
            0,
            0
          ]
        }
      ],
      "finishCond": [],
      "failCond": [],
      "guide": {
        "type": "QUEST_GUIDE_NPC",
        "param": [
          "4032"
        ],
        "guideScene": 3,
        "guideStyle": "QUEST_GUIDE_STYLE_TARGET",
        "guideLayer": "QUEST_GUIDE_LAYER_SCENE"
      },
      "finishExec": [],
      "failExec": [],
      "beginExec": []
    }
  ],
  "talks": [
    {
      "id": 2302001,
      "beginWay": "TALK_BEGIN_MANUAL",
      "beginCond": [
        {
          "type": "QUEST_COND_STATE_EQUAL",
          "param": [
            "2302001",
            "2"
          ],
          "param_str": ""
        }
      ],
      "priority": 5,
      "initDialog": 230200101,
      "npcId": [
        4032,
        4031
      ],
      "performCfg": "QuestDialogue/IQ/Xumi_23020/Q2302001",
      "heroTalk": "TALK_HERO_MAIN",
      "questId": 23020,
      "prePerformCfg": ""
    },
    {
      "id": 2302002,
      "beginWay": "TALK_BEGIN_MANUAL",
      "beginCondComb": "LOGIC_OR",
      "beginCond": [
        {
          "type": "QUEST_COND_STATE_EQUAL",
          "param": [
            "2302002",
            "2"
          ],
          "param_str": ""
        },
        {
          "type": "QUEST_COND_STATE_EQUAL",
          "param": [
            "2302003",
            "2"
          ],
          "param_str": ""
        }
      ],
      "priority": 5,
      "initDialog": 230200201,
      "npcId": [
        4031
      ],
      "performCfg": "",
      "heroTalk": "TALK_HERO_MAIN",
      "questId": 23020,
      "prePerformCfg": ""
    },
    {
      "id": 2302004,
      "beginWay": "TALK_BEGIN_MANUAL",
      "beginCondComb": "LOGIC_AND",
      "beginCond": [
        {
          "type": "QUEST_COND_STATE_EQUAL",
          "param": [
            "2302004",
            "2"
          ],
          "param_str": ""
        },
        {
          "type": "QUEST_COND_ITEM_GIVING_ACTIVED",
          "param": [
            "2302004"
          ],
          "param_str": ""
        }
      ],
      "priority": 5,
      "initDialog": 230200401,
      "npcId": [
        4032
      ],
      "performCfg": "",
      "heroTalk": "TALK_HERO_MAIN",
      "questId": 23020,
      "prePerformCfg": ""
    },
    {
      "id": 2302005,
      "beginWay": "TALK_BEGIN_AUTO",
      "beginCond": [
        {
          "type": "QUEST_COND_STATE_EQUAL",
          "param": [
            "2302005",
            "2"
          ],
          "param_str": ""
        }
      ],
      "priority": 5,
      "initDialog": 230200501,
      "npcId": [
        4032
      ],
      "performCfg": "QuestDialogue/IQ/Sumeru_23020/Q2302005",
      "heroTalk": "TALK_HERO_MAIN",
      "questId": 23020,
      "prePerformCfg": ""
    },
    {
      "id": 2302006,
      "beginWay": "TALK_BEGIN_MANUAL",
      "beginCondComb": "LOGIC_OR",
      "beginCond": [
        {
          "type": "QUEST_COND_STATE_EQUAL",
          "param": [
            "2302002",
            "2"
          ],
          "param_str": ""
        },
        {
          "type": "QUEST_COND_STATE_EQUAL",
          "param": [
            "2302003",
            "2"
          ],
          "param_str": ""
        }
      ],
      "initDialog": 230200601,
      "npcId": [
        4032
      ],
      "performCfg": "",
      "heroTalk": "TALK_HERO_MAIN",
      "questId": 23020,
      "prePerformCfg": ""
    }
  ]
}