{
  "id": 23038,
  "type": "IQ",
  "titleTextMapHash": 747678327,
  "descTextMapHash": 3843554406,
  "luaPath": "Actor/Quest/IQ23038",
  "subQuests": [
    {
      "mainId": 23038,
      "subId": 2303801,
      "order": 1,
      "descTextMapHash": 1212062428,
      "acceptCond": [
        {
          "type": "QUEST_COND_UNKNOWN",
          "param": [
            0,
            0
          ]
        }
      ],
      "finishCond": [],
      "failCond": [],
      "guide": {
        "type": "QUEST_GUIDE_NPC",
        "autoGuide": "QUEST_GUIDE_AUTO_ENABLE",
        "param": [
          "4071"
        ],
        "guideScene": 3,
        "guideStyle": "QUEST_GUIDE_STYLE_TARGET",
        "guideLayer": "QUEST_GUIDE_LAYER_SCENE"
      },
      "finishExec": [],
      "failExec": [],
      "beginExec": []
    },
    {
      "mainId": 23038,
      "subId": 2303802,
      "order": 2,
      "descTextMapHash": 97798436,
      "acceptCond": [
        {
          "type": "QUEST_COND_UNKNOWN",
          "param": [
            0,
            0
          ]
        }
      ],
      "finishCond": [],
      "failCond": [],
      "guide": {
        "type": "QUEST_GUIDE_NPC",
        "autoGuide": "QUEST_GUIDE_AUTO_ENABLE",
        "param": [
          "4071"
        ],
        "guideScene": 3,
        "guideStyle": "QUEST_GUIDE_STYLE_TARGET",
        "guideLayer": "QUEST_GUIDE_LAYER_SCENE"
      },
      "finishExec": [],
      "failExec": [],
      "beginExec": []
    },
    {
      "mainId": 23038,
      "subId": 2303803,
      "order": 3,
      "descTextMapHash": 1155033932,
      "acceptCond": [
        {
          "type": "QUEST_COND_UNKNOWN",
          "param": [
            0,
            0
          ]
        }
      ],
      "finishCond": [],
      "failCond": [],
      "guide": {
        "type": "QUEST_GUIDE_NPC",
        "autoGuide": "QUEST_GUIDE_AUTO_ENABLE",
        "param": [
          "4071"
        ],
        "guideScene": 3,
        "guideStyle": "QUEST_GUIDE_STYLE_TARGET",
        "guideLayer": "QUEST_GUIDE_LAYER_SCENE"
      },
      "finishExec": [],
      "failExec": [],
      "beginExec": []
    },
    {
      "mainId": 23038,
      "subId": 2303804,
      "order": 4,
      "descTextMapHash": 1542249124,
      "acceptCond": [
        {
          "type": "QUEST_COND_UNKNOWN",
          "param": [
            0,
            0
          ]
        }
      ],
      "finishCond": [],
      "failCond": [],
      "guide": {
        "type": "QUEST_GUIDE_NPC",
        "autoGuide": "QUEST_GUIDE_AUTO_ENABLE",
        "param": [
          "4071"
        ],
        "guideScene": 3,
        "guideStyle": "QUEST_GUIDE_STYLE_TARGET",
        "guideLayer": "QUEST_GUIDE_LAYER_SCENE"
      },
      "finishExec": [],
      "failExec": [],
      "beginExec": []
    },
    {
      "mainId": 23038,
      "subId": 2303805,
      "order": 5,
      "descTextMapHash": 441143412,
      "acceptCond": [
        {
          "type": "QUEST_COND_UNKNOWN",
          "param": [
            0,
            0
          ]
        }
      ],
      "finishCond": [],
      "failCond": [],
      "guide": {
        "type": "QUEST_GUIDE_NPC",
        "autoGuide": "QUEST_GUIDE_AUTO_ENABLE",
        "param": [
          "4071"
        ],
        "guideScene": 3,
        "guideStyle": "QUEST_GUIDE_STYLE_TARGET",
        "guideLayer": "QUEST_GUIDE_LAYER_SCENE"
      },
      "finishExec": [],
      "failExec": [],
      "beginExec": []
    },
    {
      "mainId": 23038,
      "subId": 2303806,
      "order": 6,
      "descTextMapHash": 3714694292,
      "acceptCond": [
        {
          "type": "QUEST_COND_UNKNOWN",
          "param": [
            0,
            0
          ]
        }
      ],
      "finishCond": [],
      "failCond": [],
      "guide": {
        "type": "QUEST_GUIDE_NPC",
        "autoGuide": "QUEST_GUIDE_AUTO_ENABLE",
        "param": [
          "4071"
        ],
        "guideScene": 3,
        "guideStyle": "QUEST_GUIDE_STYLE_TARGET",
        "guideLayer": "QUEST_GUIDE_LAYER_SCENE"
      },
      "finishExec": [],
      "failExec": [],
      "beginExec": []
    },
    {
      "mainId": 23038,
      "subId": 2303807,
      "order": 7,
      "descTextMapHash": 3306692,
      "acceptCond": [
        {
          "type": "QUEST_COND_UNKNOWN",
          "param": [
            0,
            0
          ]
        }
      ],
      "finishCond": [],
      "failCond": [],
      "guide": {
        "type": "QUEST_GUIDE_NPC",
        "autoGuide": "QUEST_GUIDE_AUTO_ENABLE",
        "param": [
          "4071"
        ],
        "guideScene": 3,
        "guideStyle": "QUEST_GUIDE_STYLE_TARGET",
        "guideLayer": "QUEST_GUIDE_LAYER_SCENE"
      },
      "finishExec": [],
      "failExec": [],
      "beginExec": []
    },
    {
      "mainId": 23038,
      "subId": 2303808,
      "order": 8,
      "descTextMapHash": 3221858204,
      "acceptCond": [
        {
          "type": "QUEST_COND_UNKNOWN",
          "param": [
            0,
            0
          ]
        }
      ],
      "finishCond": [],
      "failCond": [],
      "guide": {
        "type": "QUEST_GUIDE_NPC",
        "autoGuide": "QUEST_GUIDE_AUTO_ENABLE",
        "param": [
          "4412"
        ],
        "guideScene": 3,
        "guideStyle": "QUEST_GUIDE_STYLE_TARGET",
        "guideLayer": "QUEST_GUIDE_LAYER_SCENE"
      },
      "finishExec": [],
      "failExec": [],
      "beginExec": []
    }
  ],
  "talks": [
    {
      "id": 2303801,
      "beginWay": "TALK_BEGIN_MANUAL",
      "activeMode": "PLAY_MODE_HOST",
      "beginCondComb": "LOGIC_AND",
      "beginCond": [
        {
          "type": "QUEST_COND_STATE_EQUAL",
          "param": [
            "2303801",
            "2"
          ],
          "param_str": ""
        },
        {
          "type": "QUEST_COND_DAILY_TASK_VAR_EQ",
          "param": [
            "42340",
            "1",
            "1"
          ],
          "param_str": ""
        }
      ],
      "priority": 5,
      "nextTalks": [
        2303805
      ],
      "initDialog": 230380101,
      "npcId": [
        4071
      ],
      "performCfg": "",
      "heroTalk": "TALK_HERO_MAIN",
      "questId": 23038,
      "prePerformCfg": ""
    },
    {
      "id": 2303802,
      "beginWay": "TALK_BEGIN_MANUAL",
      "activeMode": "PLAY_MODE_HOST",
      "beginCondComb": "LOGIC_AND",
      "beginCond": [
        {
          "type": "QUEST_COND_STATE_EQUAL",
          "param": [
            "2303801",
            "2"
          ],
          "param_str": ""
        },
        {
          "type": "QUEST_COND_DAILY_TASK_VAR_EQ",
          "param": [
            "42340",
            "2",
            "1"
          ],
          "param_str": ""
        }
      ],
      "priority": 5,
      "nextTalks": [
        2303807
      ],
      "initDialog": 230380201,
      "npcId": [
        4071
      ],
      "performCfg": "",
      "heroTalk": "TALK_HERO_MAIN",
      "questId": 23038,
      "prePerformCfg": ""
    },
    {
      "id": 2303803,
      "beginWay": "TALK_BEGIN_MANUAL",
      "activeMode": "PLAY_MODE_HOST",
      "beginCondComb": "LOGIC_AND",
      "beginCond": [
        {
          "type": "QUEST_COND_STATE_EQUAL",
          "param": [
            "2303801",
            "2"
          ],
          "param_str": ""
        },
        {
          "type": "QUEST_COND_DAILY_TASK_VAR_EQ",
          "param": [
            "42340",
            "3",
            "1"
          ],
          "param_str": ""
        }
      ],
      "priority": 5,
      "nextTalks": [
        2303809
      ],
      "initDialog": 230380301,
      "npcId": [
        4071
      ],
      "performCfg": "",
      "heroTalk": "TALK_HERO_MAIN",
      "questId": 23038,
      "prePerformCfg": ""
    },
    {
      "id": 2303804,
      "beginWay": "TALK_BEGIN_MANUAL",
      "activeMode": "PLAY_MODE_HOST",
      "beginCondComb": "LOGIC_A_AND_ETCOR",
      "beginCond": [
        {
          "type": "QUEST_COND_QUEST_NOT_RECEIVE",
          "param": [
            "2303808",
            "1"
          ],
          "param_str": ""
        },
        {
          "type": "QUEST_COND_STATE_EQUAL",
          "param": [
            "2303801",
            "2"
          ],
          "param_str": ""
        },
        {
          "type": "QUEST_COND_STATE_EQUAL",
          "param": [
            "2303801",
            "3"
          ],
          "param_str": ""
        }
      ],
      "priority": 5,
      "initDialog": 230380401,
      "npcId": [
        4412
      ],
      "performCfg": "",
      "heroTalk": "TALK_HERO_MAIN",
      "questId": 23038,
      "prePerformCfg": "",
      "lowPriority": true
    },
    {
      "id": 2303805,
      "beginWay": "TALK_BEGIN_MANUAL",
      "activeMode": "PLAY_MODE_HOST",
      "beginCondComb": "LOGIC_AND",
      "beginCond": [
        {
          "type": "QUEST_COND_STATE_EQUAL",
          "param": [
            "2303802",
            "2"
          ],
          "param_str": ""
        },
        {
          "type": "QUEST_COND_ITEM_GIVING_ACTIVED",
          "param": [
            "2303805"
          ],
          "param_str": ""
        }
      ],
      "priority": 5,
      "initDialog": 230380501,
      "npcId": [
        4071
      ],
      "performCfg": "",
      "heroTalk": "TALK_HERO_MAIN",
      "questId": 23038,
      "prePerformCfg": ""
    },
    {
      "id": 2303806,
      "beginWay": "TALK_BEGIN_AUTO",
      "activeMode": "PLAY_MODE_HOST",
      "beginCond": [
        {
          "type": "QUEST_COND_STATE_EQUAL",
          "param": [
            "2303803",
            "2"
          ],
          "param_str": ""
        }
      ],
      "priority": 5,
      "initDialog": 230380601,
      "npcId": [
        4071
      ],
      "performCfg": "",
      "heroTalk": "TALK_HERO_MAIN",
      "questId": 23038,
      "prePerformCfg": ""
    },
    {
      "id": 2303807,
      "beginWay": "TALK_BEGIN_MANUAL",
      "activeMode": "PLAY_MODE_HOST",
      "beginCondComb": "LOGIC_AND",
      "beginCond": [
        {
          "type": "QUEST_COND_STATE_EQUAL",
          "param": [
            "2303804",
            "2"
          ],
          "param_str": ""
        },
        {
          "type": "QUEST_COND_ITEM_GIVING_ACTIVED",
          "param": [
            "2303807"
          ],
          "param_str": ""
        }
      ],
      "priority": 5,
      "initDialog": 230380701,
      "npcId": [
        4071
      ],
      "performCfg": "",
      "heroTalk": "TALK_HERO_MAIN",
      "questId": 23038,
      "prePerformCfg": ""
    },
    {
      "id": 2303808,
      "beginWay": "TALK_BEGIN_AUTO",
      "activeMode": "PLAY_MODE_HOST",
      "beginCond": [
        {
          "type": "QUEST_COND_STATE_EQUAL",
          "param": [
            "2303805",
            "2"
          ],
          "param_str": ""
        }
      ],
      "priority": 5,
      "initDialog": 230380801,
      "npcId": [
        4071
      ],
      "performCfg": "",
      "heroTalk": "TALK_HERO_MAIN",
      "questId": 23038,
      "prePerformCfg": ""
    },
    {
      "id": 2303809,
      "beginWay": "TALK_BEGIN_MANUAL",
      "activeMode": "PLAY_MODE_HOST",
      "beginCondComb": "LOGIC_AND",
      "beginCond": [
        {
          "type": "QUEST_COND_STATE_EQUAL",
          "param": [
            "2303806",
            "2"
          ],
          "param_str": ""
        },
        {
          "type": "QUEST_COND_ITEM_GIVING_ACTIVED",
          "param": [
            "2303809"
          ],
          "param_str": ""
        }
      ],
      "priority": 5,
      "initDialog": 230380901,
      "npcId": [
        4071
      ],
      "performCfg": "",
      "heroTalk": "TALK_HERO_MAIN",
      "questId": 23038,
      "prePerformCfg": ""
    },
    {
      "id": 2303810,
      "beginWay": "TALK_BEGIN_AUTO",
      "activeMode": "PLAY_MODE_HOST",
      "beginCond": [
        {
          "type": "QUEST_COND_STATE_EQUAL",
          "param": [
            "2303807",
            "2"
          ],
          "param_str": ""
        }
      ],
      "priority": 5,
      "initDialog": 230381001,
      "npcId": [
        4071
      ],
      "performCfg": "",
      "heroTalk": "TALK_HERO_MAIN",
      "questId": 23038,
      "prePerformCfg": ""
    },
    {
      "id": 2303811,
      "beginWay": "TALK_BEGIN_MANUAL",
      "activeMode": "PLAY_MODE_HOST",
      "beginCond": [
        {
          "type": "QUEST_COND_STATE_EQUAL",
          "param": [
            "2303808",
            "2"
          ],
          "param_str": ""
        }
      ],
      "priority": 5,
      "initDialog": 230381101,
      "npcId": [
        4412
      ],
      "performCfg": "QuestDialogue/IQ/Sumeru_23038/Q2303811",
      "questId": 23038,
      "prePerformCfg": ""
    }
  ]
}