{
  "id": 25004,
  "type": "WQ",
  "titleTextMapHash": 387106497,
  "descTextMapHash": 3321172327,
  "luaPath": "",
  "showType": "QUEST_HIDDEN",
  "subQuests": [
    {
      "subId": 2500401,
      "mainId": 25004,
      "order": 1,
      "descTextMapHash": 2221056863,
      "showType": "QUEST_HIDDEN",
      "acceptCond": [
        {
          "type": "QUEST_COND_PLAYER_LEVEL_EQUAL_GREATER",
          "param": [
            35,
            0,
            0
          ],
          "param_str": ""
        }
      ],
      "finishCond": [
        {
          "type": "QUEST_CONTENT_PLAYER_LEVEL_UP",
          "param": [
            0,
            0
          ],
          "param_str": "",
          "count": 35
        }
      ],
      "failCond": [],
      "guide": {
        "param": []
      },
      "finishParent": true,
      "finishExec": [],
      "failExec": [],
      "beginExec": []
    }
  ]
}