{
  "id": 25002,
  "type": "WQ",
  "titleTextMapHash": 4247383593,
  "descTextMapHash": 1324512951,
  "luaPath": "",
  "showType": "QUEST_HIDDEN",
  "subQuests": [
    {
      "subId": 2500201,
      "mainId": 25002,
      "order": 1,
      "descTextMapHash": 1740256319,
      "showType": "QUEST_HIDDEN",
      "acceptCond": [
        {
          "type": "QUEST_COND_STATE_EQUAL",
          "param": [
            99902,
            3,
            0
          ],
          "param_str": ""
        }
      ],
      "finishCond": [
        {
          "type": "QUEST_CONTENT_PLAYER_LEVEL_UP",
          "param": [
            0,
            0
          ],
          "param_str": "",
          "count": 30
        }
      ],
      "failCond": [],
      "guide": {
        "param": []
      },
      "finishParent": true,
      "finishExec": [],
      "failExec": [],
      "beginExec": []
    }
  ]
}