{
  "id": 3007,
  "series": 1302,
  "titleTextMapHash": 290163623,
  "descTextMapHash": 3901839686,
  "luaPath": "Actor/Quest/AQ3007",
  "suggestTrackMainQuestList": [
    3008
  ],
  "rewardIdList": [
    103007
  ],
  "chapterId": 1302,
  "subQuests": [
    {
      "mainId": 3007,
      "subId": 300701,
      "order": 1,
      "descTextMapHash": 516821572,
      "acceptCond": [
        {
          "type": "QUEST_COND_UNKNOWN",
          "param": [
            0,
            0
          ]
        }
      ],
      "finishCond": [],
      "failCond": [],
      "guide": {
        "type": "QUEST_GUIDE_LOCATION",
        "autoGuide": "QUEST_GUIDE_AUTO_ENABLE",
        "param": [
          "Q3007CityCenterPos"
        ],
        "guideScene": 3,
        "guideStyle": "QUEST_GUIDE_STYLE_POINT",
        "guideLayer": "QUEST_GUIDE_LAYER_SCENE"
      },
      "finishExec": [],
      "failExec": [],
      "beginExec": []
    },
    {
      "mainId": 3007,
      "subId": 300702,
      "order": 2,
      "descTextMapHash": 1494234548,
      "acceptCond": [
        {
          "type": "QUEST_COND_UNKNOWN",
          "param": [
            0,
            0
          ]
        }
      ],
      "finishCond": [],
      "failCond": [],
      "guide": {
        "type": "QUEST_GUIDE_NPC",
        "autoGuide": "QUEST_GUIDE_AUTO_ENABLE",
        "param": [
          "12555"
        ],
        "guideScene": 3,
        "guideStyle": "QUEST_GUIDE_STYLE_TARGET",
        "guideLayer": "QUEST_GUIDE_LAYER_SCENE"
      },
      "finishExec": [],
      "failExec": [],
      "beginExec": []
    },
    {
      "mainId": 3007,
      "subId": 300703,
      "order": 5,
      "descTextMapHash": 1314035508,
      "acceptCond": [
        {
          "type": "QUEST_COND_UNKNOWN",
          "param": [
            0,
            0
          ]
        }
      ],
      "finishCond": [],
      "failCond": [],
      "guide": {
        "type": "QUEST_GUIDE_NPC",
        "autoGuide": "QUEST_GUIDE_AUTO_ENABLE",
        "param": [
          "12555"
        ],
        "guideScene": 3,
        "guideStyle": "QUEST_GUIDE_STYLE_TARGET",
        "guideLayer": "QUEST_GUIDE_LAYER_SCENE"
      },
      "finishExec": [],
      "failExec": [],
      "beginExec": []
    },
    {
      "mainId": 3007,
      "subId": 300704,
      "order": 7,
      "descTextMapHash": 2930660660,
      "acceptCond": [
        {
          "type": "QUEST_COND_UNKNOWN",
          "param": [
            0,
            0
          ]
        }
      ],
      "finishCond": [],
      "failCond": [],
      "guide": {
        "type": "QUEST_GUIDE_NPC",
        "autoGuide": "QUEST_GUIDE_AUTO_ENABLE",
        "param": [
          "12555"
        ],
        "guideScene": 3,
        "guideStyle": "QUEST_GUIDE_STYLE_TARGET",
        "guideLayer": "QUEST_GUIDE_LAYER_SCENE"
      },
      "finishExec": [],
      "failExec": [],
      "beginExec": []
    },
    {
      "mainId": 3007,
      "subId": 300705,
      "order": 8,
      "descTextMapHash": 2517883452,
      "acceptCond": [
        {
          "type": "QUEST_COND_UNKNOWN",
          "param": [
            0,
            0
          ]
        }
      ],
      "finishCond": [],
      "failCond": [],
      "guide": {
        "type": "QUEST_GUIDE_NPC",
        "autoGuide": "QUEST_GUIDE_AUTO_ENABLE",
        "param": [
          "4018"
        ],
        "guideScene": 3,
        "guideStyle": "QUEST_GUIDE_STYLE_TARGET",
        "guideLayer": "QUEST_GUIDE_LAYER_SCENE"
      },
      "finishExec": [],
      "failExec": [],
      "beginExec": []
    },
    {
      "mainId": 3007,
      "subId": 300706,
      "order": 11,
      "descTextMapHash": 1983063836,
      "acceptCond": [
        {
          "type": "QUEST_COND_UNKNOWN",
          "param": [
            0,
            0
          ]
        }
      ],
      "finishCond": [],
      "failCond": [],
      "guide": {
        "type": "QUEST_GUIDE_NPC",
        "autoGuide": "QUEST_GUIDE_AUTO_ENABLE",
        "param": [
          "12555"
        ],
        "guideScene": 3,
        "guideStyle": "QUEST_GUIDE_STYLE_TARGET",
        "guideLayer": "QUEST_GUIDE_LAYER_SCENE"
      },
      "finishExec": [],
      "failExec": [],
      "beginExec": []
    },
    {
      "mainId": 3007,
      "subId": 300707,
      "order": 21,
      "descTextMapHash": 2246096308,
      "acceptCond": [
        {
          "type": "QUEST_COND_UNKNOWN",
          "param": [
            0,
            0
          ]
        }
      ],
      "finishCond": [],
      "failCond": [],
      "guide": {
        "type": "QUEST_GUIDE_LOCATION",
        "autoGuide": "QUEST_GUIDE_AUTO_ENABLE",
        "param": [
          "Q3007Day1BattlePlayer"
        ],
        "guideScene": 3,
        "guideStyle": "QUEST_GUIDE_STYLE_POINT",
        "guideLayer": "QUEST_GUIDE_LAYER_SCENE"
      },
      "finishExec": [],
      "failExec": [],
      "beginExec": []
    },
    {
      "mainId": 3007,
      "subId": 300708,
      "order": 22,
      "descTextMapHash": 1558856036,
      "acceptCond": [
        {
          "type": "QUEST_COND_UNKNOWN",
          "param": [
            0,
            0
          ]
        }
      ],
      "finishCond": [],
      "failCond": [],
      "guide": {
        "type": "QUEST_GUIDE_LOCATION",
        "autoGuide": "QUEST_GUIDE_AUTO_ENABLE",
        "param": [
          "Q3007Day1BattlePlayer"
        ],
        "guideScene": 3,
        "guideStyle": "QUEST_GUIDE_STYLE_POINT",
        "guideLayer": "QUEST_GUIDE_LAYER_SCENE"
      },
      "finishExec": [],
      "failExec": [],
      "beginExec": []
    },
    {
      "mainId": 3007,
      "subId": 300709,
      "order": 23,
      "descTextMapHash": 1156909004,
      "acceptCond": [
        {
          "type": "QUEST_COND_UNKNOWN",
          "param": [
            0,
            0
          ]
        }
      ],
      "finishCond": [],
      "failCond": [],
      "guide": {
        "type": "QUEST_GUIDE_LOCATION",
        "autoGuide": "QUEST_GUIDE_AUTO_ENABLE",
        "param": [
          "Q3007Day1EscapePlayer"
        ],
        "guideScene": 3,
        "guideStyle": "QUEST_GUIDE_STYLE_POINT",
        "guideLayer": "QUEST_GUIDE_LAYER_SCENE"
      },
      "finishExec": [],
      "failExec": [],
      "beginExec": []
    },
    {
      "mainId": 3007,
      "subId": 300710,
      "order": 24,
      "descTextMapHash": 1029754860,
      "acceptCond": [
        {
          "type": "QUEST_COND_UNKNOWN",
          "param": [
            0,
            0
          ]
        }
      ],
      "finishCond": [],
      "failCond": [],
      "guide": {
        "type": "QUEST_GUIDE_LOCATION",
        "autoGuide": "QUEST_GUIDE_AUTO_ENABLE",
        "param": [
          "Q3007Day1EscapePlayer"
        ],
        "guideScene": 3,
        "guideStyle": "QUEST_GUIDE_STYLE_POINT",
        "guideLayer": "QUEST_GUIDE_LAYER_SCENE"
      },
      "finishExec": [],
      "failExec": [],
      "beginExec": []
    },
    {
      "mainId": 3007,
      "subId": 300711,
      "order": 25,
      "descTextMapHash": 298664868,
      "acceptCond": [
        {
          "type": "QUEST_COND_UNKNOWN",
          "param": [
            0,
            0
          ]
        }
      ],
      "finishCond": [],
      "failCond": [],
      "guide": {
        "type": "QUEST_GUIDE_LOCATION",
        "autoGuide": "QUEST_GUIDE_AUTO_ENABLE",
        "param": [
          "Q3007Day1RestPlayer"
        ],
        "guideScene": 3,
        "guideStyle": "QUEST_GUIDE_STYLE_POINT",
        "guideLayer": "QUEST_GUIDE_LAYER_SCENE"
      },
      "finishExec": [],
      "failExec": [],
      "beginExec": []
    },
    {
      "mainId": 3007,
      "subId": 300712,
      "order": 27,
      "descTextMapHash": 600428476,
      "acceptCond": [
        {
          "type": "QUEST_COND_UNKNOWN",
          "param": [
            0,
            0
          ]
        }
      ],
      "finishCond": [],
      "failCond": [],
      "guide": {
        "type": "QUEST_GUIDE_NPC",
        "autoGuide": "QUEST_GUIDE_AUTO_ENABLE",
        "param": [
          "1054"
        ],
        "guideScene": 3,
        "guideStyle": "QUEST_GUIDE_STYLE_TARGET",
        "guideLayer": "QUEST_GUIDE_LAYER_SCENE"
      },
      "finishExec": [],
      "failExec": [],
      "beginExec": []
    },
    {
      "mainId": 3007,
      "subId": 300713,
      "order": 28,
      "descTextMapHash": 3407153628,
      "acceptCond": [
        {
          "type": "QUEST_COND_UNKNOWN",
          "param": [
            0,
            0
          ]
        }
      ],
      "finishCond": [],
      "failCond": [],
      "guide": {
        "type": "QUEST_GUIDE_LOCATION",
        "autoGuide": "QUEST_GUIDE_AUTO_ENABLE",
        "param": [
          "Q3007PrelooproomPaimon"
        ],
        "guideScene": 3,
        "guideStyle": "QUEST_GUIDE_STYLE_POINT",
        "guideLayer": "QUEST_GUIDE_LAYER_SCENE"
      },
      "finishExec": [],
      "failExec": [],
      "beginExec": []
    },
    {
      "mainId": 3007,
      "subId": 300714,
      "order": 3,
      "descTextMapHash": 1613005116,
      "acceptCond": [
        {
          "type": "QUEST_COND_UNKNOWN",
          "param": [
            0,
            0
          ]
        }
      ],
      "finishCond": [],
      "failCond": [],
      "guide": {
        "type": "QUEST_GUIDE_LOCATION",
        "autoGuide": "QUEST_GUIDE_AUTO_ENABLE",
        "param": [
          "Q3007PrelooproomPaimon"
        ],
        "guideScene": 3,
        "guideStyle": "QUEST_GUIDE_STYLE_POINT",
        "guideLayer": "QUEST_GUIDE_LAYER_SCENE"
      },
      "finishExec": [],
      "failExec": [],
      "beginExec": []
    },
    {
      "mainId": 3007,
      "subId": 300715,
      "order": 26,
      "descTextMapHash": 4145358980,
      "acceptCond": [
        {
          "type": "QUEST_COND_UNKNOWN",
          "param": [
            0,
            0
          ]
        }
      ],
      "finishCond": [],
      "failCond": [],
      "guide": {
        "type": "QUEST_GUIDE_LOCATION",
        "autoGuide": "QUEST_GUIDE_AUTO_ENABLE",
        "param": [
          "Q3007Day1RestPlayer"
        ],
        "guideScene": 3,
        "guideStyle": "QUEST_GUIDE_STYLE_POINT",
        "guideLayer": "QUEST_GUIDE_LAYER_SCENE"
      },
      "finishExec": [],
      "failExec": [],
      "beginExec": []
    },
    {
      "mainId": 3007,
      "subId": 300716,
      "order": 29,
      "descTextMapHash": 3870696020,
      "acceptCond": [
        {
          "type": "QUEST_COND_UNKNOWN",
          "param": [
            0,
            0
          ]
        }
      ],
      "finishCond": [],
      "failCond": [],
      "guide": {
        "type": "QUEST_GUIDE_LOCATION",
        "autoGuide": "QUEST_GUIDE_AUTO_ENABLE",
        "param": [
          "Q3007PrelooproomPaimon"
        ],
        "guideScene": 3,
        "guideStyle": "QUEST_GUIDE_STYLE_POINT",
        "guideLayer": "QUEST_GUIDE_LAYER_SCENE"
      },
      "finishExec": [],
      "failExec": [],
      "beginExec": []
    },
    {
      "mainId": 3007,
      "subId": 300717,
      "order": 4,
      "descTextMapHash": 542809732,
      "acceptCond": [
        {
          "type": "QUEST_COND_UNKNOWN",
          "param": [
            0,
            0
          ]
        }
      ],
      "finishCond": [],
      "failCond": [],
      "guide": {
        "type": "QUEST_GUIDE_LOCATION",
        "autoGuide": "QUEST_GUIDE_AUTO_ENABLE",
        "param": [
          "Q3007PrelooproomPaimon"
        ],
        "guideScene": 3,
        "guideStyle": "QUEST_GUIDE_STYLE_POINT",
        "guideLayer": "QUEST_GUIDE_LAYER_SCENE"
      },
      "finishExec": [],
      "failExec": [],
      "beginExec": []
    },
    {
      "mainId": 3007,
      "subId": 300718,
      "order": 6,
      "descTextMapHash": 2649159108,
      "acceptCond": [
        {
          "type": "QUEST_COND_UNKNOWN",
          "param": [
            0,
            0
          ]
        }
      ],
      "finishCond": [],
      "failCond": [],
      "guide": {
        "type": "QUEST_GUIDE_NPC",
        "autoGuide": "QUEST_GUIDE_AUTO_ENABLE",
        "param": [
          "12555"
        ],
        "guideScene": 3,
        "guideStyle": "QUEST_GUIDE_STYLE_TARGET",
        "guideLayer": "QUEST_GUIDE_LAYER_SCENE"
      },
      "finishExec": [],
      "failExec": [],
      "beginExec": []
    },
    {
      "mainId": 3007,
      "subId": 300720,
      "order": 10,
      "descTextMapHash": 3316190516,
      "acceptCond": [
        {
          "type": "QUEST_COND_UNKNOWN",
          "param": [
            0,
            0
          ]
        }
      ],
      "finishCond": [],
      "failCond": [],
      "guide": {
        "type": "QUEST_GUIDE_NPC",
        "autoGuide": "QUEST_GUIDE_AUTO_ENABLE",
        "param": [
          "12555"
        ],
        "guideScene": 3,
        "guideStyle": "QUEST_GUIDE_STYLE_TARGET",
        "guideLayer": "QUEST_GUIDE_LAYER_SCENE"
      },
      "finishExec": [],
      "failExec": [],
      "beginExec": []
    },
    {
      "mainId": 3007,
      "subId": 300721,
      "order": 12,
      "showType": "QUEST_HIDDEN",
      "descTextMapHash": 676232148,
      "acceptCond": [
        {
          "type": "QUEST_COND_UNKNOWN",
          "param": [
            0,
            0
          ]
        }
      ],
      "finishCond": [],
      "failCond": [],
      "guide": {
        "guideScene": 3,
        "guideLayer": "QUEST_GUIDE_LAYER_SCENE"
      },
      "finishExec": [],
      "failExec": [],
      "beginExec": []
    },
    {
      "mainId": 3007,
      "subId": 300722,
      "order": 13,
      "showType": "QUEST_HIDDEN",
      "descTextMapHash": 1847349652,
      "acceptCond": [
        {
          "type": "QUEST_COND_UNKNOWN",
          "param": [
            0,
            0
          ]
        }
      ],
      "finishCond": [],
      "failCond": [],
      "guide": {
        "guideScene": 3,
        "guideLayer": "QUEST_GUIDE_LAYER_SCENE"
      },
      "finishExec": [],
      "failExec": [],
      "beginExec": []
    },
    {
      "mainId": 3007,
      "subId": 300723,
      "order": 14,
      "showType": "QUEST_HIDDEN",
      "descTextMapHash": 1434944380,
      "acceptCond": [
        {
          "type": "QUEST_COND_UNKNOWN",
          "param": [
            0,
            0
          ]
        }
      ],
      "finishCond": [],
      "failCond": [],
      "guide": {
        "guideScene": 3,
        "guideLayer": "QUEST_GUIDE_LAYER_SCENE"
      },
      "finishExec": [],
      "failExec": [],
      "beginExec": []
    },
    {
      "mainId": 3007,
      "subId": 300724,
      "order": 15,
      "showType": "QUEST_HIDDEN",
      "descTextMapHash": 3765191668,
      "acceptCond": [
        {
          "type": "QUEST_COND_UNKNOWN",
          "param": [
            0,
            0
          ]
        }
      ],
      "finishCond": [],
      "failCond": [],
      "guide": {
        "guideScene": 3,
        "guideLayer": "QUEST_GUIDE_LAYER_SCENE"
      },
      "finishExec": [],
      "failExec": [],
      "beginExec": []
    },
    {
      "mainId": 3007,
      "subId": 300725,
      "order": 16,
      "showType": "QUEST_HIDDEN",
      "descTextMapHash": 3593953500,
      "acceptCond": [
        {
          "type": "QUEST_COND_UNKNOWN",
          "param": [
            0,
            0
          ]
        }
      ],
      "finishCond": [],
      "failCond": [],
      "guide": {
        "guideScene": 3,
        "guideLayer": "QUEST_GUIDE_LAYER_SCENE"
      },
      "finishExec": [],
      "failExec": [],
      "beginExec": []
    },
    {
      "mainId": 3007,
      "subId": 300726,
      "order": 17,
      "showType": "QUEST_HIDDEN",
      "descTextMapHash": 3026096356,
      "acceptCond": [
        {
          "type": "QUEST_COND_UNKNOWN",
          "param": [
            0,
            0
          ]
        }
      ],
      "finishCond": [],
      "failCond": [],
      "guide": {
        "guideScene": 3,
        "guideLayer": "QUEST_GUIDE_LAYER_SCENE"
      },
      "finishExec": [],
      "failExec": [],
      "beginExec": []
    },
    {
      "mainId": 3007,
      "subId": 300727,
      "order": 18,
      "showType": "QUEST_HIDDEN",
      "descTextMapHash": 1292779164,
      "acceptCond": [
        {
          "type": "QUEST_COND_UNKNOWN",
          "param": [
            0,
            0
          ]
        }
      ],
      "finishCond": [],
      "failCond": [],
      "guide": {
        "guideScene": 3,
        "guideLayer": "QUEST_GUIDE_LAYER_SCENE"
      },
      "finishExec": [],
      "failExec": [],
      "beginExec": []
    },
    {
      "mainId": 3007,
      "subId": 300728,
      "order": 19,
      "showType": "QUEST_HIDDEN",
      "descTextMapHash": 2426206900,
      "acceptCond": [
        {
          "type": "QUEST_COND_UNKNOWN",
          "param": [
            0,
            0
          ]
        }
      ],
      "finishCond": [],
      "failCond": [],
      "guide": {
        "guideScene": 3,
        "guideLayer": "QUEST_GUIDE_LAYER_SCENE"
      },
      "finishExec": [],
      "failExec": [],
      "beginExec": []
    },
    {
      "mainId": 3007,
      "subId": 300729,
      "order": 20,
      "showType": "QUEST_HIDDEN",
      "descTextMapHash": 4161853852,
      "acceptCond": [
        {
          "type": "QUEST_COND_UNKNOWN",
          "param": [
            0,
            0
          ]
        }
      ],
      "finishCond": [],
      "failCond": [],
      "guide": {
        "guideScene": 3,
        "guideLayer": "QUEST_GUIDE_LAYER_SCENE"
      },
      "finishExec": [],
      "failExec": [],
      "beginExec": []
    },
    {
      "mainId": 3007,
      "subId": 300730,
      "order": 9,
      "descTextMapHash": 2977561532,
      "acceptCond": [
        {
          "type": "QUEST_COND_UNKNOWN",
          "param": [
            0,
            0
          ]
        }
      ],
      "finishCond": [],
      "failCond": [],
      "guide": {
        "type": "QUEST_GUIDE_NPC",
        "autoGuide": "QUEST_GUIDE_AUTO_ENABLE",
        "param": [
          "4018"
        ],
        "guideScene": 3,
        "guideStyle": "QUEST_GUIDE_STYLE_TARGET",
        "guideLayer": "QUEST_GUIDE_LAYER_SCENE"
      },
      "finishExec": [],
      "failExec": [],
      "beginExec": []
    }
  ],
  "talks": [
    {
      "id": 300701,
      "beginWay": "TALK_BEGIN_MANUAL",
      "activeMode": "PLAY_MODE_SINGLE",
      "beginCond": [
        {
          "type": "QUEST_COND_STATE_EQUAL",
          "param": [
            "300702",
            "2"
          ],
          "param_str": ""
        }
      ],
      "priority": 5,
      "initDialog": 30070101,
      "npcId": [
        12555
      ],
      "performCfg": "QuestDialogue/AQ/Sumeru1_3007/Q300701",
      "heroTalk": "TALK_HERO_MAIN",
      "questId": 3007,
      "prePerformCfg": ""
    },
    {
      "id": 300702,
      "beginWay": "TALK_BEGIN_MANUAL",
      "activeMode": "PLAY_MODE_SINGLE",
      "beginCond": [
        {
          "type": "QUEST_COND_STATE_EQUAL",
          "param": [
            "300703",
            "2"
          ],
          "param_str": ""
        }
      ],
      "priority": 5,
      "initDialog": 30070201,
      "npcId": [
        12555
      ],
      "performCfg": "QuestDialogue/AQ/Sumeru1_3007/Q300702",
      "heroTalk": "TALK_HERO_MAIN",
      "questId": 3007,
      "prePerformCfg": ""
    },
    {
      "id": 300703,
      "beginWay": "TALK_BEGIN_MANUAL",
      "activeMode": "PLAY_MODE_SINGLE",
      "beginCondComb": "LOGIC_AND",
      "beginCond": [
        {
          "type": "QUEST_COND_STATE_EQUAL",
          "param": [
            "300704",
            "2"
          ],
          "param_str": ""
        },
        {
          "type": "QUEST_COND_ITEM_GIVING_ACTIVED",
          "param": [
            "300701"
          ],
          "param_str": ""
        }
      ],
      "priority": 5,
      "initDialog": 30070301,
      "npcId": [
        12555
      ],
      "performCfg": "QuestDialogue/AQ/Sumeru1_3007/Q300703",
      "heroTalk": "TALK_HERO_MAIN",
      "questId": 3007,
      "prePerformCfg": ""
    },
    {
      "id": 300704,
      "beginWay": "TALK_BEGIN_MANUAL",
      "activeMode": "PLAY_MODE_SINGLE",
      "beginCondComb": "LOGIC_AND",
      "beginCond": [
        {
          "type": "QUEST_COND_STATE_EQUAL",
          "param": [
            "300730",
            "2"
          ],
          "param_str": ""
        },
        {
          "type": "QUEST_COND_ITEM_GIVING_FINISHED",
          "param": [
            "300701"
          ],
          "param_str": ""
        }
      ],
      "priority": 5,
      "initDialog": 30070401,
      "npcId": [
        4018
      ],
      "performCfg": "QuestDialogue/AQ/Sumeru1_3007/Q300704",
      "heroTalk": "TALK_HERO_MAIN",
      "questId": 3007,
      "prePerformCfg": ""
    },
    {
      "id": 300705,
      "beginWay": "TALK_BEGIN_MANUAL",
      "activeMode": "PLAY_MODE_SINGLE",
      "beginCond": [
        {
          "type": "QUEST_COND_STATE_EQUAL",
          "param": [
            "300706",
            "2"
          ],
          "param_str": ""
        }
      ],
      "priority": 5,
      "initDialog": 30070501,
      "npcId": [
        12555
      ],
      "performCfg": "QuestDialogue/AQ/Sumeru1_3007/Q300705",
      "heroTalk": "TALK_HERO_MAIN",
      "questId": 3007,
      "prePerformCfg": ""
    },
    {
      "id": 300706,
      "beginWay": "TALK_BEGIN_MANUAL",
      "activeMode": "PLAY_MODE_SINGLE",
      "beginCond": [
        {
          "type": "QUEST_COND_STATE_EQUAL",
          "param": [
            "300708",
            "2"
          ],
          "param_str": ""
        }
      ],
      "priority": 5,
      "initDialog": 30070601,
      "npcId": [
        12555
      ],
      "performCfg": "QuestDialogue/AQ/Sumeru1_3007/Q300706",
      "heroTalk": "TALK_HERO_MAIN",
      "questId": 3007,
      "prePerformCfg": ""
    },
    {
      "id": 300707,
      "beginWay": "TALK_BEGIN_MANUAL",
      "activeMode": "PLAY_MODE_SINGLE",
      "beginCond": [
        {
          "type": "QUEST_COND_STATE_EQUAL",
          "param": [
            "300710",
            "2"
          ],
          "param_str": ""
        }
      ],
      "priority": 5,
      "initDialog": 30070701,
      "npcId": [
        12555
      ],
      "performCfg": "QuestDialogue/AQ/Sumeru1_3007/Q300707",
      "heroTalk": "TALK_HERO_MAIN",
      "questId": 3007,
      "prePerformCfg": ""
    },
    {
      "id": 300708,
      "beginWay": "TALK_BEGIN_MANUAL",
      "activeMode": "PLAY_MODE_SINGLE",
      "beginCond": [
        {
          "type": "QUEST_COND_STATE_EQUAL",
          "param": [
            "300715",
            "2"
          ],
          "param_str": ""
        }
      ],
      "priority": 5,
      "initDialog": 30070801,
      "npcId": [
        12555
      ],
      "performCfg": "QuestDialogue/AQ/Sumeru1_3007/Q300708",
      "heroTalk": "TALK_HERO_MAIN",
      "questId": 3007,
      "prePerformCfg": ""
    },
    {
      "id": 300709,
      "beginWay": "TALK_BEGIN_MANUAL",
      "activeMode": "PLAY_MODE_SINGLE",
      "beginCond": [
        {
          "type": "QUEST_COND_STATE_EQUAL",
          "param": [
            "300712",
            "2"
          ],
          "param_str": ""
        }
      ],
      "priority": 5,
      "initDialog": 30070901,
      "npcId": [
        1054
      ],
      "performCfg": "QuestDialogue/AQ/Sumeru1_3007/Q300709",
      "heroTalk": "TALK_HERO_MAIN",
      "questId": 3007,
      "prePerformCfg": ""
    },
    {
      "id": 300710,
      "beginWay": "TALK_BEGIN_MANUAL",
      "activeMode": "PLAY_MODE_SINGLE",
      "beginCond": [
        {
          "type": "QUEST_COND_STATE_EQUAL",
          "param": [
            "300716",
            "2"
          ],
          "param_str": ""
        }
      ],
      "priority": 5,
      "initDialog": 30071001,
      "npcId": [
        1005
      ],
      "performCfg": "QuestDialogue/AQ/Sumeru1_3007/Q300710",
      "heroTalk": "TALK_HERO_MAIN",
      "questId": 3007,
      "prePerformCfg": ""
    },
    {
      "id": 300711,
      "beginWay": "TALK_BEGIN_MANUAL",
      "activeMode": "PLAY_MODE_SINGLE",
      "beginCond": [
        {
          "type": "QUEST_COND_STATE_EQUAL",
          "param": [
            "300714",
            "2"
          ],
          "param_str": ""
        }
      ],
      "priority": 5,
      "initDialog": 30071101,
      "npcId": [
        12555
      ],
      "performCfg": "QuestDialogue/AQ/Sumeru1_3007/Q300711",
      "heroTalk": "TALK_HERO_MAIN",
      "questId": 3007,
      "prePerformCfg": ""
    },
    {
      "id": 300712,
      "beginWay": "TALK_BEGIN_MANUAL",
      "activeMode": "PLAY_MODE_SINGLE",
      "beginCond": [
        {
          "type": "QUEST_COND_STATE_EQUAL",
          "param": [
            "300717",
            "2"
          ],
          "param_str": ""
        }
      ],
      "priority": 5,
      "initDialog": 30071201,
      "npcId": [
        1005
      ],
      "performCfg": "QuestDialogue/AQ/Sumeru1_3007/Q300712",
      "heroTalk": "TALK_HERO_MAIN",
      "questId": 3007,
      "prePerformCfg": ""
    },
    {
      "id": 300713,
      "beginWay": "TALK_BEGIN_MANUAL",
      "activeMode": "PLAY_MODE_SINGLE",
      "beginCondComb": "LOGIC_AND",
      "beginCond": [
        {
          "type": "QUEST_COND_STATE_EQUAL",
          "param": [
            "300705",
            "2"
          ],
          "param_str": ""
        },
        {
          "type": "QUEST_COND_ITEM_GIVING_ACTIVED",
          "param": [
            "300701"
          ],
          "param_str": ""
        }
      ],
      "priority": 5,
      "initDialog": 30071301,
      "npcId": [
        4018
      ],
      "performCfg": "QuestDialogue/AQ/Sumeru1_3007/Q300713",
      "heroTalk": "TALK_HERO_MAIN",
      "questId": 3007,
      "prePerformCfg": ""
    },
    {
      "id": 300714,
      "beginWay": "TALK_BEGIN_MANUAL",
      "activeMode": "PLAY_MODE_SINGLE",
      "beginCondComb": "LOGIC_OR",
      "beginCond": [
        {
          "type": "QUEST_COND_STATE_EQUAL",
          "param": [
            "300720",
            "2"
          ],
          "param_str": ""
        },
        {
          "type": "QUEST_COND_STATE_EQUAL",
          "param": [
            "300706",
            "2"
          ],
          "param_str": ""
        },
        {
          "type": "QUEST_COND_STATE_EQUAL",
          "param": [
            "300707",
            "2"
          ],
          "param_str": ""
        },
        {
          "type": "QUEST_COND_STATE_EQUAL",
          "param": [
            "300708",
            "2"
          ],
          "param_str": ""
        },
        {
          "type": "QUEST_COND_STATE_EQUAL",
          "param": [
            "300709",
            "2"
          ],
          "param_str": ""
        },
        {
          "type": "QUEST_COND_STATE_EQUAL",
          "param": [
            "300710",
            "2"
          ],
          "param_str": ""
        }
      ],
      "priority": 5,
      "initDialog": 30071401,
      "npcId": [
        12652
      ],
      "performCfg": "QuestDialogue/AQ/Sumeru1_3007/Q300714",
      "heroTalk": "TALK_HERO_MAIN",
      "questId": 3007,
      "prePerformCfg": "",
      "lowPriority": true
    },
    {
      "id": 300715,
      "beginWay": "TALK_BEGIN_MANUAL",
      "activeMode": "PLAY_MODE_SINGLE",
      "beginCondComb": "LOGIC_OR",
      "beginCond": [
        {
          "type": "QUEST_COND_STATE_EQUAL",
          "param": [
            "300711",
            "2"
          ],
          "param_str": ""
        },
        {
          "type": "QUEST_COND_STATE_EQUAL",
          "param": [
            "300715",
            "2"
          ],
          "param_str": ""
        },
        {
          "type": "QUEST_COND_STATE_EQUAL",
          "param": [
            "300712",
            "2"
          ],
          "param_str": ""
        },
        {
          "type": "QUEST_COND_STATE_EQUAL",
          "param": [
            "300705",
            "2"
          ],
          "param_str": ""
        },
        {
          "type": "QUEST_COND_STATE_EQUAL",
          "param": [
            "300730",
            "2"
          ],
          "param_str": ""
        }
      ],
      "priority": 5,
      "initDialog": 30071401,
      "npcId": [
        12652
      ],
      "performCfg": "QuestDialogue/AQ/Sumeru1_3007/Q300714",
      "heroTalk": "TALK_HERO_MAIN",
      "questId": 3007,
      "prePerformCfg": "",
      "lowPriority": true
    },
    {
      "id": 300716,
      "beginWay": "TALK_BEGIN_MANUAL",
      "activeMode": "PLAY_MODE_SINGLE",
      "beginCondComb": "LOGIC_OR",
      "beginCond": [
        {
          "type": "QUEST_COND_STATE_EQUAL",
          "param": [
            "300720",
            "2"
          ],
          "param_str": ""
        },
        {
          "type": "QUEST_COND_STATE_EQUAL",
          "param": [
            "300706",
            "2"
          ],
          "param_str": ""
        },
        {
          "type": "QUEST_COND_STATE_EQUAL",
          "param": [
            "300707",
            "2"
          ],
          "param_str": ""
        },
        {
          "type": "QUEST_COND_STATE_EQUAL",
          "param": [
            "300708",
            "2"
          ],
          "param_str": ""
        },
        {
          "type": "QUEST_COND_STATE_EQUAL",
          "param": [
            "300709",
            "2"
          ],
          "param_str": ""
        },
        {
          "type": "QUEST_COND_STATE_EQUAL",
          "param": [
            "300710",
            "2"
          ],
          "param_str": ""
        }
      ],
      "priority": 5,
      "initDialog": 30071601,
      "npcId": [
        4018
      ],
      "performCfg": "QuestDialogue/AQ/Sumeru1_3007/Q300716",
      "heroTalk": "TALK_HERO_MAIN",
      "questId": 3007,
      "prePerformCfg": "",
      "lowPriority": true
    },
    {
      "id": 300717,
      "beginWay": "TALK_BEGIN_MANUAL",
      "activeMode": "PLAY_MODE_SINGLE",
      "beginCondComb": "LOGIC_OR",
      "beginCond": [
        {
          "type": "QUEST_COND_STATE_EQUAL",
          "param": [
            "300711",
            "2"
          ],
          "param_str": ""
        },
        {
          "type": "QUEST_COND_STATE_EQUAL",
          "param": [
            "300715",
            "2"
          ],
          "param_str": ""
        },
        {
          "type": "QUEST_COND_STATE_EQUAL",
          "param": [
            "300712",
            "2"
          ],
          "param_str": ""
        }
      ],
      "priority": 5,
      "initDialog": 30071601,
      "npcId": [
        4018
      ],
      "performCfg": "QuestDialogue/AQ/Sumeru1_3007/Q300716",
      "heroTalk": "TALK_HERO_MAIN",
      "questId": 3007,
      "prePerformCfg": "",
      "lowPriority": true
    },
    {
      "id": 300718,
      "beginWay": "TALK_BEGIN_MANUAL",
      "activeMode": "PLAY_MODE_SINGLE",
      "beginCondComb": "LOGIC_OR",
      "beginCond": [
        {
          "type": "QUEST_COND_STATE_EQUAL",
          "param": [
            "300707",
            "2"
          ],
          "param_str": ""
        },
        {
          "type": "QUEST_COND_STATE_EQUAL",
          "param": [
            "300708",
            "2"
          ],
          "param_str": ""
        },
        {
          "type": "QUEST_COND_STATE_EQUAL",
          "param": [
            "300709",
            "2"
          ],
          "param_str": ""
        },
        {
          "type": "QUEST_COND_STATE_EQUAL",
          "param": [
            "300710",
            "2"
          ],
          "param_str": ""
        },
        {
          "type": "QUEST_COND_STATE_EQUAL",
          "param": [
            "300711",
            "2"
          ],
          "param_str": ""
        },
        {
          "type": "QUEST_COND_STATE_EQUAL",
          "param": [
            "300715",
            "2"
          ],
          "param_str": ""
        }
      ],
      "priority": 5,
      "initDialog": 30071801,
      "npcId": [
        12653
      ],
      "performCfg": "QuestDialogue/AQ/Sumeru1_3007/Q300718",
      "heroTalk": "TALK_HERO_MAIN",
      "questId": 3007,
      "prePerformCfg": "",
      "lowPriority": true
    },
    {
      "id": 300719,
      "beginWay": "TALK_BEGIN_MANUAL",
      "activeMode": "PLAY_MODE_SINGLE",
      "beginCond": [
        {
          "type": "QUEST_COND_STATE_EQUAL",
          "param": [
            "300712",
            "2"
          ],
          "param_str": ""
        }
      ],
      "priority": 5,
      "initDialog": 30071801,
      "npcId": [
        12653
      ],
      "performCfg": "QuestDialogue/AQ/Sumeru1_3007/Q300718",
      "heroTalk": "TALK_HERO_MAIN",
      "questId": 3007,
      "prePerformCfg": "",
      "lowPriority": true
    },
    {
      "id": 300720,
      "beginWay": "TALK_BEGIN_MANUAL",
      "activeMode": "PLAY_MODE_SINGLE",
      "beginCondComb": "LOGIC_OR",
      "beginCond": [
        {
          "type": "QUEST_COND_STATE_EQUAL",
          "param": [
            "300717",
            "2"
          ],
          "param_str": ""
        },
        {
          "type": "QUEST_COND_STATE_EQUAL",
          "param": [
            "300703",
            "2"
          ],
          "param_str": ""
        },
        {
          "type": "QUEST_COND_STATE_EQUAL",
          "param": [
            "300718",
            "2"
          ],
          "param_str": ""
        },
        {
          "type": "QUEST_COND_STATE_EQUAL",
          "param": [
            "300704",
            "2"
          ],
          "param_str": ""
        },
        {
          "type": "QUEST_COND_STATE_EQUAL",
          "param": [
            "300720",
            "2"
          ],
          "param_str": ""
        },
        {
          "type": "QUEST_COND_STATE_EQUAL",
          "param": [
            "300706",
            "2"
          ],
          "param_str": ""
        }
      ],
      "priority": 5,
      "initDialog": 30072001,
      "npcId": [
        12657
      ],
      "performCfg": "QuestDialogue/AQ/Sumeru1_3007/Q300720",
      "heroTalk": "TALK_HERO_MAIN",
      "questId": 3007,
      "prePerformCfg": "",
      "lowPriority": true
    },
    {
      "id": 300721,
      "beginWay": "TALK_BEGIN_MANUAL",
      "activeMode": "PLAY_MODE_SINGLE",
      "beginCondComb": "LOGIC_OR",
      "beginCond": [
        {
          "type": "QUEST_COND_STATE_EQUAL",
          "param": [
            "300711",
            "2"
          ],
          "param_str": ""
        },
        {
          "type": "QUEST_COND_STATE_EQUAL",
          "param": [
            "300715",
            "2"
          ],
          "param_str": ""
        },
        {
          "type": "QUEST_COND_STATE_EQUAL",
          "param": [
            "300707",
            "2"
          ],
          "param_str": ""
        },
        {
          "type": "QUEST_COND_STATE_EQUAL",
          "param": [
            "300708",
            "2"
          ],
          "param_str": ""
        },
        {
          "type": "QUEST_COND_STATE_EQUAL",
          "param": [
            "300709",
            "2"
          ],
          "param_str": ""
        },
        {
          "type": "QUEST_COND_STATE_EQUAL",
          "param": [
            "300710",
            "2"
          ],
          "param_str": ""
        }
      ],
      "priority": 5,
      "initDialog": 30072001,
      "npcId": [
        12657
      ],
      "performCfg": "QuestDialogue/AQ/Sumeru1_3007/Q300720",
      "heroTalk": "TALK_HERO_MAIN",
      "questId": 3007,
      "prePerformCfg": "",
      "lowPriority": true
    },
    {
      "id": 300722,
      "beginWay": "TALK_BEGIN_MANUAL",
      "activeMode": "PLAY_MODE_SINGLE",
      "beginCondComb": "LOGIC_OR",
      "beginCond": [
        {
          "type": "QUEST_COND_STATE_EQUAL",
          "param": [
            "300712",
            "2"
          ],
          "param_str": ""
        },
        {
          "type": "QUEST_COND_STATE_EQUAL",
          "param": [
            "300713",
            "2"
          ],
          "param_str": ""
        },
        {
          "type": "QUEST_COND_STATE_EQUAL",
          "param": [
            "300716",
            "2"
          ],
          "param_str": ""
        },
        {
          "type": "QUEST_COND_STATE_EQUAL",
          "param": [
            "300705",
            "2"
          ],
          "param_str": ""
        },
        {
          "type": "QUEST_COND_STATE_EQUAL",
          "param": [
            "300730",
            "2"
          ],
          "param_str": ""
        }
      ],
      "priority": 5,
      "initDialog": 30072001,
      "npcId": [
        12657
      ],
      "performCfg": "QuestDialogue/AQ/Sumeru1_3007/Q300720",
      "heroTalk": "TALK_HERO_MAIN",
      "questId": 3007,
      "prePerformCfg": "",
      "lowPriority": true
    },
    {
      "id": 300723,
      "beginWay": "TALK_BEGIN_MANUAL",
      "activeMode": "PLAY_MODE_SINGLE",
      "beginCondComb": "LOGIC_OR",
      "beginCond": [
        {
          "type": "QUEST_COND_STATE_EQUAL",
          "param": [
            "300717",
            "2"
          ],
          "param_str": ""
        },
        {
          "type": "QUEST_COND_STATE_EQUAL",
          "param": [
            "300703",
            "2"
          ],
          "param_str": ""
        },
        {
          "type": "QUEST_COND_STATE_EQUAL",
          "param": [
            "300718",
            "2"
          ],
          "param_str": ""
        },
        {
          "type": "QUEST_COND_STATE_EQUAL",
          "param": [
            "300704",
            "2"
          ],
          "param_str": ""
        },
        {
          "type": "QUEST_COND_STATE_EQUAL",
          "param": [
            "300720",
            "2"
          ],
          "param_str": ""
        },
        {
          "type": "QUEST_COND_STATE_EQUAL",
          "param": [
            "300706",
            "2"
          ],
          "param_str": ""
        }
      ],
      "priority": 5,
      "initDialog": 30072301,
      "npcId": [
        12658
      ],
      "performCfg": "QuestDialogue/AQ/Sumeru1_3007/Q300723",
      "heroTalk": "TALK_HERO_MAIN",
      "questId": 3007,
      "prePerformCfg": "",
      "lowPriority": true
    },
    {
      "id": 300724,
      "beginWay": "TALK_BEGIN_MANUAL",
      "activeMode": "PLAY_MODE_SINGLE",
      "beginCondComb": "LOGIC_OR",
      "beginCond": [
        {
          "type": "QUEST_COND_STATE_EQUAL",
          "param": [
            "300711",
            "2"
          ],
          "param_str": ""
        },
        {
          "type": "QUEST_COND_STATE_EQUAL",
          "param": [
            "300715",
            "2"
          ],
          "param_str": ""
        },
        {
          "type": "QUEST_COND_STATE_EQUAL",
          "param": [
            "300707",
            "2"
          ],
          "param_str": ""
        },
        {
          "type": "QUEST_COND_STATE_EQUAL",
          "param": [
            "300708",
            "2"
          ],
          "param_str": ""
        },
        {
          "type": "QUEST_COND_STATE_EQUAL",
          "param": [
            "300709",
            "2"
          ],
          "param_str": ""
        },
        {
          "type": "QUEST_COND_STATE_EQUAL",
          "param": [
            "300710",
            "2"
          ],
          "param_str": ""
        }
      ],
      "priority": 5,
      "initDialog": 30072301,
      "npcId": [
        12658
      ],
      "performCfg": "QuestDialogue/AQ/Sumeru1_3007/Q300723",
      "heroTalk": "TALK_HERO_MAIN",
      "questId": 3007,
      "prePerformCfg": "",
      "lowPriority": true
    },
    {
      "id": 300725,
      "beginWay": "TALK_BEGIN_MANUAL",
      "activeMode": "PLAY_MODE_SINGLE",
      "beginCondComb": "LOGIC_OR",
      "beginCond": [
        {
          "type": "QUEST_COND_STATE_EQUAL",
          "param": [
            "300712",
            "2"
          ],
          "param_str": ""
        },
        {
          "type": "QUEST_COND_STATE_EQUAL",
          "param": [
            "300713",
            "2"
          ],
          "param_str": ""
        },
        {
          "type": "QUEST_COND_STATE_EQUAL",
          "param": [
            "300716",
            "2"
          ],
          "param_str": ""
        },
        {
          "type": "QUEST_COND_STATE_EQUAL",
          "param": [
            "300705",
            "2"
          ],
          "param_str": ""
        },
        {
          "type": "QUEST_COND_STATE_EQUAL",
          "param": [
            "300730",
            "2"
          ],
          "param_str": ""
        }
      ],
      "priority": 5,
      "initDialog": 30072301,
      "npcId": [
        12658
      ],
      "performCfg": "QuestDialogue/AQ/Sumeru1_3007/Q300723",
      "heroTalk": "TALK_HERO_MAIN",
      "questId": 3007,
      "prePerformCfg": "",
      "lowPriority": true
    },
    {
      "id": 300726,
      "beginWay": "TALK_BEGIN_MANUAL",
      "activeMode": "PLAY_MODE_SINGLE",
      "beginCondComb": "LOGIC_OR",
      "beginCond": [
        {
          "type": "QUEST_COND_STATE_EQUAL",
          "param": [
            "300717",
            "2"
          ],
          "param_str": ""
        },
        {
          "type": "QUEST_COND_STATE_EQUAL",
          "param": [
            "300703",
            "2"
          ],
          "param_str": ""
        },
        {
          "type": "QUEST_COND_STATE_EQUAL",
          "param": [
            "300718",
            "2"
          ],
          "param_str": ""
        },
        {
          "type": "QUEST_COND_STATE_EQUAL",
          "param": [
            "300704",
            "2"
          ],
          "param_str": ""
        },
        {
          "type": "QUEST_COND_STATE_EQUAL",
          "param": [
            "300720",
            "2"
          ],
          "param_str": ""
        },
        {
          "type": "QUEST_COND_STATE_EQUAL",
          "param": [
            "300706",
            "2"
          ],
          "param_str": ""
        }
      ],
      "priority": 5,
      "initDialog": 30072601,
      "npcId": [
        12666
      ],
      "performCfg": "QuestDialogue/AQ/Sumeru1_3007/Q300726",
      "heroTalk": "TALK_HERO_MAIN",
      "questId": 3007,
      "prePerformCfg": "",
      "lowPriority": true
    },
    {
      "id": 300727,
      "beginWay": "TALK_BEGIN_MANUAL",
      "activeMode": "PLAY_MODE_SINGLE",
      "beginCondComb": "LOGIC_OR",
      "beginCond": [
        {
          "type": "QUEST_COND_STATE_EQUAL",
          "param": [
            "300711",
            "2"
          ],
          "param_str": ""
        },
        {
          "type": "QUEST_COND_STATE_EQUAL",
          "param": [
            "300715",
            "2"
          ],
          "param_str": ""
        },
        {
          "type": "QUEST_COND_STATE_EQUAL",
          "param": [
            "300707",
            "2"
          ],
          "param_str": ""
        },
        {
          "type": "QUEST_COND_STATE_EQUAL",
          "param": [
            "300708",
            "2"
          ],
          "param_str": ""
        },
        {
          "type": "QUEST_COND_STATE_EQUAL",
          "param": [
            "300709",
            "2"
          ],
          "param_str": ""
        },
        {
          "type": "QUEST_COND_STATE_EQUAL",
          "param": [
            "300710",
            "2"
          ],
          "param_str": ""
        }
      ],
      "priority": 5,
      "initDialog": 30072601,
      "npcId": [
        12666
      ],
      "performCfg": "QuestDialogue/AQ/Sumeru1_3007/Q300726",
      "heroTalk": "TALK_HERO_MAIN",
      "questId": 3007,
      "prePerformCfg": "",
      "lowPriority": true
    },
    {
      "id": 300728,
      "beginWay": "TALK_BEGIN_MANUAL",
      "activeMode": "PLAY_MODE_SINGLE",
      "beginCondComb": "LOGIC_OR",
      "beginCond": [
        {
          "type": "QUEST_COND_STATE_EQUAL",
          "param": [
            "300712",
            "2"
          ],
          "param_str": ""
        },
        {
          "type": "QUEST_COND_STATE_EQUAL",
          "param": [
            "300713",
            "2"
          ],
          "param_str": ""
        },
        {
          "type": "QUEST_COND_STATE_EQUAL",
          "param": [
            "300716",
            "2"
          ],
          "param_str": ""
        },
        {
          "type": "QUEST_COND_STATE_EQUAL",
          "param": [
            "300705",
            "2"
          ],
          "param_str": ""
        },
        {
          "type": "QUEST_COND_STATE_EQUAL",
          "param": [
            "300730",
            "2"
          ],
          "param_str": ""
        }
      ],
      "priority": 5,
      "initDialog": 30072601,
      "npcId": [
        12666
      ],
      "performCfg": "QuestDialogue/AQ/Sumeru1_3007/Q300726",
      "heroTalk": "TALK_HERO_MAIN",
      "questId": 3007,
      "prePerformCfg": "",
      "lowPriority": true
    }
  ]
}