{
  "id": 3025,
  "series": 1305,
  "titleTextMapHash": 2116695119,
  "descTextMapHash": 3271637494,
  "luaPath": "Actor/Quest/AQ3025",
  "suggestTrackMainQuestList": [
    3022
  ],
  "rewardIdList": [
    103025
  ],
  "chapterId": 1305,
  "subQuests": [
    {
      "mainId": 3025,
      "subId": 302501,
      "order": 1,
      "descTextMapHash": 2033948324,
      "acceptCond": [
        {
          "type": "QUEST_COND_UNKNOWN",
          "param": [
            0,
            0
          ]
        }
      ],
      "finishCond": [],
      "failCond": [],
      "guide": {
        "type": "QUEST_GUIDE_NPC",
        "param": [
          "1052"
        ],
        "guideScene": 3,
        "guideStyle": "QUEST_GUIDE_STYLE_TARGET",
        "guideLayer": "QUEST_GUIDE_LAYER_SCENE"
      },
      "finishExec": [],
      "failExec": [],
      "beginExec": []
    },
    {
      "mainId": 3025,
      "subId": 302502,
      "order": 2,
      "descTextMapHash": 601939708,
      "acceptCond": [
        {
          "type": "QUEST_COND_UNKNOWN",
          "param": [
            0,
            0
          ]
        }
      ],
      "finishCond": [],
      "failCond": [],
      "guide": {
        "type": "QUEST_GUIDE_NPC",
        "param": [
          "1050"
        ],
        "guideScene": 3,
        "guideStyle": "QUEST_GUIDE_STYLE_TARGET",
        "guideLayer": "QUEST_GUIDE_LAYER_SCENE"
      },
      "finishExec": [],
      "failExec": [],
      "beginExec": []
    },
    {
      "mainId": 3025,
      "subId": 302503,
      "order": 6,
      "descTextMapHash": 1412169620,
      "acceptCond": [
        {
          "type": "QUEST_COND_UNKNOWN",
          "param": [
            0,
            0
          ]
        }
      ],
      "finishCond": [],
      "failCond": [],
      "guide": {
        "type": "QUEST_GUIDE_LOCATION",
        "param": [
          "Q302503_T302503_N1052",
          "0"
        ],
        "guideScene": 3,
        "guideStyle": "QUEST_GUIDE_STYLE_POINT",
        "guideLayer": "QUEST_GUIDE_LAYER_SCENE"
      },
      "finishExec": [],
      "failExec": [],
      "beginExec": []
    },
    {
      "mainId": 3025,
      "subId": 302504,
      "order": 7,
      "descTextMapHash": 328176268,
      "acceptCond": [
        {
          "type": "QUEST_COND_UNKNOWN",
          "param": [
            0,
            0
          ]
        }
      ],
      "finishCond": [],
      "failCond": [],
      "guide": {
        "type": "QUEST_GUIDE_NPC",
        "param": [
          "12872"
        ],
        "guideScene": 3,
        "guideStyle": "QUEST_GUIDE_STYLE_TARGET"
      },
      "finishExec": [],
      "failExec": [],
      "beginExec": []
    },
    {
      "mainId": 3025,
      "subId": 302505,
      "order": 9,
      "descTextMapHash": 2138044420,
      "acceptCond": [
        {
          "type": "QUEST_COND_UNKNOWN",
          "param": [
            0,
            0
          ]
        }
      ],
      "finishCond": [],
      "failCond": [],
      "guide": {
        "type": "QUEST_GUIDE_NPC",
        "param": [
          "1052"
        ],
        "guideScene": 3,
        "guideStyle": "QUEST_GUIDE_STYLE_TARGET",
        "guideLayer": "QUEST_GUIDE_LAYER_SCENE"
      },
      "finishExec": [],
      "failExec": [],
      "beginExec": []
    },
    {
      "mainId": 3025,
      "subId": 302506,
      "order": 11,
      "descTextMapHash": 2012757284,
      "acceptCond": [
        {
          "type": "QUEST_COND_UNKNOWN",
          "param": [
            0,
            0
          ]
        }
      ],
      "finishCond": [],
      "failCond": [],
      "guide": {
        "type": "QUEST_GUIDE_NPC",
        "param": [
          "1050"
        ],
        "guideScene": 3,
        "guideStyle": "QUEST_GUIDE_STYLE_TARGET",
        "guideLayer": "QUEST_GUIDE_LAYER_SCENE"
      },
      "finishExec": [],
      "failExec": [],
      "beginExec": []
    },
    {
      "mainId": 3025,
      "subId": 302507,
      "order": 12,
      "descTextMapHash": 3364405676,
      "acceptCond": [
        {
          "type": "QUEST_COND_UNKNOWN",
          "param": [
            0,
            0
          ]
        }
      ],
      "finishCond": [],
      "failCond": [],
      "guide": {
        "type": "QUEST_GUIDE_LOCATION",
        "param": [
          "guide_Q302507",
          "30"
        ],
        "guideScene": 3,
        "guideStyle": "QUEST_GUIDE_STYLE_POINT",
        "guideLayer": "QUEST_GUIDE_LAYER_SCENE"
      },
      "finishExec": [],
      "failExec": [],
      "beginExec": []
    },
    {
      "mainId": 3025,
      "subId": 302508,
      "order": 13,
      "descTextMapHash": 2738604044,
      "acceptCond": [
        {
          "type": "QUEST_COND_UNKNOWN",
          "param": [
            0,
            0
          ]
        }
      ],
      "finishCond": [],
      "failCond": [],
      "guide": {
        "type": "QUEST_GUIDE_LOCATION",
        "param": [
          "Q302508_T302508_N1050",
          "0"
        ],
        "guideScene": 3,
        "guideStyle": "QUEST_GUIDE_STYLE_POINT",
        "guideLayer": "QUEST_GUIDE_LAYER_SCENE"
      },
      "finishExec": [],
      "failExec": [],
      "beginExec": []
    },
    {
      "mainId": 3025,
      "subId": 302509,
      "order": 14,
      "descTextMapHash": 3700139652,
      "acceptCond": [
        {
          "type": "QUEST_COND_UNKNOWN",
          "param": [
            0,
            0
          ]
        }
      ],
      "finishCond": [],
      "failCond": [],
      "guide": {
        "type": "QUEST_GUIDE_NPC",
        "param": [
          "1050"
        ],
        "guideScene": 3,
        "guideStyle": "QUEST_GUIDE_STYLE_TARGET",
        "guideLayer": "QUEST_GUIDE_LAYER_SCENE"
      },
      "finishExec": [],
      "failExec": [],
      "beginExec": []
    },
    {
      "mainId": 3025,
      "subId": 302510,
      "order": 15,
      "descTextMapHash": 2501669388,
      "acceptCond": [
        {
          "type": "QUEST_COND_UNKNOWN",
          "param": [
            0,
            0
          ]
        }
      ],
      "finishCond": [],
      "failCond": [],
      "guide": {
        "type": "QUEST_GUIDE_LOCATION",
        "param": [
          "Q302510_T302510_N1050",
          "0"
        ],
        "guideScene": 3,
        "guideStyle": "QUEST_GUIDE_STYLE_POINT",
        "guideLayer": "QUEST_GUIDE_LAYER_SCENE"
      },
      "finishExec": [],
      "failExec": [],
      "beginExec": []
    },
    {
      "mainId": 3025,
      "subId": 302511,
      "order": 16,
      "descTextMapHash": 1965569060,
      "acceptCond": [
        {
          "type": "QUEST_COND_UNKNOWN",
          "param": [
            0,
            0
          ]
        }
      ],
      "finishCond": [],
      "failCond": [],
      "guide": {
        "guideScene": 3
      },
      "finishExec": [],
      "failExec": [],
      "beginExec": []
    },
    {
      "mainId": 3025,
      "subId": 302512,
      "order": 17,
      "descTextMapHash": 2459808092,
      "acceptCond": [
        {
          "type": "QUEST_COND_UNKNOWN",
          "param": [
            0,
            0
          ]
        }
      ],
      "finishCond": [],
      "failCond": [],
      "guide": {
        "type": "QUEST_GUIDE_NPC",
        "param": [
          "1053"
        ],
        "guideScene": 3,
        "guideStyle": "QUEST_GUIDE_STYLE_TARGET",
        "guideLayer": "QUEST_GUIDE_LAYER_SCENE"
      },
      "finishExec": [],
      "failExec": [],
      "beginExec": []
    },
    {
      "mainId": 3025,
      "subId": 302513,
      "order": 8,
      "descTextMapHash": 2447425060,
      "acceptCond": [
        {
          "type": "QUEST_COND_UNKNOWN",
          "param": [
            0,
            0
          ]
        }
      ],
      "finishCond": [],
      "failCond": [],
      "guide": {
        "type": "QUEST_GUIDE_LOCATION",
        "param": [
          "Q302504_guide",
          "0"
        ],
        "guideScene": 3,
        "guideStyle": "QUEST_GUIDE_STYLE_POINT",
        "guideLayer": "QUEST_GUIDE_LAYER_SCENE"
      },
      "finishExec": [],
      "failExec": [],
      "beginExec": []
    },
    {
      "mainId": 3025,
      "subId": 302514,
      "order": 4,
      "descTextMapHash": 2079133060,
      "acceptCond": [
        {
          "type": "QUEST_COND_UNKNOWN",
          "param": [
            0,
            0
          ]
        }
      ],
      "finishCond": [],
      "failCond": [],
      "guide": {
        "type": "QUEST_GUIDE_NPC",
        "param": [
          "1052"
        ],
        "guideScene": 3,
        "guideStyle": "QUEST_GUIDE_STYLE_TARGET",
        "guideLayer": "QUEST_GUIDE_LAYER_SCENE"
      },
      "finishExec": [],
      "failExec": [],
      "beginExec": []
    },
    {
      "mainId": 3025,
      "subId": 302515,
      "order": 5,
      "descTextMapHash": 365870836,
      "acceptCond": [
        {
          "type": "QUEST_COND_UNKNOWN",
          "param": [
            0,
            0
          ]
        }
      ],
      "finishCond": [],
      "failCond": [],
      "guide": {
        "type": "QUEST_GUIDE_NPC",
        "param": [
          "1052"
        ],
        "guideScene": 3,
        "guideStyle": "QUEST_GUIDE_STYLE_TARGET",
        "guideLayer": "QUEST_GUIDE_LAYER_SCENE"
      },
      "finishExec": [],
      "failExec": [],
      "beginExec": []
    },
    {
      "mainId": 3025,
      "subId": 302516,
      "order": 3,
      "descTextMapHash": 3301841036,
      "acceptCond": [
        {
          "type": "QUEST_COND_UNKNOWN",
          "param": [
            0,
            0
          ]
        }
      ],
      "finishCond": [],
      "failCond": [],
      "guide": {
        "type": "QUEST_GUIDE_LOCATION",
        "param": [
          "Q302514_N1052_1",
          "0"
        ],
        "guideStyle": "QUEST_GUIDE_STYLE_POINT",
        "guideLayer": "QUEST_GUIDE_LAYER_SCENE"
      },
      "finishExec": [],
      "failExec": [],
      "beginExec": []
    },
    {
      "mainId": 3025,
      "subId": 302517,
      "order": 10,
      "showType": "QUEST_HIDDEN",
      "descTextMapHash": 173903284,
      "acceptCond": [
        {
          "type": "QUEST_COND_UNKNOWN",
          "param": [
            0,
            0
          ]
        }
      ],
      "finishCond": [],
      "failCond": [],
      "guide": {},
      "finishExec": [],
      "failExec": [],
      "beginExec": []
    }
  ],
  "talks": [
    {
      "id": 302501,
      "beginWay": "TALK_BEGIN_MANUAL",
      "activeMode": "PLAY_MODE_SINGLE",
      "beginCond": [
        {
          "type": "QUEST_COND_STATE_EQUAL",
          "param": [
            "302501",
            "2"
          ],
          "param_str": ""
        }
      ],
      "priority": 5,
      "initDialog": 30250101,
      "npcId": [
        1052
      ],
      "performCfg": "QuestDialogue/AQ/Sumeru3_3025/Q302501",
      "heroTalk": "TALK_HERO_MAIN",
      "questId": 3025,
      "prePerformCfg": "",
      "lockGameTime": true
    },
    {
      "id": 302502,
      "beginWay": "TALK_BEGIN_MANUAL",
      "activeMode": "PLAY_MODE_SINGLE",
      "beginCond": [
        {
          "type": "QUEST_COND_STATE_EQUAL",
          "param": [
            "302502",
            "2"
          ],
          "param_str": ""
        }
      ],
      "priority": 5,
      "initDialog": 30250201,
      "npcId": [
        1050,
        1052,
        12695,
        1058
      ],
      "performCfg": "QuestDialogue/AQ/Sumeru3_3025/Q302502",
      "heroTalk": "TALK_HERO_MAIN",
      "questId": 3025,
      "prePerformCfg": "",
      "lockGameTime": true
    },
    {
      "id": 302503,
      "beginWay": "TALK_BEGIN_MANUAL",
      "activeMode": "PLAY_MODE_SINGLE",
      "beginCond": [
        {
          "type": "QUEST_COND_STATE_EQUAL",
          "param": [
            "302503",
            "2"
          ],
          "param_str": ""
        }
      ],
      "priority": 5,
      "initDialog": 30250310,
      "npcId": [
        13068
      ],
      "performCfg": "QuestDialogue/AQ/Sumeru3_3025/Q302503",
      "heroTalk": "TALK_HERO_MAIN",
      "questId": 3025,
      "prePerformCfg": "",
      "lockGameTime": true
    },
    {
      "id": 302505,
      "beginWay": "TALK_BEGIN_MANUAL",
      "activeMode": "PLAY_MODE_SINGLE",
      "beginCond": [
        {
          "type": "QUEST_COND_STATE_EQUAL",
          "param": [
            "302505",
            "2"
          ],
          "param_str": ""
        }
      ],
      "priority": 5,
      "initDialog": 30250501,
      "npcId": [
        1052
      ],
      "performCfg": "QuestDialogue/AQ/Sumeru3_3025/Q302505",
      "heroTalk": "TALK_HERO_MAIN",
      "questId": 3025,
      "prePerformCfg": "",
      "lockGameTime": true
    },
    {
      "id": 302506,
      "beginWay": "TALK_BEGIN_MANUAL",
      "activeMode": "PLAY_MODE_SINGLE",
      "beginCond": [
        {
          "type": "QUEST_COND_STATE_EQUAL",
          "param": [
            "302506",
            "2"
          ],
          "param_str": ""
        }
      ],
      "priority": 5,
      "initDialog": 30250601,
      "npcId": [
        1050
      ],
      "performCfg": "QuestDialogue/AQ/Sumeru3_3025/Q302506",
      "heroTalk": "TALK_HERO_MAIN",
      "questId": 3025,
      "prePerformCfg": "",
      "lockGameTime": true
    },
    {
      "id": 302508,
      "beginWay": "TALK_BEGIN_MANUAL",
      "activeMode": "PLAY_MODE_SINGLE",
      "beginCond": [
        {
          "type": "QUEST_COND_STATE_EQUAL",
          "param": [
            "302508",
            "2"
          ],
          "param_str": ""
        }
      ],
      "priority": 5,
      "initDialog": 30250801,
      "npcId": [
        1050,
        10013
      ],
      "performCfg": "QuestDialogue/AQ/Sumeru3_3025/Q302508",
      "heroTalk": "TALK_HERO_MAIN",
      "questId": 3025,
      "prePerformCfg": "",
      "lockGameTime": true
    },
    {
      "id": 302509,
      "beginWay": "TALK_BEGIN_MANUAL",
      "activeMode": "PLAY_MODE_SINGLE",
      "beginCond": [
        {
          "type": "QUEST_COND_STATE_EQUAL",
          "param": [
            "302509",
            "2"
          ],
          "param_str": ""
        }
      ],
      "priority": 5,
      "initDialog": 30250901,
      "npcId": [
        1052,
        1050
      ],
      "performCfg": "QuestDialogue/AQ/Sumeru3_3025/Q302509",
      "heroTalk": "TALK_HERO_MAIN",
      "questId": 3025,
      "prePerformCfg": "",
      "lockGameTime": true
    },
    {
      "id": 302510,
      "beginWay": "TALK_BEGIN_MANUAL",
      "activeMode": "PLAY_MODE_SINGLE",
      "beginCond": [
        {
          "type": "QUEST_COND_STATE_EQUAL",
          "param": [
            "302510",
            "2"
          ],
          "param_str": ""
        }
      ],
      "priority": 5,
      "initDialog": 30251001,
      "npcId": [
        1050,
        1052
      ],
      "performCfg": "QuestDialogue/AQ/Sumeru3_3025/Q302510",
      "heroTalk": "TALK_HERO_MAIN",
      "questId": 3025,
      "prePerformCfg": "",
      "lockGameTime": true
    },
    {
      "id": 302512,
      "beginWay": "TALK_BEGIN_MANUAL",
      "activeMode": "PLAY_MODE_SINGLE",
      "beginCond": [
        {
          "type": "QUEST_COND_STATE_EQUAL",
          "param": [
            "302512",
            "2"
          ],
          "param_str": ""
        }
      ],
      "priority": 5,
      "initDialog": 30251201,
      "npcId": [
        1053,
        1052,
        1058,
        1054
      ],
      "performCfg": "QuestDialogue/AQ/Sumeru3_3025/Q302512",
      "heroTalk": "TALK_HERO_MAIN",
      "questId": 3025,
      "prePerformCfg": "",
      "lockGameTime": true
    },
    {
      "id": 302513,
      "beginWay": "TALK_BEGIN_MANUAL",
      "activeMode": "PLAY_MODE_SINGLE",
      "beginCondComb": "LOGIC_AND",
      "beginCond": [
        {
          "type": "QUEST_COND_STATE_EQUAL",
          "param": [
            "302502",
            "3"
          ],
          "param_str": ""
        },
        {
          "type": "QUEST_COND_QUEST_NOT_RECEIVE",
          "param": [
            "302506",
            "1"
          ],
          "param_str": ""
        }
      ],
      "priority": 3,
      "initDialog": 30251301,
      "npcId": [
        1050
      ],
      "performCfg": "QuestDialogue/AQ/Sumeru3_3025/Q302513",
      "questId": 3025,
      "prePerformCfg": ""
    },
    {
      "id": 302514,
      "beginWay": "TALK_BEGIN_MANUAL",
      "activeMode": "PLAY_MODE_SINGLE",
      "beginCondComb": "LOGIC_OR",
      "beginCond": [
        {
          "type": "QUEST_COND_STATE_EQUAL",
          "param": [
            "302511",
            "2"
          ],
          "param_str": ""
        },
        {
          "type": "QUEST_COND_STATE_EQUAL",
          "param": [
            "302512",
            "2"
          ],
          "param_str": ""
        }
      ],
      "initDialog": 30251401,
      "npcId": [
        1050
      ],
      "performCfg": "QuestDialogue/AQ/Sumeru3_3025/Q302514",
      "heroTalk": "TALK_HERO_MAIN",
      "questId": 3025,
      "prePerformCfg": ""
    },
    {
      "id": 302515,
      "beginWay": "TALK_BEGIN_MANUAL",
      "activeMode": "PLAY_MODE_SINGLE",
      "beginCond": [
        {
          "type": "QUEST_COND_STATE_EQUAL",
          "param": [
            "302515",
            "2"
          ],
          "param_str": ""
        }
      ],
      "priority": 5,
      "initDialog": 30251501,
      "npcId": [
        1052
      ],
      "performCfg": "QuestDialogue/AQ/Sumeru3_3025/Q302515",
      "heroTalk": "TALK_HERO_MAIN",
      "questId": 3025,
      "prePerformCfg": "",
      "lockGameTime": true
    },
    {
      "id": 302516,
      "beginWay": "TALK_BEGIN_MANUAL",
      "activeMode": "PLAY_MODE_SINGLE",
      "beginCond": [
        {
          "type": "QUEST_COND_STATE_EQUAL",
          "param": [
            "302516",
            "2"
          ],
          "param_str": ""
        }
      ],
      "priority": 5,
      "initDialog": 30250305,
      "npcId": [
        1052
      ],
      "performCfg": "QuestDialogue/AQ/Sumeru3_3025/Q302516",
      "questId": 3025,
      "prePerformCfg": "",
      "lockGameTime": true
    }
  ]
}