{
  "id": 312,
  "series": 1001,
  "titleTextMapHash": 4282850473,
  "descTextMapHash": 3355009551,
  "luaPath": "",
  "showType": "QUEST_HIDDEN",
  "rewardIdList": [
    100312
  ],
  "subQuests": [
    {
      "subId": 31201,
      "mainId": 312,
      "order": 1,
      "descTextMapHash": 2839501271,
      "showType": "QUEST_HIDDEN",
      "acceptCond": [
        {
          "type": "QUEST_COND_STATE_EQUAL",
          "param": [
            30803,
            3,
            0
          ],
          "param_str": ""
        }
      ],
      "finishCondComb": "LOGIC_OR",
      "finishCond": [
        {
          "type": "QUEST_CONTENT_COMPLETE_TALK",
          "param": [
            30814,
            0
          ],
          "param_str": ""
        },
        {
          "type": "QUEST_CONTENT_ENTER_MY_WORLD",
          "param": [
            3,
            0
          ],
          "param_str": ""
        }
      ],
      "failCond": [],
      "guide": {
        "type": "QUEST_GUIDE_NPC",
        "param": [
          "1005"
        ],
        "guideScene": 3,
        "guideStyle": "QUEST_GUIDE_STYLE_TARGET",
        "guideLayer": "QUEST_GUIDE_LAYER_SCENE"
      },
      "finishParent": true,
      "isRewind": true,
      "finishExec": [],
      "failExec": [],
      "beginExec": []
    }
  ]
}