{
  "id": 357,
  "series": 1001,
  "titleTextMapHash": 4246098801,
  "descTextMapHash": 863921743,
  "luaPath": "Actor/Quest/AQ357",
  "suggestTrackMainQuestList": [
    358
  ],
  "rewardIdList": [
    100357
  ],
  "chapterId": 1001,
  "subQuests": [
    {
      "subId": 35721,
      "mainId": 357,
      "order": 1,
      "descTextMapHash": 401722951,
      "showType": "QUEST_HIDDEN",
      "acceptCond": [
        {
          "type": "QUEST_COND_STATE_EQUAL",
          "param": [
            35606,
            3,
            0
          ],
          "param_str": ""
        }
      ],
      "finishCond": [
        {
          "type": "QUEST_CONTENT_ENTER_DUNGEON",
          "param": [
            2004,
            67
          ],
          "param_str": ""
        }
      ],
      "failCond": [],
      "guide": {
        "param": []
      },
      "isRewind": true,
      "finishExec": [],
      "failExec": [],
      "beginExec": []
    },
    {
      "subId": 35722,
      "mainId": 357,
      "order": 2,
      "descTextMapHash": 3668563551,
      "banType": "BAN_GROUP_TRANSPORT_MAP",
      "acceptCond": [
        {
          "type": "QUEST_COND_STATE_EQUAL",
          "param": [
            35721,
            3,
            0
          ],
          "param_str": ""
        }
      ],
      "finishCond": [
        {
          "type": "QUEST_CONTENT_LUA_NOTIFY",
          "param": [
            0,
            0
          ],
          "param_str": "220020001",
          "count": 1
        }
      ],
      "failCond": [
        {
          "type": "QUEST_CONTENT_ENTER_MY_WORLD",
          "param": [
            3
          ],
          "param_str": ""
        }
      ],
      "guide": {
        "param": []
      },
      "isRewind": true,
      "finishExec": [
        {
          "type": "QUEST_EXEC_SET_IS_GAME_TIME_LOCKED",
          "param": [
            "0"
          ],
          "param_str": ""
        }
      ],
      "failExec": [
        {
          "type": "QUEST_EXEC_ROLLBACK_QUEST",
          "param": [
            "35721"
          ],
          "param_str": ""
        }
      ],
      "beginExec": []
    },
    {
      "subId": 35725,
      "mainId": 357,
      "order": 3,
      "descTextMapHash": 1903335655,
      "showType": "QUEST_HIDDEN",
      "acceptCond": [
        {
          "type": "QUEST_COND_STATE_EQUAL",
          "param": [
            35722,
            3,
            0
          ],
          "param_str": ""
        }
      ],
      "finishCond": [
        {
          "type": "QUEST_CONTENT_ENTER_MY_WORLD",
          "param": [
            3,
            0
          ],
          "param_str": ""
        }
      ],
      "failCond": [],
      "guide": {
        "param": []
      },
      "isRewind": true,
      "finishExec": [],
      "failExec": [],
      "beginExec": []
    },
    {
      "subId": 35723,
      "mainId": 357,
      "order": 4,
      "descTextMapHash": 2746556759,
      "showType": "QUEST_HIDDEN",
      "acceptCond": [
        {
          "type": "QUEST_COND_STATE_EQUAL",
          "param": [
            35725,
            3,
            0
          ],
          "param_str": ""
        }
      ],
      "finishCond": [
        {
          "type": "QUEST_CONTENT_COMPLETE_TALK",
          "param": [
            35723,
            0
          ],
          "param_str": ""
        }
      ],
      "failCond": [],
      "guide": {
        "param": []
      },
      "isRewind": true,
      "finishExec": [],
      "failExec": [],
      "beginExec": []
    },
    {
      "subId": 35724,
      "mainId": 357,
      "order": 5,
      "descTextMapHash": 3082111767,
      "acceptCond": [
        {
          "type": "QUEST_COND_STATE_EQUAL",
          "param": [
            35723,
            3,
            0
          ],
          "param_str": ""
        }
      ],
      "finishCond": [
        {
          "type": "QUEST_CONTENT_TRIGGER_FIRE",
          "param": [
            1039,
            0
          ],
          "param_str": ""
        }
      ],
      "failCond": [],
      "guide": {
        "type": "QUEST_GUIDE_LOCATION",
        "param": [
          "QuestKnighthood"
        ],
        "guideScene": 3
      },
      "finishParent": true,
      "isRewind": true,
      "finishExec": [],
      "failExec": [],
      "beginExec": []
    }
  ],
  "talks": [
    {
      "id": 35723,
      "beginWay": "TALK_BEGIN_MANUAL",
      "activeMode": "PLAY_MODE_SINGLE",
      "beginCond": [
        {
          "type": "QUEST_COND_STATE_EQUAL",
          "param": [
            "35723",
            "2"
          ],
          "param_str": ""
        }
      ],
      "priority": 5,
      "initDialog": 3572301,
      "npcId": [
        1002
      ],
      "performCfg": "QuestDialogue/AQ/Mengde1_357/Q35723",
      "heroTalk": "TALK_HERO_MAIN",
      "questId": 357,
      "prePerformCfg": ""
    }
  ]
}