{
  "id": 40039,
  "type": "EQ",
  "titleTextMapHash": 404101471,
  "descTextMapHash": 3887162270,
  "luaPath": "Actor/Quest/EQ40039",
  "rewardIdList": [
    140039
  ],
  "chapterId": 10056,
  "subQuests": [
    {
      "subId": 4003901,
      "mainId": 40039,
      "order": 1,
      "descTextMapHash": 3942799124,
      "acceptCond": [
        {
          "type": "QUEST_COND_ACTIVITY_COND",
          "param": [
            2010401,
            1,
            0,
            0,
            0
          ],
          "param_str": ""
        }
      ],
      "finishCondComb": "LOGIC_OR",
      "finishCond": [
        {
          "type": "QUEST_CONTENT_ENTER_ROOM",
          "param": [
            1057,
            0
          ],
          "param_str": ""
        },
        {
          "type": "QUEST_CONTENT_FINISH_PLOT",
          "param": [
            4003901,
            0
          ],
          "param_str": ""
        }
      ],
      "failCond": [],
      "guide": {
        "type": "QUEST_GUIDE_LOCATION",
        "param": [
          "Q4003901_N10211",
          "10"
        ],
        "guideScene": 1057,
        "guideStyle": "QUEST_GUIDE_STYLE_TARGET",
        "guideLayer": "QUEST_GUIDE_LAYER_SCENE"
      },
      "isRewind": true,
      "finishExec": [],
      "failExec": [],
      "beginExec": [
        {
          "type": "QUEST_EXEC_REFRESH_GROUP_SUITE",
          "param": [
            "1057",
            "201057005,1"
          ],
          "param_str": ""
        }
      ],
      "exclusiveNpcList": [
        10211
      ],
      "exclusiveNpcPriority": 1050
    },
    {
      "subId": 4003902,
      "mainId": 40039,
      "order": 2,
      "descTextMapHash": 2312470980,
      "acceptCond": [
        {
          "type": "QUEST_COND_STATE_EQUAL",
          "param": [
            4003901,
            3,
            0,
            0,
            0
          ],
          "param_str": ""
        }
      ],
      "finishCond": [
        {
          "type": "QUEST_CONTENT_COMPLETE_TALK",
          "param": [
            4003902,
            0
          ],
          "param_str": ""
        }
      ],
      "failCond": [],
      "guide": {
        "type": "QUEST_GUIDE_NPC",
        "param": [
          "10211"
        ],
        "guideScene": 1057,
        "guideStyle": "QUEST_GUIDE_STYLE_TARGET",
        "guideLayer": "QUEST_GUIDE_LAYER_SCENE"
      },
      "isRewind": true,
      "finishExec": [],
      "failExec": [],
      "beginExec": [
        {
          "type": "QUEST_EXEC_REFRESH_GROUP_SUITE",
          "param": [
            "1057",
            "201057005,1"
          ],
          "param_str": ""
        }
      ],
      "exclusiveNpcList": [
        10211
      ],
      "exclusiveNpcPriority": 1050
    },
    {
      "subId": 4003903,
      "mainId": 40039,
      "order": 3,
      "descTextMapHash": 4171391468,
      "acceptCond": [
        {
          "type": "QUEST_COND_STATE_EQUAL",
          "param": [
            4003902,
            3,
            0,
            0,
            0
          ],
          "param_str": ""
        }
      ],
      "finishCond": [
        {
          "type": "QUEST_CONTENT_FINISH_PLOT",
          "param": [
            4003903,
            0
          ],
          "param_str": ""
        }
      ],
      "failCond": [],
      "guide": {
        "type": "QUEST_GUIDE_LOCATION",
        "param": [
          "Q4003903_N1031_311300036",
          "10"
        ],
        "guideScene": 3,
        "guideStyle": "QUEST_GUIDE_STYLE_TARGET",
        "guideLayer": "QUEST_GUIDE_LAYER_SCENE"
      },
      "isRewind": true,
      "finishExec": [],
      "failExec": [],
      "beginExec": [
        {
          "type": "QUEST_EXEC_REFRESH_GROUP_SUITE",
          "param": [
            "1057",
            "201057005,1"
          ],
          "param_str": ""
        }
      ],
      "exclusiveNpcList": [
        10211,
        1031,
        1042,
        2433,
        2434,
        2437
      ],
      "exclusiveNpcPriority": 1050,
      "exclusivePlaceList": [
        309
      ]
    },
    {
      "subId": 4003904,
      "mainId": 40039,
      "order": 4,
      "descTextMapHash": 3351152556,
      "acceptCond": [
        {
          "type": "QUEST_COND_STATE_EQUAL",
          "param": [
            4003903,
            3,
            0,
            0,
            0
          ],
          "param_str": ""
        }
      ],
      "finishCond": [
        {
          "type": "QUEST_CONTENT_COMPLETE_TALK",
          "param": [
            4003904,
            0
          ],
          "param_str": ""
        }
      ],
      "failCond": [],
      "guide": {
        "type": "QUEST_GUIDE_NPC",
        "param": [
          "1031"
        ],
        "guideScene": 3,
        "guideStyle": "QUEST_GUIDE_STYLE_TARGET",
        "guideLayer": "QUEST_GUIDE_LAYER_SCENE"
      },
      "isRewind": true,
      "finishExec": [],
      "failExec": [],
      "beginExec": [],
      "exclusiveNpcList": [
        1031,
        1042,
        2433,
        2434,
        2437
      ],
      "exclusiveNpcPriority": 1050,
      "exclusivePlaceList": [
        309
      ]
    },
    {
      "subId": 4003905,
      "mainId": 40039,
      "order": 6,
      "descTextMapHash": 1402230460,
      "acceptCondComb": "LOGIC_A_OR_ETCAND",
      "acceptCond": [
        {
          "type": "QUEST_COND_STATE_EQUAL",
          "param": [
            4003922,
            3,
            0,
            0,
            0
          ],
          "param_str": ""
        },
        {
          "type": "QUEST_COND_STATE_EQUAL",
          "param": [
            4003904,
            3,
            0,
            0,
            0
          ],
          "param_str": ""
        },
        {
          "type": "QUEST_COND_QUEST_VAR_EQUAL",
          "param": [
            1,
            0,
            0,
            0,
            0
          ],
          "param_str": ""
        }
      ],
      "finishCond": [
        {
          "type": "QUEST_CONTENT_ENTER_VEHICLE",
          "param": [
            45001001,
            0
          ],
          "param_str": ""
        }
      ],
      "failCond": [
        {
          "type": "QUEST_CONTENT_NOT_FINISH_PLOT",
          "param": [
            4003905,
            0
          ],
          "param_str": ""
        }
      ],
      "guide": {
        "type": "QUEST_GUIDE_LOCATION",
        "param": [
          "Q40039boat"
        ],
        "guideScene": 3,
        "guideStyle": "QUEST_GUIDE_STYLE_TARGET",
        "guideLayer": "QUEST_GUIDE_LAYER_SCENE"
      },
      "isRewind": true,
      "finishExec": [
        {
          "type": "QUEST_EXEC_SET_QUEST_VAR",
          "param": [
            "1",
            "0"
          ],
          "param_str": ""
        }
      ],
      "failExec": [
        {
          "type": "QUEST_EXEC_SET_QUEST_VAR",
          "param": [
            "1",
            "1"
          ],
          "param_str": ""
        },
        {
          "type": "QUEST_EXEC_ROLLBACK_QUEST",
          "param": [
            "4003922"
          ],
          "param_str": ""
        }
      ],
      "beginExec": [],
      "exclusiveNpcList": [
        2433,
        2434,
        2437
      ],
      "exclusiveNpcPriority": 1050,
      "exclusivePlaceList": [
        309
      ]
    },
    {
      "subId": 4003906,
      "mainId": 40039,
      "order": 10,
      "isMpBlock": true,
      "descTextMapHash": 1032399228,
      "acceptCond": [
        {
          "type": "QUEST_COND_STATE_EQUAL",
          "param": [
            4003915,
            3,
            0,
            0,
            0
          ],
          "param_str": ""
        }
      ],
      "finishCondComb": "LOGIC_OR",
      "finishCond": [
        {
          "type": "QUEST_CONTENT_QUEST_STATE_EQUAL",
          "param": [
            4003921,
            3
          ],
          "param_str": ""
        },
        {
          "type": "QUEST_CONTENT_LUA_NOTIFY",
          "param": [
            0,
            0
          ],
          "param_str": "13310819601",
          "count": 1
        },
        {
          "type": "QUEST_CONTENT_LUA_NOTIFY",
          "param": [
            0,
            0
          ],
          "param_str": "13310819603",
          "count": 1
        }
      ],
      "failCond": [],
      "guide": {
        "type": "QUEST_GUIDE_LOCATION",
        "param": [
          "Q4003906_311300037"
        ],
        "guideScene": 3,
        "guideStyle": "QUEST_GUIDE_STYLE_POINT",
        "guideLayer": "QUEST_GUIDE_LAYER_SCENE"
      },
      "isRewind": true,
      "finishExec": [],
      "failExec": [],
      "beginExec": [
        {
          "type": "QUEST_EXEC_REGISTER_DYNAMIC_GROUP_ONLY",
          "param": [
            "133108196"
          ],
          "param_str": ""
        },
        {
          "type": "QUEST_EXEC_NOTIFY_GROUP_LUA",
          "param": [
            "3",
            "133108196"
          ],
          "param_str": ""
        },
        {
          "type": "QUEST_EXEC_REGISTER_DYNAMIC_GROUP_ONLY",
          "param": [
            "133108199"
          ],
          "param_str": ""
        }
      ],
      "exclusivePlaceList": [
        309
      ]
    },
    {
      "subId": 4003907,
      "mainId": 40039,
      "order": 11,
      "isMpBlock": true,
      "descTextMapHash": 3197705004,
      "acceptCondComb": "LOGIC_AND",
      "acceptCond": [
        {
          "type": "QUEST_COND_STATE_EQUAL",
          "param": [
            4003906,
            3,
            0,
            0,
            0
          ],
          "param_str": ""
        },
        {
          "type": "QUEST_COND_STATE_EQUAL",
          "param": [
            4003921,
            2,
            0,
            0,
            0
          ],
          "param_str": ""
        }
      ],
      "finishCondComb": "LOGIC_OR",
      "finishCond": [
        {
          "type": "QUEST_CONTENT_LUA_NOTIFY",
          "param": [
            0,
            0
          ],
          "param_str": "13310819601",
          "count": 1
        },
        {
          "type": "QUEST_CONTENT_QUEST_STATE_EQUAL",
          "param": [
            4003921,
            3
          ],
          "param_str": ""
        }
      ],
      "failCond": [],
      "guide": {
        "type": "QUEST_GUIDE_LOCATION",
        "param": [
          "Q4003906_311300037",
          "30"
        ],
        "guideScene": 3,
        "guideStyle": "QUEST_GUIDE_STYLE_TARGET",
        "guideLayer": "QUEST_GUIDE_LAYER_SCENE"
      },
      "finishExec": [],
      "failExec": [],
      "beginExec": [
        {
          "type": "QUEST_EXEC_REGISTER_DYNAMIC_GROUP_ONLY",
          "param": [
            "133108196"
          ],
          "param_str": ""
        },
        {
          "type": "QUEST_EXEC_REGISTER_DYNAMIC_GROUP_ONLY",
          "param": [
            "133108199"
          ],
          "param_str": ""
        }
      ],
      "exclusivePlaceList": [
        309
      ]
    },
    {
      "subId": 4003908,
      "mainId": 40039,
      "order": 13,
      "isMpBlock": true,
      "descTextMapHash": 351921628,
      "acceptCondComb": "LOGIC_OR",
      "acceptCond": [
        {
          "type": "QUEST_COND_STATE_EQUAL",
          "param": [
            4003907,
            3,
            0,
            0,
            0
          ],
          "param_str": ""
        },
        {
          "type": "QUEST_COND_STATE_EQUAL",
          "param": [
            4003921,
            3,
            0,
            0,
            0
          ],
          "param_str": ""
        }
      ],
      "finishCond": [
        {
          "type": "QUEST_CONTENT_COMPLETE_TALK",
          "param": [
            4003908,
            0
          ],
          "param_str": ""
        }
      ],
      "failCond": [],
      "guide": {
        "type": "QUEST_GUIDE_NPC",
        "param": [
          "30086"
        ],
        "guideScene": 3,
        "guideStyle": "QUEST_GUIDE_STYLE_TARGET",
        "guideLayer": "QUEST_GUIDE_LAYER_SCENE"
      },
      "isRewind": true,
      "finishExec": [],
      "failExec": [],
      "beginExec": [
        {
          "type": "QUEST_EXEC_REGISTER_DYNAMIC_GROUP_ONLY",
          "param": [
            "133108196"
          ],
          "param_str": ""
        },
        {
          "type": "QUEST_EXEC_REGISTER_DYNAMIC_GROUP_ONLY",
          "param": [
            "133108199"
          ],
          "param_str": ""
        }
      ],
      "exclusiveNpcList": [
        1031,
        30086,
        1042,
        30101,
        30134
      ],
      "exclusiveNpcPriority": 1050,
      "exclusivePlaceList": [
        309
      ]
    },
    {
      "subId": 4003909,
      "mainId": 40039,
      "order": 17,
      "subIdSet": 2,
      "isMpBlock": true,
      "descTextMapHash": 2226189964,
      "acceptCond": [
        {
          "type": "QUEST_COND_STATE_EQUAL",
          "param": [
            4003918,
            3,
            0,
            0,
            0
          ],
          "param_str": ""
        }
      ],
      "finishCond": [
        {
          "type": "QUEST_CONTENT_LUA_NOTIFY",
          "param": [
            0,
            0
          ],
          "param_str": "13310820001",
          "count": 3
        }
      ],
      "failCond": [],
      "guide": {
        "type": "QUEST_GUIDE_LOCATION",
        "param": [
          "Q4003909_311300038",
          "20"
        ],
        "guideScene": 3,
        "guideStyle": "QUEST_GUIDE_STYLE_TARGET",
        "guideLayer": "QUEST_GUIDE_LAYER_SCENE"
      },
      "isRewind": true,
      "finishExec": [
        {
          "type": "QUEST_EXEC_UNREGISTER_DYNAMIC_GROUP",
          "param": [
            "133108200"
          ],
          "param_str": ""
        }
      ],
      "failExec": [],
      "beginExec": [
        {
          "type": "QUEST_EXEC_REGISTER_DYNAMIC_GROUP_ONLY",
          "param": [
            "133108196"
          ],
          "param_str": ""
        },
        {
          "type": "QUEST_EXEC_REGISTER_DYNAMIC_GROUP",
          "param": [
            "3",
            "133108200"
          ],
          "param_str": ""
        },
        {
          "type": "QUEST_EXEC_REGISTER_DYNAMIC_GROUP_ONLY",
          "param": [
            "133108199"
          ],
          "param_str": ""
        }
      ],
      "exclusivePlaceList": [
        309
      ]
    },
    {
      "subId": 4003910,
      "mainId": 40039,
      "order": 8,
      "isMpBlock": true,
      "descTextMapHash": 1658649612,
      "acceptCond": [
        {
          "type": "QUEST_COND_STATE_EQUAL",
          "param": [
            4003917,
            3,
            0,
            0,
            0
          ],
          "param_str": ""
        }
      ],
      "finishCond": [
        {
          "type": "QUEST_CONTENT_LUA_NOTIFY",
          "param": [
            0,
            0
          ],
          "param_str": "133108199",
          "count": 1
        }
      ],
      "failCond": [],
      "guide": {
        "type": "QUEST_GUIDE_LOCATION",
        "param": [
          "Q4003905_guide_311300039",
          "20"
        ],
        "guideScene": 3,
        "guideStyle": "QUEST_GUIDE_STYLE_TARGET",
        "guideLayer": "QUEST_GUIDE_LAYER_SCENE"
      },
      "isRewind": true,
      "finishExec": [],
      "failExec": [],
      "beginExec": [
        {
          "type": "QUEST_EXEC_REGISTER_DYNAMIC_GROUP_ONLY",
          "param": [
            "133108199"
          ],
          "param_str": ""
        },
        {
          "type": "QUEST_EXEC_REGISTER_DYNAMIC_GROUP_ONLY",
          "param": [
            "133108196"
          ],
          "param_str": ""
        }
      ],
      "exclusiveNpcList": [
        2433,
        2434,
        2437
      ],
      "exclusiveNpcPriority": 1050,
      "exclusivePlaceList": [
        309
      ]
    },
    {
      "subId": 4003911,
      "mainId": 40039,
      "order": 20,
      "descTextMapHash": 2752421884,
      "acceptCond": [
        {
          "type": "QUEST_COND_STATE_EQUAL",
          "param": [
            4003920,
            3,
            0,
            0,
            0
          ],
          "param_str": ""
        }
      ],
      "finishCond": [
        {
          "type": "QUEST_CONTENT_COMPLETE_TALK",
          "param": [
            4003911,
            0
          ],
          "param_str": ""
        }
      ],
      "failCond": [],
      "guide": {
        "type": "QUEST_GUIDE_LOCATION",
        "param": [
          "Q4003910_N30087",
          "20"
        ],
        "guideScene": 3,
        "guideStyle": "QUEST_GUIDE_STYLE_TARGET",
        "guideLayer": "QUEST_GUIDE_LAYER_SCENE"
      },
      "isRewind": true,
      "finishExec": [
        {
          "type": "QUEST_EXEC_GRANT_TRIAL_AVATAR",
          "param": [
            "34"
          ],
          "param_str": ""
        }
      ],
      "failExec": [],
      "beginExec": [
        {
          "type": "QUEST_EXEC_REGISTER_DYNAMIC_GROUP",
          "param": [
            "3",
            "133108197"
          ],
          "param_str": ""
        },
        {
          "type": "QUEST_EXEC_REGISTER_DYNAMIC_GROUP_ONLY",
          "param": [
            "133108196"
          ],
          "param_str": ""
        },
        {
          "type": "QUEST_EXEC_REGISTER_DYNAMIC_GROUP_ONLY",
          "param": [
            "133108199"
          ],
          "param_str": ""
        }
      ],
      "exclusiveNpcList": [
        1031,
        30087,
        1042,
        30101,
        30109,
        30111
      ],
      "exclusiveNpcPriority": 1050,
      "exclusivePlaceList": [
        309,
        40039
      ]
    },
    {
      "subId": 4003912,
      "mainId": 40039,
      "order": 25,
      "descTextMapHash": 2357752284,
      "acceptCond": [
        {
          "type": "QUEST_COND_STATE_EQUAL",
          "param": [
            4003914,
            3,
            0,
            0,
            0
          ],
          "param_str": ""
        }
      ],
      "finishCond": [
        {
          "type": "QUEST_CONTENT_COMPLETE_TALK",
          "param": [
            4003912,
            0
          ],
          "param_str": ""
        }
      ],
      "failCond": [],
      "guide": {
        "type": "QUEST_GUIDE_NPC",
        "param": [
          "10211"
        ],
        "guideScene": 1057,
        "guideStyle": "QUEST_GUIDE_STYLE_TARGET",
        "guideLayer": "QUEST_GUIDE_LAYER_SCENE"
      },
      "finishParent": true,
      "isRewind": true,
      "finishExec": [
        {
          "type": "QUEST_EXEC_SET_QUEST_GLOBAL_VAR",
          "param": [
            "40039",
            "1"
          ],
          "param_str": ""
        },
        {
          "type": "QUEST_EXEC_UNREGISTER_DYNAMIC_GROUP",
          "param": [
            "133108197"
          ],
          "param_str": ""
        }
      ],
      "failExec": [],
      "beginExec": [
        {
          "type": "QUEST_EXEC_REFRESH_GROUP_SUITE",
          "param": [
            "1057",
            "201057005,1"
          ],
          "param_str": ""
        },
        {
          "type": "QUEST_EXEC_REGISTER_DYNAMIC_GROUP_ONLY",
          "param": [
            "133108197"
          ],
          "param_str": ""
        }
      ],
      "exclusiveNpcList": [
        10211,
        1031,
        1042
      ],
      "exclusiveNpcPriority": 1050,
      "exclusivePlaceList": [
        309,
        40039
      ]
    },
    {
      "subId": 4003913,
      "mainId": 40039,
      "order": 21,
      "isMpBlock": true,
      "descTextMapHash": 1131258420,
      "acceptCond": [
        {
          "type": "QUEST_COND_STATE_EQUAL",
          "param": [
            4003911,
            3,
            0,
            0,
            0
          ],
          "param_str": ""
        }
      ],
      "finishCond": [
        {
          "type": "QUEST_CONTENT_LUA_NOTIFY",
          "param": [
            0,
            0
          ],
          "param_str": "133108197",
          "count": 1
        }
      ],
      "failCondComb": "LOGIC_OR",
      "failCond": [
        {
          "type": "QUEST_CONTENT_LEAVE_SCENE_RANGE",
          "param": [
            3,
            80
          ],
          "param_str": "Q4003910_N30087"
        },
        {
          "type": "QUEST_CONTENT_TEAM_DEAD",
          "param": [
            0,
            0
          ],
          "param_str": ""
        },
        {
          "type": "QUEST_CONTENT_ANY_MANUAL_TRANSPORT",
          "param": [
            0,
            0
          ],
          "param_str": ""
        }
      ],
      "guide": {
        "type": "QUEST_GUIDE_LOCATION",
        "param": [
          "Q4003910_N30087",
          "20"
        ],
        "guideScene": 3,
        "guideStyle": "QUEST_GUIDE_STYLE_TARGET",
        "guideLayer": "QUEST_GUIDE_LAYER_SCENE"
      },
      "finishExec": [
        {
          "type": "QUEST_EXEC_REMOVE_TRIAL_AVATAR",
          "param": [
            "34"
          ],
          "param_str": ""
        }
      ],
      "failExec": [
        {
          "type": "QUEST_EXEC_REMOVE_TRIAL_AVATAR",
          "param": [
            "34"
          ],
          "param_str": ""
        },
        {
          "type": "QUEST_EXEC_ROLLBACK_QUEST",
          "param": [
            "4003911"
          ],
          "param_str": ""
        },
        {
          "type": "QUEST_EXEC_UNREGISTER_DYNAMIC_GROUP",
          "param": [
            "133108197"
          ],
          "param_str": ""
        }
      ],
      "beginExec": [
        {
          "type": "QUEST_EXEC_REGISTER_DYNAMIC_GROUP_ONLY",
          "param": [
            "133108197"
          ],
          "param_str": ""
        },
        {
          "type": "QUEST_EXEC_NOTIFY_GROUP_LUA",
          "param": [
            "3",
            "133108197"
          ],
          "param_str": ""
        },
        {
          "type": "QUEST_EXEC_REGISTER_DYNAMIC_GROUP_ONLY",
          "param": [
            "133108196"
          ],
          "param_str": ""
        },
        {
          "type": "QUEST_EXEC_REGISTER_DYNAMIC_GROUP_ONLY",
          "param": [
            "133108199"
          ],
          "param_str": ""
        }
      ],
      "trialAvatarList": [
        34
      ],
      "exclusivePlaceList": [
        309,
        40039
      ]
    },
    {
      "subId": 4003914,
      "mainId": 40039,
      "order": 24,
      "descTextMapHash": 3378130836,
      "acceptCond": [
        {
          "type": "QUEST_COND_STATE_EQUAL",
          "param": [
            4003913,
            3,
            0,
            0,
            0
          ],
          "param_str": ""
        }
      ],
      "finishCond": [
        {
          "type": "QUEST_CONTENT_COMPLETE_TALK",
          "param": [
            4003914,
            0
          ],
          "param_str": ""
        }
      ],
      "failCond": [],
      "guide": {
        "type": "QUEST_GUIDE_NPC",
        "param": [
          "1031"
        ],
        "guideScene": 3,
        "guideStyle": "QUEST_GUIDE_STYLE_TARGET",
        "guideLayer": "QUEST_GUIDE_LAYER_SCENE"
      },
      "isRewind": true,
      "finishExec": [
        {
          "type": "QUEST_EXEC_UNREGISTER_DYNAMIC_GROUP",
          "param": [
            "133108196",
            "1"
          ],
          "param_str": ""
        },
        {
          "type": "QUEST_EXEC_UNREGISTER_DYNAMIC_GROUP",
          "param": [
            "133108199"
          ],
          "param_str": ""
        }
      ],
      "failExec": [],
      "beginExec": [
        {
          "type": "QUEST_EXEC_REGISTER_DYNAMIC_GROUP_ONLY",
          "param": [
            "133108197"
          ],
          "param_str": ""
        },
        {
          "type": "QUEST_EXEC_REGISTER_DYNAMIC_GROUP_ONLY",
          "param": [
            "133108196"
          ],
          "param_str": ""
        },
        {
          "type": "QUEST_EXEC_REGISTER_DYNAMIC_GROUP_ONLY",
          "param": [
            "133108199"
          ],
          "param_str": ""
        }
      ],
      "exclusiveNpcList": [
        1031,
        1042
      ],
      "exclusiveNpcPriority": 1050,
      "exclusivePlaceList": [
        309,
        40039
      ]
    },
    {
      "subId": 4003915,
      "mainId": 40039,
      "order": 9,
      "isMpBlock": true,
      "descTextMapHash": 1010989044,
      "acceptCond": [
        {
          "type": "QUEST_COND_STATE_EQUAL",
          "param": [
            4003910,
            3,
            0,
            0,
            0
          ],
          "param_str": ""
        }
      ],
      "finishCond": [
        {
          "type": "QUEST_CONTENT_COMPLETE_TALK",
          "param": [
            4003915,
            0
          ],
          "param_str": ""
        }
      ],
      "failCond": [],
      "guide": {
        "type": "QUEST_GUIDE_NPC",
        "param": [
          "1031"
        ],
        "guideScene": 3,
        "guideStyle": "QUEST_GUIDE_STYLE_TARGET",
        "guideLayer": "QUEST_GUIDE_LAYER_SCENE"
      },
      "isRewind": true,
      "finishExec": [],
      "failExec": [],
      "beginExec": [
        {
          "type": "QUEST_EXEC_REGISTER_DYNAMIC_GROUP_ONLY",
          "param": [
            "133108199"
          ],
          "param_str": ""
        },
        {
          "type": "QUEST_EXEC_REGISTER_DYNAMIC_GROUP_ONLY",
          "param": [
            "133108196"
          ],
          "param_str": ""
        }
      ],
      "exclusiveNpcList": [
        1031,
        1042,
        30101,
        30134,
        30135,
        30136,
        2433,
        2434,
        2437
      ],
      "exclusiveNpcPriority": 1050,
      "exclusivePlaceList": [
        309
      ]
    },
    {
      "subId": 4003916,
      "mainId": 40039,
      "order": 14,
      "subIdSet": 1,
      "isMpBlock": true,
      "descTextMapHash": 1360752956,
      "acceptCond": [
        {
          "type": "QUEST_COND_STATE_EQUAL",
          "param": [
            4003908,
            3,
            0,
            0,
            0
          ],
          "param_str": ""
        }
      ],
      "finishCond": [
        {
          "type": "QUEST_CONTENT_LUA_NOTIFY",
          "param": [
            0,
            0
          ],
          "param_str": "13310819602",
          "count": 3
        }
      ],
      "failCond": [],
      "guide": {
        "type": "QUEST_GUIDE_LOCATION",
        "param": [
          "T4003908_N1042",
          "30"
        ],
        "guideScene": 3,
        "guideStyle": "QUEST_GUIDE_STYLE_TARGET",
        "guideLayer": "QUEST_GUIDE_LAYER_SCENE"
      },
      "isRewind": true,
      "finishExec": [],
      "failExec": [],
      "beginExec": [
        {
          "type": "QUEST_EXEC_REGISTER_DYNAMIC_GROUP",
          "param": [
            "3",
            "133108196"
          ],
          "param_str": ""
        },
        {
          "type": "QUEST_EXEC_NOTIFY_GROUP_LUA",
          "param": [
            "3",
            "133108196"
          ],
          "param_str": ""
        },
        {
          "type": "QUEST_EXEC_REGISTER_DYNAMIC_GROUP_ONLY",
          "param": [
            "133108199"
          ],
          "param_str": ""
        }
      ],
      "exclusivePlaceList": [
        309
      ]
    },
    {
      "subId": 4003917,
      "mainId": 40039,
      "order": 7,
      "isMpBlock": true,
      "descTextMapHash": 1951349788,
      "acceptCond": [
        {
          "type": "QUEST_COND_STATE_EQUAL",
          "param": [
            4003905,
            3,
            0,
            0,
            0
          ],
          "param_str": ""
        }
      ],
      "finishCond": [
        {
          "type": "QUEST_CONTENT_FINISH_PLOT",
          "param": [
            4003917,
            0
          ],
          "param_str": ""
        }
      ],
      "failCond": [],
      "guide": {
        "type": "QUEST_GUIDE_LOCATION",
        "param": [
          "Q4003905_guide_311300039",
          "20"
        ],
        "guideScene": 3,
        "guideStyle": "QUEST_GUIDE_STYLE_TARGET",
        "guideLayer": "QUEST_GUIDE_LAYER_SCENE"
      },
      "isRewind": true,
      "finishExec": [],
      "failExec": [],
      "beginExec": [
        {
          "type": "QUEST_EXEC_REGISTER_DYNAMIC_GROUP",
          "param": [
            "3",
            "133108199"
          ],
          "param_str": ""
        },
        {
          "type": "QUEST_EXEC_REGISTER_DYNAMIC_GROUP",
          "param": [
            "3",
            "133108196"
          ],
          "param_str": ""
        }
      ],
      "exclusiveNpcList": [
        2433,
        2434,
        2437
      ],
      "exclusiveNpcPriority": 1050,
      "exclusivePlaceList": [
        309
      ]
    },
    {
      "subId": 4003918,
      "mainId": 40039,
      "order": 16,
      "isMpBlock": true,
      "descTextMapHash": 3607143060,
      "acceptCond": [
        {
          "type": "QUEST_COND_STATE_EQUAL",
          "param": [
            4003916,
            3,
            0,
            0,
            0
          ],
          "param_str": ""
        }
      ],
      "finishCondComb": "LOGIC_OR",
      "finishCond": [
        {
          "type": "QUEST_CONTENT_ENTER_VEHICLE",
          "param": [
            45001001,
            0
          ],
          "param_str": ""
        },
        {
          "type": "QUEST_CONTENT_FINISH_PLOT",
          "param": [
            4003918,
            0
          ],
          "param_str": ""
        }
      ],
      "failCondComb": "LOGIC_OR",
      "failCond": [],
      "guide": {
        "type": "QUEST_GUIDE_LOCATION",
        "param": [
          "Q4003909_311300038",
          "20"
        ],
        "guideScene": 3,
        "guideStyle": "QUEST_GUIDE_STYLE_TARGET",
        "guideLayer": "QUEST_GUIDE_LAYER_SCENE"
      },
      "isRewind": true,
      "finishExec": [
        {
          "type": "QUEST_EXEC_NOTIFY_GROUP_LUA",
          "param": [
            "3",
            "133108196"
          ],
          "param_str": ""
        }
      ],
      "failExec": [],
      "beginExec": [
        {
          "type": "QUEST_EXEC_REGISTER_DYNAMIC_GROUP_ONLY",
          "param": [
            "133108196"
          ],
          "param_str": ""
        },
        {
          "type": "QUEST_EXEC_REGISTER_DYNAMIC_GROUP_ONLY",
          "param": [
            "133108199"
          ],
          "param_str": ""
        },
        {
          "type": "QUEST_EXEC_NOTIFY_GROUP_LUA",
          "param": [
            "3",
            "133108196"
          ],
          "param_str": ""
        }
      ],
      "exclusivePlaceList": [
        309
      ]
    },
    {
      "subId": 4003919,
      "mainId": 40039,
      "order": 18,
      "subIdSet": 3,
      "isMpBlock": true,
      "descTextMapHash": 471978348,
      "acceptCond": [
        {
          "type": "QUEST_COND_STATE_EQUAL",
          "param": [
            4003909,
            3,
            0,
            0,
            0
          ],
          "param_str": ""
        }
      ],
      "finishCond": [
        {
          "type": "QUEST_CONTENT_LUA_NOTIFY",
          "param": [
            0,
            0
          ],
          "param_str": "13310820002",
          "count": 3
        }
      ],
      "failCond": [],
      "guide": {
        "type": "QUEST_GUIDE_LOCATION",
        "param": [
          "Q4003919guide",
          "20"
        ],
        "guideScene": 3,
        "guideStyle": "QUEST_GUIDE_STYLE_TARGET",
        "guideLayer": "QUEST_GUIDE_LAYER_SCENE"
      },
      "isRewind": true,
      "finishExec": [
        {
          "type": "QUEST_EXEC_UNREGISTER_DYNAMIC_GROUP",
          "param": [
            "133108257"
          ],
          "param_str": ""
        }
      ],
      "failExec": [],
      "beginExec": [
        {
          "type": "QUEST_EXEC_REGISTER_DYNAMIC_GROUP_ONLY",
          "param": [
            "133108196"
          ],
          "param_str": ""
        },
        {
          "type": "QUEST_EXEC_REGISTER_DYNAMIC_GROUP_ONLY",
          "param": [
            "133108199"
          ],
          "param_str": ""
        },
        {
          "type": "QUEST_EXEC_REGISTER_DYNAMIC_GROUP",
          "param": [
            "3",
            "133108257"
          ],
          "param_str": ""
        }
      ],
      "exclusivePlaceList": [
        309
      ]
    },
    {
      "subId": 4003920,
      "mainId": 40039,
      "order": 19,
      "subIdSet": 4,
      "isMpBlock": true,
      "descTextMapHash": 3994632548,
      "acceptCond": [
        {
          "type": "QUEST_COND_STATE_EQUAL",
          "param": [
            4003919,
            3,
            0,
            0,
            0
          ],
          "param_str": ""
        }
      ],
      "finishCond": [
        {
          "type": "QUEST_CONTENT_LUA_NOTIFY",
          "param": [
            0,
            0
          ],
          "param_str": "13310820003",
          "count": 2
        }
      ],
      "failCond": [],
      "guide": {
        "type": "QUEST_GUIDE_LOCATION",
        "param": [
          "Q4003910_guide",
          "20"
        ],
        "guideScene": 3,
        "guideStyle": "QUEST_GUIDE_STYLE_TARGET",
        "guideLayer": "QUEST_GUIDE_LAYER_SCENE"
      },
      "isRewind": true,
      "finishExec": [
        {
          "type": "QUEST_EXEC_UNREGISTER_DYNAMIC_GROUP",
          "param": [
            "133108258",
            "1"
          ],
          "param_str": ""
        }
      ],
      "failExec": [],
      "beginExec": [
        {
          "type": "QUEST_EXEC_REGISTER_DYNAMIC_GROUP_ONLY",
          "param": [
            "133108196"
          ],
          "param_str": ""
        },
        {
          "type": "QUEST_EXEC_REGISTER_DYNAMIC_GROUP_ONLY",
          "param": [
            "133108199"
          ],
          "param_str": ""
        },
        {
          "type": "QUEST_EXEC_REGISTER_DYNAMIC_GROUP",
          "param": [
            "3",
            "133108258"
          ],
          "param_str": ""
        }
      ],
      "exclusivePlaceList": [
        309
      ]
    },
    {
      "subId": 4003921,
      "mainId": 40039,
      "order": 12,
      "isMpBlock": true,
      "descTextMapHash": 3901536660,
      "showType": "QUEST_HIDDEN",
      "acceptCond": [
        {
          "type": "QUEST_COND_STATE_EQUAL",
          "param": [
            4003915,
            3,
            0,
            0,
            0
          ],
          "param_str": ""
        }
      ],
      "finishCond": [
        {
          "type": "QUEST_CONTENT_LUA_NOTIFY",
          "param": [
            0,
            0
          ],
          "param_str": "13310819601",
          "count": 1
        }
      ],
      "failCond": [],
      "guide": {
        "param": []
      },
      "showGuide": "QUEST_GUIDE_ITEM_DISABLE",
      "finishExec": [],
      "failExec": [],
      "beginExec": [
        {
          "type": "QUEST_EXEC_REGISTER_DYNAMIC_GROUP_ONLY",
          "param": [
            "133108196"
          ],
          "param_str": ""
        },
        {
          "type": "QUEST_EXEC_REGISTER_DYNAMIC_GROUP_ONLY",
          "param": [
            "133108199"
          ],
          "param_str": ""
        }
      ]
    },
    {
      "subId": 4003922,
      "mainId": 40039,
      "order": 5,
      "descTextMapHash": 1772747036,
      "acceptCond": [
        {
          "type": "QUEST_COND_QUEST_VAR_EQUAL",
          "param": [
            1,
            1,
            0,
            0,
            0
          ],
          "param_str": ""
        }
      ],
      "finishCond": [
        {
          "type": "QUEST_CONTENT_FINISH_PLOT",
          "param": [
            4003922,
            0
          ],
          "param_str": ""
        }
      ],
      "failCond": [],
      "guide": {
        "type": "QUEST_GUIDE_LOCATION",
        "param": [
          "Q40039boat"
        ],
        "guideScene": 3,
        "guideStyle": "QUEST_GUIDE_STYLE_TARGET",
        "guideLayer": "QUEST_GUIDE_LAYER_SCENE"
      },
      "isRewind": true,
      "finishExec": [],
      "failExec": [],
      "beginExec": [],
      "exclusiveNpcList": [
        2433,
        2434,
        2437
      ],
      "exclusiveNpcPriority": 1050,
      "exclusivePlaceList": [
        309
      ]
    },
    {
      "subId": 4003923,
      "mainId": 40039,
      "order": 15,
      "descTextMapHash": 2096514948,
      "showType": "QUEST_HIDDEN",
      "acceptCond": [
        {
          "type": "QUEST_COND_STATE_EQUAL",
          "param": [
            99902,
            3,
            0,
            0,
            0
          ],
          "param_str": ""
        }
      ],
      "finishCond": [],
      "failCond": [],
      "guide": {
        "param": [],
        "guideScene": 3,
        "guideStyle": "QUEST_GUIDE_STYLE_TARGET",
        "guideLayer": "QUEST_GUIDE_LAYER_SCENE"
      },
      "showGuide": "QUEST_GUIDE_ITEM_DISABLE",
      "finishExec": [],
      "failExec": [],
      "beginExec": []
    },
    {
      "subId": 4003924,
      "mainId": 40039,
      "order": 22,
      "descTextMapHash": 2070650500,
      "showType": "QUEST_HIDDEN",
      "acceptCond": [
        {
          "type": "QUEST_COND_STATE_EQUAL",
          "param": [
            4003911,
            3,
            0,
            0,
            0
          ],
          "param_str": ""
        }
      ],
      "finishCond": [
        {
          "type": "QUEST_CONTENT_LUA_NOTIFY",
          "param": [
            0,
            0
          ],
          "param_str": "13310819701",
          "count": 1
        }
      ],
      "failCond": [],
      "guide": {
        "param": []
      },
      "showGuide": "QUEST_GUIDE_ITEM_DISABLE",
      "finishExec": [],
      "failExec": [],
      "beginExec": []
    },
    {
      "subId": 4003925,
      "mainId": 40039,
      "order": 23,
      "descTextMapHash": 750772420,
      "showType": "QUEST_HIDDEN",
      "acceptCond": [
        {
          "type": "QUEST_COND_STATE_EQUAL",
          "param": [
            4003911,
            3,
            0,
            0,
            0
          ],
          "param_str": ""
        }
      ],
      "finishCond": [
        {
          "type": "QUEST_CONTENT_FINISH_PLOT",
          "param": [
            4003925,
            0
          ],
          "param_str": ""
        }
      ],
      "failCond": [],
      "guide": {
        "param": []
      },
      "showGuide": "QUEST_GUIDE_ITEM_DISABLE",
      "finishExec": [
        {
          "type": "QUEST_EXEC_NOTIFY_GROUP_LUA",
          "param": [
            "3",
            "133108197"
          ],
          "param_str": ""
        }
      ],
      "failExec": [],
      "beginExec": []
    }
  ],
  "talks": [
    {
      "id": 4003901,
      "beginWay": "TALK_BEGIN_MANUAL",
      "activeMode": "PLAY_MODE_SINGLE",
      "beginCondComb": "LOGIC_OR",
      "beginCond": [
        {
          "type": "QUEST_COND_STATE_EQUAL",
          "param": [
            "4003903",
            "2"
          ],
          "param_str": ""
        },
        {
          "type": "QUEST_COND_STATE_EQUAL",
          "param": [
            "4003904",
            "2"
          ],
          "param_str": ""
        }
      ],
      "priority": 5,
      "initDialog": 400390101,
      "npcId": [
        10211
      ],
      "performCfg": "QuestDialogue/EQ/Ver2.4Sealamp_40039/Q4003901",
      "questId": 40039,
      "prePerformCfg": ""
    },
    {
      "id": 4003902,
      "beginWay": "TALK_BEGIN_MANUAL",
      "activeMode": "PLAY_MODE_SINGLE",
      "beginCond": [
        {
          "type": "QUEST_COND_STATE_EQUAL",
          "param": [
            "4003902",
            "2"
          ],
          "param_str": ""
        }
      ],
      "priority": 5,
      "initDialog": 400390201,
      "npcId": [
        10211
      ],
      "performCfg": "QuestDialogue/EQ/Ver2.4Sealamp_40039/Q4003902",
      "questId": 40039,
      "prePerformCfg": ""
    },
    {
      "id": 4003904,
      "beginWay": "TALK_BEGIN_MANUAL",
      "activeMode": "PLAY_MODE_SINGLE",
      "beginCond": [
        {
          "type": "QUEST_COND_STATE_EQUAL",
          "param": [
            "4003904",
            "2"
          ],
          "param_str": ""
        }
      ],
      "priority": 5,
      "initDialog": 400390401,
      "npcId": [
        1031,
        1042
      ],
      "performCfg": "QuestDialogue/EQ/Ver2.4Sealamp_40039/Q4003904",
      "questId": 40039,
      "prePerformCfg": ""
    },
    {
      "id": 4003908,
      "beginWay": "TALK_BEGIN_MANUAL",
      "activeMode": "PLAY_MODE_SINGLE",
      "beginCond": [
        {
          "type": "QUEST_COND_STATE_EQUAL",
          "param": [
            "4003908",
            "2"
          ],
          "param_str": ""
        }
      ],
      "priority": 5,
      "initDialog": 400390801,
      "npcId": [
        30086
      ],
      "performCfg": "QuestDialogue/EQ/Ver2.4Sealamp_40039/Q4003908",
      "questId": 40039,
      "prePerformCfg": ""
    },
    {
      "id": 4003911,
      "beginWay": "TALK_BEGIN_MANUAL",
      "activeMode": "PLAY_MODE_SINGLE",
      "beginCond": [
        {
          "type": "QUEST_COND_STATE_EQUAL",
          "param": [
            "4003911",
            "2"
          ],
          "param_str": ""
        }
      ],
      "priority": 5,
      "initDialog": 400391101,
      "npcId": [
        30087
      ],
      "performCfg": "QuestDialogue/EQ/Ver2.4Sealamp_40039/Q4003911",
      "questId": 40039,
      "prePerformCfg": ""
    },
    {
      "id": 4003912,
      "beginWay": "TALK_BEGIN_MANUAL",
      "activeMode": "PLAY_MODE_SINGLE",
      "beginCond": [
        {
          "type": "QUEST_COND_STATE_EQUAL",
          "param": [
            "4003912",
            "2"
          ],
          "param_str": ""
        }
      ],
      "priority": 5,
      "initDialog": 400391201,
      "npcId": [
        10211
      ],
      "performCfg": "QuestDialogue/EQ/Ver2.4Sealamp_40039/Q4003912",
      "questId": 40039,
      "prePerformCfg": ""
    },
    {
      "id": 4003914,
      "beginWay": "TALK_BEGIN_MANUAL",
      "activeMode": "PLAY_MODE_SINGLE",
      "beginCond": [
        {
          "type": "QUEST_COND_STATE_EQUAL",
          "param": [
            "4003914",
            "2"
          ],
          "param_str": ""
        }
      ],
      "priority": 5,
      "initDialog": 400391401,
      "npcId": [
        1031
      ],
      "performCfg": "QuestDialogue/EQ/Ver2.4Sealamp_40039/Q4003914",
      "questId": 40039,
      "prePerformCfg": ""
    },
    {
      "id": 4003915,
      "beginWay": "TALK_BEGIN_MANUAL",
      "activeMode": "PLAY_MODE_SINGLE",
      "beginCond": [
        {
          "type": "QUEST_COND_STATE_EQUAL",
          "param": [
            "4003915",
            "2"
          ],
          "param_str": ""
        }
      ],
      "priority": 5,
      "initDialog": 400391501,
      "npcId": [
        1031
      ],
      "performCfg": "QuestDialogue/EQ/Ver2.4Sealamp_40039/Q4003915",
      "questId": 40039,
      "prePerformCfg": ""
    },
    {
      "id": 4003916,
      "beginWay": "TALK_BEGIN_MANUAL",
      "activeMode": "PLAY_MODE_SINGLE",
      "beginCond": [
        {
          "type": "QUEST_COND_STATE_EQUAL",
          "param": [
            "4003912",
            "2"
          ],
          "param_str": ""
        }
      ],
      "priority": 5,
      "initDialog": 400391601,
      "npcId": [
        1031
      ],
      "performCfg": "QuestDialogue/EQ/Ver2.4Sealamp_40039/Q4003916",
      "questId": 40039,
      "prePerformCfg": ""
    },
    {
      "id": 4003917,
      "beginWay": "TALK_BEGIN_MANUAL",
      "activeMode": "PLAY_MODE_SINGLE",
      "beginCond": [
        {
          "type": "QUEST_COND_STATE_EQUAL",
          "param": [
            "4003912",
            "2"
          ],
          "param_str": ""
        }
      ],
      "priority": 5,
      "initDialog": 400391701,
      "npcId": [
        1042
      ],
      "performCfg": "QuestDialogue/EQ/Ver2.4Sealamp_40039/Q4003917",
      "questId": 40039,
      "prePerformCfg": ""
    }
  ]
}