{
  "id": 40038,
  "type": "EQ",
  "series": 40035,
  "titleTextMapHash": 2475325031,
  "descTextMapHash": 3332540958,
  "luaPath": "Actor/Quest/EQ40038",
  "showType": "QUEST_HIDDEN",
  "subQuests": [
    {
      "subId": 4003801,
      "mainId": 40038,
      "order": 1,
      "descTextMapHash": 2885904516,
      "showType": "QUEST_HIDDEN",
      "acceptCond": [
        {
          "type": "QUEST_COND_STATE_EQUAL",
          "param": [
            4003507,
            3,
            0,
            0,
            0
          ],
          "param_str": ""
        }
      ],
      "finishCond": [
        {
          "type": "QUEST_CONTENT_FINISH_PLOT",
          "param": [
            4003801,
            0
          ],
          "param_str": ""
        }
      ],
      "failCond": [],
      "guide": {
        "param": [],
        "guideScene": 3,
        "guideStyle": "QUEST_GUIDE_STYLE_TARGET",
        "guideLayer": "QUEST_GUIDE_LAYER_SCENE"
      },
      "showGuide": "QUEST_GUIDE_ITEM_DISABLE",
      "finishParent": true,
      "isRewind": true,
      "finishExec": [],
      "failExec": [],
      "beginExec": []
    }
  ],
  "talks": [
    {
      "id": 4003801,
      "beginWay": "TALK_BEGIN_MANUAL",
      "activeMode": "PLAY_MODE_HOST",
      "beginCond": [
        {
          "type": "QUEST_COND_STATE_EQUAL",
          "param": [
            "4003801",
            "2"
          ],
          "param_str": ""
        }
      ],
      "priority": 5,
      "initDialog": 400380101,
      "npcId": [
        10232
      ],
      "performCfg": "QuestDialogue/EQ/Ver2.4Sealamp_40038/Q4003801",
      "questId": 40038,
      "prePerformCfg": "",
      "lockGameTime": true
    }
  ]
}