{
  "id": 40042,
  "type": "EQ",
  "titleTextMapHash": 1237826743,
  "descTextMapHash": 478586566,
  "luaPath": "Actor/Quest/EQ40042",
  "showType": "QUEST_HIDDEN",
  "rewardIdList": [
    140042
  ],
  "subQuests": [
    {
      "subId": 4004201,
      "mainId": 40042,
      "order": 1,
      "descTextMapHash": 884650340,
      "showType": "QUEST_HIDDEN",
      "acceptCond": [
        {
          "type": "QUEST_COND_STATE_EQUAL",
          "param": [
            4002206,
            3,
            0,
            0,
            0
          ],
          "param_str": ""
        }
      ],
      "finishCond": [
        {
          "type": "QUEST_CONTENT_GAME_TIME_TICK",
          "param": [
            0,
            0
          ],
          "param_str": "0,24"
        }
      ],
      "failCond": [],
      "guide": {
        "param": []
      },
      "finishParent": true,
      "finishExec": [],
      "failExec": [],
      "beginExec": []
    }
  ]
}