{
  "id": 40093,
  "type": "EQ",
  "series": 40092,
  "titleTextMapHash": 9103135,
  "descTextMapHash": 3792937470,
  "luaPath": "Actor/Quest/EQ40093",
  "suggestTrackMainQuestList": [
    40096
  ],
  "rewardIdList": [
    140093
  ],
  "chapterId": 10109,
  "subQuests": [
    {
      "mainId": 40093,
      "subId": 4009301,
      "order": 1,
      "descTextMapHash": 2413883196,
      "acceptCond": [
        {
          "type": "QUEST_COND_UNKNOWN",
          "param": [
            0,
            0
          ]
        }
      ],
      "finishCond": [],
      "failCond": [],
      "guide": {},
      "finishExec": [],
      "failExec": [],
      "beginExec": []
    },
    {
      "mainId": 40093,
      "subId": 4009302,
      "order": 2,
      "descTextMapHash": 2541216876,
      "acceptCond": [
        {
          "type": "QUEST_COND_UNKNOWN",
          "param": [
            0,
            0
          ]
        }
      ],
      "finishCond": [],
      "failCond": [],
      "guide": {
        "type": "QUEST_GUIDE_NPC",
        "param": [
          "1015"
        ],
        "guideScene": 3,
        "guideStyle": "QUEST_GUIDE_STYLE_TARGET",
        "guideLayer": "QUEST_GUIDE_LAYER_SCENE"
      },
      "finishExec": [],
      "failExec": [],
      "beginExec": []
    },
    {
      "mainId": 40093,
      "subId": 4009303,
      "order": 3,
      "descTextMapHash": 2544335596,
      "acceptCond": [
        {
          "type": "QUEST_COND_UNKNOWN",
          "param": [
            0,
            0
          ]
        }
      ],
      "finishCond": [],
      "failCond": [],
      "guide": {
        "type": "QUEST_GUIDE_LOCATION",
        "param": [
          "Q4009303_T4009303_N1015"
        ],
        "guideScene": 3,
        "guideStyle": "QUEST_GUIDE_STYLE_POINT",
        "guideLayer": "QUEST_GUIDE_LAYER_SCENE"
      },
      "finishExec": [],
      "failExec": [],
      "beginExec": []
    },
    {
      "mainId": 40093,
      "subId": 4009304,
      "order": 4,
      "descTextMapHash": 1816757244,
      "acceptCond": [
        {
          "type": "QUEST_COND_UNKNOWN",
          "param": [
            0,
            0
          ]
        }
      ],
      "finishCond": [],
      "failCond": [],
      "guide": {
        "type": "QUEST_GUIDE_LOCATION",
        "autoGuide": "QUEST_GUIDE_AUTO_ENABLE",
        "param": [
          "Q4009304_T4009304_N10000005",
          "20"
        ],
        "guideScene": 3,
        "guideStyle": "QUEST_GUIDE_STYLE_TARGET",
        "guideLayer": "QUEST_GUIDE_LAYER_SCENE"
      },
      "finishExec": [],
      "failExec": [],
      "beginExec": []
    },
    {
      "mainId": 40093,
      "subId": 4009305,
      "order": 5,
      "descTextMapHash": 1297353860,
      "acceptCond": [
        {
          "type": "QUEST_COND_UNKNOWN",
          "param": [
            0,
            0
          ]
        }
      ],
      "finishCond": [],
      "failCond": [],
      "guide": {
        "type": "QUEST_GUIDE_LOCATION",
        "param": [
          "Q4009305_T4009305_N1045"
        ],
        "guideScene": 3,
        "guideStyle": "QUEST_GUIDE_STYLE_POINT",
        "guideLayer": "QUEST_GUIDE_LAYER_SCENE"
      },
      "finishExec": [],
      "failExec": [],
      "beginExec": []
    },
    {
      "mainId": 40093,
      "subId": 4009306,
      "order": 6,
      "descTextMapHash": 3712254116,
      "acceptCond": [
        {
          "type": "QUEST_COND_UNKNOWN",
          "param": [
            0,
            0
          ]
        }
      ],
      "finishCond": [],
      "failCond": [],
      "guide": {
        "type": "QUEST_GUIDE_LOCATION",
        "param": [
          "Q4009306_T4009306_N10000005"
        ],
        "guideScene": 3,
        "guideStyle": "QUEST_GUIDE_STYLE_POINT",
        "guideLayer": "QUEST_GUIDE_LAYER_SCENE"
      },
      "finishExec": [],
      "failExec": [],
      "beginExec": []
    },
    {
      "mainId": 40093,
      "subId": 4009307,
      "order": 7,
      "descTextMapHash": 3234677444,
      "acceptCond": [
        {
          "type": "QUEST_COND_UNKNOWN",
          "param": [
            0,
            0
          ]
        }
      ],
      "finishCond": [],
      "failCond": [],
      "guide": {
        "type": "QUEST_GUIDE_NPC",
        "param": [
          "2093"
        ],
        "guideScene": 3,
        "guideStyle": "QUEST_GUIDE_STYLE_TARGET",
        "guideLayer": "QUEST_GUIDE_LAYER_SCENE"
      },
      "finishExec": [],
      "failExec": [],
      "beginExec": []
    },
    {
      "mainId": 40093,
      "subId": 4009308,
      "order": 8,
      "descTextMapHash": 1353346436,
      "acceptCond": [
        {
          "type": "QUEST_COND_UNKNOWN",
          "param": [
            0,
            0
          ]
        }
      ],
      "finishCond": [],
      "failCond": [],
      "guide": {
        "type": "QUEST_GUIDE_NPC",
        "param": [
          "12966"
        ],
        "guideScene": 3,
        "guideStyle": "QUEST_GUIDE_STYLE_TARGET",
        "guideLayer": "QUEST_GUIDE_LAYER_SCENE"
      },
      "finishExec": [],
      "failExec": [],
      "beginExec": []
    },
    {
      "mainId": 40093,
      "subId": 4009309,
      "order": 9,
      "descTextMapHash": 4257460724,
      "acceptCond": [
        {
          "type": "QUEST_COND_UNKNOWN",
          "param": [
            0,
            0
          ]
        }
      ],
      "finishCond": [],
      "failCond": [],
      "guide": {
        "type": "QUEST_GUIDE_NPC",
        "param": [
          "1042"
        ],
        "guideScene": 3,
        "guideStyle": "QUEST_GUIDE_STYLE_TARGET",
        "guideLayer": "QUEST_GUIDE_LAYER_SCENE"
      },
      "finishExec": [],
      "failExec": [],
      "beginExec": []
    },
    {
      "mainId": 40093,
      "subId": 4009310,
      "order": 10,
      "descTextMapHash": 2827536892,
      "acceptCond": [
        {
          "type": "QUEST_COND_UNKNOWN",
          "param": [
            0,
            0
          ]
        }
      ],
      "finishCond": [],
      "failCond": [],
      "guide": {
        "type": "QUEST_GUIDE_LOCATION",
        "param": [
          "Q4009310_T4009310_N10286",
          "20"
        ],
        "guideScene": 3,
        "guideStyle": "QUEST_GUIDE_STYLE_TARGET",
        "guideLayer": "QUEST_GUIDE_LAYER_SCENE"
      },
      "finishExec": [],
      "failExec": [],
      "beginExec": []
    },
    {
      "mainId": 40093,
      "subId": 4009311,
      "order": 11,
      "descTextMapHash": 715117780,
      "acceptCond": [
        {
          "type": "QUEST_COND_UNKNOWN",
          "param": [
            0,
            0
          ]
        }
      ],
      "finishCond": [],
      "failCond": [],
      "guide": {
        "type": "QUEST_GUIDE_LOCATION",
        "param": [
          "Q4009311_T4009311_N1016"
        ],
        "guideScene": 3,
        "guideStyle": "QUEST_GUIDE_STYLE_POINT",
        "guideLayer": "QUEST_GUIDE_LAYER_SCENE"
      },
      "finishExec": [],
      "failExec": [],
      "beginExec": []
    }
  ],
  "talks": [
    {
      "id": 4009302,
      "beginWay": "TALK_BEGIN_MANUAL",
      "activeMode": "PLAY_MODE_SINGLE",
      "beginCond": [
        {
          "type": "QUEST_COND_STATE_EQUAL",
          "param": [
            "4009302",
            "2"
          ],
          "param_str": ""
        }
      ],
      "priority": 5,
      "initDialog": 400930201,
      "npcId": [
        1015
      ],
      "performCfg": "QuestDialogue/EQ/Sealamp3_40093/Q4009302",
      "heroTalk": "TALK_HERO_MAIN",
      "questId": 40093,
      "prePerformCfg": ""
    },
    {
      "id": 4009303,
      "beginWay": "TALK_BEGIN_MANUAL",
      "activeMode": "PLAY_MODE_SINGLE",
      "beginCond": [
        {
          "type": "QUEST_COND_STATE_EQUAL",
          "param": [
            "4009303",
            "2"
          ],
          "param_str": ""
        }
      ],
      "priority": 5,
      "initDialog": 400930301,
      "npcId": [
        1015
      ],
      "performCfg": "QuestDialogue/EQ/Sealamp3_40093/Q4009303",
      "heroTalk": "TALK_HERO_MAIN",
      "questId": 40093,
      "prePerformCfg": ""
    },
    {
      "id": 4009304,
      "beginWay": "TALK_BEGIN_AUTO",
      "activeMode": "PLAY_MODE_SINGLE",
      "beginCond": [
        {
          "type": "QUEST_COND_STATE_EQUAL",
          "param": [
            "4009304",
            "2"
          ],
          "param_str": ""
        }
      ],
      "priority": 5,
      "initDialog": 400930401,
      "npcId": [
        10204,
        1045,
        13097
      ],
      "performCfg": "QuestDialogue/EQ/Sealamp3_40093/Q4009304",
      "heroTalk": "TALK_HERO_MAIN",
      "questId": 40093,
      "prePerformCfg": ""
    },
    {
      "id": 4009305,
      "beginWay": "TALK_BEGIN_MANUAL",
      "activeMode": "PLAY_MODE_SINGLE",
      "beginCond": [
        {
          "type": "QUEST_COND_STATE_EQUAL",
          "param": [
            "4009305",
            "2"
          ],
          "param_str": ""
        }
      ],
      "priority": 5,
      "initDialog": 400930501,
      "npcId": [
        1045,
        1015,
        10285
      ],
      "performCfg": "QuestDialogue/EQ/Sealamp3_40093/Q4009305",
      "heroTalk": "TALK_HERO_MAIN",
      "questId": 40093,
      "prePerformCfg": ""
    },
    {
      "id": 4009306,
      "beginWay": "TALK_BEGIN_MANUAL",
      "activeMode": "PLAY_MODE_SINGLE",
      "beginCond": [
        {
          "type": "QUEST_COND_STATE_EQUAL",
          "param": [
            "4009306",
            "2"
          ],
          "param_str": ""
        }
      ],
      "priority": 5,
      "initDialog": 400930601,
      "npcId": [
        10285,
        1015
      ],
      "performCfg": "QuestDialogue/EQ/Sealamp3_40093/Q4009306",
      "heroTalk": "TALK_HERO_MAIN",
      "questId": 40093,
      "prePerformCfg": ""
    },
    {
      "id": 4009307,
      "beginWay": "TALK_BEGIN_MANUAL",
      "activeMode": "PLAY_MODE_SINGLE",
      "beginCond": [
        {
          "type": "QUEST_COND_STATE_EQUAL",
          "param": [
            "4009307",
            "2"
          ],
          "param_str": ""
        }
      ],
      "priority": 5,
      "initDialog": 400930701,
      "npcId": [
        10285,
        2093,
        1015,
        1030
      ],
      "performCfg": "QuestDialogue/EQ/Sealamp3_40093/Q4009307",
      "heroTalk": "TALK_HERO_MAIN",
      "questId": 40093,
      "prePerformCfg": ""
    },
    {
      "id": 4009308,
      "beginWay": "TALK_BEGIN_MANUAL",
      "activeMode": "PLAY_MODE_SINGLE",
      "beginCond": [
        {
          "type": "QUEST_COND_STATE_EQUAL",
          "param": [
            "4009308",
            "2"
          ],
          "param_str": ""
        }
      ],
      "priority": 5,
      "initDialog": 400930801,
      "npcId": [
        1016,
        12966
      ],
      "performCfg": "QuestDialogue/EQ/Sealamp3_40093/Q4009308",
      "heroTalk": "TALK_HERO_MAIN",
      "questId": 40093,
      "prePerformCfg": ""
    },
    {
      "id": 4009309,
      "beginWay": "TALK_BEGIN_MANUAL",
      "activeMode": "PLAY_MODE_SINGLE",
      "beginCond": [
        {
          "type": "QUEST_COND_STATE_EQUAL",
          "param": [
            "4009309",
            "2"
          ],
          "param_str": ""
        }
      ],
      "priority": 5,
      "initDialog": 400930901,
      "npcId": [
        1021,
        1046,
        1042
      ],
      "performCfg": "QuestDialogue/EQ/Sealamp3_40093/Q4009309",
      "heroTalk": "TALK_HERO_MAIN",
      "questId": 40093,
      "prePerformCfg": "",
      "lockGameTime": true
    },
    {
      "id": 4009310,
      "beginWay": "TALK_BEGIN_MANUAL",
      "activeMode": "PLAY_MODE_SINGLE",
      "beginCond": [
        {
          "type": "QUEST_COND_STATE_EQUAL",
          "param": [
            "4009310",
            "2"
          ],
          "param_str": ""
        }
      ],
      "priority": 5,
      "initDialog": 400931001,
      "npcId": [
        10286,
        10232,
        10284
      ],
      "performCfg": "QuestDialogue/EQ/Sealamp3_40093/Q4009310",
      "heroTalk": "TALK_HERO_MAIN",
      "questId": 40093,
      "prePerformCfg": ""
    },
    {
      "id": 4009311,
      "beginWay": "TALK_BEGIN_MANUAL",
      "activeMode": "PLAY_MODE_SINGLE",
      "beginCond": [
        {
          "type": "QUEST_COND_STATE_EQUAL",
          "param": [
            "4009311",
            "2"
          ],
          "param_str": ""
        }
      ],
      "priority": 5,
      "initDialog": 400931101,
      "npcId": [
        1016
      ],
      "performCfg": "QuestDialogue/EQ/Sealamp3_40093/Q4009311",
      "heroTalk": "TALK_HERO_MAIN",
      "questId": 40093,
      "prePerformCfg": ""
    },
    {
      "id": 4009317,
      "beginWay": "TALK_BEGIN_MANUAL",
      "activeMode": "PLAY_MODE_SINGLE",
      "beginCond": [
        {
          "type": "QUEST_COND_STATE_EQUAL",
          "param": [
            "4009307",
            "3"
          ],
          "param_str": ""
        }
      ],
      "priority": 5,
      "initDialog": 400931701,
      "npcId": [
        10285,
        2093
      ],
      "performCfg": "QuestDialogue/EQ/Sealamp3_40093/Q4009317",
      "heroTalk": "TALK_HERO_MAIN",
      "questId": 40093,
      "prePerformCfg": ""
    },
    {
      "id": 4009321,
      "beginWay": "TALK_BEGIN_MANUAL",
      "activeMode": "PLAY_MODE_SINGLE",
      "beginCond": [
        {
          "type": "QUEST_COND_STATE_EQUAL",
          "param": [
            "4009310",
            "3"
          ],
          "param_str": ""
        }
      ],
      "priority": 5,
      "initDialog": 400932101,
      "npcId": [
        10232
      ],
      "performCfg": "QuestDialogue/EQ/Sealamp3_40093/Q4009321",
      "heroTalk": "TALK_HERO_MAIN",
      "questId": 40093,
      "prePerformCfg": ""
    },
    {
      "id": 4009322,
      "beginWay": "TALK_BEGIN_MANUAL",
      "activeMode": "PLAY_MODE_SINGLE",
      "beginCond": [
        {
          "type": "QUEST_COND_STATE_EQUAL",
          "param": [
            "4009310",
            "3"
          ],
          "param_str": ""
        }
      ],
      "priority": 5,
      "initDialog": 400932201,
      "npcId": [
        10284,
        10286
      ],
      "performCfg": "QuestDialogue/EQ/Sealamp3_40093/Q4009322",
      "heroTalk": "TALK_HERO_MAIN",
      "questId": 40093,
      "prePerformCfg": ""
    },
    {
      "id": 4009323,
      "beginWay": "TALK_BEGIN_MANUAL",
      "activeMode": "PLAY_MODE_SINGLE",
      "beginCond": [
        {
          "type": "QUEST_COND_STATE_EQUAL",
          "param": [
            "4009309",
            "3"
          ],
          "param_str": ""
        }
      ],
      "priority": 5,
      "initDialog": 400932301,
      "npcId": [
        1046,
        1021,
        1042
      ],
      "performCfg": "QuestDialogue/EQ/Sealamp3_40093/Q4009323",
      "heroTalk": "TALK_HERO_MAIN",
      "questId": 40093,
      "prePerformCfg": ""
    }
  ],
  "videoKey": 1020957878910151
}