{
  "id": 40104,
  "type": "EQ",
  "series": 40100,
  "titleTextMapHash": 2367867199,
  "descTextMapHash": 568909118,
  "luaPath": "Actor/Quest/EQ40104",
  "rewardIdList": [
    140104
  ],
  "chapterId": 10141,
  "subQuests": [
    {
      "mainId": 40104,
      "subId": 4010401,
      "order": 2,
      "descTextMapHash": 2539384180,
      "acceptCond": [
        {
          "type": "QUEST_COND_UNKNOWN",
          "param": [
            0,
            0
          ]
        }
      ],
      "finishCond": [],
      "failCond": [],
      "guide": {
        "type": "QUEST_GUIDE_NPC",
        "param": [
          "1058"
        ],
        "guideScene": 3,
        "guideStyle": "QUEST_GUIDE_STYLE_TARGET",
        "guideLayer": "QUEST_GUIDE_LAYER_SCENE"
      },
      "finishExec": [],
      "failExec": [],
      "beginExec": []
    },
    {
      "mainId": 40104,
      "subId": 4010402,
      "order": 3,
      "descTextMapHash": 3929367364,
      "acceptCond": [
        {
          "type": "QUEST_COND_UNKNOWN",
          "param": [
            0,
            0
          ]
        }
      ],
      "finishCond": [],
      "failCond": [],
      "guide": {
        "type": "QUEST_GUIDE_LOCATION",
        "param": [
          "[3_330201435:-393.483,234.383,2764.240,0.000,163.432,0.000]",
          "15"
        ],
        "guideScene": 3,
        "guideStyle": "QUEST_GUIDE_STYLE_TARGET",
        "guideLayer": "QUEST_GUIDE_LAYER_SCENE"
      },
      "finishExec": [],
      "failExec": [],
      "beginExec": []
    },
    {
      "mainId": 40104,
      "subId": 4010403,
      "order": 5,
      "descTextMapHash": 916865356,
      "acceptCond": [
        {
          "type": "QUEST_COND_UNKNOWN",
          "param": [
            0,
            0
          ]
        }
      ],
      "finishCond": [],
      "failCond": [],
      "guide": {
        "type": "QUEST_GUIDE_NPC",
        "param": [
          "1064"
        ],
        "guideScene": 1072,
        "guideStyle": "QUEST_GUIDE_STYLE_TARGET",
        "guideLayer": "QUEST_GUIDE_LAYER_SCENE"
      },
      "finishExec": [],
      "failExec": [],
      "beginExec": []
    },
    {
      "mainId": 40104,
      "subId": 4010404,
      "order": 4,
      "descTextMapHash": 207456116,
      "acceptCond": [
        {
          "type": "QUEST_COND_UNKNOWN",
          "param": [
            0,
            0
          ]
        }
      ],
      "finishCond": [],
      "failCond": [],
      "guide": {
        "type": "QUEST_GUIDE_NPC",
        "param": [
          "1063"
        ],
        "guideScene": 3,
        "guideStyle": "QUEST_GUIDE_STYLE_TARGET",
        "guideLayer": "QUEST_GUIDE_LAYER_SCENE"
      },
      "finishExec": [],
      "failExec": [],
      "beginExec": []
    },
    {
      "mainId": 40104,
      "subId": 4010405,
      "order": 9,
      "descTextMapHash": 2858622388,
      "acceptCond": [
        {
          "type": "QUEST_COND_UNKNOWN",
          "param": [
            0,
            0
          ]
        }
      ],
      "finishCond": [],
      "failCond": [],
      "guide": {
        "type": "QUEST_GUIDE_LOCATION",
        "param": [
          "Q4010405_guide",
          "30"
        ],
        "guideScene": 3,
        "guideStyle": "QUEST_GUIDE_STYLE_TARGET",
        "guideLayer": "QUEST_GUIDE_LAYER_SCENE"
      },
      "finishExec": [],
      "failExec": [],
      "beginExec": []
    },
    {
      "mainId": 40104,
      "subId": 4010406,
      "order": 10,
      "descTextMapHash": 4161105012,
      "acceptCond": [
        {
          "type": "QUEST_COND_UNKNOWN",
          "param": [
            0,
            0
          ]
        }
      ],
      "finishCond": [],
      "failCond": [],
      "guide": {
        "type": "QUEST_GUIDE_NPC",
        "param": [
          "1053"
        ],
        "guideScene": 3,
        "guideStyle": "QUEST_GUIDE_STYLE_TARGET",
        "guideLayer": "QUEST_GUIDE_LAYER_SCENE"
      },
      "finishExec": [],
      "failExec": [],
      "beginExec": []
    },
    {
      "mainId": 40104,
      "subId": 4010407,
      "order": 1,
      "descTextMapHash": 3227022940,
      "acceptCond": [
        {
          "type": "QUEST_COND_UNKNOWN",
          "param": [
            0,
            0
          ]
        }
      ],
      "finishCond": [],
      "failCond": [],
      "guide": {
        "type": "QUEST_GUIDE_LOCATION",
        "param": [
          "Q4010029_guide",
          "20"
        ],
        "guideScene": 3,
        "guideStyle": "QUEST_GUIDE_STYLE_TARGET",
        "guideLayer": "QUEST_GUIDE_LAYER_SCENE"
      },
      "finishExec": [],
      "failExec": [],
      "beginExec": []
    },
    {
      "mainId": 40104,
      "subId": 4010408,
      "order": 7,
      "descTextMapHash": 3222424028,
      "acceptCond": [
        {
          "type": "QUEST_COND_UNKNOWN",
          "param": [
            0,
            0
          ]
        }
      ],
      "finishCond": [],
      "failCond": [],
      "guide": {
        "type": "QUEST_GUIDE_LOCATION",
        "param": [
          "T1302005_N10000005"
        ],
        "guideScene": 3,
        "guideStyle": "QUEST_GUIDE_STYLE_POINT",
        "guideLayer": "QUEST_GUIDE_LAYER_SCENE"
      },
      "finishExec": [],
      "failExec": [],
      "beginExec": []
    },
    {
      "mainId": 40104,
      "subId": 4010409,
      "order": 8,
      "showType": "QUEST_HIDDEN",
      "acceptCond": [
        {
          "type": "QUEST_COND_UNKNOWN",
          "param": [
            0,
            0
          ]
        }
      ],
      "finishCond": [],
      "failCond": [],
      "guide": {},
      "finishExec": [],
      "failExec": [],
      "beginExec": []
    },
    {
      "mainId": 40104,
      "subId": 4010410,
      "order": 6,
      "showType": "QUEST_HIDDEN",
      "acceptCond": [
        {
          "type": "QUEST_COND_UNKNOWN",
          "param": [
            0,
            0
          ]
        }
      ],
      "finishCond": [],
      "failCond": [],
      "guide": {},
      "finishExec": [],
      "failExec": [],
      "beginExec": []
    }
  ],
  "talks": [
    {
      "id": 4010401,
      "beginWay": "TALK_BEGIN_MANUAL",
      "activeMode": "PLAY_MODE_SINGLE",
      "beginCond": [
        {
          "type": "QUEST_COND_STATE_EQUAL",
          "param": [
            "4010401",
            "2"
          ],
          "param_str": ""
        }
      ],
      "priority": 5,
      "initDialog": 401040101,
      "npcId": [
        1058,
        1064
      ],
      "performCfg": "QuestDialogue/EQ/AkaFes_40104/Q4010401",
      "heroTalk": "TALK_HERO_MAIN",
      "questId": 40104,
      "prePerformCfg": "",
      "lockGameTime": true
    },
    {
      "id": 4010402,
      "beginWay": "TALK_BEGIN_MANUAL",
      "activeMode": "PLAY_MODE_SINGLE",
      "beginCond": [
        {
          "type": "QUEST_COND_STATE_EQUAL",
          "param": [
            "4010402",
            "2"
          ],
          "param_str": ""
        }
      ],
      "priority": 5,
      "initDialog": 401040201,
      "npcId": [
        1067,
        1052,
        1054,
        1059
      ],
      "performCfg": "QuestDialogue/EQ/AkaFes_40104/Q4010402",
      "heroTalk": "TALK_HERO_MAIN",
      "questId": 40104,
      "prePerformCfg": ""
    },
    {
      "id": 4010403,
      "beginWay": "TALK_BEGIN_MANUAL",
      "activeMode": "PLAY_MODE_SINGLE",
      "beginCond": [
        {
          "type": "QUEST_COND_STATE_EQUAL",
          "param": [
            "4010404",
            "2"
          ],
          "param_str": ""
        }
      ],
      "priority": 5,
      "initDialog": 401040301,
      "npcId": [
        1063
      ],
      "performCfg": "QuestDialogue/EQ/AkaFes_40104/Q4010403",
      "heroTalk": "TALK_HERO_MAIN",
      "questId": 40104,
      "prePerformCfg": ""
    },
    {
      "id": 4010404,
      "beginWay": "TALK_BEGIN_MANUAL",
      "activeMode": "PLAY_MODE_SINGLE",
      "beginCond": [
        {
          "type": "QUEST_COND_STATE_EQUAL",
          "param": [
            "4010403",
            "2"
          ],
          "param_str": ""
        }
      ],
      "priority": 5,
      "initDialog": 401040401,
      "npcId": [
        1050,
        1064,
        1058,
        1051
      ],
      "performCfg": "QuestDialogue/EQ/AkaFes_40104/Q4010404",
      "heroTalk": "TALK_HERO_MAIN",
      "questId": 40104,
      "prePerformCfg": ""
    },
    {
      "id": 4010405,
      "beginWay": "TALK_BEGIN_MANUAL",
      "activeMode": "PLAY_MODE_SINGLE",
      "beginCond": [
        {
          "type": "QUEST_COND_STATE_EQUAL",
          "param": [
            "4010408",
            "2"
          ],
          "param_str": ""
        }
      ],
      "priority": 5,
      "initDialog": 401040501,
      "npcId": [
        13161
      ],
      "performCfg": "QuestDialogue/EQ/AkaFes_40104/Q4010405",
      "heroTalk": "TALK_HERO_MAIN",
      "questId": 40104,
      "prePerformCfg": ""
    },
    {
      "id": 4010406,
      "beginWay": "TALK_BEGIN_MANUAL",
      "activeMode": "PLAY_MODE_SINGLE",
      "beginCond": [
        {
          "type": "QUEST_COND_STATE_EQUAL",
          "param": [
            "4010406",
            "2"
          ],
          "param_str": ""
        }
      ],
      "priority": 5,
      "initDialog": 401040601,
      "npcId": [
        1053
      ],
      "performCfg": "QuestDialogue/EQ/AkaFes_40104/Q4010406",
      "heroTalk": "TALK_HERO_MAIN",
      "questId": 40104,
      "prePerformCfg": ""
    },
    {
      "id": 4010407,
      "beginWay": "TALK_BEGIN_MANUAL",
      "activeMode": "PLAY_MODE_SINGLE",
      "beginCond": [
        {
          "type": "QUEST_COND_STATE_EQUAL",
          "param": [
            "4010407",
            "2"
          ],
          "param_str": ""
        }
      ],
      "priority": 5,
      "initDialog": 401040701,
      "npcId": [
        13161
      ],
      "performCfg": "QuestDialogue/EQ/AkaFes_40104/Q4010407",
      "heroTalk": "TALK_HERO_MAIN",
      "questId": 40104,
      "prePerformCfg": "",
      "lockGameTime": true
    },
    {
      "id": 4010450,
      "beginWay": "TALK_BEGIN_MANUAL",
      "activeMode": "PLAY_MODE_SINGLE",
      "beginCondComb": "LOGIC_OR",
      "beginCond": [
        {
          "type": "QUEST_COND_STATE_EQUAL",
          "param": [
            "4010404",
            "2"
          ],
          "param_str": ""
        },
        {
          "type": "QUEST_COND_STATE_EQUAL",
          "param": [
            "4010403",
            "2"
          ],
          "param_str": ""
        },
        {
          "type": "QUEST_COND_STATE_EQUAL",
          "param": [
            "4010408",
            "2"
          ],
          "param_str": ""
        },
        {
          "type": "QUEST_COND_STATE_EQUAL",
          "param": [
            "4010405",
            "2"
          ],
          "param_str": ""
        },
        {
          "type": "QUEST_COND_STATE_EQUAL",
          "param": [
            "4010406",
            "2"
          ],
          "param_str": ""
        }
      ],
      "priority": 5,
      "initDialog": 401045001,
      "npcId": [
        1054,
        1067,
        1052,
        1059
      ],
      "performCfg": "QuestDialogue/EQ/AkaFes_40104/Q4010450",
      "heroTalk": "TALK_HERO_MAIN",
      "questId": 40104,
      "prePerformCfg": ""
    },
    {
      "id": 4010451,
      "beginWay": "TALK_BEGIN_MANUAL",
      "activeMode": "PLAY_MODE_SINGLE",
      "beginCondComb": "LOGIC_OR",
      "beginCond": [
        {
          "type": "QUEST_COND_STATE_EQUAL",
          "param": [
            "4010403",
            "2"
          ],
          "param_str": ""
        },
        {
          "type": "QUEST_COND_STATE_EQUAL",
          "param": [
            "4010408",
            "2"
          ],
          "param_str": ""
        },
        {
          "type": "QUEST_COND_STATE_EQUAL",
          "param": [
            "4010405",
            "2"
          ],
          "param_str": ""
        },
        {
          "type": "QUEST_COND_STATE_EQUAL",
          "param": [
            "4010406",
            "2"
          ],
          "param_str": ""
        }
      ],
      "priority": 5,
      "initDialog": 401045101,
      "npcId": [
        1063
      ],
      "performCfg": "QuestDialogue/EQ/AkaFes_40104/Q4010451",
      "heroTalk": "TALK_HERO_MAIN",
      "questId": 40104,
      "prePerformCfg": ""
    },
    {
      "id": 4010452,
      "beginWay": "TALK_BEGIN_MANUAL",
      "activeMode": "PLAY_MODE_SINGLE",
      "beginCondComb": "LOGIC_OR",
      "beginCond": [
        {
          "type": "QUEST_COND_STATE_EQUAL",
          "param": [
            "4010408",
            "2"
          ],
          "param_str": ""
        },
        {
          "type": "QUEST_COND_STATE_EQUAL",
          "param": [
            "4010405",
            "2"
          ],
          "param_str": ""
        },
        {
          "type": "QUEST_COND_STATE_EQUAL",
          "param": [
            "4010406",
            "2"
          ],
          "param_str": ""
        }
      ],
      "priority": 5,
      "initDialog": 401045201,
      "npcId": [
        1058,
        1050,
        1051,
        1064
      ],
      "performCfg": "QuestDialogue/EQ/AkaFes_40104/Q4010452",
      "heroTalk": "TALK_HERO_MAIN",
      "questId": 40104,
      "prePerformCfg": ""
    }
  ]
}