{
  "id": 41215,
  "type": "EQ",
  "titleTextMapHash": 1092796983,
  "descTextMapHash": 121264142,
  "luaPath": "",
  "showType": "QUEST_HIDDEN",
  "rewardIdList": [
    141215
  ],
  "subQuests": [
    {
      "subId": 4121501,
      "mainId": 41215,
      "order": 1,
      "descTextMapHash": 3097652500,
      "showType": "QUEST_HIDDEN",
      "acceptCond": [
        {
          "type": "QUEST_COND_STATE_EQUAL",
          "param": [
            4121001,
            3,
            0,
            0,
            0
          ],
          "param_str": ""
        }
      ],
      "finishCond": [
        {
          "type": "QUEST_CONTENT_COMPLETE_TALK",
          "param": [
            4121003,
            0
          ],
          "param_str": ""
        }
      ],
      "failCond": [],
      "guide": {
        "param": []
      },
      "showGuide": "QUEST_GUIDE_ITEM_DISABLE",
      "finishParent": true,
      "isRewind": true,
      "finishExec": [],
      "failExec": [],
      "beginExec": []
    }
  ]
}