{
  "id": 41317,
  "type": "EQ",
  "titleTextMapHash": 870908743,
  "descTextMapHash": 4181275862,
  "luaPath": "Actor/Quest/EQ41317",
  "showType": "QUEST_HIDDEN",
  "rewardIdList": [
    141317
  ],
  "subQuests": [
    {
      "subId": 4131701,
      "mainId": 41317,
      "order": 1,
      "descTextMapHash": 67262748,
      "showType": "QUEST_HIDDEN",
      "acceptCond": [
        {
          "type": "QUEST_COND_STATE_EQUAL",
          "param": [
            4131108,
            3,
            0,
            0,
            0
          ],
          "param_str": ""
        }
      ],
      "finishCond": [
        {
          "type": "QUEST_CONTENT_COMPLETE_TALK",
          "param": [
            4131111,
            0
          ],
          "param_str": ""
        }
      ],
      "failCond": [],
      "guide": {
        "param": []
      },
      "showGuide": "QUEST_GUIDE_ITEM_DISABLE",
      "finishParent": true,
      "isRewind": true,
      "finishExec": [],
      "failExec": [],
      "beginExec": []
    }
  ]
}