{
  "id": 41316,
  "type": "EQ",
  "titleTextMapHash": 218005815,
  "descTextMapHash": 4102623630,
  "luaPath": "Actor/Quest/EQ41316",
  "showType": "QUEST_HIDDEN",
  "rewardIdList": [
    141316
  ],
  "subQuests": [
    {
      "subId": 4131601,
      "mainId": 41316,
      "order": 1,
      "descTextMapHash": 217450652,
      "showType": "QUEST_HIDDEN",
      "acceptCond": [
        {
          "type": "QUEST_COND_STATE_EQUAL",
          "param": [
            4131111,
            3,
            0,
            0,
            0
          ],
          "param_str": ""
        }
      ],
      "finishCond": [
        {
          "type": "QUEST_CONTENT_FINISH_PLOT",
          "param": [
            4131601,
            0
          ],
          "param_str": ""
        }
      ],
      "failCond": [],
      "guide": {
        "param": []
      },
      "showGuide": "QUEST_GUIDE_ITEM_DISABLE",
      "finishParent": true,
      "isRewind": true,
      "finishExec": [],
      "failExec": [],
      "beginExec": []
    }
  ]
}