{
  "id": 41412,
  "type": "EQ",
  "series": 10021,
  "titleTextMapHash": 915744959,
  "descTextMapHash": 3287361462,
  "luaPath": "Actor/Quest/EQ41412",
  "suggestTrackMainQuestList": [
    41413
  ],
  "rewardIdList": [
    141412
  ],
  "chapterId": 10023,
  "subQuests": [
    {
      "subId": 4141201,
      "mainId": 41412,
      "order": 1,
      "descTextMapHash": 3138390172,
      "acceptCond": [
        {
          "type": "QUEST_COND_ACTIVITY_COND",
          "param": [
            2003003,
            1,
            0,
            0,
            0
          ],
          "param_str": ""
        }
      ],
      "finishCond": [
        {
          "type": "QUEST_CONTENT_COMPLETE_TALK",
          "param": [
            4141201,
            0
          ],
          "param_str": ""
        }
      ],
      "failCond": [],
      "guide": {
        "type": "QUEST_GUIDE_NPC",
        "param": [
          "1587"
        ],
        "guideScene": 3,
        "guideStyle": "QUEST_GUIDE_STYLE_TARGET",
        "guideLayer": "QUEST_GUIDE_LAYER_SCENE"
      },
      "isRewind": true,
      "finishExec": [],
      "failExec": [],
      "beginExec": [],
      "exclusiveNpcList": [
        1001,
        1587,
        1019,
        1431,
        1463
      ],
      "exclusiveNpcPriority": 1000
    },
    {
      "subId": 4141202,
      "mainId": 41412,
      "order": 2,
      "descTextMapHash": 3139607252,
      "acceptCond": [
        {
          "type": "QUEST_COND_STATE_EQUAL",
          "param": [
            4141201,
            3,
            0,
            0,
            0
          ],
          "param_str": ""
        }
      ],
      "finishCond": [
        {
          "type": "QUEST_CONTENT_COMPLETE_TALK",
          "param": [
            4141202,
            0
          ],
          "param_str": ""
        }
      ],
      "failCond": [],
      "guide": {
        "type": "QUEST_GUIDE_NPC",
        "param": [
          "1018"
        ],
        "guideScene": 3,
        "guideStyle": "QUEST_GUIDE_STYLE_TARGET",
        "guideLayer": "QUEST_GUIDE_LAYER_SCENE"
      },
      "isRewind": true,
      "finishExec": [],
      "failExec": [],
      "beginExec": [
        {
          "type": "QUEST_EXEC_REGISTER_DYNAMIC_GROUP",
          "param": [
            "3",
            "133001926"
          ],
          "param_str": ""
        }
      ],
      "exclusiveNpcList": [
        1001,
        1587,
        1019,
        1018,
        1669
      ],
      "exclusiveNpcPriority": 1000
    },
    {
      "subId": 4141203,
      "mainId": 41412,
      "order": 3,
      "descTextMapHash": 1296777172,
      "acceptCond": [
        {
          "type": "QUEST_COND_STATE_EQUAL",
          "param": [
            4141202,
            3,
            0,
            0,
            0
          ],
          "param_str": ""
        }
      ],
      "finishCond": [
        {
          "type": "QUEST_CONTENT_OBTAIN_ITEM",
          "param": [
            101006,
            0
          ],
          "param_str": "",
          "count": 3
        }
      ],
      "failCond": [],
      "guide": {
        "param": []
      },
      "isRewind": true,
      "finishExec": [],
      "failExec": [],
      "beginExec": [
        {
          "type": "QUEST_EXEC_REGISTER_DYNAMIC_GROUP",
          "param": [
            "3",
            "133001926"
          ],
          "param_str": ""
        }
      ],
      "exclusiveNpcList": [
        1001,
        1587,
        1019,
        1018,
        1669
      ],
      "exclusiveNpcPriority": 1000
    },
    {
      "subId": 4141204,
      "mainId": 41412,
      "order": 4,
      "descTextMapHash": 1251094460,
      "acceptCond": [
        {
          "type": "QUEST_COND_STATE_EQUAL",
          "param": [
            4141203,
            3,
            0,
            0,
            0
          ],
          "param_str": ""
        }
      ],
      "finishCond": [
        {
          "type": "QUEST_CONTENT_COMPLETE_TALK",
          "param": [
            4141204,
            0
          ],
          "param_str": ""
        }
      ],
      "failCond": [],
      "guide": {
        "type": "QUEST_GUIDE_NPC",
        "param": [
          "1018"
        ],
        "guideScene": 3,
        "guideStyle": "QUEST_GUIDE_STYLE_TARGET",
        "guideLayer": "QUEST_GUIDE_LAYER_SCENE"
      },
      "isRewind": true,
      "finishExec": [
        {
          "type": "QUEST_EXEC_UNREGISTER_DYNAMIC_GROUP",
          "param": [
            "133001926"
          ],
          "param_str": ""
        },
        {
          "type": "QUEST_EXEC_DEL_PACK_ITEM",
          "param": [
            "101006",
            "3"
          ],
          "param_str": ""
        }
      ],
      "failExec": [],
      "beginExec": [
        {
          "type": "QUEST_EXEC_REGISTER_DYNAMIC_GROUP",
          "param": [
            "3",
            "133001926"
          ],
          "param_str": ""
        }
      ],
      "exclusiveNpcList": [
        1001,
        1587,
        1019,
        1018,
        1669
      ],
      "exclusiveNpcPriority": 1000
    },
    {
      "subId": 4141205,
      "mainId": 41412,
      "order": 5,
      "descTextMapHash": 3923163492,
      "acceptCond": [
        {
          "type": "QUEST_COND_STATE_EQUAL",
          "param": [
            4141204,
            3,
            0,
            0,
            0
          ],
          "param_str": ""
        }
      ],
      "finishCond": [
        {
          "type": "QUEST_CONTENT_COMPLETE_TALK",
          "param": [
            4141205,
            0
          ],
          "param_str": ""
        }
      ],
      "failCond": [],
      "guide": {
        "type": "QUEST_GUIDE_NPC",
        "param": [
          "1019"
        ],
        "guideScene": 3,
        "guideStyle": "QUEST_GUIDE_STYLE_TARGET",
        "guideLayer": "QUEST_GUIDE_LAYER_SCENE"
      },
      "isRewind": true,
      "finishExec": [
        {
          "type": "QUEST_EXEC_DEL_ALL_SPECIFIC_PACK_ITEM",
          "param": [
            "100762"
          ],
          "param_str": ""
        }
      ],
      "failExec": [],
      "beginExec": [],
      "exclusiveNpcList": [
        1001,
        1587,
        1019,
        1431,
        1463
      ],
      "exclusiveNpcPriority": 1000
    },
    {
      "subId": 4141206,
      "mainId": 41412,
      "order": 6,
      "descTextMapHash": 2174832884,
      "acceptCond": [
        {
          "type": "QUEST_COND_STATE_EQUAL",
          "param": [
            4141205,
            3,
            0,
            0,
            0
          ],
          "param_str": ""
        }
      ],
      "finishCond": [
        {
          "type": "QUEST_CONTENT_COMPLETE_TALK",
          "param": [
            4141206,
            0
          ],
          "param_str": ""
        }
      ],
      "failCond": [],
      "guide": {
        "type": "QUEST_GUIDE_NPC",
        "param": [
          "1008"
        ],
        "guideScene": 1008,
        "guideStyle": "QUEST_GUIDE_STYLE_TARGET",
        "guideLayer": "QUEST_GUIDE_LAYER_SCENE"
      },
      "isRewind": true,
      "finishExec": [],
      "failExec": [],
      "beginExec": [],
      "exclusiveNpcList": [
        1001,
        1008,
        1020
      ],
      "exclusiveNpcPriority": 1000
    },
    {
      "subId": 4141207,
      "mainId": 41412,
      "order": 7,
      "isMpBlock": true,
      "descTextMapHash": 1292246484,
      "acceptCond": [
        {
          "type": "QUEST_COND_STATE_EQUAL",
          "param": [
            4141206,
            3,
            0,
            0,
            0
          ],
          "param_str": ""
        }
      ],
      "finishCond": [
        {
          "type": "QUEST_CONTENT_FINISH_PLOT",
          "param": [
            4141207,
            0
          ],
          "param_str": ""
        }
      ],
      "failCond": [
        {
          "type": "QUEST_CONTENT_ADD_QUEST_PROGRESS",
          "param": [
            4141207,
            0
          ],
          "param_str": "",
          "count": 1
        }
      ],
      "guide": {
        "type": "QUEST_GUIDE_LOCATION",
        "param": [
          "Q4141209Trigger",
          "55"
        ],
        "guideScene": 3,
        "guideStyle": "QUEST_GUIDE_STYLE_POINT",
        "guideLayer": "QUEST_GUIDE_LAYER_SCENE"
      },
      "showGuide": "QUEST_GUIDE_ITEM_DISABLE",
      "failParentShow": "QUEST_HIDDEN",
      "isRewind": true,
      "finishExec": [],
      "failExec": [],
      "beginExec": [
        {
          "type": "QUEST_EXEC_REGISTER_DYNAMIC_GROUP",
          "param": [
            "3",
            "133003922"
          ],
          "param_str": ""
        }
      ],
      "exclusiveNpcList": [
        1001,
        1011,
        1028
      ],
      "exclusiveNpcPriority": 1000
    },
    {
      "subId": 4141208,
      "mainId": 41412,
      "order": 10,
      "isMpBlock": true,
      "descTextMapHash": 2334122108,
      "acceptCondComb": "LOGIC_OR",
      "acceptCond": [
        {
          "type": "QUEST_COND_STATE_EQUAL",
          "param": [
            4141209,
            3,
            0,
            0,
            0
          ],
          "param_str": ""
        },
        {
          "type": "QUEST_COND_STATE_EQUAL",
          "param": [
            4141215,
            3,
            0,
            0,
            0
          ],
          "param_str": ""
        }
      ],
      "finishCond": [
        {
          "type": "QUEST_CONTENT_FINISH_PLOT",
          "param": [
            4141208,
            0
          ],
          "param_str": ""
        }
      ],
      "failCond": [],
      "guide": {
        "type": "QUEST_GUIDE_LOCATION",
        "param": [
          "Q4141209Trigger",
          "55"
        ],
        "guideScene": 3,
        "guideStyle": "QUEST_GUIDE_STYLE_POINT",
        "guideLayer": "QUEST_GUIDE_LAYER_SCENE"
      },
      "showGuide": "QUEST_GUIDE_ITEM_DISABLE",
      "isRewind": true,
      "finishExec": [],
      "failExec": [],
      "beginExec": [
        {
          "type": "QUEST_EXEC_REGISTER_DYNAMIC_GROUP",
          "param": [
            "3",
            "133003923"
          ],
          "param_str": ""
        }
      ],
      "exclusiveNpcList": [
        1001,
        1011,
        1028
      ],
      "exclusiveNpcPriority": 1000
    },
    {
      "subId": 4141209,
      "mainId": 41412,
      "order": 9,
      "isMpBlock": true,
      "descTextMapHash": 108687468,
      "acceptCondComb": "LOGIC_AND",
      "acceptCond": [
        {
          "type": "QUEST_COND_STATE_EQUAL",
          "param": [
            4141207,
            3,
            0,
            0,
            0
          ],
          "param_str": ""
        },
        {
          "type": "QUEST_COND_STATE_EQUAL",
          "param": [
            4141215,
            2,
            0,
            0,
            0
          ],
          "param_str": ""
        }
      ],
      "finishCond": [
        {
          "type": "QUEST_CONTENT_LUA_NOTIFY",
          "param": [
            0,
            0
          ],
          "param_str": "4141209",
          "count": 1
        }
      ],
      "failCond": [],
      "guide": {
        "type": "QUEST_GUIDE_LOCATION",
        "param": [
          "Q4141209Trigger",
          "55"
        ],
        "guideScene": 3,
        "guideStyle": "QUEST_GUIDE_STYLE_POINT",
        "guideLayer": "QUEST_GUIDE_LAYER_SCENE"
      },
      "showGuide": "QUEST_GUIDE_ITEM_DISABLE",
      "finishExec": [
        {
          "type": "QUEST_EXEC_UNREGISTER_DYNAMIC_GROUP",
          "param": [
            "133003922"
          ],
          "param_str": ""
        }
      ],
      "failExec": [],
      "beginExec": [],
      "exclusiveNpcList": [
        1001,
        1011,
        1028
      ],
      "exclusiveNpcPriority": 1000
    },
    {
      "subId": 4141210,
      "mainId": 41412,
      "order": 12,
      "isMpBlock": true,
      "descTextMapHash": 3185823076,
      "acceptCond": [
        {
          "type": "QUEST_COND_STATE_EQUAL",
          "param": [
            4141214,
            3,
            0,
            0,
            0
          ],
          "param_str": ""
        }
      ],
      "finishCond": [
        {
          "type": "QUEST_CONTENT_LUA_NOTIFY",
          "param": [
            0,
            0
          ],
          "param_str": "4141210",
          "count": 1
        }
      ],
      "failCond": [],
      "guide": {
        "type": "QUEST_GUIDE_LOCATION",
        "param": [
          "Q4141210Target"
        ],
        "guideScene": 3,
        "guideStyle": "QUEST_GUIDE_STYLE_TARGET",
        "guideLayer": "QUEST_GUIDE_LAYER_SCENE"
      },
      "finishExec": [],
      "failExec": [],
      "beginExec": [
        {
          "type": "QUEST_EXEC_NOTIFY_GROUP_LUA",
          "param": [
            "3",
            "133003923"
          ],
          "param_str": ""
        }
      ],
      "exclusiveNpcList": [
        1001,
        1011,
        1028
      ],
      "exclusiveNpcPriority": 1000
    },
    {
      "subId": 4141211,
      "mainId": 41412,
      "order": 13,
      "isMpBlock": true,
      "descTextMapHash": 1619362348,
      "acceptCond": [
        {
          "type": "QUEST_COND_STATE_EQUAL",
          "param": [
            4141210,
            3,
            0,
            0,
            0
          ],
          "param_str": ""
        }
      ],
      "finishCond": [
        {
          "type": "QUEST_CONTENT_COMPLETE_TALK",
          "param": [
            4141211,
            0
          ],
          "param_str": ""
        }
      ],
      "failCond": [],
      "guide": {
        "type": "QUEST_GUIDE_NPC",
        "param": [
          "1028"
        ],
        "guideScene": 3,
        "guideStyle": "QUEST_GUIDE_STYLE_TARGET",
        "guideLayer": "QUEST_GUIDE_LAYER_SCENE"
      },
      "isRewind": true,
      "finishExec": [
        {
          "type": "QUEST_EXEC_UNREGISTER_DYNAMIC_GROUP",
          "param": [
            "133003923"
          ],
          "param_str": ""
        }
      ],
      "failExec": [],
      "beginExec": [],
      "exclusiveNpcList": [
        1001,
        1011,
        1028
      ],
      "exclusiveNpcPriority": 1000
    },
    {
      "subId": 4141212,
      "mainId": 41412,
      "order": 14,
      "descTextMapHash": 1470837708,
      "acceptCond": [
        {
          "type": "QUEST_COND_STATE_EQUAL",
          "param": [
            4141211,
            3,
            0,
            0,
            0
          ],
          "param_str": ""
        }
      ],
      "finishCond": [
        {
          "type": "QUEST_CONTENT_ENTER_ROOM",
          "param": [
            1009,
            0
          ],
          "param_str": ""
        }
      ],
      "failCond": [],
      "guide": {
        "type": "QUEST_GUIDE_LOCATION",
        "param": [
          "QuestBarEnter"
        ],
        "guideScene": 3,
        "guideStyle": "QUEST_GUIDE_STYLE_TARGET",
        "guideLayer": "QUEST_GUIDE_LAYER_SCENE"
      },
      "isRewind": true,
      "finishExec": [],
      "failExec": [],
      "beginExec": [],
      "exclusiveNpcList": [
        1001,
        1465
      ],
      "exclusiveNpcPriority": 1000
    },
    {
      "subId": 4141213,
      "mainId": 41412,
      "order": 15,
      "descTextMapHash": 3053747228,
      "acceptCond": [
        {
          "type": "QUEST_COND_STATE_EQUAL",
          "param": [
            4141212,
            3,
            0,
            0,
            0
          ],
          "param_str": ""
        }
      ],
      "finishCond": [
        {
          "type": "QUEST_CONTENT_COMPLETE_TALK",
          "param": [
            4141213,
            0
          ],
          "param_str": ""
        }
      ],
      "failCond": [],
      "guide": {
        "type": "QUEST_GUIDE_NPC",
        "param": [
          "1004"
        ],
        "guideScene": 1009,
        "guideStyle": "QUEST_GUIDE_STYLE_TARGET",
        "guideLayer": "QUEST_GUIDE_LAYER_SCENE"
      },
      "isRewind": true,
      "finishExec": [],
      "failExec": [],
      "beginExec": [],
      "exclusiveNpcList": [
        1001,
        1009,
        1004,
        1020,
        1465
      ],
      "exclusiveNpcPriority": 1000
    },
    {
      "subId": 4141214,
      "mainId": 41412,
      "order": 11,
      "isMpBlock": true,
      "descTextMapHash": 2818598980,
      "acceptCond": [
        {
          "type": "QUEST_COND_STATE_EQUAL",
          "param": [
            4141208,
            3,
            0,
            0,
            0
          ],
          "param_str": ""
        }
      ],
      "finishCond": [
        {
          "type": "QUEST_CONTENT_COMPLETE_TALK",
          "param": [
            4141214,
            0
          ],
          "param_str": ""
        }
      ],
      "failCond": [],
      "guide": {
        "type": "QUEST_GUIDE_NPC",
        "param": [
          "1028"
        ],
        "guideScene": 3,
        "guideStyle": "QUEST_GUIDE_STYLE_TARGET",
        "guideLayer": "QUEST_GUIDE_LAYER_SCENE"
      },
      "finishExec": [],
      "failExec": [],
      "beginExec": [],
      "exclusiveNpcList": [
        1001,
        1011,
        1028
      ],
      "exclusiveNpcPriority": 1000
    },
    {
      "subId": 4141215,
      "mainId": 41412,
      "order": 8,
      "descTextMapHash": 3446441172,
      "showType": "QUEST_HIDDEN",
      "acceptCond": [
        {
          "type": "QUEST_COND_STATE_EQUAL",
          "param": [
            4141206,
            3,
            0,
            0,
            0
          ],
          "param_str": ""
        }
      ],
      "finishCond": [
        {
          "type": "QUEST_CONTENT_LUA_NOTIFY",
          "param": [
            0,
            0
          ],
          "param_str": "4141209",
          "count": 1
        }
      ],
      "failCond": [],
      "guide": {
        "param": []
      },
      "finishExec": [
        {
          "type": "QUEST_EXEC_UNREGISTER_DYNAMIC_GROUP",
          "param": [
            "133003922"
          ],
          "param_str": ""
        },
        {
          "type": "QUEST_EXEC_ADD_QUEST_PROGRESS",
          "param": [
            "4141207",
            "1"
          ],
          "param_str": ""
        }
      ],
      "failExec": [],
      "beginExec": []
    },
    {
      "subId": 4141216,
      "mainId": 41412,
      "order": 16,
      "descTextMapHash": 2640947940,
      "acceptCond": [
        {
          "type": "QUEST_COND_STATE_EQUAL",
          "param": [
            4141213,
            3,
            0,
            0,
            0
          ],
          "param_str": ""
        }
      ],
      "finishCond": [
        {
          "type": "QUEST_CONTENT_ENTER_MY_WORLD",
          "param": [
            3,
            0
          ],
          "param_str": ""
        }
      ],
      "failCond": [],
      "guide": {
        "type": "QUEST_GUIDE_LOCATION",
        "param": [
          "QuestBarExit"
        ],
        "guideScene": 1009,
        "guideStyle": "QUEST_GUIDE_STYLE_TARGET",
        "guideLayer": "QUEST_GUIDE_LAYER_SCENE"
      },
      "finishParent": true,
      "isRewind": true,
      "finishExec": [],
      "failExec": [],
      "beginExec": [],
      "exclusiveNpcList": [
        1001,
        1009,
        1004,
        1020,
        1465
      ],
      "exclusiveNpcPriority": 1000
    }
  ],
  "talks": [
    {
      "id": 4141201,
      "beginWay": "TALK_BEGIN_AUTO",
      "activeMode": "PLAY_MODE_SINGLE",
      "beginCond": [
        {
          "type": "QUEST_COND_STATE_EQUAL",
          "param": [
            "4141201",
            "2"
          ],
          "param_str": ""
        }
      ],
      "priority": 5,
      "initDialog": 414120101,
      "npcId": [
        1587
      ],
      "performCfg": "QuestDialogue/EQ/Fenghua1_41412/Q4141201",
      "heroTalk": "TALK_HERO_MAIN",
      "questId": 41412,
      "prePerformCfg": ""
    },
    {
      "id": 4141202,
      "beginWay": "TALK_BEGIN_MANUAL",
      "activeMode": "PLAY_MODE_SINGLE",
      "beginCond": [
        {
          "type": "QUEST_COND_STATE_EQUAL",
          "param": [
            "4141202",
            "2"
          ],
          "param_str": ""
        }
      ],
      "priority": 5,
      "initDialog": 414120201,
      "npcId": [
        1018
      ],
      "performCfg": "QuestDialogue/EQ/Fenghua1_41412/Q4141202",
      "heroTalk": "TALK_HERO_MAIN",
      "questId": 41412,
      "prePerformCfg": ""
    },
    {
      "id": 4141203,
      "beginWay": "TALK_BEGIN_MANUAL",
      "activeMode": "PLAY_MODE_SINGLE",
      "beginCond": [
        {
          "type": "QUEST_COND_STATE_EQUAL",
          "param": [
            "4141203",
            "2"
          ],
          "param_str": ""
        }
      ],
      "priority": 5,
      "initDialog": 414120301,
      "npcId": [
        1018
      ],
      "performCfg": "QuestDialogue/EQ/Fenghua1_41412/Q4141203",
      "heroTalk": "TALK_HERO_MAIN",
      "questId": 41412,
      "prePerformCfg": ""
    },
    {
      "id": 4141204,
      "beginWay": "TALK_BEGIN_MANUAL",
      "activeMode": "PLAY_MODE_SINGLE",
      "beginCond": [
        {
          "type": "QUEST_COND_STATE_EQUAL",
          "param": [
            "4141204",
            "2"
          ],
          "param_str": ""
        }
      ],
      "priority": 5,
      "initDialog": 414120401,
      "npcId": [
        1018
      ],
      "performCfg": "QuestDialogue/EQ/Fenghua1_41412/Q4141204",
      "heroTalk": "TALK_HERO_MAIN",
      "questId": 41412,
      "prePerformCfg": ""
    },
    {
      "id": 4141205,
      "beginWay": "TALK_BEGIN_MANUAL",
      "activeMode": "PLAY_MODE_SINGLE",
      "beginCond": [
        {
          "type": "QUEST_COND_STATE_EQUAL",
          "param": [
            "4141205",
            "2"
          ],
          "param_str": ""
        }
      ],
      "priority": 5,
      "initDialog": 414120501,
      "npcId": [
        1019
      ],
      "performCfg": "QuestDialogue/EQ/Fenghua1_41412/Q4141205",
      "heroTalk": "TALK_HERO_MAIN",
      "questId": 41412,
      "prePerformCfg": ""
    },
    {
      "id": 4141206,
      "beginWay": "TALK_BEGIN_MANUAL",
      "activeMode": "PLAY_MODE_SINGLE",
      "beginCond": [
        {
          "type": "QUEST_COND_STATE_EQUAL",
          "param": [
            "4141206",
            "2"
          ],
          "param_str": ""
        }
      ],
      "priority": 5,
      "initDialog": 414120601,
      "npcId": [
        1008
      ],
      "performCfg": "QuestDialogue/EQ/Fenghua1_41412/Q4141206",
      "heroTalk": "TALK_HERO_MAIN",
      "questId": 41412,
      "prePerformCfg": ""
    },
    {
      "id": 4141211,
      "beginWay": "TALK_BEGIN_MANUAL",
      "activeMode": "PLAY_MODE_SINGLE",
      "beginCond": [
        {
          "type": "QUEST_COND_STATE_EQUAL",
          "param": [
            "4141211",
            "2"
          ],
          "param_str": ""
        }
      ],
      "priority": 5,
      "initDialog": 414121101,
      "npcId": [
        1028
      ],
      "performCfg": "QuestDialogue/EQ/Fenghua1_41412/Q4141211",
      "heroTalk": "TALK_HERO_MAIN",
      "questId": 41412,
      "prePerformCfg": ""
    },
    {
      "id": 4141213,
      "beginWay": "TALK_BEGIN_MANUAL",
      "activeMode": "PLAY_MODE_SINGLE",
      "beginCond": [
        {
          "type": "QUEST_COND_STATE_EQUAL",
          "param": [
            "4141213",
            "2"
          ],
          "param_str": ""
        }
      ],
      "priority": 5,
      "initDialog": 414121301,
      "npcId": [
        1004
      ],
      "performCfg": "QuestDialogue/EQ/Fenghua1_41412/Q4141213",
      "heroTalk": "TALK_HERO_MAIN",
      "questId": 41412,
      "prePerformCfg": ""
    },
    {
      "id": 4141214,
      "beginWay": "TALK_BEGIN_MANUAL",
      "activeMode": "PLAY_MODE_SINGLE",
      "beginCond": [
        {
          "type": "QUEST_COND_STATE_EQUAL",
          "param": [
            "4141214",
            "2"
          ],
          "param_str": ""
        }
      ],
      "priority": 5,
      "initDialog": 414121401,
      "npcId": [
        1028
      ],
      "performCfg": "QuestDialogue/EQ/Fenghua1_41412/Q4141214",
      "heroTalk": "TALK_HERO_MAIN",
      "questId": 41412,
      "prePerformCfg": ""
    },
    {
      "id": 4141295,
      "beginWay": "TALK_BEGIN_MANUAL",
      "activeMode": "PLAY_MODE_SINGLE",
      "beginCond": [
        {
          "type": "QUEST_COND_STATE_EQUAL",
          "param": [
            "4141216",
            "2"
          ],
          "param_str": ""
        }
      ],
      "priority": 5,
      "initDialog": 414129501,
      "npcId": [
        1020
      ],
      "performCfg": "QuestDialogue/EQ/Fenghua1_41412/Q4141295",
      "heroTalk": "TALK_HERO_MAIN",
      "questId": 41412,
      "prePerformCfg": ""
    },
    {
      "id": 4141296,
      "beginWay": "TALK_BEGIN_MANUAL",
      "activeMode": "PLAY_MODE_SINGLE",
      "beginCond": [
        {
          "type": "QUEST_COND_STATE_EQUAL",
          "param": [
            "4141216",
            "2"
          ],
          "param_str": ""
        }
      ],
      "priority": 5,
      "initDialog": 414129601,
      "npcId": [
        1009
      ],
      "performCfg": "QuestDialogue/EQ/Fenghua1_41412/Q4141296",
      "heroTalk": "TALK_HERO_MAIN",
      "questId": 41412,
      "prePerformCfg": ""
    },
    {
      "id": 4141297,
      "beginWay": "TALK_BEGIN_MANUAL",
      "activeMode": "PLAY_MODE_SINGLE",
      "beginCond": [
        {
          "type": "QUEST_COND_STATE_EQUAL",
          "param": [
            "4141216",
            "2"
          ],
          "param_str": ""
        }
      ],
      "priority": 5,
      "initDialog": 414129701,
      "npcId": [
        1004
      ],
      "performCfg": "QuestDialogue/EQ/Fenghua1_41412/Q4141297",
      "heroTalk": "TALK_HERO_MAIN",
      "questId": 41412,
      "prePerformCfg": ""
    },
    {
      "id": 4141298,
      "beginWay": "TALK_BEGIN_MANUAL",
      "activeMode": "PLAY_MODE_SINGLE",
      "beginCondComb": "LOGIC_A_AND_ETCOR",
      "beginCond": [
        {
          "type": "QUEST_COND_STATE_EQUAL",
          "param": [
            "4141206",
            "3"
          ],
          "param_str": ""
        },
        {
          "type": "QUEST_COND_STATE_EQUAL",
          "param": [
            "4141207",
            "2"
          ],
          "param_str": ""
        },
        {
          "type": "QUEST_COND_STATE_EQUAL",
          "param": [
            "4141209",
            "2"
          ],
          "param_str": ""
        },
        {
          "type": "QUEST_COND_STATE_EQUAL",
          "param": [
            "4141208",
            "2"
          ],
          "param_str": ""
        }
      ],
      "priority": 5,
      "initDialog": 414129801,
      "npcId": [
        1028
      ],
      "performCfg": "QuestDialogue/EQ/Fenghua1_41412/Q4141298",
      "heroTalk": "TALK_HERO_MAIN",
      "questId": 41412,
      "prePerformCfg": ""
    },
    {
      "id": 4141299,
      "beginWay": "TALK_BEGIN_MANUAL",
      "activeMode": "PLAY_MODE_SINGLE",
      "beginCondComb": "LOGIC_A_AND_ETCOR",
      "beginCond": [
        {
          "type": "QUEST_COND_STATE_EQUAL",
          "param": [
            "4141201",
            "3"
          ],
          "param_str": ""
        },
        {
          "type": "QUEST_COND_STATE_EQUAL",
          "param": [
            "4141202",
            "2"
          ],
          "param_str": ""
        },
        {
          "type": "QUEST_COND_STATE_EQUAL",
          "param": [
            "4141203",
            "2"
          ],
          "param_str": ""
        },
        {
          "type": "QUEST_COND_STATE_EQUAL",
          "param": [
            "4141204",
            "2"
          ],
          "param_str": ""
        }
      ],
      "priority": 5,
      "initDialog": 414129901,
      "npcId": [
        1019
      ],
      "performCfg": "QuestDialogue/EQ/Fenghua1_41412/Q4141299",
      "heroTalk": "TALK_HERO_MAIN",
      "questId": 41412,
      "prePerformCfg": ""
    }
  ]
}