{
  "id": 41411,
  "type": "EQ",
  "series": 10021,
  "titleTextMapHash": 1424112471,
  "descTextMapHash": 1197521494,
  "luaPath": "Actor/Quest/EQ41411",
  "suggestTrackMainQuestList": [
    41412
  ],
  "rewardIdList": [
    141411
  ],
  "chapterId": 10022,
  "subQuests": [
    {
      "subId": 4141101,
      "mainId": 41411,
      "order": 2,
      "descTextMapHash": 3247489164,
      "acceptCond": [
        {
          "type": "QUEST_COND_STATE_EQUAL",
          "param": [
            4141115,
            3,
            0,
            0,
            0
          ],
          "param_str": ""
        }
      ],
      "finishCond": [
        {
          "type": "QUEST_CONTENT_COMPLETE_TALK",
          "param": [
            4141101,
            0
          ],
          "param_str": ""
        }
      ],
      "failCond": [],
      "guide": {
        "type": "QUEST_GUIDE_NPC",
        "param": [
          "1004"
        ],
        "guideScene": 1004,
        "guideStyle": "QUEST_GUIDE_STYLE_TARGET",
        "guideLayer": "QUEST_GUIDE_LAYER_SCENE"
      },
      "isRewind": true,
      "finishExec": [],
      "failExec": [],
      "beginExec": [],
      "exclusiveNpcList": [
        1001,
        1004
      ],
      "exclusiveNpcPriority": 1000
    },
    {
      "subId": 4141102,
      "mainId": 41411,
      "order": 4,
      "descTextMapHash": 682665956,
      "acceptCond": [
        {
          "type": "QUEST_COND_STATE_EQUAL",
          "param": [
            4141114,
            3,
            0,
            0,
            0
          ],
          "param_str": ""
        }
      ],
      "finishCond": [
        {
          "type": "QUEST_CONTENT_OBTAIN_ITEM",
          "param": [
            100055,
            0
          ],
          "param_str": "",
          "count": 2
        }
      ],
      "failCond": [],
      "guide": {
        "param": []
      },
      "isRewind": true,
      "finishExec": [],
      "failExec": [],
      "beginExec": [],
      "exclusiveNpcList": [
        1001,
        1004,
        1461
      ],
      "exclusiveNpcPriority": 1000
    },
    {
      "subId": 4141103,
      "mainId": 41411,
      "order": 5,
      "descTextMapHash": 1722466916,
      "acceptCond": [
        {
          "type": "QUEST_COND_STATE_EQUAL",
          "param": [
            4141102,
            3,
            0,
            0,
            0
          ],
          "param_str": ""
        }
      ],
      "finishCond": [
        {
          "type": "QUEST_CONTENT_COMPLETE_TALK",
          "param": [
            4141103,
            0
          ],
          "param_str": ""
        }
      ],
      "failCond": [],
      "guide": {
        "type": "QUEST_GUIDE_NPC",
        "param": [
          "146101"
        ],
        "guideScene": 3,
        "guideStyle": "QUEST_GUIDE_STYLE_TARGET",
        "guideLayer": "QUEST_GUIDE_LAYER_SCENE"
      },
      "isRewind": true,
      "finishExec": [
        {
          "type": "QUEST_EXEC_DEL_PACK_ITEM",
          "param": [
            "100055",
            "2"
          ],
          "param_str": ""
        }
      ],
      "failExec": [],
      "beginExec": [],
      "exclusiveNpcList": [
        1001,
        1004,
        1461
      ],
      "exclusiveNpcPriority": 1000
    },
    {
      "subId": 4141104,
      "mainId": 41411,
      "order": 15,
      "descTextMapHash": 2030669108,
      "acceptCondComb": "LOGIC_OR",
      "acceptCond": [
        {
          "type": "QUEST_COND_STATE_EQUAL",
          "param": [
            4141112,
            3,
            0,
            0,
            0
          ],
          "param_str": ""
        },
        {
          "type": "QUEST_COND_STATE_EQUAL",
          "param": [
            4141116,
            3,
            0,
            0,
            0
          ],
          "param_str": ""
        }
      ],
      "finishCond": [
        {
          "type": "QUEST_CONTENT_LUA_NOTIFY",
          "param": [
            0,
            0
          ],
          "param_str": "4141104",
          "count": 1
        }
      ],
      "failCond": [],
      "guide": {
        "type": "QUEST_GUIDE_LOCATION",
        "param": [
          "Q4141111Trigger",
          "30"
        ],
        "guideScene": 3,
        "guideStyle": "QUEST_GUIDE_STYLE_POINT",
        "guideLayer": "QUEST_GUIDE_LAYER_SCENE"
      },
      "showGuide": "QUEST_GUIDE_ITEM_DISABLE",
      "isRewind": true,
      "finishExec": [
        {
          "type": "QUEST_EXEC_UNREGISTER_DYNAMIC_GROUP",
          "param": [
            "133002943"
          ],
          "param_str": ""
        }
      ],
      "failExec": [],
      "beginExec": [
        {
          "type": "QUEST_EXEC_REGISTER_DYNAMIC_GROUP",
          "param": [
            "3",
            "133002943"
          ],
          "param_str": ""
        }
      ],
      "exclusiveNpcList": [
        1001,
        1008
      ],
      "exclusiveNpcPriority": 1000
    },
    {
      "subId": 4141105,
      "mainId": 41411,
      "order": 6,
      "descTextMapHash": 129256108,
      "acceptCond": [
        {
          "type": "QUEST_COND_STATE_EQUAL",
          "param": [
            4141103,
            3,
            0,
            0,
            0
          ],
          "param_str": ""
        }
      ],
      "finishCond": [
        {
          "type": "QUEST_CONTENT_COMPLETE_TALK",
          "param": [
            4141105,
            0
          ],
          "param_str": ""
        }
      ],
      "failCond": [],
      "guide": {
        "type": "QUEST_GUIDE_NPC",
        "param": [
          "1004"
        ],
        "guideScene": 1004,
        "guideStyle": "QUEST_GUIDE_STYLE_TARGET",
        "guideLayer": "QUEST_GUIDE_LAYER_SCENE"
      },
      "isRewind": true,
      "finishExec": [],
      "failExec": [],
      "beginExec": [],
      "exclusiveNpcList": [
        1001,
        1004
      ],
      "exclusiveNpcPriority": 1000
    },
    {
      "subId": 4141106,
      "mainId": 41411,
      "order": 7,
      "descTextMapHash": 3792196636,
      "acceptCond": [
        {
          "type": "QUEST_COND_STATE_EQUAL",
          "param": [
            4141105,
            3,
            0,
            0,
            0
          ],
          "param_str": ""
        }
      ],
      "finishCond": [
        {
          "type": "QUEST_CONTENT_FINISH_PLOT",
          "param": [
            4141106,
            0
          ],
          "param_str": ""
        }
      ],
      "failCond": [],
      "guide": {
        "type": "QUEST_GUIDE_LOCATION",
        "param": [
          "Q4141106Trigger"
        ],
        "guideScene": 3,
        "guideStyle": "QUEST_GUIDE_STYLE_POINT",
        "guideLayer": "QUEST_GUIDE_LAYER_SCENE"
      },
      "showGuide": "QUEST_GUIDE_ITEM_DISABLE",
      "isRewind": true,
      "finishExec": [],
      "failExec": [],
      "beginExec": [],
      "exclusiveNpcList": [
        1001,
        1006,
        1007
      ],
      "exclusiveNpcPriority": 1000
    },
    {
      "subId": 4141107,
      "mainId": 41411,
      "order": 8,
      "descTextMapHash": 2052998380,
      "acceptCond": [
        {
          "type": "QUEST_COND_STATE_EQUAL",
          "param": [
            4141106,
            3,
            0,
            0,
            0
          ],
          "param_str": ""
        }
      ],
      "finishCond": [
        {
          "type": "QUEST_CONTENT_COMPLETE_TALK",
          "param": [
            4141107,
            0
          ],
          "param_str": ""
        }
      ],
      "failCond": [],
      "guide": {
        "type": "QUEST_GUIDE_NPC",
        "param": [
          "1006"
        ],
        "guideScene": 3,
        "guideStyle": "QUEST_GUIDE_STYLE_TARGET",
        "guideLayer": "QUEST_GUIDE_LAYER_SCENE"
      },
      "isRewind": true,
      "finishExec": [],
      "failExec": [],
      "beginExec": [],
      "exclusiveNpcList": [
        1001,
        1006,
        1007
      ],
      "exclusiveNpcPriority": 1000
    },
    {
      "subId": 4141108,
      "mainId": 41411,
      "order": 9,
      "descTextMapHash": 331787732,
      "acceptCond": [
        {
          "type": "QUEST_COND_STATE_EQUAL",
          "param": [
            4141107,
            3,
            0,
            0,
            0
          ],
          "param_str": ""
        }
      ],
      "finishCond": [
        {
          "type": "QUEST_CONTENT_COMPLETE_TALK",
          "param": [
            4141108,
            0
          ],
          "param_str": ""
        }
      ],
      "failCond": [],
      "guide": {
        "type": "QUEST_GUIDE_NPC",
        "param": [
          "1008"
        ],
        "guideScene": 1008,
        "guideStyle": "QUEST_GUIDE_STYLE_TARGET",
        "guideLayer": "QUEST_GUIDE_LAYER_SCENE"
      },
      "isRewind": true,
      "finishExec": [],
      "failExec": [],
      "beginExec": [],
      "exclusiveNpcList": [
        1001,
        1008,
        1028
      ],
      "exclusiveNpcPriority": 1000
    },
    {
      "subId": 4141109,
      "mainId": 41411,
      "order": 10,
      "descTextMapHash": 1636356372,
      "acceptCond": [
        {
          "type": "QUEST_COND_STATE_EQUAL",
          "param": [
            4141108,
            3,
            0,
            0,
            0
          ],
          "param_str": ""
        }
      ],
      "finishCond": [
        {
          "type": "QUEST_CONTENT_ENTER_MY_WORLD",
          "param": [
            3,
            0
          ],
          "param_str": ""
        }
      ],
      "failCond": [],
      "guide": {
        "type": "QUEST_GUIDE_LOCATION",
        "param": [
          "Q4141109Barbara"
        ],
        "guideScene": 3,
        "guideStyle": "QUEST_GUIDE_STYLE_POINT",
        "guideLayer": "QUEST_GUIDE_LAYER_SCENE"
      },
      "isRewind": true,
      "finishExec": [],
      "failExec": [],
      "beginExec": [],
      "exclusiveNpcList": [
        1001,
        1008
      ],
      "exclusiveNpcPriority": 1000
    },
    {
      "subId": 4141110,
      "mainId": 41411,
      "order": 11,
      "descTextMapHash": 2949752860,
      "acceptCond": [
        {
          "type": "QUEST_COND_STATE_EQUAL",
          "param": [
            4141109,
            3,
            0,
            0,
            0
          ],
          "param_str": ""
        }
      ],
      "finishCond": [
        {
          "type": "QUEST_CONTENT_COMPLETE_TALK",
          "param": [
            4141110,
            0
          ],
          "param_str": ""
        }
      ],
      "failCond": [],
      "guide": {
        "type": "QUEST_GUIDE_NPC",
        "param": [
          "1008"
        ],
        "guideScene": 3,
        "guideStyle": "QUEST_GUIDE_STYLE_TARGET",
        "guideLayer": "QUEST_GUIDE_LAYER_SCENE"
      },
      "isRewind": true,
      "finishExec": [],
      "failExec": [],
      "beginExec": [],
      "exclusiveNpcList": [
        1001,
        1008,
        1020
      ],
      "exclusiveNpcPriority": 1000
    },
    {
      "subId": 4141111,
      "mainId": 41411,
      "order": 12,
      "descTextMapHash": 750304188,
      "acceptCond": [
        {
          "type": "QUEST_COND_STATE_EQUAL",
          "param": [
            4141110,
            3,
            0,
            0,
            0
          ],
          "param_str": ""
        }
      ],
      "finishCond": [
        {
          "type": "QUEST_CONTENT_FINISH_PLOT",
          "param": [
            4141111,
            0
          ],
          "param_str": ""
        }
      ],
      "failCond": [
        {
          "type": "QUEST_CONTENT_ADD_QUEST_PROGRESS",
          "param": [
            4141111,
            0
          ],
          "param_str": "",
          "count": 1
        }
      ],
      "guide": {
        "type": "QUEST_GUIDE_LOCATION",
        "param": [
          "Q4141111Trigger",
          "60"
        ],
        "guideScene": 3,
        "guideStyle": "QUEST_GUIDE_STYLE_POINT",
        "guideLayer": "QUEST_GUIDE_LAYER_SCENE"
      },
      "showGuide": "QUEST_GUIDE_ITEM_DISABLE",
      "failParentShow": "QUEST_HIDDEN",
      "isRewind": true,
      "finishExec": [],
      "failExec": [],
      "beginExec": [
        {
          "type": "QUEST_EXEC_REGISTER_DYNAMIC_GROUP",
          "param": [
            "3",
            "133002942"
          ],
          "param_str": ""
        }
      ],
      "exclusiveNpcList": [
        1001,
        1008
      ],
      "exclusiveNpcPriority": 1000
    },
    {
      "subId": 4141112,
      "mainId": 41411,
      "order": 14,
      "descTextMapHash": 2579412324,
      "acceptCondComb": "LOGIC_AND",
      "acceptCond": [
        {
          "type": "QUEST_COND_STATE_EQUAL",
          "param": [
            4141111,
            3,
            0,
            0,
            0
          ],
          "param_str": ""
        },
        {
          "type": "QUEST_COND_STATE_EQUAL",
          "param": [
            4141116,
            2,
            0,
            0,
            0
          ],
          "param_str": ""
        }
      ],
      "finishCond": [
        {
          "type": "QUEST_CONTENT_LUA_NOTIFY",
          "param": [
            0,
            0
          ],
          "param_str": "4141112",
          "count": 1
        }
      ],
      "failCond": [],
      "guide": {
        "type": "QUEST_GUIDE_LOCATION",
        "param": [
          "Q4141111Trigger",
          "30"
        ],
        "guideScene": 3,
        "guideStyle": "QUEST_GUIDE_STYLE_POINT",
        "guideLayer": "QUEST_GUIDE_LAYER_SCENE"
      },
      "showGuide": "QUEST_GUIDE_ITEM_DISABLE",
      "finishExec": [
        {
          "type": "QUEST_EXEC_UNREGISTER_DYNAMIC_GROUP",
          "param": [
            "133002942"
          ],
          "param_str": ""
        }
      ],
      "failExec": [],
      "beginExec": [],
      "exclusiveNpcList": [
        1001,
        1008
      ],
      "exclusiveNpcPriority": 1000
    },
    {
      "subId": 4141113,
      "mainId": 41411,
      "order": 16,
      "descTextMapHash": 4291185212,
      "acceptCond": [
        {
          "type": "QUEST_COND_STATE_EQUAL",
          "param": [
            4141104,
            3,
            0,
            0,
            0
          ],
          "param_str": ""
        }
      ],
      "finishCond": [
        {
          "type": "QUEST_CONTENT_COMPLETE_TALK",
          "param": [
            4141113,
            0
          ],
          "param_str": ""
        }
      ],
      "failCond": [],
      "guide": {
        "type": "QUEST_GUIDE_NPC",
        "param": [
          "1008"
        ],
        "guideScene": 3,
        "guideStyle": "QUEST_GUIDE_STYLE_TARGET",
        "guideLayer": "QUEST_GUIDE_LAYER_SCENE"
      },
      "finishParent": true,
      "isRewind": true,
      "finishExec": [],
      "failExec": [],
      "beginExec": [],
      "exclusiveNpcList": [
        1001,
        1008
      ],
      "exclusiveNpcPriority": 1000
    },
    {
      "subId": 4141114,
      "mainId": 41411,
      "order": 3,
      "descTextMapHash": 3663266252,
      "acceptCond": [
        {
          "type": "QUEST_COND_STATE_EQUAL",
          "param": [
            4141101,
            3,
            0,
            0,
            0
          ],
          "param_str": ""
        }
      ],
      "finishCond": [
        {
          "type": "QUEST_CONTENT_COMPLETE_TALK",
          "param": [
            4141114,
            0
          ],
          "param_str": ""
        }
      ],
      "failCond": [],
      "guide": {
        "type": "QUEST_GUIDE_LOCATION",
        "param": [
          "QuestBarEnter",
          "40"
        ],
        "guideScene": 3,
        "guideStyle": "QUEST_GUIDE_STYLE_POINT",
        "guideLayer": "QUEST_GUIDE_LAYER_SCENE"
      },
      "showGuide": "QUEST_GUIDE_ITEM_DISABLE",
      "isRewind": true,
      "finishExec": [],
      "failExec": [],
      "beginExec": [],
      "exclusiveNpcList": [
        1001,
        1004,
        1461
      ],
      "exclusiveNpcPriority": 1000
    },
    {
      "subId": 4141115,
      "mainId": 41411,
      "order": 1,
      "descTextMapHash": 1931385732,
      "acceptCond": [
        {
          "type": "QUEST_COND_ACTIVITY_COND",
          "param": [
            2003002,
            1,
            0,
            0,
            0
          ],
          "param_str": ""
        }
      ],
      "finishCond": [
        {
          "type": "QUEST_CONTENT_COMPLETE_TALK",
          "param": [
            4141115,
            0
          ],
          "param_str": ""
        }
      ],
      "failCond": [],
      "guide": {
        "type": "QUEST_GUIDE_LOCATION",
        "param": [
          "Q4141115Target"
        ],
        "guideScene": 3,
        "guideStyle": "QUEST_GUIDE_STYLE_POINT",
        "guideLayer": "QUEST_GUIDE_LAYER_SCENE"
      },
      "isRewind": true,
      "finishExec": [],
      "failExec": [],
      "beginExec": [],
      "exclusiveNpcList": [
        1457
      ],
      "exclusiveNpcPriority": 1000
    },
    {
      "subId": 4141116,
      "mainId": 41411,
      "order": 13,
      "descTextMapHash": 2785710172,
      "showType": "QUEST_HIDDEN",
      "acceptCond": [
        {
          "type": "QUEST_COND_STATE_EQUAL",
          "param": [
            4141110,
            3,
            0,
            0,
            0
          ],
          "param_str": ""
        }
      ],
      "finishCond": [
        {
          "type": "QUEST_CONTENT_LUA_NOTIFY",
          "param": [
            0,
            0
          ],
          "param_str": "4141112",
          "count": 1
        }
      ],
      "failCond": [],
      "guide": {
        "param": []
      },
      "finishExec": [
        {
          "type": "QUEST_EXEC_UNREGISTER_DYNAMIC_GROUP",
          "param": [
            "133002942"
          ],
          "param_str": ""
        },
        {
          "type": "QUEST_EXEC_ADD_QUEST_PROGRESS",
          "param": [
            "4141111",
            "1"
          ],
          "param_str": ""
        }
      ],
      "failExec": [],
      "beginExec": []
    }
  ],
  "talks": [
    {
      "id": 4141101,
      "beginWay": "TALK_BEGIN_MANUAL",
      "activeMode": "PLAY_MODE_SINGLE",
      "beginCond": [
        {
          "type": "QUEST_COND_STATE_EQUAL",
          "param": [
            "4141101",
            "2"
          ],
          "param_str": ""
        }
      ],
      "priority": 5,
      "initDialog": 414110101,
      "npcId": [
        1004
      ],
      "performCfg": "QuestDialogue/EQ/Fenghua1_41411/Q4141101",
      "heroTalk": "TALK_HERO_MAIN",
      "questId": 41411,
      "prePerformCfg": ""
    },
    {
      "id": 4141102,
      "beginWay": "TALK_BEGIN_MANUAL",
      "activeMode": "PLAY_MODE_SINGLE",
      "beginCond": [
        {
          "type": "QUEST_COND_STATE_EQUAL",
          "param": [
            "4141102",
            "2"
          ],
          "param_str": ""
        }
      ],
      "priority": 5,
      "initDialog": 414110201,
      "npcId": [
        146101
      ],
      "performCfg": "QuestDialogue/EQ/Fenghua1_41411/Q4141102",
      "heroTalk": "TALK_HERO_MAIN",
      "questId": 41411,
      "prePerformCfg": ""
    },
    {
      "id": 4141103,
      "beginWay": "TALK_BEGIN_MANUAL",
      "activeMode": "PLAY_MODE_SINGLE",
      "beginCond": [
        {
          "type": "QUEST_COND_STATE_EQUAL",
          "param": [
            "4141103",
            "2"
          ],
          "param_str": ""
        }
      ],
      "priority": 5,
      "initDialog": 414110301,
      "npcId": [
        146101
      ],
      "performCfg": "QuestDialogue/EQ/Fenghua1_41411/Q4141103",
      "heroTalk": "TALK_HERO_MAIN",
      "questId": 41411,
      "prePerformCfg": ""
    },
    {
      "id": 4141105,
      "beginWay": "TALK_BEGIN_MANUAL",
      "activeMode": "PLAY_MODE_SINGLE",
      "beginCond": [
        {
          "type": "QUEST_COND_STATE_EQUAL",
          "param": [
            "4141105",
            "2"
          ],
          "param_str": ""
        }
      ],
      "priority": 5,
      "initDialog": 414110501,
      "npcId": [
        1004
      ],
      "performCfg": "QuestDialogue/EQ/Fenghua1_41411/Q4141105",
      "heroTalk": "TALK_HERO_MAIN",
      "questId": 41411,
      "prePerformCfg": ""
    },
    {
      "id": 4141107,
      "beginWay": "TALK_BEGIN_MANUAL",
      "activeMode": "PLAY_MODE_SINGLE",
      "beginCond": [
        {
          "type": "QUEST_COND_STATE_EQUAL",
          "param": [
            "4141107",
            "2"
          ],
          "param_str": ""
        }
      ],
      "priority": 5,
      "initDialog": 414110701,
      "npcId": [
        1006
      ],
      "performCfg": "QuestDialogue/EQ/Fenghua1_41411/Q4141107",
      "heroTalk": "TALK_HERO_MAIN",
      "questId": 41411,
      "prePerformCfg": ""
    },
    {
      "id": 4141108,
      "beginWay": "TALK_BEGIN_MANUAL",
      "activeMode": "PLAY_MODE_SINGLE",
      "beginCond": [
        {
          "type": "QUEST_COND_STATE_EQUAL",
          "param": [
            "4141108",
            "2"
          ],
          "param_str": ""
        }
      ],
      "priority": 5,
      "initDialog": 414110801,
      "npcId": [
        1008
      ],
      "performCfg": "QuestDialogue/EQ/Fenghua1_41411/Q4141108",
      "heroTalk": "TALK_HERO_MAIN",
      "questId": 41411,
      "prePerformCfg": ""
    },
    {
      "id": 4141110,
      "beginWay": "TALK_BEGIN_MANUAL",
      "activeMode": "PLAY_MODE_SINGLE",
      "beginCond": [
        {
          "type": "QUEST_COND_STATE_EQUAL",
          "param": [
            "4141110",
            "2"
          ],
          "param_str": ""
        }
      ],
      "priority": 5,
      "initDialog": 414111001,
      "npcId": [
        1008
      ],
      "performCfg": "QuestDialogue/EQ/Fenghua1_41411/Q4141110",
      "heroTalk": "TALK_HERO_MAIN",
      "questId": 41411,
      "prePerformCfg": ""
    },
    {
      "id": 4141113,
      "beginWay": "TALK_BEGIN_MANUAL",
      "activeMode": "PLAY_MODE_SINGLE",
      "beginCond": [
        {
          "type": "QUEST_COND_STATE_EQUAL",
          "param": [
            "4141113",
            "2"
          ],
          "param_str": ""
        }
      ],
      "priority": 5,
      "initDialog": 414111302,
      "npcId": [
        1008
      ],
      "performCfg": "QuestDialogue/EQ/Fenghua1_41411/Q4141113",
      "heroTalk": "TALK_HERO_MAIN",
      "questId": 41411,
      "prePerformCfg": ""
    },
    {
      "id": 4141114,
      "beginWay": "TALK_BEGIN_MANUAL",
      "activeMode": "PLAY_MODE_SINGLE",
      "beginCond": [
        {
          "type": "QUEST_COND_STATE_EQUAL",
          "param": [
            "4141114",
            "2"
          ],
          "param_str": ""
        }
      ],
      "priority": 5,
      "initDialog": 414111401,
      "npcId": [
        146101
      ],
      "performCfg": "QuestDialogue/EQ/Fenghua1_41411/Q4141114",
      "heroTalk": "TALK_HERO_MAIN",
      "questId": 41411,
      "prePerformCfg": ""
    },
    {
      "id": 4141115,
      "beginWay": "TALK_BEGIN_MANUAL",
      "activeMode": "PLAY_MODE_SINGLE",
      "beginCond": [
        {
          "type": "QUEST_COND_STATE_EQUAL",
          "param": [
            "4141115",
            "2"
          ],
          "param_str": ""
        }
      ],
      "priority": 5,
      "initDialog": 414111501,
      "npcId": [
        1457
      ],
      "performCfg": "QuestDialogue/EQ/Fenghua1_41411/Q4141115",
      "heroTalk": "TALK_HERO_MAIN",
      "questId": 41411,
      "prePerformCfg": ""
    },
    {
      "id": 4141199,
      "beginWay": "TALK_BEGIN_MANUAL",
      "activeMode": "PLAY_MODE_SINGLE",
      "beginCondComb": "LOGIC_A_AND_ETCOR",
      "beginCond": [
        {
          "type": "QUEST_COND_STATE_EQUAL",
          "param": [
            "4141101",
            "3"
          ],
          "param_str": ""
        },
        {
          "type": "QUEST_COND_STATE_EQUAL",
          "param": [
            "4141114",
            "2"
          ],
          "param_str": ""
        },
        {
          "type": "QUEST_COND_STATE_EQUAL",
          "param": [
            "4141102",
            "2"
          ],
          "param_str": ""
        },
        {
          "type": "QUEST_COND_STATE_EQUAL",
          "param": [
            "4141103",
            "2"
          ],
          "param_str": ""
        }
      ],
      "priority": 5,
      "initDialog": 414119901,
      "npcId": [
        1004
      ],
      "performCfg": "QuestDialogue/EQ/Fenghua1_41411/Q4141199",
      "heroTalk": "TALK_HERO_MAIN",
      "questId": 41411,
      "prePerformCfg": ""
    }
  ]
}