{
  "id": 452,
  "type": "LQ",
  "series": 2005,
  "titleTextMapHash": 3789883025,
  "descTextMapHash": 3573594447,
  "luaPath": "Actor/Quest/LQ452",
  "suggestTrackMainQuestList": [
    453
  ],
  "rewardIdList": [
    100452
  ],
  "chapterId": 2005,
  "subQuests": [
    {
      "subId": 45201,
      "mainId": 452,
      "order": 1,
      "descTextMapHash": 3565727623,
      "acceptCond": [
        {
          "type": "QUEST_COND_STATE_EQUAL",
          "param": [
            45106,
            3,
            0
          ],
          "param_str": ""
        }
      ],
      "finishCond": [
        {
          "type": "QUEST_CONTENT_COMPLETE_TALK",
          "param": [
            45201,
            0
          ],
          "param_str": ""
        }
      ],
      "failCond": [],
      "guide": {
        "type": "QUEST_GUIDE_NPC",
        "param": [
          "1002"
        ],
        "guideScene": 3,
        "guideStyle": "QUEST_GUIDE_STYLE_TARGET",
        "guideLayer": "QUEST_GUIDE_LAYER_SCENE"
      },
      "isRewind": true,
      "finishExec": [],
      "failExec": [],
      "beginExec": [],
      "exclusiveNpcList": [
        1002
      ],
      "exclusiveNpcPriority": 1100
    },
    {
      "subId": 45202,
      "mainId": 452,
      "order": 2,
      "descTextMapHash": 11348943,
      "acceptCond": [
        {
          "type": "QUEST_COND_STATE_EQUAL",
          "param": [
            45201,
            3,
            0
          ],
          "param_str": ""
        }
      ],
      "finishCond": [
        {
          "type": "QUEST_CONTENT_FINISH_PLOT",
          "param": [
            45202,
            0
          ],
          "param_str": ""
        }
      ],
      "failCond": [],
      "guide": {
        "type": "QUEST_GUIDE_NPC",
        "param": [
          "1002"
        ],
        "guideScene": 3,
        "guideStyle": "QUEST_GUIDE_STYLE_TARGET",
        "guideLayer": "QUEST_GUIDE_LAYER_SCENE"
      },
      "isRewind": true,
      "finishExec": [],
      "failExec": [],
      "beginExec": [
        {
          "type": "QUEST_EXEC_REFRESH_GROUP_MONSTER",
          "param": [
            "133002091"
          ],
          "param_str": ""
        }
      ],
      "exclusiveNpcList": [
        1002,
        1631
      ],
      "exclusiveNpcPriority": 1100
    },
    {
      "subId": 45203,
      "mainId": 452,
      "order": 3,
      "descTextMapHash": 1908687823,
      "acceptCond": [
        {
          "type": "QUEST_COND_STATE_EQUAL",
          "param": [
            45202,
            3,
            0
          ],
          "param_str": ""
        }
      ],
      "finishCondComb": "LOGIC_OR",
      "finishCond": [
        {
          "type": "QUEST_CONTENT_COMPLETE_TALK",
          "param": [
            45202,
            0
          ],
          "param_str": ""
        },
        {
          "type": "QUEST_CONTENT_ADD_QUEST_PROGRESS",
          "param": [
            45203,
            0
          ],
          "param_str": "",
          "count": 1
        }
      ],
      "failCond": [],
      "guide": {
        "type": "QUEST_GUIDE_NPC",
        "param": [
          "1002"
        ],
        "guideScene": 3,
        "guideStyle": "QUEST_GUIDE_STYLE_TARGET",
        "guideLayer": "QUEST_GUIDE_LAYER_SCENE"
      },
      "finishExec": [],
      "failExec": [],
      "beginExec": [
        {
          "type": "QUEST_EXEC_REFRESH_GROUP_MONSTER",
          "param": [
            "133002091"
          ],
          "param_str": ""
        }
      ],
      "exclusiveNpcList": [
        1002,
        1631
      ],
      "exclusiveNpcPriority": 1100
    },
    {
      "subId": 45206,
      "mainId": 452,
      "order": 4,
      "descTextMapHash": 10720951,
      "showType": "QUEST_HIDDEN",
      "acceptCond": [
        {
          "type": "QUEST_COND_STATE_EQUAL",
          "param": [
            45202,
            3,
            0
          ],
          "param_str": ""
        }
      ],
      "finishCond": [
        {
          "type": "QUEST_CONTENT_CLEAR_GROUP_MONSTER",
          "param": [
            133002091,
            0
          ],
          "param_str": ""
        }
      ],
      "failCond": [],
      "guide": {
        "param": []
      },
      "finishExec": [
        {
          "type": "QUEST_EXEC_ADD_QUEST_PROGRESS",
          "param": [
            "45203",
            "1"
          ],
          "param_str": ""
        }
      ],
      "failExec": [],
      "beginExec": []
    },
    {
      "subId": 45204,
      "mainId": 452,
      "order": 5,
      "descTextMapHash": 289416967,
      "acceptCondComb": "LOGIC_AND",
      "acceptCond": [
        {
          "type": "QUEST_COND_STATE_EQUAL",
          "param": [
            45203,
            3,
            0
          ],
          "param_str": ""
        },
        {
          "type": "QUEST_COND_STATE_EQUAL",
          "param": [
            45206,
            2,
            0
          ],
          "param_str": ""
        }
      ],
      "finishCond": [
        {
          "type": "QUEST_CONTENT_CLEAR_GROUP_MONSTER",
          "param": [
            133002091,
            0
          ],
          "param_str": ""
        }
      ],
      "failCond": [],
      "guide": {
        "type": "QUEST_GUIDE_LOCATION",
        "param": [
          "Q452FightFarmer",
          "30"
        ],
        "guideScene": 3
      },
      "showGuide": "QUEST_GUIDE_ITEM_DISABLE",
      "finishExec": [],
      "failExec": [],
      "beginExec": [],
      "exclusiveNpcList": [
        1002,
        1631
      ],
      "exclusiveNpcPriority": 1100
    },
    {
      "subId": 45205,
      "mainId": 452,
      "order": 6,
      "descTextMapHash": 4149357943,
      "acceptCondComb": "LOGIC_OR",
      "acceptCond": [
        {
          "type": "QUEST_COND_STATE_EQUAL",
          "param": [
            45204,
            3,
            0
          ],
          "param_str": ""
        },
        {
          "type": "QUEST_COND_STATE_EQUAL",
          "param": [
            45206,
            3,
            0
          ],
          "param_str": ""
        }
      ],
      "finishCond": [
        {
          "type": "QUEST_CONTENT_COMPLETE_TALK",
          "param": [
            45203,
            0
          ],
          "param_str": ""
        }
      ],
      "failCond": [],
      "guide": {
        "type": "QUEST_GUIDE_NPC",
        "param": [
          "163101"
        ],
        "guideScene": 3,
        "guideStyle": "QUEST_GUIDE_STYLE_TARGET",
        "guideLayer": "QUEST_GUIDE_LAYER_SCENE"
      },
      "finishParent": true,
      "isRewind": true,
      "finishExec": [],
      "failExec": [],
      "beginExec": [],
      "exclusiveNpcList": [
        1002,
        1631
      ],
      "exclusiveNpcPriority": 1100
    }
  ],
  "talks": [
    {
      "id": 45201,
      "beginWay": "TALK_BEGIN_MANUAL",
      "activeMode": "PLAY_MODE_SINGLE",
      "beginCond": [
        {
          "type": "QUEST_COND_STATE_EQUAL",
          "param": [
            "45201",
            "2"
          ],
          "param_str": ""
        }
      ],
      "priority": 1,
      "initDialog": 4520101,
      "npcId": [
        1002
      ],
      "performCfg": "QuestDialogue/LQ/Razor1_452/Q45201",
      "questId": 452,
      "prePerformCfg": ""
    },
    {
      "id": 45202,
      "beginWay": "TALK_BEGIN_AUTO",
      "activeMode": "PLAY_MODE_SINGLE",
      "beginCond": [
        {
          "type": "QUEST_COND_STATE_EQUAL",
          "param": [
            "45203",
            "2"
          ],
          "param_str": ""
        }
      ],
      "initDialog": 4520201,
      "npcId": [
        1002
      ],
      "performCfg": "QuestDialogue/LQ/Razor1_452/Q45202",
      "questId": 452,
      "prePerformCfg": ""
    },
    {
      "id": 45203,
      "beginWay": "TALK_BEGIN_MANUAL",
      "activeMode": "PLAY_MODE_SINGLE",
      "beginCond": [
        {
          "type": "QUEST_COND_STATE_EQUAL",
          "param": [
            "45205",
            "2"
          ],
          "param_str": ""
        }
      ],
      "initDialog": 4520301,
      "npcId": [
        163101
      ],
      "performCfg": "QuestDialogue/LQ/Razor1_452/Q45203",
      "questId": 452,
      "prePerformCfg": ""
    },
    {
      "id": 45204,
      "beginWay": "TALK_BEGIN_MANUAL",
      "activeMode": "PLAY_MODE_SINGLE",
      "beginCond": [
        {
          "type": "QUEST_COND_STATE_EQUAL",
          "param": [
            "45204",
            "2"
          ],
          "param_str": ""
        }
      ],
      "initDialog": 4520401,
      "npcId": [
        1002
      ],
      "performCfg": "",
      "questId": 452,
      "prePerformCfg": ""
    }
  ]
}