{
  "id": 463,
  "type": "LQ",
  "series": 2001,
  "titleTextMapHash": 1990456193,
  "descTextMapHash": 2731205367,
  "luaPath": "Actor/Quest/LQ463",
  "rewardIdList": [
    100463
  ],
  "chapterId": 2001,
  "subQuests": [
    {
      "subId": 46300,
      "mainId": 463,
      "order": 1,
      "descTextMapHash": 1550219335,
      "acceptCond": [
        {
          "type": "QUEST_COND_STATE_EQUAL",
          "param": [
            46206,
            3,
            0
          ],
          "param_str": ""
        }
      ],
      "finishCond": [
        {
          "type": "QUEST_CONTENT_COMPLETE_TALK",
          "param": [
            46300,
            0
          ],
          "param_str": ""
        }
      ],
      "failCond": [],
      "guide": {
        "type": "QUEST_GUIDE_NPC",
        "param": [
          "1005"
        ],
        "guideScene": 3
      },
      "isRewind": true,
      "finishExec": [],
      "failExec": [],
      "beginExec": []
    },
    {
      "subId": 46301,
      "mainId": 463,
      "order": 2,
      "descTextMapHash": 2541189463,
      "acceptCond": [
        {
          "type": "QUEST_COND_STATE_EQUAL",
          "param": [
            46300,
            3,
            0
          ],
          "param_str": ""
        }
      ],
      "finishCond": [
        {
          "type": "QUEST_CONTENT_TRIGGER_FIRE",
          "param": [
            1076,
            0
          ],
          "param_str": ""
        }
      ],
      "failCond": [],
      "guide": {
        "type": "QUEST_GUIDE_LOCATION",
        "param": [
          "Q463Dungeon"
        ],
        "guideScene": 3,
        "guideStyle": "QUEST_GUIDE_STYLE_POINT",
        "guideLayer": "QUEST_GUIDE_LAYER_SCENE"
      },
      "isRewind": true,
      "finishExec": [
        {
          "type": "QUEST_EXEC_UNLOCK_POINT",
          "param": [
            "3",
            "52"
          ],
          "param_str": ""
        }
      ],
      "failExec": [],
      "beginExec": [],
      "sharedNpcList": [
        1004
      ],
      "exclusiveNpcPriority": 1100
    },
    {
      "subId": 46307,
      "mainId": 463,
      "order": 3,
      "descTextMapHash": 3825482823,
      "showType": "QUEST_HIDDEN",
      "acceptCond": [
        {
          "type": "QUEST_COND_STATE_EQUAL",
          "param": [
            46301,
            3,
            0
          ],
          "param_str": ""
        }
      ],
      "finishCond": [
        {
          "type": "QUEST_CONTENT_COMPLETE_TALK",
          "param": [
            46301,
            0
          ],
          "param_str": ""
        }
      ],
      "failCond": [],
      "guide": {
        "param": []
      },
      "finishExec": [],
      "failExec": [],
      "beginExec": [],
      "exclusiveNpcList": [
        1004
      ],
      "exclusiveNpcPriority": 1100
    },
    {
      "subId": 46302,
      "mainId": 463,
      "order": 4,
      "descTextMapHash": 998270583,
      "acceptCond": [
        {
          "type": "QUEST_COND_STATE_EQUAL",
          "param": [
            46307,
            3,
            0
          ],
          "param_str": ""
        }
      ],
      "finishCond": [
        {
          "type": "QUEST_CONTENT_TRIGGER_FIRE",
          "param": [
            1064,
            0
          ],
          "param_str": ""
        }
      ],
      "failCond": [],
      "guide": {
        "type": "QUEST_GUIDE_LOCATION",
        "param": [
          "Q463Dungeon"
        ],
        "guideScene": 3,
        "guideStyle": "QUEST_GUIDE_STYLE_POINT",
        "guideLayer": "QUEST_GUIDE_LAYER_SCENE"
      },
      "isRewind": true,
      "finishExec": [],
      "failExec": [],
      "beginExec": [],
      "exclusiveNpcList": [
        1004
      ],
      "exclusiveNpcPriority": 1100
    },
    {
      "subId": 46303,
      "mainId": 463,
      "order": 5,
      "isMpBlock": true,
      "descTextMapHash": 2176075023,
      "showType": "QUEST_HIDDEN",
      "banType": "BAN_GROUP_TRANSPORT_MAP",
      "acceptCond": [
        {
          "type": "QUEST_COND_STATE_EQUAL",
          "param": [
            46302,
            3,
            0
          ],
          "param_str": ""
        }
      ],
      "finishCond": [
        {
          "type": "QUEST_CONTENT_COMPLETE_TALK",
          "param": [
            46303,
            0
          ],
          "param_str": ""
        }
      ],
      "failCond": [],
      "guide": {
        "param": []
      },
      "finishExec": [
        {
          "type": "QUEST_EXEC_GRANT_TRIAL_AVATAR",
          "param": [
            "6"
          ],
          "param_str": ""
        },
        {
          "type": "QUEST_EXEC_REFRESH_GROUP_SUITE",
          "param": [
            "20016",
            "220016008,2"
          ],
          "param_str": ""
        }
      ],
      "failExec": [],
      "beginExec": [],
      "exclusiveNpcList": [
        1004
      ],
      "exclusiveNpcPriority": 1100
    },
    {
      "subId": 46304,
      "mainId": 463,
      "order": 6,
      "isMpBlock": true,
      "descTextMapHash": 2478269831,
      "banType": "BAN_GROUP_TRANSPORT_MAP",
      "acceptCond": [
        {
          "type": "QUEST_COND_STATE_EQUAL",
          "param": [
            46303,
            3,
            0
          ],
          "param_str": ""
        }
      ],
      "finishCond": [
        {
          "type": "QUEST_CONTENT_MONSTER_DIE",
          "param": [
            24010101,
            0
          ],
          "param_str": ""
        }
      ],
      "failCondComb": "LOGIC_OR",
      "failCond": [
        {
          "type": "QUEST_CONTENT_FAIL_DUNGEON",
          "param": [
            2000
          ],
          "param_str": ""
        },
        {
          "type": "QUEST_CONTENT_ENTER_MY_WORLD",
          "param": [
            3
          ],
          "param_str": ""
        }
      ],
      "guide": {
        "param": []
      },
      "finishExec": [],
      "failExec": [
        {
          "type": "QUEST_EXEC_ROLLBACK_QUEST",
          "param": [
            "46302"
          ],
          "param_str": ""
        },
        {
          "type": "QUEST_EXEC_REMOVE_TRIAL_AVATAR",
          "param": [
            "6"
          ],
          "param_str": ""
        }
      ],
      "beginExec": [],
      "exclusiveNpcList": [
        1004
      ],
      "exclusiveNpcPriority": 1100,
      "trialAvatarList": [
        6
      ]
    },
    {
      "subId": 46305,
      "mainId": 463,
      "order": 7,
      "isMpBlock": true,
      "descTextMapHash": 1488540135,
      "showType": "QUEST_HIDDEN",
      "banType": "BAN_GROUP_TRANSPORT_MAP",
      "acceptCond": [
        {
          "type": "QUEST_COND_STATE_EQUAL",
          "param": [
            46304,
            3,
            0
          ],
          "param_str": ""
        }
      ],
      "finishCondComb": "LOGIC_OR",
      "finishCond": [
        {
          "type": "QUEST_CONTENT_COMPLETE_TALK",
          "param": [
            46305,
            0
          ],
          "param_str": ""
        },
        {
          "type": "QUEST_CONTENT_COMPLETE_TALK",
          "param": [
            46306,
            0
          ],
          "param_str": ""
        }
      ],
      "failCond": [],
      "guide": {
        "param": []
      },
      "finishParent": true,
      "finishExec": [
        {
          "type": "QUEST_EXEC_DEL_PACK_ITEM",
          "param": [
            "100171",
            "1"
          ],
          "param_str": ""
        },
        {
          "type": "QUEST_EXEC_DEL_PACK_ITEM",
          "param": [
            "100172",
            "1"
          ],
          "param_str": ""
        },
        {
          "type": "QUEST_EXEC_DEL_PACK_ITEM",
          "param": [
            "100173",
            "1"
          ],
          "param_str": ""
        },
        {
          "type": "QUEST_EXEC_REMOVE_TRIAL_AVATAR",
          "param": [
            "6"
          ],
          "param_str": ""
        }
      ],
      "failExec": [],
      "beginExec": [],
      "exclusiveNpcList": [
        1004
      ],
      "exclusiveNpcPriority": 1100,
      "trialAvatarList": [
        6
      ]
    },
    {
      "subId": 46306,
      "mainId": 463,
      "order": 8,
      "descTextMapHash": 1994876319,
      "showType": "QUEST_HIDDEN",
      "acceptCond": [
        {
          "type": "QUEST_COND_STATE_EQUAL",
          "param": [
            46302,
            3,
            0
          ],
          "param_str": ""
        }
      ],
      "finishCond": [
        {
          "type": "QUEST_CONTENT_FINISH_PLOT",
          "param": [
            0,
            0
          ],
          "param_str": ""
        }
      ],
      "failCond": [],
      "guide": {
        "param": []
      },
      "finishExec": [
        {
          "type": "QUEST_EXEC_NOTIFY_GROUP_LUA",
          "param": [
            "20016",
            "220016003"
          ],
          "param_str": ""
        }
      ],
      "failExec": [],
      "beginExec": []
    },
    {
      "subId": 46308,
      "mainId": 463,
      "order": 9,
      "descTextMapHash": 1368546351,
      "showType": "QUEST_HIDDEN",
      "acceptCond": [
        {
          "type": "QUEST_COND_STATE_EQUAL",
          "param": [
            46304,
            3,
            0
          ],
          "param_str": ""
        }
      ],
      "finishCondComb": "LOGIC_OR",
      "finishCond": [
        {
          "type": "QUEST_CONTENT_COMPLETE_TALK",
          "param": [
            46305,
            0
          ],
          "param_str": ""
        },
        {
          "type": "QUEST_CONTENT_COMPLETE_TALK",
          "param": [
            46306,
            0
          ],
          "param_str": ""
        }
      ],
      "failCond": [],
      "guide": {
        "param": []
      },
      "finishParent": true,
      "finishExec": [
        {
          "type": "QUEST_EXEC_LOCK_POINT",
          "param": [
            "3",
            "52"
          ],
          "param_str": ""
        }
      ],
      "failExec": [],
      "beginExec": []
    }
  ],
  "talks": [
    {
      "id": 46300,
      "beginWay": "TALK_BEGIN_MANUAL",
      "activeMode": "PLAY_MODE_SINGLE",
      "beginCond": [
        {
          "type": "QUEST_COND_STATE_EQUAL",
          "param": [
            "46300",
            "2"
          ],
          "param_str": ""
        }
      ],
      "priority": 4,
      "initDialog": 4630001,
      "npcId": [
        1005
      ],
      "performCfg": "QuestDialogue/LQ/Kaeya1_463/Q46300",
      "heroTalk": "TALK_HERO_MAIN",
      "questId": 463,
      "prePerformCfg": ""
    },
    {
      "id": 46301,
      "beginWay": "TALK_BEGIN_MANUAL",
      "activeMode": "PLAY_MODE_SINGLE",
      "beginCond": [
        {
          "type": "QUEST_COND_STATE_EQUAL",
          "param": [
            "46307",
            "2"
          ],
          "param_str": ""
        }
      ],
      "priority": 5,
      "initDialog": 4630101,
      "npcId": [
        1005
      ],
      "performCfg": "QuestDialogue/LQ/Kaeya1_463/Q46301",
      "heroTalk": "TALK_HERO_MAIN",
      "questId": 463,
      "prePerformCfg": ""
    },
    {
      "id": 46303,
      "beginWay": "TALK_BEGIN_MANUAL",
      "activeMode": "PLAY_MODE_SINGLE",
      "beginCond": [
        {
          "type": "QUEST_COND_STATE_EQUAL",
          "param": [
            "46303",
            "2"
          ],
          "param_str": ""
        }
      ],
      "priority": 5,
      "initDialog": 4630301,
      "npcId": [
        1005
      ],
      "performCfg": "QuestDialogue/LQ/Kaeya1_463/Q46303",
      "heroTalk": "TALK_HERO_MAIN",
      "questId": 463,
      "prePerformCfg": ""
    },
    {
      "id": 46305,
      "beginWay": "TALK_BEGIN_MANUAL",
      "activeMode": "PLAY_MODE_SINGLE",
      "beginCond": [
        {
          "type": "QUEST_COND_STATE_EQUAL",
          "param": [
            "46305",
            "2"
          ],
          "param_str": ""
        }
      ],
      "priority": 4,
      "initDialog": 4630501,
      "npcId": [
        1005
      ],
      "performCfg": "QuestDialogue/LQ/Kaeya1_463/Q46305",
      "heroTalk": "TALK_HERO_MAIN",
      "questId": 463,
      "prePerformCfg": ""
    },
    {
      "id": 46306,
      "beginWay": "TALK_BEGIN_MANUAL",
      "activeMode": "PLAY_MODE_SINGLE",
      "beginCondComb": "LOGIC_AND",
      "beginCond": [
        {
          "type": "QUEST_COND_STATE_EQUAL",
          "param": [
            "46305",
            "2"
          ],
          "param_str": ""
        },
        {
          "type": "QUEST_COND_STATE_EQUAL",
          "param": [
            "46205",
            "2"
          ],
          "param_str": ""
        },
        {
          "type": "QUEST_COND_STATE_EQUAL",
          "param": [
            "46207",
            "2"
          ],
          "param_str": ""
        }
      ],
      "priority": 5,
      "initDialog": 4630601,
      "npcId": [
        1005
      ],
      "performCfg": "QuestDialogue/LQ/Kaeya1_463/Q46306",
      "heroTalk": "TALK_HERO_MAIN",
      "questId": 463,
      "prePerformCfg": ""
    }
  ]
}