{
  "id": 492,
  "type": "LQ",
  "series": 2006,
  "titleTextMapHash": 797114329,
  "descTextMapHash": 2787715519,
  "luaPath": "",
  "showType": "QUEST_HIDDEN",
  "chapterId": 2006,
  "subQuests": [
    {
      "subId": 49201,
      "mainId": 492,
      "order": 1,
      "descTextMapHash": 1952717832,
      "showType": "QUEST_HIDDEN",
      "acceptCond": [
        {
          "type": "QUEST_COND_STATE_EQUAL",
          "param": [
            48602,
            3,
            0
          ],
          "param_str": ""
        }
      ],
      "finishCond": [
        {
          "type": "QUEST_CONTENT_COMPLETE_TALK",
          "param": [
            49010,
            0
          ],
          "param_str": ""
        }
      ],
      "failCond": [],
      "guide": {
        "type": "QUEST_GUIDE_NPC",
        "param": [
          "1008"
        ],
        "guideScene": 1008
      },
      "finishParent": true,
      "isRewind": true,
      "finishExec": [],
      "failExec": [],
      "beginExec": []
    }
  ]
}