{
  "id": 70018,
  "type": "WQ",
  "titleTextMapHash": 515786959,
  "descTextMapHash": 558086894,
  "luaPath": "Actor/Quest/WQ70018",
  "suggestTrackMainQuestList": [
    70015
  ],
  "rewardIdList": [
    170018
  ],
  "subQuests": [
    {
      "subId": 7001801,
      "mainId": 70018,
      "order": 1,
      "descTextMapHash": 1754491076,
      "acceptCond": [
        {
          "type": "QUEST_COND_ACTIVITY_COND",
          "param": [
            5024010,
            1,
            0,
            0,
            0
          ],
          "param_str": ""
        }
      ],
      "finishCond": [
        {
          "type": "QUEST_CONTENT_COMPLETE_TALK",
          "param": [
            7001801,
            0
          ],
          "param_str": ""
        }
      ],
      "failCond": [],
      "guide": {
        "type": "QUEST_GUIDE_LOCATION",
        "autoGuide": "QUEST_GUIDE_AUTO_ENABLE",
        "param": [
          "Q70017guild",
          "55"
        ],
        "guideScene": 3,
        "guideStyle": "QUEST_GUIDE_STYLE_TARGET",
        "guideLayer": "QUEST_GUIDE_LAYER_SCENE"
      },
      "isRewind": true,
      "finishExec": [],
      "failExec": [],
      "beginExec": [
        {
          "type": "QUEST_EXEC_REGISTER_DYNAMIC_GROUP",
          "param": [
            "3",
            "133102119"
          ],
          "param_str": ""
        }
      ],
      "exclusiveNpcList": [
        11007,
        11008,
        1565
      ],
      "exclusiveNpcPriority": 1100
    },
    {
      "subId": 7001802,
      "mainId": 70018,
      "order": 2,
      "descTextMapHash": 1991121716,
      "acceptCond": [
        {
          "type": "QUEST_COND_STATE_EQUAL",
          "param": [
            7001801,
            3,
            0,
            0,
            0
          ],
          "param_str": ""
        }
      ],
      "finishCondComb": "LOGIC_OR",
      "finishCond": [
        {
          "type": "QUEST_CONTENT_COMPLETE_TALK",
          "param": [
            7001803,
            0
          ],
          "param_str": ""
        },
        {
          "type": "QUEST_CONTENT_COMPLETE_TALK",
          "param": [
            7001803,
            0
          ],
          "param_str": ""
        }
      ],
      "failCond": [],
      "guide": {
        "type": "QUEST_GUIDE_NPC",
        "autoGuide": "QUEST_GUIDE_AUTO_ENABLE",
        "param": [
          "11007",
          "SELECT_NPC_NONE"
        ],
        "guideScene": 3,
        "guideStyle": "QUEST_GUIDE_STYLE_TARGET",
        "guideLayer": "QUEST_GUIDE_LAYER_SCENE"
      },
      "isRewind": true,
      "finishExec": [],
      "failExec": [],
      "beginExec": [
        {
          "type": "QUEST_EXEC_ACTIVE_ITEM_GIVING",
          "param": [
            "7001802"
          ],
          "param_str": ""
        }
      ],
      "exclusiveNpcList": [
        11007,
        11008,
        1565
      ],
      "exclusiveNpcPriority": 1100
    },
    {
      "subId": 7001803,
      "mainId": 70018,
      "order": 3,
      "descTextMapHash": 4054074868,
      "showType": "QUEST_HIDDEN",
      "acceptCondComb": "LOGIC_AND",
      "acceptCond": [
        {
          "type": "QUEST_COND_STATE_EQUAL",
          "param": [
            7001801,
            3,
            0,
            0,
            0
          ],
          "param_str": ""
        },
        {
          "type": "QUEST_COND_ITEM_GIVING_FINISHED",
          "param": [
            7001802,
            700180201,
            0,
            0,
            0
          ],
          "param_str": ""
        }
      ],
      "finishCond": [
        {
          "type": "QUEST_CONTENT_COMPLETE_TALK",
          "param": [
            7001803,
            0
          ],
          "param_str": ""
        }
      ],
      "failCond": [],
      "guide": {
        "param": []
      },
      "finishParent": true,
      "isRewind": true,
      "finishExec": [
        {
          "type": "QUEST_EXEC_UNREGISTER_DYNAMIC_GROUP",
          "param": [
            "133102119"
          ],
          "param_str": ""
        }
      ],
      "failExec": [],
      "beginExec": [],
      "exclusiveNpcList": [
        11007,
        11008,
        1565
      ],
      "exclusiveNpcPriority": 1100
    },
    {
      "subId": 7001804,
      "mainId": 70018,
      "order": 4,
      "descTextMapHash": 2119341180,
      "showType": "QUEST_HIDDEN",
      "acceptCondComb": "LOGIC_AND",
      "acceptCond": [
        {
          "type": "QUEST_COND_STATE_EQUAL",
          "param": [
            7001801,
            3,
            0,
            0,
            0
          ],
          "param_str": ""
        },
        {
          "type": "QUEST_COND_ITEM_GIVING_FINISHED",
          "param": [
            7001802,
            700180202,
            0,
            0,
            0
          ],
          "param_str": ""
        }
      ],
      "finishCond": [
        {
          "type": "QUEST_CONTENT_COMPLETE_TALK",
          "param": [
            7001804,
            0
          ],
          "param_str": ""
        }
      ],
      "failCond": [],
      "guide": {
        "param": []
      },
      "isRewind": true,
      "finishExec": [
        {
          "type": "QUEST_EXEC_ROLLBACK_QUEST",
          "param": [
            "7001802"
          ],
          "param_str": ""
        }
      ],
      "failExec": [],
      "beginExec": [],
      "exclusiveNpcList": [
        11007,
        11008,
        1565
      ],
      "exclusiveNpcPriority": 1100
    }
  ],
  "talks": [
    {
      "id": 7001801,
      "beginWay": "TALK_BEGIN_MANUAL",
      "activeMode": "PLAY_MODE_HOST",
      "beginCond": [
        {
          "type": "QUEST_COND_STATE_EQUAL",
          "param": [
            "7001801",
            "2"
          ],
          "param_str": ""
        }
      ],
      "priority": 5,
      "initDialog": 700180101,
      "npcId": [
        11007,
        156501
      ],
      "performCfg": "QuestDialogue/WQ/MimiTomo_70024/Q7001801",
      "heroTalk": "TALK_HERO_MAIN",
      "questId": 70018,
      "prePerformCfg": ""
    },
    {
      "id": 7001802,
      "beginWay": "TALK_BEGIN_MANUAL",
      "activeMode": "PLAY_MODE_HOST",
      "beginCondComb": "LOGIC_AND",
      "beginCond": [
        {
          "type": "QUEST_COND_STATE_EQUAL",
          "param": [
            "7001802",
            "2"
          ],
          "param_str": ""
        },
        {
          "type": "QUEST_COND_ITEM_GIVING_ACTIVED",
          "param": [
            "7001802"
          ],
          "param_str": ""
        }
      ],
      "priority": 5,
      "initDialog": 700180201,
      "npcId": [
        11007
      ],
      "performCfg": "",
      "heroTalk": "TALK_HERO_MAIN",
      "questId": 70018,
      "prePerformCfg": ""
    },
    {
      "id": 7001803,
      "beginWay": "TALK_BEGIN_AUTO",
      "activeMode": "PLAY_MODE_HOST",
      "beginCondComb": "LOGIC_AND",
      "beginCond": [
        {
          "type": "QUEST_COND_STATE_EQUAL",
          "param": [
            "7001803",
            "2"
          ],
          "param_str": ""
        }
      ],
      "priority": 6,
      "initDialog": 700180301,
      "npcId": [
        11007,
        156501
      ],
      "performCfg": "QuestDialogue/WQ/MimiTomo_70024/Q7001802",
      "heroTalk": "TALK_HERO_MAIN",
      "questId": 70018,
      "prePerformCfg": ""
    },
    {
      "id": 7001804,
      "beginWay": "TALK_BEGIN_AUTO",
      "activeMode": "PLAY_MODE_HOST",
      "beginCondComb": "LOGIC_AND",
      "beginCond": [
        {
          "type": "QUEST_COND_STATE_EQUAL",
          "param": [
            "7001804",
            "2"
          ],
          "param_str": ""
        }
      ],
      "priority": 6,
      "initDialog": 700180401,
      "npcId": [
        11007
      ],
      "performCfg": "QuestDialogue/WQ/MimiTomo_70024/Q7001803",
      "heroTalk": "TALK_HERO_MAIN",
      "questId": 70018,
      "prePerformCfg": ""
    }
  ]
}