{
  "id": 70128,
  "type": "WQ",
  "titleTextMapHash": 1430201791,
  "descTextMapHash": 3677782446,
  "luaPath": "",
  "showType": "QUEST_HIDDEN",
  "rewardIdList": [
    170128
  ],
  "subQuests": [
    {
      "subId": 7012801,
      "mainId": 70128,
      "order": 1,
      "descTextMapHash": 2994948148,
      "showType": "QUEST_HIDDEN",
      "acceptCond": [
        {
          "type": "QUEST_COND_QUEST_GLOBAL_VAR_EQUAL",
          "param": [
            10001,
            1,
            0,
            0,
            0
          ],
          "param_str": ""
        }
      ],
      "finishCond": [
        {
          "type": "QUEST_CONTENT_COMPLETE_TALK",
          "param": [
            7012801,
            0
          ],
          "param_str": ""
        }
      ],
      "failCond": [],
      "guide": {
        "param": []
      },
      "finishParent": true,
      "isRewind": true,
      "finishExec": [
        {
          "type": "QUEST_EXEC_NOTIFY_GROUP_LUA",
          "param": [
            "3",
            "133008599"
          ],
          "param_str": ""
        }
      ],
      "failExec": [],
      "beginExec": []
    }
  ],
  "talks": [
    {
      "id": 7012801,
      "beginWay": "TALK_BEGIN_MANUAL",
      "initDialog": 701280101,
      "npcId": [
        20216
      ],
      "performCfg": "",
      "questId": 70128,
      "prePerformCfg": "",
      "lockGameTime": true
    }
  ]
}