{
  "id": 70515,
  "type": "WQ",
  "titleTextMapHash": 651227543,
  "descTextMapHash": 1396373982,
  "luaPath": "Actor/Quest/WQ70515",
  "rewardIdList": [
    170515
  ],
  "subQuests": [
    {
      "subId": 7051501,
      "mainId": 70515,
      "order": 1,
      "descTextMapHash": 3941275156,
      "acceptCond": [
        {
          "type": "QUEST_COND_ACTIVITY_COND",
          "param": [
            5082002,
            1,
            0,
            0,
            0
          ],
          "param_str": ""
        }
      ],
      "finishCond": [
        {
          "type": "QUEST_CONTENT_COMPLETE_TALK",
          "param": [
            7051501,
            0
          ],
          "param_str": ""
        }
      ],
      "failCond": [],
      "guide": {
        "type": "QUEST_GUIDE_NPC",
        "autoGuide": "QUEST_GUIDE_AUTO_ENABLE",
        "param": [
          "30217"
        ],
        "guideScene": 3,
        "guideStyle": "QUEST_GUIDE_STYLE_TARGET",
        "guideLayer": "QUEST_GUIDE_LAYER_SCENE"
      },
      "isRewind": true,
      "finishExec": [
        {
          "type": "QUEST_EXEC_NOTIFY_GROUP_LUA",
          "param": [
            "3",
            "133004074"
          ],
          "param_str": ""
        }
      ],
      "failExec": [],
      "beginExec": [],
      "exclusiveNpcList": [
        30217
      ],
      "exclusiveNpcPriority": 1100
    },
    {
      "subId": 7051502,
      "mainId": 70515,
      "order": 2,
      "descTextMapHash": 3768036988,
      "acceptCond": [
        {
          "type": "QUEST_COND_STATE_EQUAL",
          "param": [
            7051501,
            3,
            0,
            0,
            0
          ],
          "param_str": ""
        }
      ],
      "finishCond": [
        {
          "type": "QUEST_CONTENT_ACTIVITY_TRIGGER_UPDATE",
          "param": [
            5082,
            101
          ],
          "param_str": "",
          "count": 1
        }
      ],
      "failCond": [],
      "guide": {
        "type": "QUEST_GUIDE_LOCATION",
        "autoGuide": "QUEST_GUIDE_AUTO_ENABLE",
        "param": [
          "Q7051502_guide",
          "0"
        ],
        "guideScene": 3,
        "guideStyle": "QUEST_GUIDE_STYLE_TARGET",
        "guideLayer": "QUEST_GUIDE_LAYER_SCENE"
      },
      "isRewind": true,
      "finishExec": [
        {
          "type": "QUEST_EXEC_NOTIFY_GROUP_LUA",
          "param": [
            "3",
            "133004074"
          ],
          "param_str": ""
        }
      ],
      "failExec": [],
      "beginExec": [],
      "exclusiveNpcList": [
        30217
      ],
      "exclusiveNpcPriority": 1100
    },
    {
      "subId": 7051503,
      "mainId": 70515,
      "order": 3,
      "descTextMapHash": 365819644,
      "acceptCond": [
        {
          "type": "QUEST_COND_STATE_EQUAL",
          "param": [
            7051502,
            3,
            0,
            0,
            0
          ],
          "param_str": ""
        }
      ],
      "finishCond": [
        {
          "type": "QUEST_CONTENT_COMPLETE_TALK",
          "param": [
            7051502,
            0
          ],
          "param_str": ""
        }
      ],
      "failCond": [],
      "guide": {
        "type": "QUEST_GUIDE_NPC",
        "autoGuide": "QUEST_GUIDE_AUTO_ENABLE",
        "param": [
          "30217"
        ],
        "guideScene": 3,
        "guideStyle": "QUEST_GUIDE_STYLE_TARGET",
        "guideLayer": "QUEST_GUIDE_LAYER_SCENE"
      },
      "finishParent": true,
      "isRewind": true,
      "finishExec": [],
      "failExec": [],
      "beginExec": [],
      "exclusiveNpcList": [
        30217
      ],
      "exclusiveNpcPriority": 1100
    }
  ],
  "talks": [
    {
      "id": 7051501,
      "beginWay": "TALK_BEGIN_MANUAL",
      "activeMode": "PLAY_MODE_SINGLE",
      "beginCond": [
        {
          "type": "QUEST_COND_STATE_EQUAL",
          "param": [
            "7051501",
            "2"
          ],
          "param_str": ""
        }
      ],
      "priority": 5,
      "initDialog": 705150101,
      "npcId": [
        30217
      ],
      "performCfg": "QuestDialogue/WQ/Mengde_70515/Q7051501",
      "heroTalk": "TALK_HERO_MAIN",
      "questId": 70515,
      "prePerformCfg": ""
    },
    {
      "id": 7051502,
      "beginWay": "TALK_BEGIN_MANUAL",
      "activeMode": "PLAY_MODE_SINGLE",
      "beginCond": [
        {
          "type": "QUEST_COND_STATE_EQUAL",
          "param": [
            "7051503",
            "2"
          ],
          "param_str": ""
        }
      ],
      "priority": 5,
      "initDialog": 705150201,
      "npcId": [
        30217
      ],
      "performCfg": "QuestDialogue/WQ/Mengde_70515/Q7051502",
      "heroTalk": "TALK_HERO_MAIN",
      "questId": 70515,
      "prePerformCfg": ""
    },
    {
      "id": 7051503,
      "beginWay": "TALK_BEGIN_MANUAL",
      "activeMode": "PLAY_MODE_SINGLE",
      "beginCond": [
        {
          "type": "QUEST_COND_STATE_EQUAL",
          "param": [
            "7051502",
            "2"
          ],
          "param_str": ""
        }
      ],
      "priority": 5,
      "initDialog": 705150301,
      "npcId": [
        30217
      ],
      "performCfg": "",
      "heroTalk": "TALK_HERO_MAIN",
      "questId": 70515,
      "prePerformCfg": ""
    }
  ]
}