{
  "id": 70514,
  "type": "WQ",
  "titleTextMapHash": 4169114919,
  "descTextMapHash": 3188716686,
  "luaPath": "Actor/Quest/WQ70514",
  "rewardIdList": [
    170514
  ],
  "subQuests": [
    {
      "subId": 7051401,
      "mainId": 70514,
      "order": 1,
      "descTextMapHash": 1499576052,
      "acceptCond": [
        {
          "type": "QUEST_COND_ACTIVITY_COND",
          "param": [
            5082001,
            1,
            0,
            0,
            0
          ],
          "param_str": ""
        }
      ],
      "finishCond": [
        {
          "type": "QUEST_CONTENT_COMPLETE_TALK",
          "param": [
            7051401,
            0
          ],
          "param_str": ""
        }
      ],
      "failCond": [],
      "guide": {
        "type": "QUEST_GUIDE_NPC",
        "autoGuide": "QUEST_GUIDE_AUTO_ENABLE",
        "param": [
          "30217"
        ],
        "guideScene": 3,
        "guideStyle": "QUEST_GUIDE_STYLE_TARGET",
        "guideLayer": "QUEST_GUIDE_LAYER_SCENE"
      },
      "isRewind": true,
      "finishExec": [],
      "failExec": [],
      "beginExec": [],
      "exclusiveNpcList": [
        30217,
        1437
      ],
      "exclusiveNpcPriority": 1100
    },
    {
      "subId": 7051402,
      "mainId": 70514,
      "order": 2,
      "descTextMapHash": 3521688180,
      "acceptCond": [
        {
          "type": "QUEST_COND_STATE_EQUAL",
          "param": [
            7051401,
            3,
            0,
            0,
            0
          ],
          "param_str": ""
        }
      ],
      "finishCond": [
        {
          "type": "QUEST_CONTENT_LUA_NOTIFY",
          "param": [
            0,
            0
          ],
          "param_str": "7051402",
          "count": 1
        }
      ],
      "failCond": [],
      "guide": {
        "type": "QUEST_GUIDE_LOCATION",
        "autoGuide": "QUEST_GUIDE_AUTO_ENABLE",
        "param": [
          "Q7051402_guide",
          "30"
        ],
        "guideScene": 3,
        "guideStyle": "QUEST_GUIDE_STYLE_TARGET",
        "guideLayer": "QUEST_GUIDE_LAYER_SCENE"
      },
      "isRewind": true,
      "finishExec": [],
      "failExec": [],
      "beginExec": [
        {
          "type": "QUEST_EXEC_REGISTER_DYNAMIC_GROUP",
          "param": [
            "3",
            "133003070"
          ],
          "param_str": ""
        }
      ],
      "exclusiveNpcList": [
        30217
      ],
      "exclusiveNpcPriority": 1100
    },
    {
      "subId": 7051403,
      "mainId": 70514,
      "order": 3,
      "descTextMapHash": 3341014924,
      "acceptCond": [
        {
          "type": "QUEST_COND_STATE_EQUAL",
          "param": [
            7051402,
            3,
            0,
            0,
            0
          ],
          "param_str": ""
        }
      ],
      "finishCond": [
        {
          "type": "QUEST_CONTENT_FINISH_ITEM_GIVING",
          "param": [
            7051403,
            0
          ],
          "param_str": ""
        }
      ],
      "failCond": [],
      "guide": {
        "type": "QUEST_GUIDE_NPC",
        "autoGuide": "QUEST_GUIDE_AUTO_ENABLE",
        "param": [
          "30217"
        ],
        "guideScene": 3,
        "guideStyle": "QUEST_GUIDE_STYLE_TARGET",
        "guideLayer": "QUEST_GUIDE_LAYER_SCENE"
      },
      "isRewind": true,
      "finishExec": [
        {
          "type": "QUEST_EXEC_UNREGISTER_DYNAMIC_GROUP",
          "param": [
            "133003070"
          ],
          "param_str": ""
        }
      ],
      "failExec": [],
      "beginExec": [
        {
          "type": "QUEST_EXEC_ACTIVE_ITEM_GIVING",
          "param": [
            "7051403"
          ],
          "param_str": ""
        }
      ],
      "exclusiveNpcList": [
        30217
      ],
      "exclusiveNpcPriority": 1100
    },
    {
      "subId": 7051404,
      "mainId": 70514,
      "order": 4,
      "descTextMapHash": 2298771268,
      "acceptCond": [
        {
          "type": "QUEST_COND_STATE_EQUAL",
          "param": [
            7051403,
            3,
            0,
            0,
            0
          ],
          "param_str": ""
        }
      ],
      "finishCond": [
        {
          "type": "QUEST_CONTENT_COMPLETE_TALK",
          "param": [
            7051404,
            0
          ],
          "param_str": ""
        }
      ],
      "failCond": [],
      "guide": {
        "type": "QUEST_GUIDE_NPC",
        "autoGuide": "QUEST_GUIDE_AUTO_ENABLE",
        "param": [
          "30217"
        ],
        "guideScene": 3,
        "guideStyle": "QUEST_GUIDE_STYLE_TARGET",
        "guideLayer": "QUEST_GUIDE_LAYER_SCENE"
      },
      "finishParent": true,
      "isRewind": true,
      "finishExec": [
        {
          "type": "QUEST_EXEC_NOTIFY_GROUP_LUA",
          "param": [
            "3",
            "133004074"
          ],
          "param_str": ""
        }
      ],
      "failExec": [],
      "beginExec": [],
      "exclusiveNpcList": [
        30217
      ],
      "exclusiveNpcPriority": 1100
    }
  ],
  "talks": [
    {
      "id": 7051401,
      "beginWay": "TALK_BEGIN_MANUAL",
      "activeMode": "PLAY_MODE_SINGLE",
      "beginCond": [
        {
          "type": "QUEST_COND_STATE_EQUAL",
          "param": [
            "7051401",
            "2"
          ],
          "param_str": ""
        }
      ],
      "priority": 5,
      "initDialog": 705140101,
      "npcId": [
        30217,
        1437
      ],
      "performCfg": "QuestDialogue/WQ/Mengde_70514/Q7051401",
      "heroTalk": "TALK_HERO_MAIN",
      "questId": 70514,
      "prePerformCfg": ""
    },
    {
      "id": 7051403,
      "beginWay": "TALK_BEGIN_MANUAL",
      "activeMode": "PLAY_MODE_SINGLE",
      "beginCond": [
        {
          "type": "QUEST_COND_ITEM_GIVING_ACTIVED",
          "param": [
            "7051403"
          ],
          "param_str": ""
        }
      ],
      "priority": 5,
      "initDialog": 705140301,
      "npcId": [
        30217
      ],
      "performCfg": "QuestDialogue/WQ/Mengde_70514/Q7051403",
      "heroTalk": "TALK_HERO_MAIN",
      "questId": 70514,
      "prePerformCfg": ""
    },
    {
      "id": 7051404,
      "beginWay": "TALK_BEGIN_MANUAL",
      "activeMode": "PLAY_MODE_SINGLE",
      "beginCond": [
        {
          "type": "QUEST_COND_STATE_EQUAL",
          "param": [
            "7051404",
            "2"
          ],
          "param_str": ""
        }
      ],
      "priority": 5,
      "initDialog": 705140401,
      "npcId": [
        30217
      ],
      "performCfg": "QuestDialogue/WQ/Mengde_70514/Q7051404",
      "heroTalk": "TALK_HERO_MAIN",
      "questId": 70514,
      "prePerformCfg": ""
    },
    {
      "id": 7051405,
      "beginWay": "TALK_BEGIN_MANUAL",
      "activeMode": "PLAY_MODE_SINGLE",
      "beginCond": [
        {
          "type": "QUEST_COND_STATE_EQUAL",
          "param": [
            "7051402",
            "2"
          ],
          "param_str": ""
        }
      ],
      "priority": 3,
      "initDialog": 705140501,
      "npcId": [
        30217
      ],
      "performCfg": "",
      "heroTalk": "TALK_HERO_MAIN",
      "questId": 70514,
      "prePerformCfg": "",
      "lowPriority": true
    }
  ]
}