{
  "id": 70523,
  "type": "WQ",
  "titleTextMapHash": 992165359,
  "descTextMapHash": 1595864646,
  "luaPath": "Actor/Quest/WQ70523",
  "subQuests": [
    {
      "mainId": 70523,
      "subId": 7052301,
      "order": 1,
      "showType": "QUEST_HIDDEN",
      "acceptCond": [
        {
          "type": "QUEST_COND_UNKNOWN",
          "param": [
            0,
            0
          ]
        }
      ],
      "finishCond": [],
      "failCond": [],
      "guide": {},
      "finishExec": [],
      "failExec": [],
      "beginExec": []
    },
    {
      "mainId": 70523,
      "subId": 7052302,
      "order": 4,
      "descTextMapHash": 2882205332,
      "acceptCond": [
        {
          "type": "QUEST_COND_UNKNOWN",
          "param": [
            0,
            0
          ]
        }
      ],
      "finishCond": [],
      "failCond": [],
      "guide": {
        "type": "QUEST_GUIDE_NPC",
        "autoGuide": "QUEST_GUIDE_AUTO_ENABLE",
        "param": [
          "30235"
        ],
        "guideScene": 3,
        "guideStyle": "QUEST_GUIDE_STYLE_TARGET",
        "guideLayer": "QUEST_GUIDE_LAYER_SCENE"
      },
      "finishExec": [],
      "failExec": [],
      "beginExec": []
    },
    {
      "mainId": 70523,
      "subId": 7052303,
      "order": 6,
      "descTextMapHash": 2998003228,
      "acceptCond": [
        {
          "type": "QUEST_COND_UNKNOWN",
          "param": [
            0,
            0
          ]
        }
      ],
      "finishCond": [],
      "failCond": [],
      "guide": {
        "type": "QUEST_GUIDE_NPC",
        "autoGuide": "QUEST_GUIDE_AUTO_ENABLE",
        "param": [
          "30239"
        ],
        "guideScene": 3,
        "guideStyle": "QUEST_GUIDE_STYLE_TARGET",
        "guideLayer": "QUEST_GUIDE_LAYER_SCENE"
      },
      "finishExec": [],
      "failExec": [],
      "beginExec": []
    },
    {
      "mainId": 70523,
      "subId": 7052304,
      "order": 3,
      "descTextMapHash": 3006090684,
      "acceptCond": [
        {
          "type": "QUEST_COND_UNKNOWN",
          "param": [
            0,
            0
          ]
        }
      ],
      "finishCond": [],
      "failCond": [],
      "guide": {
        "type": "QUEST_GUIDE_NPC",
        "autoGuide": "QUEST_GUIDE_AUTO_ENABLE",
        "param": [
          "30239"
        ],
        "guideScene": 3,
        "guideStyle": "QUEST_GUIDE_STYLE_TARGET",
        "guideLayer": "QUEST_GUIDE_LAYER_SCENE"
      },
      "finishExec": [],
      "failExec": [],
      "beginExec": []
    },
    {
      "mainId": 70523,
      "subId": 7052305,
      "order": 2,
      "descTextMapHash": 3700277876,
      "acceptCond": [
        {
          "type": "QUEST_COND_UNKNOWN",
          "param": [
            0,
            0
          ]
        }
      ],
      "finishCond": [],
      "failCond": [],
      "guide": {
        "type": "QUEST_GUIDE_LOCATION",
        "autoGuide": "QUEST_GUIDE_AUTO_ENABLE",
        "param": [
          "Q7052305_N30239",
          "30"
        ],
        "guideScene": 3,
        "guideStyle": "QUEST_GUIDE_STYLE_POINT",
        "guideLayer": "QUEST_GUIDE_LAYER_SCENE"
      },
      "finishExec": [],
      "failExec": [],
      "beginExec": []
    },
    {
      "mainId": 70523,
      "subId": 7052306,
      "order": 5,
      "descTextMapHash": 1508391868,
      "acceptCond": [
        {
          "type": "QUEST_COND_UNKNOWN",
          "param": [
            0,
            0
          ]
        }
      ],
      "finishCond": [],
      "failCond": [],
      "guide": {
        "type": "QUEST_GUIDE_NPC",
        "autoGuide": "QUEST_GUIDE_AUTO_ENABLE",
        "param": [
          "30235"
        ],
        "guideScene": 3,
        "guideStyle": "QUEST_GUIDE_STYLE_TARGET",
        "guideLayer": "QUEST_GUIDE_LAYER_SCENE"
      },
      "finishExec": [],
      "failExec": [],
      "beginExec": []
    }
  ],
  "talks": [
    {
      "id": 7052301,
      "beginWay": "TALK_BEGIN_MANUAL",
      "activeMode": "PLAY_MODE_HOST",
      "beginCond": [
        {
          "type": "QUEST_COND_STATE_EQUAL",
          "param": [
            "7052304",
            "2"
          ],
          "param_str": ""
        }
      ],
      "priority": 5,
      "initDialog": 705230101,
      "npcId": [
        30239
      ],
      "performCfg": "QuestDialogue/WQ/Vintage_70523/Q7052301",
      "heroTalk": "TALK_HERO_MAIN",
      "questId": 70523,
      "prePerformCfg": ""
    },
    {
      "id": 7052302,
      "beginWay": "TALK_BEGIN_MANUAL",
      "activeMode": "PLAY_MODE_HOST",
      "beginCond": [
        {
          "type": "QUEST_COND_STATE_EQUAL",
          "param": [
            "7052302",
            "2"
          ],
          "param_str": ""
        }
      ],
      "priority": 5,
      "initDialog": 705230201,
      "npcId": [
        30235
      ],
      "performCfg": "QuestDialogue/WQ/Vintage_70523/Q7052302",
      "heroTalk": "TALK_HERO_MAIN",
      "questId": 70523,
      "prePerformCfg": ""
    },
    {
      "id": 7052303,
      "beginWay": "TALK_BEGIN_MANUAL",
      "activeMode": "PLAY_MODE_HOST",
      "beginCond": [
        {
          "type": "QUEST_COND_STATE_EQUAL",
          "param": [
            "7052303",
            "2"
          ],
          "param_str": ""
        }
      ],
      "priority": 5,
      "initDialog": 705230301,
      "npcId": [
        30239
      ],
      "performCfg": "QuestDialogue/WQ/Vintage_70523/Q7052303",
      "heroTalk": "TALK_HERO_MAIN",
      "questId": 70523,
      "prePerformCfg": ""
    },
    {
      "id": 7052304,
      "beginWay": "TALK_BEGIN_MANUAL",
      "activeMode": "PLAY_MODE_HOST",
      "beginCond": [
        {
          "type": "QUEST_COND_STATE_EQUAL",
          "param": [
            "7052302",
            "2"
          ],
          "param_str": ""
        }
      ],
      "priority": 5,
      "initDialog": 705230401,
      "npcId": [
        30239
      ],
      "performCfg": "",
      "heroTalk": "TALK_HERO_MAIN",
      "questId": 70523,
      "prePerformCfg": ""
    },
    {
      "id": 7052321,
      "activeMode": "PLAY_MODE_HOST",
      "priority": 3,
      "initDialog": 705232101,
      "npcId": [
        30235
      ],
      "performCfg": "QuestDialogue/WQ/Vintage_70523/Q7052321",
      "heroTalk": "TALK_HERO_MAIN",
      "questId": 70523,
      "prePerformCfg": ""
    },
    {
      "id": 7052322,
      "activeMode": "PLAY_MODE_HOST",
      "priority": 3,
      "initDialog": 705232201,
      "npcId": [
        30235
      ],
      "performCfg": "QuestDialogue/WQ/Vintage_70523/Q7052322",
      "heroTalk": "TALK_HERO_MAIN",
      "questId": 70523,
      "prePerformCfg": ""
    },
    {
      "id": 7052323,
      "activeMode": "PLAY_MODE_HOST",
      "priority": 3,
      "nextTalks": [
        7052326
      ],
      "initDialog": 705232301,
      "npcId": [
        30235
      ],
      "performCfg": "QuestDialogue/WQ/Vintage_70523/Q7052323",
      "heroTalk": "TALK_HERO_MAIN",
      "questId": 70523,
      "prePerformCfg": ""
    },
    {
      "id": 7052324,
      "activeMode": "PLAY_MODE_HOST",
      "priority": 3,
      "nextTalks": [
        7052326
      ],
      "initDialog": 705232401,
      "npcId": [
        30235
      ],
      "performCfg": "QuestDialogue/WQ/Vintage_70523/Q7052324",
      "heroTalk": "TALK_HERO_MAIN",
      "questId": 70523,
      "prePerformCfg": ""
    },
    {
      "id": 7052325,
      "activeMode": "PLAY_MODE_HOST",
      "priority": 3,
      "nextTalks": [
        7052326
      ],
      "initDialog": 705232501,
      "npcId": [
        30235
      ],
      "performCfg": "QuestDialogue/WQ/Vintage_70523/Q7052325",
      "heroTalk": "TALK_HERO_MAIN",
      "questId": 70523,
      "prePerformCfg": ""
    },
    {
      "id": 7052326,
      "beginWay": "TALK_BEGIN_MANUAL",
      "activeMode": "PLAY_MODE_HOST",
      "beginCond": [
        {
          "type": "QUEST_COND_STATE_EQUAL",
          "param": [
            "7052306",
            "2"
          ],
          "param_str": ""
        }
      ],
      "priority": 3,
      "initDialog": 705232601,
      "npcId": [
        30235
      ],
      "performCfg": "QuestDialogue/WQ/Vintage_70523/Q7052326",
      "heroTalk": "TALK_HERO_MAIN",
      "questId": 70523,
      "prePerformCfg": ""
    }
  ]
}