{
  "id": 70653,
  "type": "WQ",
  "titleTextMapHash": 1325659087,
  "descTextMapHash": 1086736742,
  "luaPath": "",
  "rewardIdList": [
    170653
  ],
  "subQuests": [
    {
      "subId": 7065301,
      "mainId": 70653,
      "order": 1,
      "descTextMapHash": 3888943972,
      "acceptCondComb": "LOGIC_AND",
      "acceptCond": [
        {
          "type": "QUEST_COND_ACTIVITY_COND",
          "param": [
            50170101,
            1,
            0,
            0,
            0
          ],
          "param_str": ""
        },
        {
          "type": "QUEST_COND_PLAYER_LEVEL_EQUAL_GREATER",
          "param": [
            20,
            0,
            0,
            0,
            0
          ],
          "param_str": ""
        }
      ],
      "finishCond": [
        {
          "type": "QUEST_CONTENT_COMPLETE_TALK",
          "param": [
            7065301,
            0
          ],
          "param_str": ""
        }
      ],
      "failCond": [],
      "guide": {
        "type": "QUEST_GUIDE_NPC",
        "autoGuide": "QUEST_GUIDE_AUTO_ENABLE",
        "param": [
          "2078"
        ],
        "guideScene": 3,
        "guideStyle": "QUEST_GUIDE_STYLE_START",
        "guideLayer": "QUEST_GUIDE_LAYER_UI"
      },
      "finishParent": true,
      "finishExec": [
        {
          "type": "QUEST_EXEC_SET_QUEST_GLOBAL_VAR",
          "param": [
            "50005",
            "1"
          ],
          "param_str": ""
        }
      ],
      "failExec": [],
      "beginExec": [],
      "exclusiveNpcList": [
        2078
      ],
      "exclusiveNpcPriority": 1100
    }
  ]
}