{
  "id": 70662,
  "type": "WQ",
  "titleTextMapHash": 3418516967,
  "descTextMapHash": 1163218742,
  "luaPath": "Actor/Quest/WQ70662",
  "showType": "QUEST_HIDDEN",
  "rewardIdList": [
    170662
  ],
  "subQuests": [
    {
      "subId": 7066201,
      "mainId": 70662,
      "order": 1,
      "descTextMapHash": 2931870316,
      "showType": "QUEST_HIDDEN",
      "acceptCond": [
        {
          "type": "QUEST_COND_STATE_EQUAL",
          "param": [
            7066101,
            3,
            0,
            0,
            0
          ],
          "param_str": ""
        }
      ],
      "finishCond": [
        {
          "type": "QUEST_CONTENT_QUEST_STATE_EQUAL",
          "param": [
            7066103,
            3
          ],
          "param_str": ""
        }
      ],
      "failCond": [],
      "guide": {
        "param": []
      },
      "finishParent": true,
      "finishExec": [],
      "failExec": [],
      "beginExec": []
    }
  ]
}