{
  "id": 70710,
  "type": "WQ",
  "titleTextMapHash": 406866879,
  "descTextMapHash": 3856998486,
  "luaPath": "Actor/Quest/WQ70710",
  "subQuests": [
    {
      "subId": 7071001,
      "mainId": 70710,
      "order": 1,
      "descTextMapHash": 3729881212,
      "acceptCond": [
        {
          "type": "QUEST_COND_CITY_REPUTATION_REQUEST",
          "param": [
            0,
            0,
            0,
            0,
            0
          ],
          "param_str": ""
        }
      ],
      "finishCond": [
        {
          "type": "QUEST_CONTENT_FINISH_ITEM_GIVING",
          "param": [
            7071001,
            0
          ],
          "param_str": ""
        }
      ],
      "failCond": [],
      "guide": {
        "type": "QUEST_GUIDE_NPC",
        "param": [
          "1656"
        ],
        "guideScene": 3,
        "guideLayer": "QUEST_GUIDE_LAYER_SCENE"
      },
      "isRewind": true,
      "finishExec": [],
      "failExec": [],
      "beginExec": [
        {
          "type": "QUEST_EXEC_ACTIVE_ITEM_GIVING",
          "param": [
            "7071001"
          ],
          "param_str": ""
        }
      ],
      "exclusiveNpcList": [
        1656
      ],
      "exclusiveNpcPriority": 2000
    },
    {
      "subId": 7071002,
      "mainId": 70710,
      "order": 2,
      "descTextMapHash": 505775236,
      "acceptCond": [
        {
          "type": "QUEST_COND_STATE_EQUAL",
          "param": [
            7071001,
            3,
            0,
            0,
            0
          ],
          "param_str": ""
        }
      ],
      "finishCond": [
        {
          "type": "QUEST_CONTENT_COMPLETE_TALK",
          "param": [
            7071002,
            0
          ],
          "param_str": ""
        }
      ],
      "failCond": [],
      "guide": {
        "type": "QUEST_GUIDE_NPC",
        "param": [
          "1656"
        ],
        "guideScene": 3,
        "guideLayer": "QUEST_GUIDE_LAYER_SCENE"
      },
      "finishParent": true,
      "isRewind": true,
      "finishExec": [],
      "failExec": [],
      "beginExec": [],
      "exclusiveNpcList": [
        1656
      ],
      "exclusiveNpcPriority": 2000
    }
  ],
  "talks": [
    {
      "id": 7071001,
      "beginWay": "TALK_BEGIN_MANUAL",
      "activeMode": "PLAY_MODE_SINGLE",
      "beginCondComb": "LOGIC_AND",
      "beginCond": [
        {
          "type": "QUEST_COND_STATE_EQUAL",
          "param": [
            "7071001",
            "2"
          ],
          "param_str": ""
        },
        {
          "type": "QUEST_COND_ITEM_GIVING_ACTIVED",
          "param": [
            "7071001"
          ],
          "param_str": ""
        }
      ],
      "priority": 1,
      "initDialog": 707100101,
      "npcId": [
        1656
      ],
      "performCfg": "",
      "questId": 70710,
      "dontBlockDaily": true,
      "prePerformCfg": ""
    },
    {
      "id": 7071002,
      "beginWay": "TALK_BEGIN_AUTO",
      "activeMode": "PLAY_MODE_SINGLE",
      "beginCond": [
        {
          "type": "QUEST_COND_STATE_EQUAL",
          "param": [
            "7071002",
            "2"
          ],
          "param_str": ""
        }
      ],
      "priority": 1,
      "initDialog": 707100201,
      "npcId": [
        1656
      ],
      "performCfg": "",
      "questId": 70710,
      "prePerformCfg": ""
    }
  ]
}