{
  "id": 70914,
  "type": "WQ",
  "titleTextMapHash": 3807532359,
  "descTextMapHash": 2260666942,
  "luaPath": "",
  "showType": "QUEST_HIDDEN",
  "rewardIdList": [
    551010
  ],
  "subQuests": [
    {
      "subId": 7091401,
      "mainId": 70914,
      "order": 1,
      "descTextMapHash": 1221907316,
      "showType": "QUEST_HIDDEN",
      "acceptCondComb": "LOGIC_OR",
      "acceptCond": [
        {
          "type": "QUEST_COND_COMPLETE_TALK",
          "param": [
            7091401,
            0,
            0,
            0,
            0
          ],
          "param_str": ""
        }
      ],
      "finishCond": [
        {
          "type": "QUEST_CONTENT_COMPLETE_TALK",
          "param": [
            7091401,
            0
          ],
          "param_str": ""
        }
      ],
      "failCond": [],
      "guide": {
        "param": []
      },
      "finishParent": true,
      "finishExec": [],
      "failExec": [],
      "beginExec": []
    }
  ]
}