{
  "id": 70922,
  "type": "WQ",
  "titleTextMapHash": 1570427823,
  "descTextMapHash": 3616301070,
  "luaPath": "",
  "showType": "QUEST_HIDDEN",
  "rewardIdList": [
    551020
  ],
  "subQuests": [
    {
      "subId": 7092201,
      "mainId": 70922,
      "order": 1,
      "descTextMapHash": 3108677748,
      "showType": "QUEST_HIDDEN",
      "acceptCondComb": "LOGIC_OR",
      "acceptCond": [
        {
          "type": "QUEST_COND_COMPLETE_TALK",
          "param": [
            7092201,
            0,
            0,
            0,
            0
          ],
          "param_str": ""
        }
      ],
      "finishCond": [
        {
          "type": "QUEST_CONTENT_COMPLETE_TALK",
          "param": [
            7092201,
            0
          ],
          "param_str": ""
        }
      ],
      "failCond": [],
      "guide": {
        "param": []
      },
      "finishParent": true,
      "finishExec": [],
      "failExec": [],
      "beginExec": []
    }
  ]
}