{
  "id": 70939,
  "type": "WQ",
  "titleTextMapHash": 2841668071,
  "descTextMapHash": 933453214,
  "luaPath": "",
  "showType": "QUEST_HIDDEN",
  "rewardIdList": [
    551038
  ],
  "subQuests": [
    {
      "subId": 7093901,
      "mainId": 70939,
      "order": 1,
      "descTextMapHash": 620185300,
      "showType": "QUEST_HIDDEN",
      "acceptCondComb": "LOGIC_OR",
      "acceptCond": [
        {
          "type": "QUEST_COND_COMPLETE_TALK",
          "param": [
            7093901,
            0,
            0,
            0,
            0
          ],
          "param_str": ""
        }
      ],
      "finishCond": [
        {
          "type": "QUEST_CONTENT_COMPLETE_TALK",
          "param": [
            7093901,
            0
          ],
          "param_str": ""
        }
      ],
      "failCond": [],
      "guide": {
        "param": []
      },
      "finishParent": true,
      "finishExec": [],
      "failExec": [],
      "beginExec": []
    }
  ]
}