{
  "id": 71039,
  "type": "WQ",
  "titleTextMapHash": 2465890159,
  "descTextMapHash": 485183102,
  "luaPath": "Actor/Quest/WQ71039",
  "rewardIdList": [
    171039
  ],
  "subQuests": [
    {
      "subId": 7103901,
      "mainId": 71039,
      "order": 1,
      "descTextMapHash": 386421028,
      "showType": "QUEST_HIDDEN",
      "acceptCond": [
        {
          "type": "QUEST_COND_STATE_EQUAL",
          "param": [
            7103815,
            3,
            0,
            0,
            0
          ],
          "param_str": ""
        }
      ],
      "finishCond": [
        {
          "type": "QUEST_CONTENT_TIME_VAR_PASS_DAY",
          "param": [
            71038,
            0
          ],
          "param_str": "1"
        }
      ],
      "failCond": [],
      "guide": {
        "param": []
      },
      "isRewind": true,
      "finishExec": [],
      "failExec": [],
      "beginExec": []
    },
    {
      "subId": 7103902,
      "mainId": 71039,
      "order": 2,
      "descTextMapHash": 2596390756,
      "showType": "QUEST_HIDDEN",
      "acceptCond": [
        {
          "type": "QUEST_COND_STATE_EQUAL",
          "param": [
            7103901,
            3,
            0,
            0,
            0
          ],
          "param_str": ""
        }
      ],
      "finishCond": [
        {
          "type": "QUEST_CONTENT_COMPLETE_TALK",
          "param": [
            7103901,
            0
          ],
          "param_str": ""
        }
      ],
      "failCond": [],
      "guide": {
        "type": "QUEST_GUIDE_NPC",
        "autoGuide": "QUEST_GUIDE_AUTO_ENABLE",
        "param": [
          "2616"
        ],
        "guideScene": 6,
        "guideStyle": "QUEST_GUIDE_STYLE_TARGET",
        "guideLayer": "QUEST_GUIDE_LAYER_UI"
      },
      "isRewind": true,
      "finishExec": [
        {
          "type": "QUEST_EXEC_REFRESH_GROUP_SUITE",
          "param": [
            "6",
            "166001309,2"
          ],
          "param_str": ""
        },
        {
          "type": "QUEST_EXEC_REFRESH_GROUP_SUITE",
          "param": [
            "6",
            "166001649,2"
          ],
          "param_str": ""
        }
      ],
      "failExec": [],
      "beginExec": []
    },
    {
      "subId": 7103903,
      "mainId": 71039,
      "order": 3,
      "descTextMapHash": 1624904676,
      "acceptCond": [
        {
          "type": "QUEST_COND_STATE_EQUAL",
          "param": [
            7103902,
            3,
            0,
            0,
            0
          ],
          "param_str": ""
        }
      ],
      "finishCond": [
        {
          "type": "QUEST_CONTENT_COMPLETE_TALK",
          "param": [
            7103902,
            0
          ],
          "param_str": ""
        }
      ],
      "failCond": [],
      "guide": {
        "type": "QUEST_GUIDE_NPC",
        "autoGuide": "QUEST_GUIDE_AUTO_ENABLE",
        "param": [
          "2061"
        ],
        "guideScene": 3,
        "guideStyle": "QUEST_GUIDE_STYLE_TARGET",
        "guideLayer": "QUEST_GUIDE_LAYER_UI"
      },
      "finishParent": true,
      "isRewind": true,
      "finishExec": [
        {
          "type": "QUEST_EXEC_SET_QUEST_GLOBAL_VAR",
          "param": [
            "7103901",
            "1"
          ],
          "param_str": ""
        },
        {
          "type": "QUEST_EXEC_INIT_TIME_VAR",
          "param": [
            "0"
          ],
          "param_str": ""
        }
      ],
      "failExec": [],
      "beginExec": [
        {
          "type": "QUEST_EXEC_REFRESH_GROUP_SUITE",
          "param": [
            "6",
            "166001055,3"
          ],
          "param_str": ""
        }
      ],
      "exclusiveNpcList": [
        2061
      ],
      "exclusiveNpcPriority": 1100
    }
  ],
  "talks": [
    {
      "id": 7103901,
      "beginWay": "TALK_BEGIN_MANUAL",
      "activeMode": "PLAY_MODE_HOST",
      "beginCondComb": "LOGIC_AND",
      "beginCond": [
        {
          "type": "QUEST_COND_STATE_EQUAL",
          "param": [
            "7103902",
            "2"
          ],
          "param_str": ""
        }
      ],
      "priority": 10,
      "initDialog": 710390101,
      "npcId": [
        2616,
        1005
      ],
      "performCfg": "QuestDialogue/WQ/Liyue_71039/Q7103901",
      "heroTalk": "TALK_HERO_MAIN",
      "questId": 71039,
      "prePerformCfg": "",
      "talkMarkType": "TALK_MARK_COMMON"
    },
    {
      "id": 7103902,
      "beginWay": "TALK_BEGIN_MANUAL",
      "activeMode": "PLAY_MODE_HOST",
      "beginCond": [
        {
          "type": "QUEST_COND_STATE_EQUAL",
          "param": [
            "7103903",
            "2"
          ],
          "param_str": ""
        }
      ],
      "priority": 8,
      "initDialog": 710390201,
      "npcId": [
        2061,
        1005
      ],
      "performCfg": "QuestDialogue/WQ/Liyue_71039/Q7103902",
      "heroTalk": "TALK_HERO_MAIN",
      "questId": 71039,
      "prePerformCfg": ""
    }
  ]
}