{
  "id": 71063,
  "type": "WQ",
  "titleTextMapHash": 1929474879,
  "descTextMapHash": 3729157118,
  "luaPath": "Actor/Quest/WQ71063",
  "rewardIdList": [
    171063
  ],
  "subQuests": [
    {
      "subId": 7106301,
      "mainId": 71063,
      "order": 1,
      "descTextMapHash": 1668679084,
      "showType": "QUEST_HIDDEN",
      "acceptCond": [
        {
          "type": "QUEST_COND_QUEST_GLOBAL_VAR_EQUAL",
          "param": [
            10001,
            1,
            0,
            0,
            0
          ],
          "param_str": ""
        }
      ],
      "finishCond": [
        {
          "type": "QUEST_CONTENT_OBTAIN_ITEM",
          "param": [
            101635,
            0
          ],
          "param_str": "",
          "count": 1
        }
      ],
      "failCond": [],
      "guide": {
        "param": []
      },
      "isRewind": true,
      "finishExec": [],
      "failExec": [],
      "beginExec": []
    },
    {
      "subId": 7106302,
      "mainId": 71063,
      "order": 2,
      "descTextMapHash": 1530692204,
      "showType": "QUEST_HIDDEN",
      "acceptCond": [
        {
          "type": "QUEST_COND_STATE_EQUAL",
          "param": [
            7106301,
            3,
            0,
            0,
            0
          ],
          "param_str": ""
        }
      ],
      "finishCond": [
        {
          "type": "QUEST_CONTENT_COMPLETE_TALK",
          "param": [
            7106302,
            0
          ],
          "param_str": ""
        }
      ],
      "failCond": [],
      "guide": {
        "param": []
      },
      "isRewind": true,
      "finishExec": [],
      "failExec": [],
      "beginExec": []
    },
    {
      "subId": 7106303,
      "mainId": 71063,
      "order": 3,
      "descTextMapHash": 2332282516,
      "acceptCond": [
        {
          "type": "QUEST_COND_STATE_EQUAL",
          "param": [
            7106302,
            3,
            0,
            0,
            0
          ],
          "param_str": ""
        }
      ],
      "finishCond": [
        {
          "type": "QUEST_CONTENT_LUA_NOTIFY",
          "param": [
            0,
            0
          ],
          "param_str": "7106303finish",
          "count": 1
        }
      ],
      "failCond": [],
      "guide": {
        "type": "QUEST_GUIDE_LOCATION",
        "autoGuide": "QUEST_GUIDE_AUTO_ENABLE",
        "param": [
          "Q7106303_guide",
          "25"
        ],
        "guideScene": 3,
        "guideStyle": "QUEST_GUIDE_STYLE_TARGET",
        "guideLayer": "QUEST_GUIDE_LAYER_SCENE"
      },
      "isRewind": true,
      "finishExec": [
        {
          "type": "QUEST_EXEC_UNREGISTER_DYNAMIC_GROUP",
          "param": [
            "133106430",
            "0"
          ],
          "param_str": ""
        }
      ],
      "failExec": [],
      "beginExec": [
        {
          "type": "QUEST_EXEC_REGISTER_DYNAMIC_GROUP",
          "param": [
            "3",
            "133106430"
          ],
          "param_str": ""
        }
      ]
    },
    {
      "subId": 7106304,
      "mainId": 71063,
      "order": 4,
      "descTextMapHash": 1295377260,
      "acceptCond": [
        {
          "type": "QUEST_COND_STATE_EQUAL",
          "param": [
            7106303,
            3,
            0,
            0,
            0
          ],
          "param_str": ""
        }
      ],
      "finishCond": [
        {
          "type": "QUEST_CONTENT_COMPLETE_TALK",
          "param": [
            7106303,
            0
          ],
          "param_str": ""
        }
      ],
      "failCond": [],
      "guide": {
        "type": "QUEST_GUIDE_NPC",
        "autoGuide": "QUEST_GUIDE_AUTO_ENABLE",
        "param": [
          "20526"
        ],
        "guideScene": 3,
        "guideStyle": "QUEST_GUIDE_STYLE_TARGET",
        "guideLayer": "QUEST_GUIDE_LAYER_SCENE"
      },
      "isRewind": true,
      "finishExec": [],
      "failExec": [],
      "beginExec": [],
      "exclusiveNpcList": [
        20526
      ],
      "exclusiveNpcPriority": 1100
    },
    {
      "subId": 7106305,
      "mainId": 71063,
      "order": 5,
      "descTextMapHash": 469129380,
      "acceptCond": [
        {
          "type": "QUEST_COND_STATE_EQUAL",
          "param": [
            7106304,
            3,
            0,
            0,
            0
          ],
          "param_str": ""
        }
      ],
      "finishCond": [
        {
          "type": "QUEST_CONTENT_FINISH_ITEM_GIVING",
          "param": [
            7106301,
            0
          ],
          "param_str": ""
        }
      ],
      "failCond": [],
      "guide": {
        "type": "QUEST_GUIDE_NPC",
        "autoGuide": "QUEST_GUIDE_AUTO_ENABLE",
        "param": [
          "20526"
        ],
        "guideScene": 3,
        "guideStyle": "QUEST_GUIDE_STYLE_TARGET",
        "guideLayer": "QUEST_GUIDE_LAYER_SCENE"
      },
      "isRewind": true,
      "finishExec": [],
      "failExec": [],
      "beginExec": [
        {
          "type": "QUEST_EXEC_ACTIVE_ITEM_GIVING",
          "param": [
            "7106301"
          ],
          "param_str": ""
        }
      ],
      "exclusiveNpcList": [
        20526
      ],
      "exclusiveNpcPriority": 1100
    },
    {
      "subId": 7106306,
      "mainId": 71063,
      "order": 6,
      "descTextMapHash": 2723850516,
      "acceptCond": [
        {
          "type": "QUEST_COND_STATE_EQUAL",
          "param": [
            7106305,
            3,
            0,
            0,
            0
          ],
          "param_str": ""
        }
      ],
      "finishCond": [
        {
          "type": "QUEST_CONTENT_COMPLETE_TALK",
          "param": [
            7106305,
            0
          ],
          "param_str": ""
        }
      ],
      "failCond": [],
      "guide": {
        "type": "QUEST_GUIDE_NPC",
        "autoGuide": "QUEST_GUIDE_AUTO_ENABLE",
        "param": [
          "20526"
        ],
        "guideScene": 3,
        "guideStyle": "QUEST_GUIDE_STYLE_TARGET",
        "guideLayer": "QUEST_GUIDE_LAYER_SCENE"
      },
      "isRewind": true,
      "finishExec": [],
      "failExec": [],
      "beginExec": [],
      "exclusiveNpcList": [
        20526
      ],
      "exclusiveNpcPriority": 1100
    },
    {
      "subId": 7106307,
      "mainId": 71063,
      "order": 8,
      "descTextMapHash": 2627799780,
      "acceptCond": [
        {
          "type": "QUEST_COND_STATE_EQUAL",
          "param": [
            7106312,
            3,
            0,
            0,
            0
          ],
          "param_str": ""
        }
      ],
      "finishCondComb": "LOGIC_OR",
      "finishCond": [
        {
          "type": "QUEST_CONTENT_COMPLETE_TALK",
          "param": [
            7106306,
            0
          ],
          "param_str": ""
        },
        {
          "type": "QUEST_CONTENT_COMPLETE_TALK",
          "param": [
            7106310,
            0
          ],
          "param_str": ""
        }
      ],
      "failCond": [],
      "guide": {
        "type": "QUEST_GUIDE_NPC",
        "autoGuide": "QUEST_GUIDE_AUTO_ENABLE",
        "param": [
          "2152"
        ],
        "guideScene": 3,
        "guideStyle": "QUEST_GUIDE_STYLE_TARGET",
        "guideLayer": "QUEST_GUIDE_LAYER_SCENE"
      },
      "isRewind": true,
      "finishExec": [
        {
          "type": "QUEST_EXEC_NOTIFY_GROUP_LUA",
          "param": [
            "3",
            "133106445"
          ],
          "param_str": ""
        }
      ],
      "failExec": [],
      "beginExec": [
        {
          "type": "QUEST_EXEC_REGISTER_DYNAMIC_GROUP_ONLY",
          "param": [
            "133106445"
          ],
          "param_str": ""
        }
      ],
      "exclusiveNpcList": [
        20552,
        2152
      ],
      "exclusiveNpcPriority": 1100
    },
    {
      "subId": 7106308,
      "mainId": 71063,
      "order": 12,
      "descTextMapHash": 2071205388,
      "acceptCond": [
        {
          "type": "QUEST_COND_STATE_EQUAL",
          "param": [
            7106311,
            3,
            0,
            0,
            0
          ],
          "param_str": ""
        }
      ],
      "finishCond": [
        {
          "type": "QUEST_CONTENT_COMPLETE_TALK",
          "param": [
            7106307,
            0
          ],
          "param_str": ""
        }
      ],
      "failCond": [],
      "guide": {
        "type": "QUEST_GUIDE_NPC",
        "autoGuide": "QUEST_GUIDE_AUTO_ENABLE",
        "param": [
          "20552"
        ],
        "guideScene": 3,
        "guideStyle": "QUEST_GUIDE_STYLE_TARGET",
        "guideLayer": "QUEST_GUIDE_LAYER_SCENE"
      },
      "finishParent": true,
      "isRewind": true,
      "finishExec": [
        {
          "type": "QUEST_EXEC_DEL_PACK_ITEM",
          "param": [
            "101795",
            "1"
          ],
          "param_str": ""
        }
      ],
      "failExec": [],
      "beginExec": [
        {
          "type": "QUEST_EXEC_UNREGISTER_DYNAMIC_GROUP",
          "param": [
            "133106445",
            "0"
          ],
          "param_str": ""
        }
      ],
      "exclusiveNpcList": [
        20552
      ],
      "exclusiveNpcPriority": 1100
    },
    {
      "subId": 7106309,
      "mainId": 71063,
      "order": 11,
      "descTextMapHash": 2853102756,
      "showType": "QUEST_HIDDEN",
      "acceptCond": [
        {
          "type": "QUEST_COND_STATE_EQUAL",
          "param": [
            7106310,
            3,
            0,
            0,
            0
          ],
          "param_str": ""
        }
      ],
      "finishCond": [
        {
          "type": "QUEST_CONTENT_COMPLETE_TALK",
          "param": [
            7106312,
            0
          ],
          "param_str": ""
        }
      ],
      "failCond": [],
      "guide": {
        "param": []
      },
      "isRewind": true,
      "finishExec": [],
      "failExec": [],
      "beginExec": [
        {
          "type": "QUEST_EXEC_REGISTER_DYNAMIC_GROUP_ONLY",
          "param": [
            "133106445"
          ],
          "param_str": ""
        }
      ]
    },
    {
      "subId": 7106310,
      "mainId": 71063,
      "order": 9,
      "descTextMapHash": 1377848956,
      "acceptCond": [
        {
          "type": "QUEST_COND_STATE_EQUAL",
          "param": [
            7106307,
            3,
            0,
            0,
            0
          ],
          "param_str": ""
        }
      ],
      "finishCond": [
        {
          "type": "QUEST_CONTENT_LUA_NOTIFY",
          "param": [
            0,
            0
          ],
          "param_str": "7106310finish",
          "count": 1
        }
      ],
      "failCond": [],
      "guide": {
        "type": "QUEST_GUIDE_LOCATION",
        "autoGuide": "QUEST_GUIDE_AUTO_ENABLE",
        "param": [
          "Q7106310_guide",
          "20"
        ],
        "guideScene": 3,
        "guideStyle": "QUEST_GUIDE_STYLE_TARGET",
        "guideLayer": "QUEST_GUIDE_LAYER_SCENE"
      },
      "isRewind": true,
      "finishExec": [],
      "failExec": [],
      "beginExec": [
        {
          "type": "QUEST_EXEC_REGISTER_DYNAMIC_GROUP_ONLY",
          "param": [
            "133106445"
          ],
          "param_str": ""
        }
      ],
      "exclusiveNpcList": [
        20552,
        2152
      ],
      "exclusiveNpcPriority": 1100
    },
    {
      "subId": 7106311,
      "mainId": 71063,
      "order": 10,
      "descTextMapHash": 1091834636,
      "acceptCond": [
        {
          "type": "QUEST_COND_STATE_EQUAL",
          "param": [
            7106310,
            3,
            0,
            0,
            0
          ],
          "param_str": ""
        }
      ],
      "finishCondComb": "LOGIC_OR",
      "finishCond": [
        {
          "type": "QUEST_CONTENT_COMPLETE_TALK",
          "param": [
            7106312,
            0
          ],
          "param_str": ""
        },
        {
          "type": "QUEST_CONTENT_COMPLETE_TALK",
          "param": [
            7106313,
            0
          ],
          "param_str": ""
        }
      ],
      "failCond": [],
      "guide": {
        "type": "QUEST_GUIDE_NPC",
        "autoGuide": "QUEST_GUIDE_AUTO_ENABLE",
        "param": [
          "2152"
        ],
        "guideScene": 3,
        "guideStyle": "QUEST_GUIDE_STYLE_TARGET",
        "guideLayer": "QUEST_GUIDE_LAYER_SCENE"
      },
      "isRewind": true,
      "finishExec": [
        {
          "type": "QUEST_EXEC_NOTIFY_GROUP_LUA",
          "param": [
            "3",
            "133106445"
          ],
          "param_str": ""
        }
      ],
      "failExec": [],
      "beginExec": [
        {
          "type": "QUEST_EXEC_REGISTER_DYNAMIC_GROUP_ONLY",
          "param": [
            "133106445"
          ],
          "param_str": ""
        }
      ],
      "exclusiveNpcList": [
        20552,
        2152
      ],
      "exclusiveNpcPriority": 1100
    },
    {
      "subId": 7106312,
      "mainId": 71063,
      "order": 7,
      "descTextMapHash": 116020852,
      "acceptCond": [
        {
          "type": "QUEST_COND_STATE_EQUAL",
          "param": [
            7106306,
            3,
            0,
            0,
            0
          ],
          "param_str": ""
        }
      ],
      "finishCondComb": "LOGIC_OR",
      "finishCond": [
        {
          "type": "QUEST_CONTENT_COMPLETE_TALK",
          "param": [
            7106308,
            0
          ],
          "param_str": ""
        },
        {
          "type": "QUEST_CONTENT_COMPLETE_TALK",
          "param": [
            7106309,
            0
          ],
          "param_str": ""
        }
      ],
      "failCond": [],
      "guide": {
        "type": "QUEST_GUIDE_NPC",
        "autoGuide": "QUEST_GUIDE_AUTO_ENABLE",
        "param": [
          "20552"
        ],
        "guideScene": 3,
        "guideStyle": "QUEST_GUIDE_STYLE_TARGET",
        "guideLayer": "QUEST_GUIDE_LAYER_SCENE"
      },
      "isRewind": true,
      "finishExec": [],
      "failExec": [],
      "beginExec": [],
      "exclusiveNpcList": [
        20552
      ],
      "exclusiveNpcPriority": 1100
    }
  ],
  "talks": [
    {
      "id": 7106301,
      "beginWay": "TALK_BEGIN_MANUAL",
      "activeMode": "PLAY_MODE_HOST",
      "beginCond": [
        {
          "type": "QUEST_COND_STATE_EQUAL",
          "param": [
            "7106301",
            "2"
          ],
          "param_str": ""
        }
      ],
      "priority": 5,
      "initDialog": 710630101,
      "npcId": [
        20526
      ],
      "performCfg": "",
      "heroTalk": "TALK_HERO_MAIN",
      "questId": 71063,
      "prePerformCfg": ""
    },
    {
      "id": 7106302,
      "beginWay": "TALK_BEGIN_AUTO",
      "activeMode": "PLAY_MODE_HOST",
      "beginCond": [
        {
          "type": "QUEST_COND_STATE_EQUAL",
          "param": [
            "7106302",
            "2"
          ],
          "param_str": ""
        }
      ],
      "priority": 5,
      "initDialog": 710630201,
      "npcId": [
        20526,
        1005
      ],
      "performCfg": "QuestDialogue/WQ/Liyue_71063/Q7106302",
      "heroTalk": "TALK_HERO_MAIN",
      "questId": 71063,
      "prePerformCfg": ""
    },
    {
      "id": 7106303,
      "beginWay": "TALK_BEGIN_AUTO",
      "activeMode": "PLAY_MODE_HOST",
      "beginCond": [
        {
          "type": "QUEST_COND_STATE_EQUAL",
          "param": [
            "7106304",
            "2"
          ],
          "param_str": ""
        }
      ],
      "priority": 5,
      "nextTalks": [
        7106304
      ],
      "initDialog": 710630301,
      "npcId": [
        20526,
        1005
      ],
      "performCfg": "QuestDialogue/WQ/Liyue_71063/Q7106303",
      "heroTalk": "TALK_HERO_MAIN",
      "questId": 71063,
      "prePerformCfg": ""
    },
    {
      "id": 7106304,
      "beginWay": "TALK_BEGIN_MANUAL",
      "activeMode": "PLAY_MODE_HOST",
      "beginCondComb": "LOGIC_AND",
      "beginCond": [
        {
          "type": "QUEST_COND_STATE_EQUAL",
          "param": [
            "7106305",
            "2"
          ],
          "param_str": ""
        },
        {
          "type": "QUEST_COND_ITEM_GIVING_ACTIVED",
          "param": [
            "7106301"
          ],
          "param_str": ""
        }
      ],
      "priority": 5,
      "initDialog": 710630401,
      "npcId": [
        20526
      ],
      "performCfg": "QuestDialogue/WQ/Liyue_71063/Q7106304",
      "heroTalk": "TALK_HERO_MAIN",
      "questId": 71063,
      "prePerformCfg": ""
    },
    {
      "id": 7106305,
      "beginWay": "TALK_BEGIN_AUTO",
      "activeMode": "PLAY_MODE_HOST",
      "beginCond": [
        {
          "type": "QUEST_COND_STATE_EQUAL",
          "param": [
            "7106306",
            "2"
          ],
          "param_str": ""
        }
      ],
      "priority": 5,
      "initDialog": 710630501,
      "npcId": [
        1005,
        20526
      ],
      "performCfg": "QuestDialogue/WQ/Liyue_71063/Q7106305",
      "heroTalk": "TALK_HERO_MAIN",
      "questId": 71063,
      "prePerformCfg": ""
    },
    {
      "id": 7106306,
      "beginWay": "TALK_BEGIN_MANUAL",
      "activeMode": "PLAY_MODE_HOST",
      "beginCondComb": "LOGIC_AND",
      "beginCond": [
        {
          "type": "QUEST_COND_STATE_EQUAL",
          "param": [
            "7106307",
            "2"
          ],
          "param_str": ""
        },
        {
          "type": "QUEST_COND_STATE_EQUAL",
          "param": [
            "7105413",
            "3"
          ],
          "param_str": ""
        }
      ],
      "priority": 5,
      "initDialog": 710630601,
      "npcId": [
        2152,
        1005
      ],
      "performCfg": "QuestDialogue/WQ/Liyue_71063/Q7106306",
      "heroTalk": "TALK_HERO_MAIN",
      "questId": 71063,
      "prePerformCfg": ""
    },
    {
      "id": 7106307,
      "beginWay": "TALK_BEGIN_MANUAL",
      "activeMode": "PLAY_MODE_HOST",
      "beginCond": [
        {
          "type": "QUEST_COND_STATE_EQUAL",
          "param": [
            "7106308",
            "2"
          ],
          "param_str": ""
        }
      ],
      "priority": 5,
      "initDialog": 710630701,
      "npcId": [
        20552,
        1005
      ],
      "performCfg": "QuestDialogue/WQ/Liyue_71063/Q7106307",
      "heroTalk": "TALK_HERO_MAIN",
      "questId": 71063,
      "prePerformCfg": ""
    },
    {
      "id": 7106308,
      "beginWay": "TALK_BEGIN_MANUAL",
      "activeMode": "PLAY_MODE_HOST",
      "beginCondComb": "LOGIC_AND",
      "beginCond": [
        {
          "type": "QUEST_COND_STATE_EQUAL",
          "param": [
            "7106312",
            "2"
          ],
          "param_str": ""
        },
        {
          "type": "QUEST_COND_STATE_EQUAL",
          "param": [
            "1100811",
            "3"
          ],
          "param_str": ""
        }
      ],
      "priority": 5,
      "initDialog": 710630801,
      "npcId": [
        20552,
        1005
      ],
      "performCfg": "QuestDialogue/WQ/Liyue_71063/Q7106308",
      "heroTalk": "TALK_HERO_MAIN",
      "questId": 71063,
      "prePerformCfg": ""
    },
    {
      "id": 7106309,
      "beginWay": "TALK_BEGIN_MANUAL",
      "activeMode": "PLAY_MODE_HOST",
      "beginCondComb": "LOGIC_A_AND_ETCOR",
      "beginCond": [
        {
          "type": "QUEST_COND_STATE_EQUAL",
          "param": [
            "7106312",
            "2"
          ],
          "param_str": ""
        },
        {
          "type": "QUEST_COND_STATE_NOT_EQUAL",
          "param": [
            "1100811",
            "3"
          ],
          "param_str": ""
        },
        {
          "type": "QUEST_COND_QUEST_NOT_RECEIVE",
          "param": [
            "1100811",
            "1"
          ],
          "param_str": ""
        }
      ],
      "priority": 5,
      "initDialog": 710630901,
      "npcId": [
        20552,
        1005
      ],
      "performCfg": "QuestDialogue/WQ/Liyue_71063/Q7106309",
      "heroTalk": "TALK_HERO_MAIN",
      "questId": 71063,
      "prePerformCfg": ""
    },
    {
      "id": 7106310,
      "beginWay": "TALK_BEGIN_MANUAL",
      "activeMode": "PLAY_MODE_HOST",
      "beginCondComb": "LOGIC_A_AND_ETCOR",
      "beginCond": [
        {
          "type": "QUEST_COND_STATE_EQUAL",
          "param": [
            "7106307",
            "2"
          ],
          "param_str": ""
        },
        {
          "type": "QUEST_COND_STATE_NOT_EQUAL",
          "param": [
            "7105413",
            "3"
          ],
          "param_str": ""
        },
        {
          "type": "QUEST_COND_QUEST_NOT_RECEIVE",
          "param": [
            "7105413",
            "1"
          ],
          "param_str": ""
        }
      ],
      "priority": 5,
      "initDialog": 710631001,
      "npcId": [
        2152,
        1005
      ],
      "performCfg": "QuestDialogue/WQ/Liyue_71063/Q7106310",
      "heroTalk": "TALK_HERO_MAIN",
      "questId": 71063,
      "prePerformCfg": ""
    },
    {
      "id": 7106311,
      "beginWay": "TALK_BEGIN_MANUAL",
      "activeMode": "PLAY_MODE_HOST",
      "beginCond": [
        {
          "type": "QUEST_COND_STATE_EQUAL",
          "param": [
            "7106311",
            "2"
          ],
          "param_str": ""
        }
      ],
      "priority": 5,
      "nextTalks": [
        7106312,
        7106313
      ],
      "initDialog": 710631101,
      "npcId": [
        2152,
        1005
      ],
      "performCfg": "QuestDialogue/WQ/Liyue_71063/Q7106311",
      "heroTalk": "TALK_HERO_MAIN",
      "questId": 71063,
      "prePerformCfg": ""
    },
    {
      "id": 7106312,
      "activeMode": "PLAY_MODE_HOST",
      "beginCond": [
        {
          "type": "QUEST_COND_STATE_EQUAL",
          "param": [
            "7106311",
            "2"
          ],
          "param_str": ""
        }
      ],
      "priority": 5,
      "initDialog": 710631201,
      "npcId": [
        2152,
        1005
      ],
      "performCfg": "QuestDialogue/WQ/Liyue_71063/Q7106312",
      "heroTalk": "TALK_HERO_MAIN",
      "questId": 71063,
      "prePerformCfg": ""
    },
    {
      "id": 7106313,
      "activeMode": "PLAY_MODE_HOST",
      "beginCond": [
        {
          "type": "QUEST_COND_STATE_EQUAL",
          "param": [
            "7106311",
            "2"
          ],
          "param_str": ""
        }
      ],
      "priority": 5,
      "initDialog": 710631301,
      "npcId": [
        2152,
        1005
      ],
      "performCfg": "QuestDialogue/WQ/Liyue_71063/Q7106313",
      "heroTalk": "TALK_HERO_MAIN",
      "questId": 71063,
      "prePerformCfg": ""
    },
    {
      "id": 7106314,
      "beginWay": "TALK_BEGIN_MANUAL",
      "activeMode": "PLAY_MODE_HOST",
      "beginCondComb": "LOGIC_AND",
      "beginCond": [
        {
          "type": "QUEST_COND_STATE_EQUAL",
          "param": [
            "7106312",
            "3"
          ],
          "param_str": ""
        },
        {
          "type": "QUEST_COND_QUEST_NOT_RECEIVE",
          "param": [
            "7106308",
            "1"
          ],
          "param_str": ""
        }
      ],
      "priority": 5,
      "initDialog": 710631401,
      "npcId": [
        20552
      ],
      "performCfg": "",
      "heroTalk": "TALK_HERO_MAIN",
      "questId": 71063,
      "prePerformCfg": ""
    },
    {
      "id": 7106315,
      "beginWay": "TALK_BEGIN_MANUAL",
      "activeMode": "PLAY_MODE_HOST",
      "beginCond": [
        {
          "type": "QUEST_COND_STATE_EQUAL",
          "param": [
            "7106310",
            "2"
          ],
          "param_str": ""
        }
      ],
      "priority": 10,
      "initDialog": 710631501,
      "npcId": [
        2152
      ],
      "performCfg": "",
      "heroTalk": "TALK_HERO_MAIN",
      "questId": 71063,
      "prePerformCfg": ""
    }
  ]
}