{
  "id": 71065,
  "type": "WQ",
  "series": 71035,
  "titleTextMapHash": 869828487,
  "descTextMapHash": 1161376494,
  "luaPath": "Actor/Quest/WQ71065",
  "showType": "QUEST_HIDDEN",
  "subQuests": [
    {
      "subId": 7106501,
      "mainId": 71065,
      "order": 1,
      "descTextMapHash": 3578661348,
      "showType": "QUEST_HIDDEN",
      "acceptCond": [
        {
          "type": "QUEST_COND_STATE_EQUAL",
          "param": [
            1110311,
            3,
            0,
            0,
            0
          ],
          "param_str": ""
        }
      ],
      "finishCond": [
        {
          "type": "QUEST_CONTENT_GAME_TIME_TICK",
          "param": [
            0,
            0
          ],
          "param_str": "0,24"
        }
      ],
      "failCond": [],
      "guide": {
        "param": []
      },
      "finishExec": [
        {
          "type": "QUEST_EXEC_INIT_TIME_VAR",
          "param": [
            "0"
          ],
          "param_str": ""
        }
      ],
      "failExec": [],
      "beginExec": []
    },
    {
      "subId": 7106502,
      "mainId": 71065,
      "order": 2,
      "descTextMapHash": 1803653428,
      "showType": "QUEST_HIDDEN",
      "acceptCond": [
        {
          "type": "QUEST_COND_STATE_EQUAL",
          "param": [
            7106501,
            3,
            0,
            0,
            0
          ],
          "param_str": ""
        }
      ],
      "finishCond": [
        {
          "type": "QUEST_CONTENT_TIME_VAR_PASS_DAY",
          "param": [
            71065,
            0
          ],
          "param_str": "1"
        }
      ],
      "failCond": [],
      "guide": {
        "param": []
      },
      "finishParent": true,
      "finishExec": [
        {
          "type": "QUEST_EXEC_CLEAR_TIME_VAR",
          "param": [
            "71065"
          ],
          "param_str": ""
        }
      ],
      "failExec": [],
      "beginExec": []
    }
  ]
}