{
  "id": 71073,
  "type": "WQ",
  "titleTextMapHash": 43620951,
  "descTextMapHash": 957455886,
  "luaPath": "Actor/Quest/WQ71073",
  "showType": "QUEST_HIDDEN",
  "subQuests": [
    {
      "subId": 7107301,
      "mainId": 71073,
      "order": 1,
      "descTextMapHash": 3491445468,
      "showType": "QUEST_HIDDEN",
      "acceptCond": [
        {
          "type": "QUEST_COND_STATE_EQUAL",
          "param": [
            7104520,
            3,
            0,
            0,
            0
          ],
          "param_str": ""
        }
      ],
      "finishCond": [
        {
          "type": "QUEST_CONTENT_TIME_VAR_PASS_DAY",
          "param": [
            71045,
            0
          ],
          "param_str": "1"
        }
      ],
      "failCond": [],
      "guide": {
        "param": []
      },
      "finishParent": true,
      "isRewind": true,
      "finishExec": [
        {
          "type": "QUEST_EXEC_REFRESH_GROUP_SUITE",
          "param": [
            "6",
            "166001054,1"
          ],
          "param_str": ""
        },
        {
          "type": "QUEST_EXEC_SET_QUEST_GLOBAL_VAR",
          "param": [
            "710452617",
            "3"
          ],
          "param_str": ""
        }
      ],
      "failExec": [],
      "beginExec": []
    }
  ]
}