{
  "id": 71087,
  "type": "WQ",
  "titleTextMapHash": 3954376903,
  "descTextMapHash": 2029267798,
  "luaPath": "Actor/Quest/WQ71087",
  "showType": "QUEST_HIDDEN",
  "rewardIdList": [
    171087
  ],
  "subQuests": [
    {
      "subId": 7108701,
      "mainId": 71087,
      "order": 1,
      "descTextMapHash": 1745044556,
      "showType": "QUEST_HIDDEN",
      "acceptCond": [
        {
          "type": "QUEST_COND_STATE_EQUAL",
          "param": [
            7103811,
            3,
            0,
            0,
            0
          ],
          "param_str": ""
        }
      ],
      "finishCond": [
        {
          "type": "QUEST_CONTENT_COMPLETE_TALK",
          "param": [
            7103806,
            0
          ],
          "param_str": ""
        }
      ],
      "failCond": [],
      "guide": {
        "param": []
      },
      "finishParent": true,
      "isRewind": true,
      "finishExec": [],
      "failExec": [],
      "beginExec": []
    }
  ]
}