{
  "id": 71506,
  "type": "WQ",
  "titleTextMapHash": 3386708599,
  "descTextMapHash": 38530598,
  "luaPath": "Actor/Quest/WQ71506",
  "suggestTrackMainQuestList": [
    71502
  ],
  "subQuests": [
    {
      "subId": 7150601,
      "mainId": 71506,
      "order": 1,
      "descTextMapHash": 3281784148,
      "acceptCond": [
        {
          "type": "QUEST_COND_ACTIVITY_COND",
          "param": [
            5079003,
            1,
            0,
            0,
            0
          ],
          "param_str": ""
        }
      ],
      "finishCond": [
        {
          "type": "QUEST_CONTENT_COMPLETE_TALK",
          "param": [
            7150601,
            0
          ],
          "param_str": ""
        }
      ],
      "failCond": [],
      "guide": {
        "type": "QUEST_GUIDE_NPC",
        "autoGuide": "QUEST_GUIDE_AUTO_ENABLE",
        "param": [
          "30181"
        ],
        "guideScene": 6,
        "guideStyle": "QUEST_GUIDE_STYLE_TARGET",
        "guideLayer": "QUEST_GUIDE_LAYER_SCENE"
      },
      "finishParent": true,
      "isRewind": true,
      "finishExec": [],
      "failExec": [],
      "beginExec": [
        {
          "type": "QUEST_EXEC_SET_QUEST_GLOBAL_VAR",
          "param": [
            "7150601",
            "1"
          ],
          "param_str": ""
        }
      ],
      "exclusiveNpcList": [
        30181
      ],
      "exclusiveNpcPriority": 1100
    }
  ],
  "talks": [
    {
      "id": 7150601,
      "beginWay": "TALK_BEGIN_MANUAL",
      "activeMode": "PLAY_MODE_HOST",
      "beginCond": [
        {
          "type": "QUEST_COND_STATE_EQUAL",
          "param": [
            "7150601",
            "2"
          ],
          "param_str": ""
        }
      ],
      "priority": 15,
      "initDialog": 715060101,
      "npcId": [
        30181
      ],
      "performCfg": "QuestDialogue/WQ/TheChasmChallenge/Q7150601",
      "heroTalk": "TALK_HERO_MAIN",
      "questId": 71506,
      "prePerformCfg": ""
    }
  ]
}