{
  "id": 71516,
  "type": "WQ",
  "titleTextMapHash": 2943465183,
  "descTextMapHash": 2823907286,
  "luaPath": "Actor/Quest/WQ71516",
  "rewardIdList": [
    171516
  ],
  "subQuests": [
    {
      "mainId": 71516,
      "subId": 7151601,
      "order": 1,
      "descTextMapHash": 92216620,
      "acceptCond": [
        {
          "type": "QUEST_COND_UNKNOWN",
          "param": [
            0,
            0
          ]
        }
      ],
      "finishCond": [],
      "failCond": [],
      "guide": {
        "type": "QUEST_GUIDE_NPC",
        "param": [
          "30306"
        ],
        "guideScene": 3,
        "guideStyle": "QUEST_GUIDE_STYLE_TARGET",
        "guideLayer": "QUEST_GUIDE_LAYER_SCENE"
      },
      "finishExec": [],
      "failExec": [],
      "beginExec": []
    }
  ],
  "talks": [
    {
      "id": 7151601,
      "beginWay": "TALK_BEGIN_MANUAL",
      "activeMode": "PLAY_MODE_SINGLE",
      "beginCond": [
        {
          "type": "QUEST_COND_STATE_EQUAL",
          "param": [
            "7151601",
            "2"
          ],
          "param_str": ""
        }
      ],
      "priority": 5,
      "initDialog": 715160101,
      "npcId": [
        30306
      ],
      "performCfg": "",
      "heroTalk": "TALK_HERO_MAIN",
      "questId": 71516,
      "prePerformCfg": ""
    }
  ]
}