{
  "id": 71653,
  "type": "WQ",
  "titleTextMapHash": 3092131087,
  "descTextMapHash": 3333683550,
  "luaPath": "Actor/Quest/WQ71653",
  "rewardIdList": [
    171653
  ],
  "subQuests": [
    {
      "subId": 7165301,
      "mainId": 71653,
      "order": 1,
      "descTextMapHash": 2279219436,
      "acceptCond": [
        {
          "type": "QUEST_COND_STATE_EQUAL",
          "param": [
            99902,
            3,
            0,
            0,
            0
          ],
          "param_str": ""
        }
      ],
      "finishCond": [
        {
          "type": "QUEST_CONTENT_FINISH_PLOT",
          "param": [
            7165301,
            0
          ],
          "param_str": ""
        }
      ],
      "failCond": [],
      "guide": {
        "type": "QUEST_GUIDE_NPC",
        "param": [
          "30049"
        ],
        "guideScene": 3,
        "guideStyle": "QUEST_GUIDE_STYLE_TARGET"
      },
      "finishParent": true,
      "isRewind": true,
      "finishExec": [],
      "failExec": [],
      "beginExec": [
        {
          "type": "QUEST_EXEC_REGISTER_DYNAMIC_GROUP",
          "param": [
            "3",
            "133102121"
          ],
          "param_str": ""
        }
      ]
    }
  ]
}