{
  "id": 71705,
  "type": "WQ",
  "titleTextMapHash": 3394227975,
  "descTextMapHash": 4190143814,
  "luaPath": "Actor/Quest/WQ71705",
  "subQuests": [
    {
      "subId": 7170501,
      "mainId": 71705,
      "order": 1,
      "descTextMapHash": 1066403092,
      "acceptCond": [
        {
          "type": "QUEST_COND_CITY_REPUTATION_REQUEST",
          "param": [
            0,
            0,
            0,
            0,
            0
          ],
          "param_str": ""
        }
      ],
      "finishCond": [
        {
          "type": "QUEST_CONTENT_FINISH_ITEM_GIVING",
          "param": [
            7170501,
            0
          ],
          "param_str": ""
        }
      ],
      "failCond": [],
      "guide": {
        "type": "QUEST_GUIDE_NPC",
        "param": [
          "2204"
        ],
        "guideScene": 3,
        "guideLayer": "QUEST_GUIDE_LAYER_SCENE"
      },
      "isRewind": true,
      "finishExec": [],
      "failExec": [],
      "beginExec": [
        {
          "type": "QUEST_EXEC_ACTIVE_ITEM_GIVING",
          "param": [
            "7170501"
          ],
          "param_str": ""
        }
      ],
      "exclusiveNpcList": [
        2204
      ],
      "exclusiveNpcPriority": 2000
    },
    {
      "subId": 7170502,
      "mainId": 71705,
      "order": 2,
      "descTextMapHash": 2781002132,
      "acceptCond": [
        {
          "type": "QUEST_COND_STATE_EQUAL",
          "param": [
            7170501,
            3,
            0,
            0,
            0
          ],
          "param_str": ""
        }
      ],
      "finishCond": [
        {
          "type": "QUEST_CONTENT_COMPLETE_TALK",
          "param": [
            7170502,
            0
          ],
          "param_str": ""
        }
      ],
      "failCond": [],
      "guide": {
        "type": "QUEST_GUIDE_NPC",
        "param": [
          "2204"
        ],
        "guideScene": 3,
        "guideLayer": "QUEST_GUIDE_LAYER_SCENE"
      },
      "finishParent": true,
      "isRewind": true,
      "finishExec": [],
      "failExec": [],
      "beginExec": [],
      "exclusiveNpcList": [
        2204
      ],
      "exclusiveNpcPriority": 2000
    }
  ],
  "talks": [
    {
      "id": 7170501,
      "beginWay": "TALK_BEGIN_MANUAL",
      "activeMode": "PLAY_MODE_SINGLE",
      "beginCondComb": "LOGIC_AND",
      "beginCond": [
        {
          "type": "QUEST_COND_STATE_EQUAL",
          "param": [
            "7170501",
            "2"
          ],
          "param_str": ""
        },
        {
          "type": "QUEST_COND_ITEM_GIVING_ACTIVED",
          "param": [
            "7170501"
          ],
          "param_str": ""
        }
      ],
      "priority": 1,
      "initDialog": 717050101,
      "npcId": [
        2204
      ],
      "performCfg": "",
      "questId": 71705,
      "dontBlockDaily": true,
      "prePerformCfg": ""
    },
    {
      "id": 7170502,
      "beginWay": "TALK_BEGIN_AUTO",
      "activeMode": "PLAY_MODE_SINGLE",
      "beginCond": [
        {
          "type": "QUEST_COND_STATE_EQUAL",
          "param": [
            "7170502",
            "2"
          ],
          "param_str": ""
        }
      ],
      "priority": 1,
      "initDialog": 717050201,
      "npcId": [
        2204
      ],
      "performCfg": "",
      "questId": 71705,
      "prePerformCfg": ""
    }
  ]
}