{
  "id": 71818,
  "type": "WQ",
  "titleTextMapHash": 3063455375,
  "descTextMapHash": 2812585726,
  "luaPath": "Actor/Quest/WQ71818",
  "rewardIdList": [
    171818
  ],
  "subQuests": [
    {
      "subId": 7181801,
      "mainId": 71818,
      "order": 2,
      "descTextMapHash": 3311270580,
      "acceptCond": [
        {
          "type": "QUEST_COND_STATE_EQUAL",
          "param": [
            7181811,
            3,
            0,
            0,
            0
          ],
          "param_str": ""
        }
      ],
      "finishCond": [
        {
          "type": "QUEST_CONTENT_COMPLETE_TALK",
          "param": [
            7181801,
            0
          ],
          "param_str": ""
        }
      ],
      "failCond": [],
      "guide": {
        "type": "QUEST_GUIDE_NPC",
        "param": [
          "213801"
        ],
        "guideScene": 3,
        "guideStyle": "QUEST_GUIDE_STYLE_START",
        "guideLayer": "QUEST_GUIDE_LAYER_SCENE"
      },
      "isRewind": true,
      "finishExec": [],
      "failExec": [],
      "beginExec": [],
      "exclusiveNpcList": [
        2138
      ],
      "exclusiveNpcPriority": 1100
    },
    {
      "subId": 7181802,
      "mainId": 71818,
      "order": 3,
      "descTextMapHash": 3262314300,
      "acceptCond": [
        {
          "type": "QUEST_COND_STATE_EQUAL",
          "param": [
            7181801,
            3,
            0,
            0,
            0
          ],
          "param_str": ""
        }
      ],
      "finishCond": [
        {
          "type": "QUEST_CONTENT_COMPLETE_TALK",
          "param": [
            7181802,
            0
          ],
          "param_str": ""
        }
      ],
      "failCond": [],
      "guide": {
        "type": "QUEST_GUIDE_NPC",
        "param": [
          "213701"
        ],
        "guideScene": 3,
        "guideStyle": "QUEST_GUIDE_STYLE_TARGET",
        "guideLayer": "QUEST_GUIDE_LAYER_SCENE"
      },
      "isRewind": true,
      "finishExec": [],
      "failExec": [],
      "beginExec": [
        {
          "type": "QUEST_EXEC_REGISTER_DYNAMIC_GROUP",
          "param": [
            "3",
            "133102919"
          ],
          "param_str": ""
        }
      ],
      "exclusiveNpcList": [
        2138,
        2137
      ],
      "exclusiveNpcPriority": 1100
    },
    {
      "subId": 7181803,
      "mainId": 71818,
      "order": 4,
      "subIdSet": 1,
      "descTextMapHash": 3658705924,
      "acceptCond": [
        {
          "type": "QUEST_COND_STATE_EQUAL",
          "param": [
            7181802,
            3,
            0,
            0,
            0
          ],
          "param_str": ""
        }
      ],
      "finishCond": [
        {
          "type": "QUEST_CONTENT_LUA_NOTIFY",
          "param": [
            0,
            0
          ],
          "param_str": "133102919",
          "count": 4
        }
      ],
      "failCond": [],
      "guide": {
        "type": "QUEST_GUIDE_LOCATION",
        "param": [
          "Q41331_jiangcheng1",
          "40"
        ],
        "guideScene": 3,
        "guideStyle": "QUEST_GUIDE_STYLE_TARGET",
        "guideLayer": "QUEST_GUIDE_LAYER_SCENE"
      },
      "showGuide": "QUEST_GUIDE_ITEM_DISABLE",
      "isRewind": true,
      "finishExec": [],
      "failExec": [],
      "beginExec": [
        {
          "type": "QUEST_EXEC_REGISTER_DYNAMIC_GROUP",
          "param": [
            "3",
            "133102919"
          ],
          "param_str": ""
        }
      ],
      "exclusiveNpcList": [
        2138,
        2137
      ],
      "exclusiveNpcPriority": 1100
    },
    {
      "subId": 7181804,
      "mainId": 71818,
      "order": 5,
      "descTextMapHash": 1218391508,
      "acceptCond": [
        {
          "type": "QUEST_COND_STATE_EQUAL",
          "param": [
            7181803,
            3,
            0,
            0,
            0
          ],
          "param_str": ""
        }
      ],
      "finishCond": [
        {
          "type": "QUEST_CONTENT_COMPLETE_TALK",
          "param": [
            7181803,
            0
          ],
          "param_str": ""
        }
      ],
      "failCond": [],
      "guide": {
        "type": "QUEST_GUIDE_NPC",
        "param": [
          "213701"
        ],
        "guideScene": 3,
        "guideStyle": "QUEST_GUIDE_STYLE_TARGET",
        "guideLayer": "QUEST_GUIDE_LAYER_SCENE"
      },
      "isRewind": true,
      "finishExec": [
        {
          "type": "QUEST_EXEC_UNREGISTER_DYNAMIC_GROUP",
          "param": [
            "133102919"
          ],
          "param_str": ""
        }
      ],
      "failExec": [],
      "beginExec": [],
      "exclusiveNpcList": [
        2138,
        2137
      ],
      "exclusiveNpcPriority": 1100
    },
    {
      "subId": 7181805,
      "mainId": 71818,
      "order": 6,
      "descTextMapHash": 913632812,
      "acceptCond": [
        {
          "type": "QUEST_COND_STATE_EQUAL",
          "param": [
            7181804,
            3,
            0,
            0,
            0
          ],
          "param_str": ""
        }
      ],
      "finishCond": [
        {
          "type": "QUEST_CONTENT_INTERACT_GADGET",
          "param": [
            70710273,
            0
          ],
          "param_str": "",
          "count": 1
        }
      ],
      "failCond": [],
      "guide": {
        "type": "QUEST_GUIDE_LOCATION",
        "param": [
          "Q71818target"
        ],
        "guideScene": 3,
        "guideStyle": "QUEST_GUIDE_STYLE_TARGET",
        "guideLayer": "QUEST_GUIDE_LAYER_SCENE"
      },
      "showGuide": "QUEST_GUIDE_ITEM_DISABLE",
      "isRewind": true,
      "finishExec": [
        {
          "type": "QUEST_EXEC_REGISTER_DYNAMIC_GROUP",
          "param": [
            "3",
            "133102920"
          ],
          "param_str": ""
        }
      ],
      "failExec": [],
      "beginExec": [],
      "exclusiveNpcList": [
        2138,
        2137
      ],
      "exclusiveNpcPriority": 1100
    },
    {
      "subId": 7181806,
      "mainId": 71818,
      "order": 7,
      "descTextMapHash": 1785159828,
      "acceptCond": [
        {
          "type": "QUEST_COND_STATE_EQUAL",
          "param": [
            7181805,
            3,
            0,
            0,
            0
          ],
          "param_str": ""
        }
      ],
      "finishCond": [
        {
          "type": "QUEST_CONTENT_COMPLETE_TALK",
          "param": [
            7181804,
            0
          ],
          "param_str": ""
        }
      ],
      "failCond": [],
      "guide": {
        "type": "QUEST_GUIDE_NPC",
        "param": [
          "213701"
        ],
        "guideScene": 3,
        "guideStyle": "QUEST_GUIDE_STYLE_TARGET",
        "guideLayer": "QUEST_GUIDE_LAYER_SCENE"
      },
      "isRewind": true,
      "finishExec": [],
      "failExec": [],
      "beginExec": [],
      "exclusiveNpcList": [
        2138,
        2137
      ],
      "exclusiveNpcPriority": 1100
    },
    {
      "subId": 7181807,
      "mainId": 71818,
      "order": 8,
      "descTextMapHash": 1658679700,
      "acceptCond": [
        {
          "type": "QUEST_COND_STATE_EQUAL",
          "param": [
            7181806,
            3,
            0,
            0,
            0
          ],
          "param_str": ""
        }
      ],
      "finishCond": [
        {
          "type": "QUEST_CONTENT_COMPLETE_TALK",
          "param": [
            7181805,
            0
          ],
          "param_str": ""
        }
      ],
      "failCond": [],
      "guide": {
        "type": "QUEST_GUIDE_NPC",
        "param": [
          "213801"
        ],
        "guideScene": 3,
        "guideStyle": "QUEST_GUIDE_STYLE_TARGET",
        "guideLayer": "QUEST_GUIDE_LAYER_SCENE"
      },
      "isRewind": true,
      "finishExec": [
        {
          "type": "QUEST_EXEC_ACTIVE_ITEM_GIVING",
          "param": [
            "7181809"
          ],
          "param_str": ""
        }
      ],
      "failExec": [],
      "beginExec": [],
      "exclusiveNpcList": [
        2138,
        2137
      ],
      "exclusiveNpcPriority": 1100
    },
    {
      "subId": 7181808,
      "mainId": 71818,
      "order": 9,
      "descTextMapHash": 1420632188,
      "acceptCond": [
        {
          "type": "QUEST_COND_STATE_EQUAL",
          "param": [
            7181807,
            3,
            0,
            0,
            0
          ],
          "param_str": ""
        }
      ],
      "finishCondComb": "LOGIC_AND",
      "finishCond": [
        {
          "type": "QUEST_CONTENT_OBTAIN_ITEM",
          "param": [
            200001,
            0
          ],
          "param_str": "",
          "count": 1
        },
        {
          "type": "QUEST_CONTENT_OBTAIN_ITEM",
          "param": [
            200002,
            0
          ],
          "param_str": "",
          "count": 1
        },
        {
          "type": "QUEST_CONTENT_OBTAIN_ITEM",
          "param": [
            200003,
            0
          ],
          "param_str": "",
          "count": 1
        }
      ],
      "failCond": [],
      "guide": {
        "type": "QUEST_GUIDE_NPC",
        "param": [
          "213801"
        ],
        "guideScene": 3,
        "guideStyle": "QUEST_GUIDE_STYLE_TARGET",
        "guideLayer": "QUEST_GUIDE_LAYER_SCENE"
      },
      "isRewind": true,
      "finishExec": [],
      "failExec": [],
      "beginExec": [],
      "exclusiveNpcList": [
        2138
      ],
      "exclusiveNpcPriority": 1100
    },
    {
      "subId": 7181809,
      "mainId": 71818,
      "order": 10,
      "descTextMapHash": 2703352900,
      "acceptCond": [
        {
          "type": "QUEST_COND_STATE_EQUAL",
          "param": [
            7181808,
            3,
            0,
            0,
            0
          ],
          "param_str": ""
        }
      ],
      "finishCondComb": "LOGIC_AND",
      "finishCond": [
        {
          "type": "QUEST_CONTENT_FINISH_ITEM_GIVING",
          "param": [
            7181809,
            0
          ],
          "param_str": ""
        }
      ],
      "failCond": [],
      "guide": {
        "type": "QUEST_GUIDE_NPC",
        "param": [
          "213801"
        ],
        "guideScene": 3,
        "guideStyle": "QUEST_GUIDE_STYLE_TARGET",
        "guideLayer": "QUEST_GUIDE_LAYER_SCENE"
      },
      "isRewind": true,
      "finishExec": [],
      "failExec": [],
      "beginExec": [],
      "exclusiveNpcList": [
        2138
      ],
      "exclusiveNpcPriority": 1100
    },
    {
      "subId": 7181810,
      "mainId": 71818,
      "order": 11,
      "descTextMapHash": 3438980124,
      "acceptCond": [
        {
          "type": "QUEST_COND_STATE_EQUAL",
          "param": [
            7181809,
            3,
            0,
            0,
            0
          ],
          "param_str": ""
        }
      ],
      "finishCondComb": "LOGIC_AND",
      "finishCond": [
        {
          "type": "QUEST_CONTENT_COMPLETE_TALK",
          "param": [
            7181807,
            0
          ],
          "param_str": ""
        }
      ],
      "failCond": [],
      "guide": {
        "type": "QUEST_GUIDE_NPC",
        "param": [
          "213801"
        ],
        "guideScene": 3,
        "guideStyle": "QUEST_GUIDE_STYLE_FINISH",
        "guideLayer": "QUEST_GUIDE_LAYER_SCENE"
      },
      "finishParent": true,
      "isRewind": true,
      "finishExec": [],
      "failExec": [],
      "beginExec": [],
      "exclusiveNpcList": [
        2138
      ],
      "exclusiveNpcPriority": 1100
    },
    {
      "subId": 7181811,
      "mainId": 71818,
      "order": 1,
      "descTextMapHash": 2665141436,
      "showType": "QUEST_HIDDEN",
      "acceptCond": [
        {
          "type": "QUEST_COND_ACTIVITY_COND",
          "param": [
            2002508,
            1,
            0,
            0,
            0
          ],
          "param_str": ""
        }
      ],
      "finishCond": [
        {
          "type": "QUEST_CONTENT_FINISH_PLOT",
          "param": [
            7181811,
            0
          ],
          "param_str": ""
        }
      ],
      "failCond": [],
      "guide": {
        "param": []
      },
      "isRewind": true,
      "finishExec": [],
      "failExec": [],
      "beginExec": []
    }
  ],
  "talks": [
    {
      "id": 7181801,
      "beginWay": "TALK_BEGIN_MANUAL",
      "activeMode": "PLAY_MODE_HOST",
      "beginCondComb": "LOGIC_AND",
      "beginCond": [
        {
          "type": "QUEST_COND_STATE_EQUAL",
          "param": [
            "7181801",
            "2"
          ],
          "param_str": ""
        }
      ],
      "priority": 5,
      "initDialog": 718180101,
      "npcId": [
        213801
      ],
      "performCfg": "",
      "heroTalk": "TALK_HERO_MAIN",
      "questId": 71818,
      "prePerformCfg": ""
    },
    {
      "id": 7181802,
      "beginWay": "TALK_BEGIN_MANUAL",
      "activeMode": "PLAY_MODE_HOST",
      "beginCondComb": "LOGIC_AND",
      "beginCond": [
        {
          "type": "QUEST_COND_STATE_EQUAL",
          "param": [
            "7181801",
            "3"
          ],
          "param_str": ""
        },
        {
          "type": "QUEST_COND_STATE_EQUAL",
          "param": [
            "7181802",
            "2"
          ],
          "param_str": ""
        }
      ],
      "priority": 5,
      "initDialog": 718180201,
      "npcId": [
        213701
      ],
      "performCfg": "",
      "heroTalk": "TALK_HERO_MAIN",
      "questId": 71818,
      "prePerformCfg": ""
    },
    {
      "id": 7181803,
      "beginWay": "TALK_BEGIN_MANUAL",
      "activeMode": "PLAY_MODE_HOST",
      "beginCondComb": "LOGIC_AND",
      "beginCond": [
        {
          "type": "QUEST_COND_STATE_EQUAL",
          "param": [
            "7181803",
            "3"
          ],
          "param_str": ""
        },
        {
          "type": "QUEST_COND_STATE_EQUAL",
          "param": [
            "7181804",
            "2"
          ],
          "param_str": ""
        }
      ],
      "priority": 5,
      "initDialog": 718180301,
      "npcId": [
        213701
      ],
      "performCfg": "",
      "heroTalk": "TALK_HERO_MAIN",
      "questId": 71818,
      "prePerformCfg": ""
    },
    {
      "id": 7181804,
      "beginWay": "TALK_BEGIN_MANUAL",
      "activeMode": "PLAY_MODE_HOST",
      "beginCondComb": "LOGIC_AND",
      "beginCond": [
        {
          "type": "QUEST_COND_STATE_EQUAL",
          "param": [
            "7181805",
            "3"
          ],
          "param_str": ""
        },
        {
          "type": "QUEST_COND_STATE_EQUAL",
          "param": [
            "7181806",
            "2"
          ],
          "param_str": ""
        }
      ],
      "priority": 5,
      "initDialog": 718180401,
      "npcId": [
        213701
      ],
      "performCfg": "",
      "heroTalk": "TALK_HERO_MAIN",
      "questId": 71818,
      "prePerformCfg": ""
    },
    {
      "id": 7181805,
      "beginWay": "TALK_BEGIN_MANUAL",
      "activeMode": "PLAY_MODE_HOST",
      "beginCondComb": "LOGIC_AND",
      "beginCond": [
        {
          "type": "QUEST_COND_STATE_EQUAL",
          "param": [
            "7181806",
            "3"
          ],
          "param_str": ""
        },
        {
          "type": "QUEST_COND_STATE_EQUAL",
          "param": [
            "7181807",
            "2"
          ],
          "param_str": ""
        }
      ],
      "priority": 5,
      "initDialog": 718180501,
      "npcId": [
        213801
      ],
      "performCfg": "",
      "heroTalk": "TALK_HERO_MAIN",
      "questId": 71818,
      "prePerformCfg": ""
    },
    {
      "id": 7181806,
      "beginWay": "TALK_BEGIN_MANUAL",
      "activeMode": "PLAY_MODE_HOST",
      "beginCondComb": "LOGIC_AND",
      "beginCond": [
        {
          "type": "QUEST_COND_STATE_EQUAL",
          "param": [
            "7181808",
            "3"
          ],
          "param_str": ""
        },
        {
          "type": "QUEST_COND_STATE_EQUAL",
          "param": [
            "7181809",
            "2"
          ],
          "param_str": ""
        },
        {
          "type": "QUEST_COND_ITEM_GIVING_ACTIVED",
          "param": [
            "7181809"
          ],
          "param_str": ""
        }
      ],
      "priority": 5,
      "initDialog": 718180601,
      "npcId": [
        213801
      ],
      "performCfg": "",
      "heroTalk": "TALK_HERO_MAIN",
      "questId": 71818,
      "prePerformCfg": ""
    },
    {
      "id": 7181807,
      "beginWay": "TALK_BEGIN_MANUAL",
      "activeMode": "PLAY_MODE_HOST",
      "beginCondComb": "LOGIC_AND",
      "beginCond": [
        {
          "type": "QUEST_COND_STATE_EQUAL",
          "param": [
            "7181809",
            "3"
          ],
          "param_str": ""
        },
        {
          "type": "QUEST_COND_STATE_EQUAL",
          "param": [
            "7181810",
            "2"
          ],
          "param_str": ""
        }
      ],
      "priority": 5,
      "initDialog": 718180701,
      "npcId": [
        213801
      ],
      "performCfg": "",
      "heroTalk": "TALK_HERO_MAIN",
      "questId": 71818,
      "prePerformCfg": ""
    },
    {
      "id": 7181809,
      "beginWay": "TALK_BEGIN_MANUAL",
      "activeMode": "PLAY_MODE_HOST",
      "beginCondComb": "LOGIC_AND",
      "beginCond": [
        {
          "type": "QUEST_COND_STATE_EQUAL",
          "param": [
            "7181802",
            "3"
          ],
          "param_str": ""
        },
        {
          "type": "QUEST_COND_STATE_EQUAL",
          "param": [
            "7181803",
            "2"
          ],
          "param_str": ""
        }
      ],
      "priority": 5,
      "initDialog": 718180901,
      "npcId": [
        213701
      ],
      "performCfg": "",
      "heroTalk": "TALK_HERO_MAIN",
      "questId": 71818,
      "prePerformCfg": ""
    },
    {
      "id": 7181810,
      "beginWay": "TALK_BEGIN_MANUAL",
      "activeMode": "PLAY_MODE_HOST",
      "beginCondComb": "LOGIC_AND",
      "beginCond": [
        {
          "type": "QUEST_COND_STATE_EQUAL",
          "param": [
            "7181804",
            "3"
          ],
          "param_str": ""
        },
        {
          "type": "QUEST_COND_STATE_EQUAL",
          "param": [
            "7181805",
            "2"
          ],
          "param_str": ""
        }
      ],
      "priority": 5,
      "initDialog": 718181001,
      "npcId": [
        213701
      ],
      "performCfg": "",
      "heroTalk": "TALK_HERO_MAIN",
      "questId": 71818,
      "prePerformCfg": ""
    },
    {
      "id": 7181811,
      "beginWay": "TALK_BEGIN_MANUAL",
      "activeMode": "PLAY_MODE_HOST",
      "beginCondComb": "LOGIC_AND",
      "beginCond": [
        {
          "type": "QUEST_COND_STATE_EQUAL",
          "param": [
            "7181807",
            "3"
          ],
          "param_str": ""
        },
        {
          "type": "QUEST_COND_STATE_EQUAL",
          "param": [
            "7181808",
            "2"
          ],
          "param_str": ""
        }
      ],
      "priority": 5,
      "initDialog": 718181101,
      "npcId": [
        213801
      ],
      "performCfg": "",
      "heroTalk": "TALK_HERO_MAIN",
      "questId": 71818,
      "prePerformCfg": ""
    },
    {
      "id": 7181812,
      "beginWay": "TALK_BEGIN_MANUAL",
      "activeMode": "PLAY_MODE_HOST",
      "beginCondComb": "LOGIC_AND",
      "beginCond": [
        {
          "type": "QUEST_COND_STATE_EQUAL",
          "param": [
            "7181806",
            "3"
          ],
          "param_str": ""
        },
        {
          "type": "QUEST_COND_STATE_EQUAL",
          "param": [
            "7181807",
            "2"
          ],
          "param_str": ""
        }
      ],
      "priority": 5,
      "initDialog": 718181201,
      "npcId": [
        213701
      ],
      "performCfg": "",
      "heroTalk": "TALK_HERO_MAIN",
      "questId": 71818,
      "prePerformCfg": ""
    }
  ]
}