{
  "id": 71919,
  "type": "WQ",
  "titleTextMapHash": 1316411263,
  "descTextMapHash": 248145150,
  "luaPath": "",
  "showType": "QUEST_HIDDEN",
  "rewardIdList": [
    552023
  ],
  "subQuests": [
    {
      "subId": 7191901,
      "mainId": 71919,
      "order": 1,
      "descTextMapHash": 4192332988,
      "showType": "QUEST_HIDDEN",
      "acceptCondComb": "LOGIC_OR",
      "acceptCond": [
        {
          "type": "QUEST_COND_COMPLETE_TALK",
          "param": [
            7191901,
            0,
            0,
            0,
            0
          ],
          "param_str": ""
        }
      ],
      "finishCond": [
        {
          "type": "QUEST_CONTENT_COMPLETE_TALK",
          "param": [
            7191901,
            0
          ],
          "param_str": ""
        }
      ],
      "failCond": [],
      "guide": {
        "param": []
      },
      "finishParent": true,
      "finishExec": [],
      "failExec": [],
      "beginExec": []
    }
  ]
}