{
  "id": 71910,
  "type": "WQ",
  "titleTextMapHash": 3482598767,
  "descTextMapHash": 3635509566,
  "luaPath": "",
  "showType": "QUEST_HIDDEN",
  "rewardIdList": [
    552011
  ],
  "subQuests": [
    {
      "subId": 7191001,
      "mainId": 71910,
      "order": 1,
      "descTextMapHash": 2381207052,
      "showType": "QUEST_HIDDEN",
      "acceptCondComb": "LOGIC_OR",
      "acceptCond": [
        {
          "type": "QUEST_COND_COMPLETE_TALK",
          "param": [
            7191001,
            0,
            0,
            0,
            0
          ],
          "param_str": ""
        }
      ],
      "finishCond": [
        {
          "type": "QUEST_CONTENT_COMPLETE_TALK",
          "param": [
            7191001,
            0
          ],
          "param_str": ""
        }
      ],
      "failCond": [],
      "guide": {
        "param": []
      },
      "finishParent": true,
      "finishExec": [],
      "failExec": [],
      "beginExec": []
    }
  ]
}