{
  "id": 71921,
  "type": "WQ",
  "titleTextMapHash": 233698663,
  "descTextMapHash": 758046846,
  "luaPath": "",
  "showType": "QUEST_HIDDEN",
  "rewardIdList": [
    552004
  ],
  "subQuests": [
    {
      "subId": 7192101,
      "mainId": 71921,
      "order": 1,
      "descTextMapHash": 2797973956,
      "showType": "QUEST_HIDDEN",
      "acceptCondComb": "LOGIC_OR",
      "acceptCond": [
        {
          "type": "QUEST_COND_COMPLETE_TALK",
          "param": [
            7192101,
            0,
            0,
            0,
            0
          ],
          "param_str": ""
        },
        {
          "type": "QUEST_COND_COMPLETE_TALK",
          "param": [
            7192102,
            0,
            0,
            0,
            0
          ],
          "param_str": ""
        },
        {
          "type": "QUEST_COND_COMPLETE_TALK",
          "param": [
            7192103,
            0,
            0,
            0,
            0
          ],
          "param_str": ""
        }
      ],
      "finishCondComb": "LOGIC_OR",
      "finishCond": [
        {
          "type": "QUEST_CONTENT_COMPLETE_TALK",
          "param": [
            7192101,
            0
          ],
          "param_str": ""
        },
        {
          "type": "QUEST_CONTENT_COMPLETE_TALK",
          "param": [
            7192102,
            0
          ],
          "param_str": ""
        },
        {
          "type": "QUEST_CONTENT_COMPLETE_TALK",
          "param": [
            7192103,
            0
          ],
          "param_str": ""
        }
      ],
      "failCond": [],
      "guide": {
        "param": []
      },
      "finishParent": true,
      "finishExec": [],
      "failExec": [],
      "beginExec": []
    }
  ]
}