{
  "id": 71934,
  "type": "WQ",
  "titleTextMapHash": 1444058495,
  "descTextMapHash": 1291925398,
  "luaPath": "",
  "showType": "QUEST_HIDDEN",
  "rewardIdList": [
    552039
  ],
  "subQuests": [
    {
      "subId": 7193401,
      "mainId": 71934,
      "order": 1,
      "descTextMapHash": 53871220,
      "showType": "QUEST_HIDDEN",
      "acceptCondComb": "LOGIC_OR",
      "acceptCond": [
        {
          "type": "QUEST_COND_COMPLETE_TALK",
          "param": [
            7193401,
            0,
            0,
            0,
            0
          ],
          "param_str": ""
        }
      ],
      "finishCond": [
        {
          "type": "QUEST_CONTENT_COMPLETE_TALK",
          "param": [
            7193401,
            0
          ],
          "param_str": ""
        }
      ],
      "failCond": [],
      "guide": {
        "param": []
      },
      "finishParent": true,
      "finishExec": [],
      "failExec": [],
      "beginExec": []
    }
  ]
}