{
  "id": 71950,
  "type": "WQ",
  "titleTextMapHash": 3809677527,
  "descTextMapHash": 2966302446,
  "luaPath": "",
  "showType": "QUEST_HIDDEN",
  "rewardIdList": [
    552059
  ],
  "subQuests": [
    {
      "subId": 7195001,
      "mainId": 71950,
      "order": 1,
      "descTextMapHash": 3097337092,
      "showType": "QUEST_HIDDEN",
      "acceptCondComb": "LOGIC_OR",
      "acceptCond": [
        {
          "type": "QUEST_COND_COMPLETE_TALK",
          "param": [
            7195001,
            0,
            0,
            0,
            0
          ],
          "param_str": ""
        }
      ],
      "finishCond": [
        {
          "type": "QUEST_CONTENT_COMPLETE_TALK",
          "param": [
            7195001,
            0
          ],
          "param_str": ""
        }
      ],
      "failCond": [],
      "guide": {
        "param": []
      },
      "finishParent": true,
      "finishExec": [],
      "failExec": [],
      "beginExec": []
    }
  ]
}