{
  "id": 71953,
  "type": "WQ",
  "titleTextMapHash": 583141319,
  "descTextMapHash": 2025568694,
  "luaPath": "",
  "showType": "QUEST_HIDDEN",
  "rewardIdList": [
    552002
  ],
  "subQuests": [
    {
      "subId": 7195301,
      "mainId": 71953,
      "order": 1,
      "descTextMapHash": 1865203756,
      "showType": "QUEST_HIDDEN",
      "acceptCondComb": "LOGIC_OR",
      "acceptCond": [
        {
          "type": "QUEST_COND_COMPLETE_TALK",
          "param": [
            7195301,
            0,
            0,
            0,
            0
          ],
          "param_str": ""
        }
      ],
      "finishCond": [
        {
          "type": "QUEST_CONTENT_COMPLETE_TALK",
          "param": [
            7195301,
            0
          ],
          "param_str": ""
        }
      ],
      "failCond": [],
      "guide": {
        "param": []
      },
      "finishParent": true,
      "finishExec": [],
      "failExec": [],
      "beginExec": []
    }
  ]
}