{
  "id": 72105,
  "type": "WQ",
  "series": 72100,
  "titleTextMapHash": 1945689855,
  "descTextMapHash": 3984731318,
  "luaPath": "Actor/Quest/WQ72105",
  "chapterId": 10025,
  "subQuests": [
    {
      "subId": 7210501,
      "mainId": 72105,
      "order": 1,
      "descTextMapHash": 3961876140,
      "showType": "QUEST_HIDDEN",
      "acceptCondComb": "LOGIC_AND",
      "acceptCond": [
        {
          "type": "QUEST_COND_STATE_EQUAL",
          "param": [
            7210001,
            3,
            0,
            0,
            0
          ],
          "param_str": ""
        },
        {
          "type": "QUEST_COND_STATE_EQUAL",
          "param": [
            7210818,
            3,
            0,
            0,
            0
          ],
          "param_str": ""
        }
      ],
      "finishCond": [
        {
          "type": "QUEST_CONTENT_COMPLETE_TALK",
          "param": [
            7210501,
            0
          ],
          "param_str": ""
        }
      ],
      "failCond": [],
      "guide": {
        "param": []
      },
      "isRewind": true,
      "finishExec": [],
      "failExec": [],
      "beginExec": []
    },
    {
      "subId": 7210502,
      "mainId": 72105,
      "order": 2,
      "descTextMapHash": 970599676,
      "acceptCond": [
        {
          "type": "QUEST_COND_STATE_EQUAL",
          "param": [
            7210501,
            3,
            0,
            0,
            0
          ],
          "param_str": ""
        }
      ],
      "finishCond": [
        {
          "type": "QUEST_CONTENT_COMPLETE_TALK",
          "param": [
            7210502,
            0
          ],
          "param_str": ""
        }
      ],
      "failCond": [],
      "guide": {
        "type": "QUEST_GUIDE_NPC",
        "autoGuide": "QUEST_GUIDE_AUTO_ENABLE",
        "param": [
          "20221"
        ],
        "guideScene": 3,
        "guideStyle": "QUEST_GUIDE_STYLE_TARGET",
        "guideLayer": "QUEST_GUIDE_LAYER_SCENE"
      },
      "isRewind": true,
      "finishExec": [],
      "failExec": [],
      "beginExec": []
    },
    {
      "subId": 7210503,
      "mainId": 72105,
      "order": 3,
      "isMpBlock": true,
      "descTextMapHash": 2273134452,
      "acceptCond": [
        {
          "type": "QUEST_COND_STATE_EQUAL",
          "param": [
            7210502,
            3,
            0,
            0,
            0
          ],
          "param_str": ""
        }
      ],
      "finishCond": [
        {
          "type": "QUEST_CONTENT_COMPLETE_TALK",
          "param": [
            7210504,
            0
          ],
          "param_str": ""
        }
      ],
      "failCond": [],
      "guide": {
        "type": "QUEST_GUIDE_NPC",
        "autoGuide": "QUEST_GUIDE_AUTO_ENABLE",
        "param": [
          "20221"
        ],
        "guideScene": 3,
        "guideStyle": "QUEST_GUIDE_STYLE_TARGET",
        "guideLayer": "QUEST_GUIDE_LAYER_SCENE"
      },
      "isRewind": true,
      "finishExec": [
        {
          "type": "QUEST_EXEC_REFRESH_GROUP_SUITE",
          "param": [
            "3",
            "133220130,2"
          ],
          "param_str": ""
        }
      ],
      "failExec": [],
      "beginExec": []
    },
    {
      "subId": 7210504,
      "mainId": 72105,
      "order": 5,
      "isMpBlock": true,
      "descTextMapHash": 3812077636,
      "acceptCond": [
        {
          "type": "QUEST_COND_STATE_EQUAL",
          "param": [
            7210503,
            3,
            0,
            0,
            0
          ],
          "param_str": ""
        }
      ],
      "finishCondComb": "LOGIC_OR",
      "finishCond": [
        {
          "type": "QUEST_CONTENT_LUA_NOTIFY",
          "param": [
            0,
            0
          ],
          "param_str": "fin_7210504",
          "count": 1
        },
        {
          "type": "QUEST_CONTENT_LUA_NOTIFY",
          "param": [
            0,
            0
          ],
          "param_str": "fin_7210505",
          "count": 1
        }
      ],
      "failCond": [],
      "guide": {
        "type": "QUEST_GUIDE_LOCATION",
        "autoGuide": "QUEST_GUIDE_AUTO_ENABLE",
        "param": [
          "Q3_72008_7",
          "95"
        ],
        "guideScene": 3,
        "guideStyle": "QUEST_GUIDE_STYLE_TARGET",
        "guideLayer": "QUEST_GUIDE_LAYER_SCENE"
      },
      "isRewind": true,
      "finishExec": [],
      "failExec": [],
      "beginExec": [
        {
          "type": "QUEST_EXEC_REFRESH_GROUP_SUITE",
          "param": [
            "3",
            "133220181,2"
          ],
          "param_str": ""
        }
      ]
    },
    {
      "subId": 7210505,
      "mainId": 72105,
      "order": 6,
      "descTextMapHash": 1486884716,
      "acceptCond": [
        {
          "type": "QUEST_COND_STATE_EQUAL",
          "param": [
            7210504,
            3,
            0,
            0,
            0
          ],
          "param_str": ""
        }
      ],
      "finishCond": [
        {
          "type": "QUEST_CONTENT_LUA_NOTIFY",
          "param": [
            0,
            0
          ],
          "param_str": "fin_7210505",
          "count": 1
        }
      ],
      "failCond": [],
      "guide": {
        "type": "QUEST_GUIDE_LOCATION",
        "autoGuide": "QUEST_GUIDE_AUTO_ENABLE",
        "param": [
          "Q3_72008_7",
          "95"
        ],
        "guideScene": 3,
        "guideStyle": "QUEST_GUIDE_STYLE_TARGET",
        "guideLayer": "QUEST_GUIDE_LAYER_SCENE"
      },
      "isRewind": true,
      "finishExec": [
        {
          "type": "QUEST_EXEC_REFRESH_GROUP_SUITE",
          "param": [
            "3",
            "133220181,3"
          ],
          "param_str": ""
        },
        {
          "type": "QUEST_EXEC_REFRESH_GROUP_SUITE",
          "param": [
            "3",
            "133220355,2"
          ],
          "param_str": ""
        }
      ],
      "failExec": [],
      "beginExec": []
    },
    {
      "subId": 7210506,
      "mainId": 72105,
      "order": 7,
      "isMpBlock": true,
      "descTextMapHash": 2197581940,
      "acceptCond": [
        {
          "type": "QUEST_COND_STATE_EQUAL",
          "param": [
            7210505,
            3,
            0,
            0,
            0
          ],
          "param_str": ""
        }
      ],
      "finishCond": [
        {
          "type": "QUEST_CONTENT_COMPLETE_TALK",
          "param": [
            7210506,
            0
          ],
          "param_str": ""
        }
      ],
      "failCond": [],
      "guide": {
        "type": "QUEST_GUIDE_NPC",
        "autoGuide": "QUEST_GUIDE_AUTO_ENABLE",
        "param": [
          "20221"
        ],
        "guideScene": 3,
        "guideStyle": "QUEST_GUIDE_STYLE_TARGET",
        "guideLayer": "QUEST_GUIDE_LAYER_SCENE"
      },
      "isRewind": true,
      "finishExec": [],
      "failExec": [],
      "beginExec": [
        {
          "type": "QUEST_EXEC_MODIFY_CLIMATE_AREA",
          "param": [
            "3",
            "6",
            "0"
          ],
          "param_str": ""
        }
      ]
    },
    {
      "subId": 7210507,
      "mainId": 72105,
      "order": 11,
      "isMpBlock": true,
      "descTextMapHash": 1495436988,
      "acceptCond": [
        {
          "type": "QUEST_COND_STATE_EQUAL",
          "param": [
            7210509,
            3,
            0,
            0,
            0
          ],
          "param_str": ""
        }
      ],
      "finishCond": [
        {
          "type": "QUEST_CONTENT_LUA_NOTIFY",
          "param": [
            0,
            0
          ],
          "param_str": "fin_7210507",
          "count": 1
        }
      ],
      "failCond": [],
      "guide": {
        "type": "QUEST_GUIDE_LOCATION",
        "autoGuide": "QUEST_GUIDE_AUTO_ENABLE",
        "param": [
          "Q3_72008_1",
          "0"
        ],
        "guideScene": 3,
        "guideStyle": "QUEST_GUIDE_STYLE_TARGET",
        "guideLayer": "QUEST_GUIDE_LAYER_SCENE"
      },
      "finishParent": true,
      "isRewind": true,
      "finishExec": [
        {
          "type": "QUEST_EXEC_REFRESH_GROUP_SUITE",
          "param": [
            "3",
            "133220500,2"
          ],
          "param_str": ""
        }
      ],
      "failExec": [],
      "beginExec": [
        {
          "type": "QUEST_EXEC_REFRESH_GROUP_SUITE",
          "param": [
            "3",
            "133220468,2"
          ],
          "param_str": ""
        },
        {
          "type": "QUEST_EXEC_REFRESH_GROUP_SUITE",
          "param": [
            "3",
            "133220181,4"
          ],
          "param_str": ""
        }
      ]
    },
    {
      "subId": 7210508,
      "mainId": 72105,
      "order": 4,
      "isMpBlock": true,
      "descTextMapHash": 4007314668,
      "showType": "QUEST_HIDDEN",
      "acceptCond": [
        {
          "type": "QUEST_COND_STATE_EQUAL",
          "param": [
            7210502,
            3,
            0,
            0,
            0
          ],
          "param_str": ""
        }
      ],
      "finishCond": [
        {
          "type": "QUEST_CONTENT_COMPLETE_TALK",
          "param": [
            7210503,
            0
          ],
          "param_str": ""
        }
      ],
      "failCond": [],
      "guide": {
        "param": []
      },
      "isRewind": true,
      "finishExec": [
        {
          "type": "QUEST_EXEC_REFRESH_GROUP_SUITE",
          "param": [
            "3",
            "133220130,2"
          ],
          "param_str": ""
        }
      ],
      "failExec": [],
      "beginExec": []
    },
    {
      "subId": 7210509,
      "mainId": 72105,
      "order": 8,
      "isMpBlock": true,
      "descTextMapHash": 1310670380,
      "showType": "QUEST_HIDDEN",
      "acceptCond": [
        {
          "type": "QUEST_COND_STATE_EQUAL",
          "param": [
            7210506,
            3,
            0,
            0,
            0
          ],
          "param_str": ""
        }
      ],
      "finishCond": [
        {
          "type": "QUEST_CONTENT_QUEST_STATE_EQUAL",
          "param": [
            7210506,
            3
          ],
          "param_str": ""
        }
      ],
      "failCond": [],
      "guide": {
        "param": []
      },
      "isRewind": true,
      "finishExec": [
        {
          "type": "QUEST_EXEC_DEL_SCENE_TAG",
          "param": [
            "3",
            "113"
          ],
          "param_str": ""
        },
        {
          "type": "QUEST_EXEC_ADD_SCENE_TAG",
          "param": [
            "3",
            "116"
          ],
          "param_str": ""
        },
        {
          "type": "QUEST_EXEC_SET_WEATHER_GADGET",
          "param": [
            "3046",
            "1"
          ],
          "param_str": ""
        },
        {
          "type": "QUEST_EXEC_SET_WEATHER_GADGET",
          "param": [
            "3146",
            "1"
          ],
          "param_str": ""
        },
        {
          "type": "QUEST_EXEC_SET_WEATHER_GADGET",
          "param": [
            "3246",
            "1"
          ],
          "param_str": ""
        }
      ],
      "failExec": [],
      "beginExec": []
    },
    {
      "subId": 7210510,
      "mainId": 72105,
      "order": 9,
      "isMpBlock": true,
      "descTextMapHash": 3652190428,
      "showType": "QUEST_HIDDEN",
      "acceptCond": [
        {
          "type": "QUEST_COND_STATE_EQUAL",
          "param": [
            7210506,
            3,
            0,
            0,
            0
          ],
          "param_str": ""
        }
      ],
      "finishCond": [
        {
          "type": "QUEST_CONTENT_QUEST_STATE_EQUAL",
          "param": [
            7210509,
            3
          ],
          "param_str": ""
        }
      ],
      "failCond": [],
      "guide": {
        "param": []
      },
      "isRewind": true,
      "finishExec": [
        {
          "type": "QUEST_EXEC_SET_WEATHER_GADGET",
          "param": [
            "3031",
            "0"
          ],
          "param_str": ""
        },
        {
          "type": "QUEST_EXEC_SET_WEATHER_GADGET",
          "param": [
            "3131",
            "0"
          ],
          "param_str": ""
        },
        {
          "type": "QUEST_EXEC_SET_WEATHER_GADGET",
          "param": [
            "3231",
            "0"
          ],
          "param_str": ""
        },
        {
          "type": "QUEST_EXEC_DEL_SCENE_TAG",
          "param": [
            "3",
            "117"
          ],
          "param_str": ""
        },
        {
          "type": "QUEST_EXEC_ADD_SCENE_TAG",
          "param": [
            "3",
            "118"
          ],
          "param_str": ""
        }
      ],
      "failExec": [],
      "beginExec": []
    },
    {
      "subId": 7210511,
      "mainId": 72105,
      "order": 10,
      "descTextMapHash": 1257866428,
      "showType": "QUEST_HIDDEN",
      "acceptCond": [
        {
          "type": "QUEST_COND_STATE_EQUAL",
          "param": [
            99902,
            3,
            0,
            0,
            0
          ],
          "param_str": ""
        }
      ],
      "finishCond": [
        {
          "type": "QUEST_CONTENT_FINISH_PLOT",
          "param": [
            7210511,
            0
          ],
          "param_str": ""
        }
      ],
      "failCond": [],
      "guide": {
        "param": []
      },
      "finishExec": [],
      "failExec": [],
      "beginExec": []
    }
  ],
  "talks": [
    {
      "id": 7210501,
      "beginWay": "TALK_BEGIN_MANUAL",
      "activeMode": "PLAY_MODE_SINGLE",
      "beginCondComb": "LOGIC_AND",
      "beginCond": [
        {
          "type": "QUEST_COND_STATE_EQUAL",
          "param": [
            "7210501",
            "2"
          ],
          "param_str": ""
        },
        {
          "type": "QUEST_COND_STATE_EQUAL",
          "param": [
            "7210001",
            "3"
          ],
          "param_str": ""
        }
      ],
      "priority": 5,
      "initDialog": 721050101,
      "npcId": [
        1005
      ],
      "performCfg": "",
      "questId": 72105,
      "prePerformCfg": "",
      "lockGameTime": true
    },
    {
      "id": 7210502,
      "beginWay": "TALK_BEGIN_MANUAL",
      "activeMode": "PLAY_MODE_SINGLE",
      "beginCondComb": "LOGIC_AND",
      "beginCond": [
        {
          "type": "QUEST_COND_STATE_EQUAL",
          "param": [
            "7210501",
            "3"
          ],
          "param_str": ""
        },
        {
          "type": "QUEST_COND_STATE_EQUAL",
          "param": [
            "7210502",
            "2"
          ],
          "param_str": ""
        }
      ],
      "priority": 5,
      "initDialog": 721050201,
      "npcId": [
        20221
      ],
      "performCfg": "QuestDialogue/WQ/Inazuma_72105/Q7210502",
      "heroTalk": "TALK_HERO_MAIN",
      "questId": 72105,
      "prePerformCfg": ""
    },
    {
      "id": 7210503,
      "beginWay": "TALK_BEGIN_MANUAL",
      "activeMode": "PLAY_MODE_SINGLE",
      "beginCondComb": "LOGIC_AND",
      "beginCond": [
        {
          "type": "QUEST_COND_STATE_EQUAL",
          "param": [
            "7210502",
            "3"
          ],
          "param_str": ""
        },
        {
          "type": "QUEST_COND_STATE_EQUAL",
          "param": [
            "7210508",
            "2"
          ],
          "param_str": ""
        }
      ],
      "priority": 5,
      "initDialog": 721050301,
      "npcId": [
        20221
      ],
      "performCfg": "QuestDialogue/WQ/Inazuma_72105/Q7210503",
      "heroTalk": "TALK_HERO_MAIN",
      "questId": 72105,
      "prePerformCfg": ""
    },
    {
      "id": 7210504,
      "beginWay": "TALK_BEGIN_MANUAL",
      "activeMode": "PLAY_MODE_SINGLE",
      "beginCondComb": "LOGIC_AND",
      "beginCond": [
        {
          "type": "QUEST_COND_STATE_EQUAL",
          "param": [
            "7210508",
            "3"
          ],
          "param_str": ""
        },
        {
          "type": "QUEST_COND_STATE_EQUAL",
          "param": [
            "7210503",
            "2"
          ],
          "param_str": ""
        }
      ],
      "priority": 5,
      "initDialog": 721050401,
      "npcId": [
        20221
      ],
      "performCfg": "QuestDialogue/WQ/Inazuma_72105/Q7210504",
      "heroTalk": "TALK_HERO_MAIN",
      "questId": 72105,
      "prePerformCfg": ""
    },
    {
      "id": 7210505,
      "beginWay": "TALK_BEGIN_MANUAL",
      "activeMode": "PLAY_MODE_SINGLE",
      "beginCond": [
        {
          "type": "QUEST_COND_STATE_EQUAL",
          "param": [
            "7210503",
            "3"
          ],
          "param_str": ""
        }
      ],
      "priority": 2,
      "initDialog": 721050501,
      "npcId": [
        20221
      ],
      "performCfg": "",
      "heroTalk": "TALK_HERO_MAIN",
      "questId": 72105,
      "prePerformCfg": ""
    },
    {
      "id": 7210506,
      "beginWay": "TALK_BEGIN_MANUAL",
      "activeMode": "PLAY_MODE_SINGLE",
      "beginCondComb": "LOGIC_AND",
      "beginCond": [
        {
          "type": "QUEST_COND_STATE_EQUAL",
          "param": [
            "7210505",
            "3"
          ],
          "param_str": ""
        },
        {
          "type": "QUEST_COND_STATE_EQUAL",
          "param": [
            "7210506",
            "2"
          ],
          "param_str": ""
        }
      ],
      "priority": 5,
      "initDialog": 721050601,
      "npcId": [
        20221
      ],
      "performCfg": "QuestDialogue/WQ/Inazuma_72105/Q7210506",
      "heroTalk": "TALK_HERO_MAIN",
      "questId": 72105,
      "prePerformCfg": ""
    }
  ]
}