{
  "id": 72165,
  "type": "WQ",
  "titleTextMapHash": 2442334583,
  "descTextMapHash": 1544510894,
  "luaPath": "Actor/Quest/WQ72165",
  "showType": "QUEST_HIDDEN",
  "subQuests": [
    {
      "subId": 7216501,
      "mainId": 72165,
      "order": 1,
      "descTextMapHash": 2419967556,
      "showType": "QUEST_HIDDEN",
      "acceptCond": [
        {
          "type": "QUEST_COND_STATE_EQUAL",
          "param": [
            7215007,
            3,
            0,
            0,
            0
          ],
          "param_str": ""
        }
      ],
      "finishCond": [
        {
          "type": "QUEST_CONTENT_COMPLETE_TALK",
          "param": [
            7216501,
            0
          ],
          "param_str": ""
        }
      ],
      "failCond": [],
      "guide": {
        "param": []
      },
      "finishExec": [],
      "failExec": [],
      "beginExec": []
    },
    {
      "subId": 7216502,
      "mainId": 72165,
      "order": 2,
      "descTextMapHash": 2802925356,
      "showType": "QUEST_HIDDEN",
      "acceptCond": [
        {
          "type": "QUEST_COND_STATE_EQUAL",
          "param": [
            7216501,
            3,
            0,
            0,
            0
          ],
          "param_str": ""
        }
      ],
      "finishCond": [
        {
          "type": "QUEST_CONTENT_LUA_NOTIFY",
          "param": [
            0,
            0
          ],
          "param_str": "7216502",
          "count": 1
        }
      ],
      "failCond": [],
      "guide": {
        "param": []
      },
      "isRewind": true,
      "finishExec": [
        {
          "type": "QUEST_EXEC_INIT_TIME_VAR",
          "param": [
            "0"
          ],
          "param_str": ""
        }
      ],
      "failExec": [],
      "beginExec": [
        {
          "type": "QUEST_EXEC_NOTIFY_GROUP_LUA",
          "param": [
            "3",
            "133210218"
          ],
          "param_str": ""
        }
      ]
    },
    {
      "subId": 7216503,
      "mainId": 72165,
      "order": 4,
      "descTextMapHash": 488960276,
      "showType": "QUEST_HIDDEN",
      "acceptCond": [
        {
          "type": "QUEST_COND_STATE_EQUAL",
          "param": [
            7216511,
            3,
            0,
            0,
            0
          ],
          "param_str": ""
        }
      ],
      "finishCond": [
        {
          "type": "QUEST_CONTENT_COMPLETE_TALK",
          "param": [
            7216502,
            0
          ],
          "param_str": ""
        }
      ],
      "failCond": [],
      "guide": {
        "param": []
      },
      "isRewind": true,
      "finishExec": [],
      "failExec": [],
      "beginExec": []
    },
    {
      "subId": 7216504,
      "mainId": 72165,
      "order": 5,
      "descTextMapHash": 4109781908,
      "showType": "QUEST_HIDDEN",
      "acceptCond": [
        {
          "type": "QUEST_COND_STATE_EQUAL",
          "param": [
            7216503,
            3,
            0,
            0,
            0
          ],
          "param_str": ""
        }
      ],
      "finishCond": [
        {
          "type": "QUEST_CONTENT_LUA_NOTIFY",
          "param": [
            0,
            0
          ],
          "param_str": "7216504",
          "count": 1
        }
      ],
      "failCond": [],
      "guide": {
        "param": []
      },
      "isRewind": true,
      "finishExec": [
        {
          "type": "QUEST_EXEC_NOTIFY_GROUP_LUA",
          "param": [
            "3",
            "133210217"
          ],
          "param_str": ""
        },
        {
          "type": "QUEST_EXEC_INIT_TIME_VAR",
          "param": [
            "1"
          ],
          "param_str": ""
        }
      ],
      "failExec": [],
      "beginExec": [
        {
          "type": "QUEST_EXEC_NOTIFY_GROUP_LUA",
          "param": [
            "3",
            "133210217"
          ],
          "param_str": ""
        }
      ]
    },
    {
      "subId": 7216505,
      "mainId": 72165,
      "order": 7,
      "descTextMapHash": 3417734180,
      "showType": "QUEST_HIDDEN",
      "acceptCond": [
        {
          "type": "QUEST_COND_STATE_EQUAL",
          "param": [
            7216512,
            3,
            0,
            0,
            0
          ],
          "param_str": ""
        }
      ],
      "finishCond": [
        {
          "type": "QUEST_CONTENT_COMPLETE_TALK",
          "param": [
            7216503,
            0
          ],
          "param_str": ""
        }
      ],
      "failCond": [],
      "guide": {
        "param": []
      },
      "isRewind": true,
      "finishExec": [],
      "failExec": [],
      "beginExec": []
    },
    {
      "subId": 7216506,
      "mainId": 72165,
      "order": 8,
      "descTextMapHash": 408087588,
      "showType": "QUEST_HIDDEN",
      "acceptCond": [
        {
          "type": "QUEST_COND_STATE_EQUAL",
          "param": [
            7216505,
            3,
            0,
            0,
            0
          ],
          "param_str": ""
        }
      ],
      "finishCond": [
        {
          "type": "QUEST_CONTENT_LUA_NOTIFY",
          "param": [
            0,
            0
          ],
          "param_str": "7216506",
          "count": 1
        }
      ],
      "failCond": [],
      "guide": {
        "param": []
      },
      "isRewind": true,
      "finishExec": [
        {
          "type": "QUEST_EXEC_INIT_TIME_VAR",
          "param": [
            "2"
          ],
          "param_str": ""
        }
      ],
      "failExec": [],
      "beginExec": [
        {
          "type": "QUEST_EXEC_NOTIFY_GROUP_LUA",
          "param": [
            "3",
            "133210219"
          ],
          "param_str": ""
        }
      ]
    },
    {
      "subId": 7216507,
      "mainId": 72165,
      "order": 10,
      "descTextMapHash": 3370218700,
      "showType": "QUEST_HIDDEN",
      "acceptCond": [
        {
          "type": "QUEST_COND_STATE_EQUAL",
          "param": [
            7216513,
            3,
            0,
            0,
            0
          ],
          "param_str": ""
        }
      ],
      "finishCond": [
        {
          "type": "QUEST_CONTENT_COMPLETE_TALK",
          "param": [
            7216504,
            0
          ],
          "param_str": ""
        }
      ],
      "failCond": [],
      "guide": {
        "param": []
      },
      "isRewind": true,
      "finishExec": [],
      "failExec": [],
      "beginExec": []
    },
    {
      "subId": 7216508,
      "mainId": 72165,
      "order": 11,
      "descTextMapHash": 3687361292,
      "showType": "QUEST_HIDDEN",
      "acceptCond": [
        {
          "type": "QUEST_COND_STATE_EQUAL",
          "param": [
            7216507,
            3,
            0,
            0,
            0
          ],
          "param_str": ""
        }
      ],
      "finishCond": [
        {
          "type": "QUEST_CONTENT_LUA_NOTIFY",
          "param": [
            0,
            0
          ],
          "param_str": "7216508",
          "count": 1
        }
      ],
      "failCond": [],
      "guide": {
        "param": []
      },
      "isRewind": true,
      "finishExec": [
        {
          "type": "QUEST_EXEC_INIT_TIME_VAR",
          "param": [
            "3"
          ],
          "param_str": ""
        }
      ],
      "failExec": [],
      "beginExec": [
        {
          "type": "QUEST_EXEC_NOTIFY_GROUP_LUA",
          "param": [
            "3",
            "133210214"
          ],
          "param_str": ""
        }
      ]
    },
    {
      "subId": 7216509,
      "mainId": 72165,
      "order": 13,
      "descTextMapHash": 1562660444,
      "showType": "QUEST_HIDDEN",
      "acceptCond": [
        {
          "type": "QUEST_COND_STATE_EQUAL",
          "param": [
            7216514,
            3,
            0,
            0,
            0
          ],
          "param_str": ""
        }
      ],
      "finishCond": [
        {
          "type": "QUEST_CONTENT_COMPLETE_TALK",
          "param": [
            7216505,
            0
          ],
          "param_str": ""
        }
      ],
      "failCond": [],
      "guide": {
        "param": []
      },
      "isRewind": true,
      "finishExec": [],
      "failExec": [],
      "beginExec": [
        {
          "type": "QUEST_EXEC_CLEAR_TIME_VAR",
          "param": [
            "72165",
            "0"
          ],
          "param_str": ""
        },
        {
          "type": "QUEST_EXEC_CLEAR_TIME_VAR",
          "param": [
            "72165",
            "1"
          ],
          "param_str": ""
        },
        {
          "type": "QUEST_EXEC_CLEAR_TIME_VAR",
          "param": [
            "72165",
            "2"
          ],
          "param_str": ""
        },
        {
          "type": "QUEST_EXEC_CLEAR_TIME_VAR",
          "param": [
            "72165",
            "3"
          ],
          "param_str": ""
        }
      ]
    },
    {
      "subId": 7216510,
      "mainId": 72165,
      "order": 14,
      "descTextMapHash": 3013508764,
      "showType": "QUEST_HIDDEN",
      "acceptCond": [
        {
          "type": "QUEST_COND_STATE_EQUAL",
          "param": [
            7216509,
            3,
            0,
            0,
            0
          ],
          "param_str": ""
        }
      ],
      "finishCond": [
        {
          "type": "QUEST_CONTENT_LUA_NOTIFY",
          "param": [
            0,
            0
          ],
          "param_str": "7216510",
          "count": 1
        }
      ],
      "failCond": [],
      "guide": {
        "param": []
      },
      "finishParent": true,
      "isRewind": true,
      "finishExec": [
        {
          "type": "QUEST_EXEC_SET_QUEST_GLOBAL_VAR",
          "param": [
            "72165",
            "1"
          ],
          "param_str": ""
        }
      ],
      "failExec": [],
      "beginExec": [
        {
          "type": "QUEST_EXEC_NOTIFY_GROUP_LUA",
          "param": [
            "3",
            "133210220"
          ],
          "param_str": ""
        }
      ]
    },
    {
      "subId": 7216511,
      "mainId": 72165,
      "order": 3,
      "descTextMapHash": 217338284,
      "showType": "QUEST_HIDDEN",
      "acceptCond": [
        {
          "type": "QUEST_COND_STATE_EQUAL",
          "param": [
            7216502,
            3,
            0,
            0,
            0
          ],
          "param_str": ""
        }
      ],
      "finishCond": [
        {
          "type": "QUEST_CONTENT_TIME_VAR_PASS_DAY",
          "param": [
            72165,
            0
          ],
          "param_str": "1"
        }
      ],
      "failCond": [],
      "guide": {
        "param": []
      },
      "isRewind": true,
      "finishExec": [],
      "failExec": [],
      "beginExec": []
    },
    {
      "subId": 7216512,
      "mainId": 72165,
      "order": 6,
      "descTextMapHash": 3026313836,
      "showType": "QUEST_HIDDEN",
      "acceptCond": [
        {
          "type": "QUEST_COND_STATE_EQUAL",
          "param": [
            7216504,
            3,
            0,
            0,
            0
          ],
          "param_str": ""
        }
      ],
      "finishCond": [
        {
          "type": "QUEST_CONTENT_TIME_VAR_PASS_DAY",
          "param": [
            72165,
            1
          ],
          "param_str": "1"
        }
      ],
      "failCond": [],
      "guide": {
        "param": []
      },
      "isRewind": true,
      "finishExec": [],
      "failExec": [],
      "beginExec": []
    },
    {
      "subId": 7216513,
      "mainId": 72165,
      "order": 9,
      "descTextMapHash": 552073220,
      "showType": "QUEST_HIDDEN",
      "acceptCond": [
        {
          "type": "QUEST_COND_STATE_EQUAL",
          "param": [
            7216506,
            3,
            0,
            0,
            0
          ],
          "param_str": ""
        }
      ],
      "finishCond": [
        {
          "type": "QUEST_CONTENT_TIME_VAR_PASS_DAY",
          "param": [
            72165,
            2
          ],
          "param_str": "1"
        }
      ],
      "failCond": [],
      "guide": {
        "param": []
      },
      "isRewind": true,
      "finishExec": [],
      "failExec": [],
      "beginExec": []
    },
    {
      "subId": 7216514,
      "mainId": 72165,
      "order": 12,
      "descTextMapHash": 3151075780,
      "showType": "QUEST_HIDDEN",
      "acceptCond": [
        {
          "type": "QUEST_COND_STATE_EQUAL",
          "param": [
            7216508,
            3,
            0,
            0,
            0
          ],
          "param_str": ""
        }
      ],
      "finishCond": [
        {
          "type": "QUEST_CONTENT_TIME_VAR_PASS_DAY",
          "param": [
            72165,
            3
          ],
          "param_str": "1"
        }
      ],
      "failCond": [],
      "guide": {
        "param": []
      },
      "isRewind": true,
      "finishExec": [],
      "failExec": [],
      "beginExec": []
    }
  ],
  "talks": [
    {
      "id": 7216501,
      "beginWay": "TALK_BEGIN_MANUAL",
      "activeMode": "PLAY_MODE_HOST",
      "beginCond": [
        {
          "type": "QUEST_COND_STATE_EQUAL",
          "param": [
            "7216501",
            "2"
          ],
          "param_str": ""
        }
      ],
      "priority": 10,
      "initDialog": 721650101,
      "npcId": [
        3194,
        1005
      ],
      "performCfg": "QuestDialogue/WQ/Daoqi_72165/Q7216501",
      "heroTalk": "TALK_HERO_MAIN",
      "questId": 72165,
      "prePerformCfg": ""
    },
    {
      "id": 7216502,
      "beginWay": "TALK_BEGIN_MANUAL",
      "activeMode": "PLAY_MODE_HOST",
      "beginCond": [
        {
          "type": "QUEST_COND_STATE_EQUAL",
          "param": [
            "7216503",
            "2"
          ],
          "param_str": ""
        }
      ],
      "priority": 10,
      "initDialog": 721650201,
      "npcId": [
        3194,
        1005
      ],
      "performCfg": "QuestDialogue/WQ/Daoqi_72165/Q7216502",
      "heroTalk": "TALK_HERO_MAIN",
      "questId": 72165,
      "prePerformCfg": ""
    },
    {
      "id": 7216503,
      "beginWay": "TALK_BEGIN_MANUAL",
      "activeMode": "PLAY_MODE_HOST",
      "beginCond": [
        {
          "type": "QUEST_COND_STATE_EQUAL",
          "param": [
            "7216505",
            "2"
          ],
          "param_str": ""
        }
      ],
      "priority": 10,
      "initDialog": 721650301,
      "npcId": [
        3194,
        1005
      ],
      "performCfg": "QuestDialogue/WQ/Daoqi_72165/Q7216503",
      "heroTalk": "TALK_HERO_MAIN",
      "questId": 72165,
      "prePerformCfg": ""
    },
    {
      "id": 7216504,
      "beginWay": "TALK_BEGIN_MANUAL",
      "activeMode": "PLAY_MODE_HOST",
      "beginCond": [
        {
          "type": "QUEST_COND_STATE_EQUAL",
          "param": [
            "7216507",
            "2"
          ],
          "param_str": ""
        }
      ],
      "priority": 10,
      "initDialog": 721650401,
      "npcId": [
        3194,
        1005
      ],
      "performCfg": "QuestDialogue/WQ/Daoqi_72165/Q7216504",
      "heroTalk": "TALK_HERO_MAIN",
      "questId": 72165,
      "prePerformCfg": ""
    },
    {
      "id": 7216505,
      "beginWay": "TALK_BEGIN_MANUAL",
      "activeMode": "PLAY_MODE_HOST",
      "beginCond": [
        {
          "type": "QUEST_COND_STATE_EQUAL",
          "param": [
            "7216509",
            "2"
          ],
          "param_str": ""
        }
      ],
      "priority": 10,
      "initDialog": 721650501,
      "npcId": [
        3194,
        1005
      ],
      "performCfg": "QuestDialogue/WQ/Daoqi_72165/Q7216505",
      "heroTalk": "TALK_HERO_MAIN",
      "questId": 72165,
      "prePerformCfg": ""
    },
    {
      "id": 7216506,
      "beginWay": "TALK_BEGIN_MANUAL",
      "activeMode": "PLAY_MODE_HOST",
      "beginCondComb": "LOGIC_AND",
      "beginCond": [
        {
          "type": "QUEST_COND_STATE_EQUAL",
          "param": [
            "7216501",
            "3"
          ],
          "param_str": ""
        },
        {
          "type": "QUEST_COND_STATE_EQUAL",
          "param": [
            "7216502",
            "2"
          ],
          "param_str": ""
        }
      ],
      "priority": 10,
      "initDialog": 721650601,
      "npcId": [
        3194
      ],
      "performCfg": "",
      "questId": 72165,
      "prePerformCfg": ""
    },
    {
      "id": 7216507,
      "beginWay": "TALK_BEGIN_MANUAL",
      "activeMode": "PLAY_MODE_HOST",
      "beginCondComb": "LOGIC_AND",
      "beginCond": [
        {
          "type": "QUEST_COND_STATE_EQUAL",
          "param": [
            "7216503",
            "3"
          ],
          "param_str": ""
        },
        {
          "type": "QUEST_COND_STATE_EQUAL",
          "param": [
            "7216504",
            "2"
          ],
          "param_str": ""
        }
      ],
      "priority": 10,
      "initDialog": 721650701,
      "npcId": [
        3194
      ],
      "performCfg": "",
      "questId": 72165,
      "prePerformCfg": ""
    },
    {
      "id": 7216508,
      "beginWay": "TALK_BEGIN_MANUAL",
      "activeMode": "PLAY_MODE_HOST",
      "beginCondComb": "LOGIC_AND",
      "beginCond": [
        {
          "type": "QUEST_COND_STATE_EQUAL",
          "param": [
            "7216505",
            "3"
          ],
          "param_str": ""
        },
        {
          "type": "QUEST_COND_STATE_EQUAL",
          "param": [
            "7216506",
            "2"
          ],
          "param_str": ""
        }
      ],
      "priority": 10,
      "initDialog": 721650801,
      "npcId": [
        3194
      ],
      "performCfg": "",
      "questId": 72165,
      "prePerformCfg": ""
    },
    {
      "id": 7216509,
      "beginWay": "TALK_BEGIN_MANUAL",
      "activeMode": "PLAY_MODE_HOST",
      "beginCondComb": "LOGIC_AND",
      "beginCond": [
        {
          "type": "QUEST_COND_STATE_EQUAL",
          "param": [
            "7216507",
            "3"
          ],
          "param_str": ""
        },
        {
          "type": "QUEST_COND_STATE_EQUAL",
          "param": [
            "7216508",
            "2"
          ],
          "param_str": ""
        }
      ],
      "priority": 10,
      "initDialog": 721650901,
      "npcId": [
        3194
      ],
      "performCfg": "",
      "questId": 72165,
      "prePerformCfg": ""
    },
    {
      "id": 7216510,
      "beginWay": "TALK_BEGIN_MANUAL",
      "activeMode": "PLAY_MODE_HOST",
      "beginCondComb": "LOGIC_AND",
      "beginCond": [
        {
          "type": "QUEST_COND_STATE_EQUAL",
          "param": [
            "7216509",
            "3"
          ],
          "param_str": ""
        },
        {
          "type": "QUEST_COND_STATE_EQUAL",
          "param": [
            "7216510",
            "2"
          ],
          "param_str": ""
        }
      ],
      "priority": 10,
      "initDialog": 721651001,
      "npcId": [
        3194
      ],
      "performCfg": "",
      "questId": 72165,
      "prePerformCfg": ""
    },
    {
      "id": 7216511,
      "beginWay": "TALK_BEGIN_MANUAL",
      "activeMode": "PLAY_MODE_HOST",
      "beginCondComb": "LOGIC_AND",
      "beginCond": [
        {
          "type": "QUEST_COND_STATE_EQUAL",
          "param": [
            "7216501",
            "3"
          ],
          "param_str": ""
        },
        {
          "type": "QUEST_COND_QUEST_NOT_RECEIVE",
          "param": [
            "7216510",
            "1"
          ],
          "param_str": ""
        }
      ],
      "priority": 5,
      "initDialog": 721651101,
      "npcId": [
        3194
      ],
      "performCfg": "",
      "questId": 72165,
      "prePerformCfg": ""
    }
  ]
}