{
  "id": 72162,
  "type": "WQ",
  "titleTextMapHash": 1382202343,
  "descTextMapHash": 2390557894,
  "luaPath": "Actor/Quest/WQ72162",
  "rewardIdList": [
    172162
  ],
  "subQuests": [
    {
      "subId": 7216201,
      "mainId": 72162,
      "order": 2,
      "descTextMapHash": 4291508740,
      "acceptCond": [
        {
          "type": "QUEST_COND_STATE_EQUAL",
          "param": [
            7216216,
            3,
            0,
            0,
            0
          ],
          "param_str": ""
        }
      ],
      "finishCond": [
        {
          "type": "QUEST_CONTENT_LUA_NOTIFY",
          "param": [
            0,
            0
          ],
          "param_str": "7216201",
          "count": 1
        }
      ],
      "failCond": [],
      "guide": {
        "type": "QUEST_GUIDE_LOCATION",
        "param": [
          "WQ72162_TengYuan01",
          "15"
        ],
        "guideScene": 3
      },
      "isRewind": true,
      "finishExec": [
        {
          "type": "QUEST_EXEC_REFRESH_GROUP_SUITE",
          "param": [
            "3",
            "133217150,1"
          ],
          "param_str": ""
        }
      ],
      "failExec": [],
      "beginExec": [],
      "exclusiveNpcList": [
        3063
      ],
      "exclusiveNpcPriority": 1100
    },
    {
      "subId": 7216202,
      "mainId": 72162,
      "order": 3,
      "descTextMapHash": 774806556,
      "acceptCond": [
        {
          "type": "QUEST_COND_STATE_EQUAL",
          "param": [
            7216201,
            3,
            0,
            0,
            0
          ],
          "param_str": ""
        }
      ],
      "finishCond": [
        {
          "type": "QUEST_CONTENT_COMPLETE_TALK",
          "param": [
            7216201,
            0
          ],
          "param_str": ""
        }
      ],
      "failCond": [],
      "guide": {
        "type": "QUEST_GUIDE_NPC",
        "param": [
          "3063"
        ],
        "guideScene": 3
      },
      "isRewind": true,
      "finishExec": [],
      "failExec": [],
      "beginExec": [],
      "exclusiveNpcList": [
        3063
      ],
      "exclusiveNpcPriority": 1100
    },
    {
      "subId": 7216203,
      "mainId": 72162,
      "order": 4,
      "descTextMapHash": 3515331692,
      "acceptCond": [
        {
          "type": "QUEST_COND_STATE_EQUAL",
          "param": [
            7216202,
            3,
            0,
            0,
            0
          ],
          "param_str": ""
        }
      ],
      "finishCond": [
        {
          "type": "QUEST_CONTENT_LUA_NOTIFY",
          "param": [
            0,
            0
          ],
          "param_str": "7216203",
          "count": 1
        }
      ],
      "failCond": [],
      "guide": {
        "type": "QUEST_GUIDE_GADGET",
        "param": [
          "133217023",
          "23005",
          "-4425:214:-3973"
        ],
        "guideScene": 3
      },
      "isRewind": true,
      "finishExec": [],
      "failExec": [],
      "beginExec": [
        {
          "type": "QUEST_EXEC_NOTIFY_GROUP_LUA",
          "param": [
            "3",
            "133217023"
          ],
          "param_str": ""
        }
      ],
      "exclusiveNpcList": [
        3063
      ],
      "exclusiveNpcPriority": 1100
    },
    {
      "subId": 7216204,
      "mainId": 72162,
      "order": 6,
      "descTextMapHash": 2976888012,
      "acceptCond": [
        {
          "type": "QUEST_COND_STATE_EQUAL",
          "param": [
            7216205,
            3,
            0,
            0,
            0
          ],
          "param_str": ""
        }
      ],
      "finishCond": [
        {
          "type": "QUEST_CONTENT_COMPLETE_TALK",
          "param": [
            7216214,
            0
          ],
          "param_str": ""
        }
      ],
      "failCond": [],
      "guide": {
        "type": "QUEST_GUIDE_NPC",
        "param": [
          "3063"
        ],
        "guideScene": 3
      },
      "isRewind": true,
      "finishExec": [],
      "failExec": [],
      "beginExec": [],
      "exclusiveNpcList": [
        3063
      ],
      "exclusiveNpcPriority": 1100
    },
    {
      "subId": 7216205,
      "mainId": 72162,
      "order": 5,
      "descTextMapHash": 2283931516,
      "acceptCond": [
        {
          "type": "QUEST_COND_STATE_EQUAL",
          "param": [
            7216203,
            3,
            0,
            0,
            0
          ],
          "param_str": ""
        }
      ],
      "finishCond": [
        {
          "type": "QUEST_CONTENT_LUA_NOTIFY",
          "param": [
            0,
            0
          ],
          "param_str": "7216205",
          "count": 1
        }
      ],
      "failCond": [],
      "guide": {
        "type": "QUEST_GUIDE_LOCATION",
        "param": [
          "WQ72162_DiaoCha01",
          "15"
        ],
        "guideScene": 3
      },
      "isRewind": true,
      "finishExec": [],
      "failExec": [],
      "beginExec": [],
      "exclusiveNpcList": [
        3063
      ],
      "exclusiveNpcPriority": 1100
    },
    {
      "subId": 7216206,
      "mainId": 72162,
      "order": 7,
      "descTextMapHash": 244514372,
      "acceptCond": [
        {
          "type": "QUEST_COND_STATE_EQUAL",
          "param": [
            7216204,
            3,
            0,
            0,
            0
          ],
          "param_str": ""
        }
      ],
      "finishCond": [
        {
          "type": "QUEST_CONTENT_FINISH_PLOT",
          "param": [
            7216206,
            0
          ],
          "param_str": ""
        }
      ],
      "failCond": [],
      "guide": {
        "type": "QUEST_GUIDE_LOCATION",
        "param": [
          "WQ72162_DiXiaShi01",
          "15"
        ],
        "guideScene": 3
      },
      "isRewind": true,
      "finishExec": [],
      "failExec": [],
      "beginExec": [],
      "exclusiveNpcList": [
        3063
      ],
      "exclusiveNpcPriority": 1100
    },
    {
      "subId": 7216207,
      "mainId": 72162,
      "order": 10,
      "descTextMapHash": 1353485748,
      "acceptCond": [
        {
          "type": "QUEST_COND_STATE_EQUAL",
          "param": [
            7216210,
            3,
            0,
            0,
            0
          ],
          "param_str": ""
        }
      ],
      "finishCond": [
        {
          "type": "QUEST_CONTENT_LUA_NOTIFY",
          "param": [
            0,
            0
          ],
          "param_str": "7216207",
          "count": 1
        }
      ],
      "failCond": [],
      "guide": {
        "type": "QUEST_GUIDE_LOCATION",
        "param": [
          "WQ72162_JieMi",
          "15"
        ],
        "guideScene": 3
      },
      "isRewind": true,
      "finishExec": [],
      "failExec": [],
      "beginExec": [],
      "exclusiveNpcList": [
        3063
      ],
      "exclusiveNpcPriority": 1100
    },
    {
      "subId": 7216208,
      "mainId": 72162,
      "order": 11,
      "descTextMapHash": 251003732,
      "acceptCond": [
        {
          "type": "QUEST_COND_STATE_EQUAL",
          "param": [
            7216207,
            3,
            0,
            0,
            0
          ],
          "param_str": ""
        }
      ],
      "finishCond": [
        {
          "type": "QUEST_CONTENT_LUA_NOTIFY",
          "param": [
            0,
            0
          ],
          "param_str": "7216208",
          "count": 1
        }
      ],
      "failCond": [],
      "guide": {
        "type": "QUEST_GUIDE_LOCATION",
        "param": [
          "WQ72162_JieMi",
          "15"
        ],
        "guideScene": 3
      },
      "isRewind": true,
      "finishExec": [
        {
          "type": "QUEST_EXEC_DEL_PACK_ITEM",
          "param": [
            "100992",
            "1"
          ],
          "param_str": ""
        }
      ],
      "failExec": [],
      "beginExec": [
        {
          "type": "QUEST_EXEC_NOTIFY_GROUP_LUA",
          "param": [
            "3",
            "133217228"
          ],
          "param_str": ""
        }
      ],
      "exclusiveNpcList": [
        3063
      ],
      "exclusiveNpcPriority": 1100
    },
    {
      "subId": 7216209,
      "mainId": 72162,
      "order": 12,
      "descTextMapHash": 1750591084,
      "acceptCond": [
        {
          "type": "QUEST_COND_STATE_EQUAL",
          "param": [
            7216208,
            3,
            0,
            0,
            0
          ],
          "param_str": ""
        }
      ],
      "finishCond": [
        {
          "type": "QUEST_CONTENT_FINISH_PLOT",
          "param": [
            7216209,
            0
          ],
          "param_str": ""
        }
      ],
      "failCond": [],
      "guide": {
        "type": "QUEST_GUIDE_NPC",
        "param": [
          "3063"
        ],
        "guideScene": 3
      },
      "isRewind": true,
      "finishExec": [
        {
          "type": "QUEST_EXEC_NOTIFY_GROUP_LUA",
          "param": [
            "3",
            "133217229"
          ],
          "param_str": ""
        }
      ],
      "failExec": [],
      "beginExec": [
        {
          "type": "QUEST_EXEC_REGISTER_DYNAMIC_GROUP",
          "param": [
            "3",
            "133217235"
          ],
          "param_str": ""
        }
      ],
      "exclusiveNpcList": [
        3063
      ],
      "exclusiveNpcPriority": 1100
    },
    {
      "subId": 7216210,
      "mainId": 72162,
      "order": 9,
      "descTextMapHash": 2803469204,
      "acceptCond": [
        {
          "type": "QUEST_COND_STATE_EQUAL",
          "param": [
            7216217,
            3,
            0,
            0,
            0
          ],
          "param_str": ""
        }
      ],
      "finishCond": [
        {
          "type": "QUEST_CONTENT_LUA_NOTIFY",
          "param": [
            0,
            0
          ],
          "param_str": "7216210",
          "count": 1
        }
      ],
      "failCond": [],
      "guide": {
        "type": "QUEST_GUIDE_GADGET",
        "autoGuide": "QUEST_GUIDE_AUTO_ENABLE",
        "param": [
          "133217006",
          "6023",
          "-4427:205:-3973"
        ],
        "guideScene": 3
      },
      "isRewind": true,
      "finishExec": [],
      "failExec": [],
      "beginExec": [
        {
          "type": "QUEST_EXEC_NOTIFY_GROUP_LUA",
          "param": [
            "3",
            "133217006"
          ],
          "param_str": ""
        }
      ],
      "exclusiveNpcList": [
        3063
      ],
      "exclusiveNpcPriority": 1100
    },
    {
      "subId": 7216211,
      "mainId": 72162,
      "order": 14,
      "descTextMapHash": 1001452724,
      "acceptCond": [
        {
          "type": "QUEST_COND_STATE_EQUAL",
          "param": [
            7216219,
            3,
            0,
            0,
            0
          ],
          "param_str": ""
        }
      ],
      "finishCond": [
        {
          "type": "QUEST_CONTENT_FINISH_PLOT",
          "param": [
            7216211,
            0
          ],
          "param_str": ""
        }
      ],
      "failCond": [],
      "guide": {
        "type": "QUEST_GUIDE_LOCATION",
        "param": [
          "WQ72162_TengYuanZD01",
          "20"
        ],
        "guideScene": 3
      },
      "isRewind": true,
      "finishExec": [],
      "failExec": [],
      "beginExec": [
        {
          "type": "QUEST_EXEC_REGISTER_DYNAMIC_GROUP",
          "param": [
            "3",
            "133217235"
          ],
          "param_str": ""
        }
      ],
      "exclusiveNpcList": [
        3063
      ],
      "exclusiveNpcPriority": 1100
    },
    {
      "subId": 7216212,
      "mainId": 72162,
      "order": 15,
      "descTextMapHash": 3017793692,
      "acceptCond": [
        {
          "type": "QUEST_COND_STATE_EQUAL",
          "param": [
            7216211,
            3,
            0,
            0,
            0
          ],
          "param_str": ""
        }
      ],
      "finishCond": [
        {
          "type": "QUEST_CONTENT_FINISH_PLOT",
          "param": [
            7216212,
            0
          ],
          "param_str": ""
        }
      ],
      "failCond": [],
      "guide": {
        "type": "QUEST_GUIDE_NPC",
        "param": [
          "3063"
        ],
        "guideScene": 3
      },
      "isRewind": true,
      "finishExec": [],
      "failExec": [],
      "beginExec": [
        {
          "type": "QUEST_EXEC_REGISTER_DYNAMIC_GROUP",
          "param": [
            "3",
            "133217235"
          ],
          "param_str": ""
        }
      ],
      "exclusiveNpcList": [
        3063
      ],
      "exclusiveNpcPriority": 1100
    },
    {
      "subId": 7216213,
      "mainId": 72162,
      "order": 18,
      "descTextMapHash": 808358244,
      "acceptCond": [
        {
          "type": "QUEST_COND_STATE_EQUAL",
          "param": [
            7216220,
            3,
            0,
            0,
            0
          ],
          "param_str": ""
        }
      ],
      "finishCond": [
        {
          "type": "QUEST_CONTENT_COMPLETE_TALK",
          "param": [
            7216207,
            0
          ],
          "param_str": ""
        }
      ],
      "failCond": [],
      "guide": {
        "type": "QUEST_GUIDE_NPC",
        "param": [
          "3063"
        ],
        "guideScene": 3
      },
      "isRewind": true,
      "finishExec": [],
      "failExec": [],
      "beginExec": [
        {
          "type": "QUEST_EXEC_REGISTER_DYNAMIC_GROUP",
          "param": [
            "3",
            "133217235"
          ],
          "param_str": ""
        }
      ],
      "exclusiveNpcList": [
        3063
      ],
      "exclusiveNpcPriority": 1100
    },
    {
      "subId": 7216214,
      "mainId": 72162,
      "order": 21,
      "descTextMapHash": 562973572,
      "acceptCond": [
        {
          "type": "QUEST_COND_STATE_EQUAL",
          "param": [
            7216228,
            3,
            0,
            0,
            0
          ],
          "param_str": ""
        }
      ],
      "finishCond": [
        {
          "type": "QUEST_CONTENT_LUA_NOTIFY",
          "param": [
            0,
            0
          ],
          "param_str": "7216214",
          "count": 1
        }
      ],
      "failCond": [],
      "guide": {
        "type": "QUEST_GUIDE_LOCATION",
        "param": [
          "WQ72162_TYZD_YWS",
          "20"
        ],
        "guideScene": 3
      },
      "isRewind": true,
      "finishExec": [],
      "failExec": [],
      "beginExec": [
        {
          "type": "QUEST_EXEC_REGISTER_DYNAMIC_GROUP",
          "param": [
            "3",
            "133217114"
          ],
          "param_str": ""
        },
        {
          "type": "QUEST_EXEC_REGISTER_DYNAMIC_GROUP",
          "param": [
            "3",
            "133217235"
          ],
          "param_str": ""
        }
      ],
      "exclusiveNpcList": [
        3063
      ],
      "exclusiveNpcPriority": 1100
    },
    {
      "subId": 7216215,
      "mainId": 72162,
      "order": 22,
      "descTextMapHash": 703821764,
      "acceptCond": [
        {
          "type": "QUEST_COND_STATE_EQUAL",
          "param": [
            7216214,
            3,
            0,
            0,
            0
          ],
          "param_str": ""
        }
      ],
      "finishCond": [
        {
          "type": "QUEST_CONTENT_COMPLETE_TALK",
          "param": [
            7216209,
            0
          ],
          "param_str": ""
        }
      ],
      "failCond": [],
      "guide": {
        "type": "QUEST_GUIDE_NPC",
        "param": [
          "3063",
          "SELECT_NPC_NONE"
        ],
        "guideScene": 3
      },
      "isRewind": true,
      "finishExec": [],
      "failExec": [],
      "beginExec": [
        {
          "type": "QUEST_EXEC_REGISTER_DYNAMIC_GROUP",
          "param": [
            "3",
            "133217235"
          ],
          "param_str": ""
        }
      ],
      "exclusiveNpcList": [
        3063
      ],
      "exclusiveNpcPriority": 1100
    },
    {
      "subId": 7216216,
      "mainId": 72162,
      "order": 1,
      "descTextMapHash": 963833644,
      "showType": "QUEST_HIDDEN",
      "acceptCond": [
        {
          "type": "QUEST_COND_STATE_EQUAL",
          "param": [
            201310,
            3,
            0,
            0,
            0
          ],
          "param_str": ""
        }
      ],
      "finishCond": [
        {
          "type": "QUEST_CONTENT_FINISH_PLOT",
          "param": [
            7216216,
            0
          ],
          "param_str": ""
        }
      ],
      "failCond": [],
      "guide": {
        "param": []
      },
      "finishExec": [],
      "failExec": [],
      "beginExec": [
        {
          "type": "QUEST_EXEC_REFRESH_GROUP_SUITE",
          "param": [
            "3",
            "133217150,2"
          ],
          "param_str": ""
        }
      ],
      "exclusiveNpcList": [
        3063
      ],
      "exclusiveNpcPriority": 1100
    },
    {
      "subId": 7216217,
      "mainId": 72162,
      "order": 8,
      "descTextMapHash": 2508533604,
      "acceptCond": [
        {
          "type": "QUEST_COND_STATE_EQUAL",
          "param": [
            7216206,
            3,
            0,
            0,
            0
          ],
          "param_str": ""
        }
      ],
      "finishCond": [
        {
          "type": "QUEST_CONTENT_COMPLETE_TALK",
          "param": [
            7216203,
            0
          ],
          "param_str": ""
        }
      ],
      "failCond": [],
      "guide": {
        "type": "QUEST_GUIDE_NPC",
        "param": [
          "3063"
        ],
        "guideScene": 3
      },
      "isRewind": true,
      "finishExec": [],
      "failExec": [],
      "beginExec": [],
      "exclusiveNpcList": [
        3063
      ],
      "exclusiveNpcPriority": 1100
    },
    {
      "subId": 7216219,
      "mainId": 72162,
      "order": 13,
      "descTextMapHash": 1083277244,
      "acceptCond": [
        {
          "type": "QUEST_COND_STATE_EQUAL",
          "param": [
            7216209,
            3,
            0,
            0,
            0
          ],
          "param_str": ""
        }
      ],
      "finishCond": [
        {
          "type": "QUEST_CONTENT_COMPLETE_TALK",
          "param": [
            7216204,
            0
          ],
          "param_str": ""
        }
      ],
      "failCond": [],
      "guide": {
        "type": "QUEST_GUIDE_NPC",
        "param": [
          "3063"
        ],
        "guideScene": 3
      },
      "isRewind": true,
      "finishExec": [],
      "failExec": [],
      "beginExec": [
        {
          "type": "QUEST_EXEC_REGISTER_DYNAMIC_GROUP",
          "param": [
            "3",
            "133217235"
          ],
          "param_str": ""
        }
      ],
      "exclusiveNpcList": [
        3063
      ],
      "exclusiveNpcPriority": 1100
    },
    {
      "subId": 7216220,
      "mainId": 72162,
      "order": 17,
      "descTextMapHash": 1939322132,
      "acceptCond": [
        {
          "type": "QUEST_COND_STATE_EQUAL",
          "param": [
            7216227,
            3,
            0,
            0,
            0
          ],
          "param_str": ""
        }
      ],
      "finishCond": [
        {
          "type": "QUEST_CONTENT_LUA_NOTIFY",
          "param": [
            0,
            0
          ],
          "param_str": "7216220",
          "count": 1
        }
      ],
      "failCond": [],
      "guide": {
        "type": "QUEST_GUIDE_LOCATION",
        "param": [
          "WQ72162_TYZD_DBT",
          "20"
        ],
        "guideScene": 3
      },
      "isRewind": true,
      "finishExec": [],
      "failExec": [],
      "beginExec": [
        {
          "type": "QUEST_EXEC_REGISTER_DYNAMIC_GROUP",
          "param": [
            "3",
            "133217113"
          ],
          "param_str": ""
        },
        {
          "type": "QUEST_EXEC_REGISTER_DYNAMIC_GROUP",
          "param": [
            "3",
            "133217235"
          ],
          "param_str": ""
        }
      ],
      "exclusiveNpcList": [
        3063
      ],
      "exclusiveNpcPriority": 1100
    },
    {
      "subId": 7216221,
      "mainId": 72162,
      "order": 19,
      "descTextMapHash": 1732705788,
      "acceptCond": [
        {
          "type": "QUEST_COND_STATE_EQUAL",
          "param": [
            7216213,
            3,
            0,
            0,
            0
          ],
          "param_str": ""
        }
      ],
      "finishCond": [
        {
          "type": "QUEST_CONTENT_FINISH_PLOT",
          "param": [
            7216221,
            0
          ],
          "param_str": ""
        }
      ],
      "failCond": [],
      "guide": {
        "type": "QUEST_GUIDE_NPC",
        "param": [
          "3063"
        ],
        "guideScene": 3
      },
      "isRewind": true,
      "finishExec": [],
      "failExec": [],
      "beginExec": [
        {
          "type": "QUEST_EXEC_REGISTER_DYNAMIC_GROUP",
          "param": [
            "3",
            "133217235"
          ],
          "param_str": ""
        }
      ],
      "exclusiveNpcList": [
        3063
      ],
      "exclusiveNpcPriority": 1100
    },
    {
      "subId": 7216222,
      "mainId": 72162,
      "order": 23,
      "descTextMapHash": 3866531884,
      "acceptCond": [
        {
          "type": "QUEST_COND_STATE_EQUAL",
          "param": [
            7216215,
            3,
            0,
            0,
            0
          ],
          "param_str": ""
        }
      ],
      "finishCond": [
        {
          "type": "QUEST_CONTENT_FINISH_PLOT",
          "param": [
            7216222,
            0
          ],
          "param_str": ""
        }
      ],
      "failCond": [],
      "guide": {
        "type": "QUEST_GUIDE_NPC",
        "param": [
          "3063"
        ],
        "guideScene": 3
      },
      "isRewind": true,
      "finishExec": [],
      "failExec": [],
      "beginExec": [
        {
          "type": "QUEST_EXEC_REGISTER_DYNAMIC_GROUP",
          "param": [
            "3",
            "133217235"
          ],
          "param_str": ""
        }
      ],
      "exclusiveNpcList": [
        3063
      ],
      "exclusiveNpcPriority": 1100
    },
    {
      "subId": 7216223,
      "mainId": 72162,
      "order": 25,
      "descTextMapHash": 3223517332,
      "acceptCond": [
        {
          "type": "QUEST_COND_STATE_EQUAL",
          "param": [
            7216229,
            3,
            0,
            0,
            0
          ],
          "param_str": ""
        }
      ],
      "finishCond": [
        {
          "type": "QUEST_CONTENT_LUA_NOTIFY",
          "param": [
            0,
            0
          ],
          "param_str": "7216223",
          "count": 1
        }
      ],
      "failCond": [],
      "guide": {
        "type": "QUEST_GUIDE_LOCATION",
        "param": [
          "WQ72162_TYZD_YRZ",
          "20"
        ],
        "guideScene": 3
      },
      "isRewind": true,
      "finishExec": [],
      "failExec": [],
      "beginExec": [
        {
          "type": "QUEST_EXEC_REGISTER_DYNAMIC_GROUP",
          "param": [
            "3",
            "133217115"
          ],
          "param_str": ""
        },
        {
          "type": "QUEST_EXEC_REGISTER_DYNAMIC_GROUP",
          "param": [
            "3",
            "133217235"
          ],
          "param_str": ""
        }
      ],
      "exclusiveNpcList": [
        3063
      ],
      "exclusiveNpcPriority": 1100
    },
    {
      "subId": 7216224,
      "mainId": 72162,
      "order": 26,
      "descTextMapHash": 2841178140,
      "acceptCond": [
        {
          "type": "QUEST_COND_STATE_EQUAL",
          "param": [
            7216223,
            3,
            0,
            0,
            0
          ],
          "param_str": ""
        }
      ],
      "finishCond": [
        {
          "type": "QUEST_CONTENT_COMPLETE_TALK",
          "param": [
            7216211,
            0
          ],
          "param_str": ""
        }
      ],
      "failCond": [],
      "guide": {
        "type": "QUEST_GUIDE_NPC",
        "param": [
          "3063"
        ],
        "guideScene": 3
      },
      "isRewind": true,
      "finishExec": [],
      "failExec": [],
      "beginExec": [
        {
          "type": "QUEST_EXEC_REGISTER_DYNAMIC_GROUP",
          "param": [
            "3",
            "133217235"
          ],
          "param_str": ""
        }
      ],
      "exclusiveNpcList": [
        3063
      ],
      "exclusiveNpcPriority": 1100
    },
    {
      "subId": 7216225,
      "mainId": 72162,
      "order": 27,
      "descTextMapHash": 43755588,
      "acceptCond": [
        {
          "type": "QUEST_COND_STATE_EQUAL",
          "param": [
            7216224,
            3,
            0,
            0,
            0
          ],
          "param_str": ""
        }
      ],
      "finishCond": [
        {
          "type": "QUEST_CONTENT_FINISH_PLOT",
          "param": [
            7216225,
            0
          ],
          "param_str": ""
        }
      ],
      "failCond": [],
      "guide": {
        "type": "QUEST_GUIDE_NPC",
        "param": [
          "3063"
        ],
        "guideScene": 3
      },
      "isRewind": true,
      "finishExec": [],
      "failExec": [],
      "beginExec": [
        {
          "type": "QUEST_EXEC_REGISTER_DYNAMIC_GROUP",
          "param": [
            "3",
            "133217235"
          ],
          "param_str": ""
        }
      ],
      "exclusiveNpcList": [
        3063
      ],
      "exclusiveNpcPriority": 1100
    },
    {
      "subId": 7216226,
      "mainId": 72162,
      "order": 30,
      "descTextMapHash": 3355922396,
      "acceptCond": [
        {
          "type": "QUEST_COND_STATE_EQUAL",
          "param": [
            7216231,
            3,
            0,
            0,
            0
          ],
          "param_str": ""
        }
      ],
      "finishCond": [
        {
          "type": "QUEST_CONTENT_COMPLETE_TALK",
          "param": [
            7216213,
            0
          ],
          "param_str": ""
        }
      ],
      "failCond": [],
      "guide": {
        "type": "QUEST_GUIDE_NPC",
        "param": [
          "3063"
        ],
        "guideScene": 3
      },
      "finishParent": true,
      "isRewind": true,
      "finishExec": [],
      "failExec": [],
      "beginExec": [
        {
          "type": "QUEST_EXEC_REGISTER_DYNAMIC_GROUP",
          "param": [
            "3",
            "133217235"
          ],
          "param_str": ""
        }
      ],
      "exclusiveNpcList": [
        3063
      ],
      "exclusiveNpcPriority": 1100
    },
    {
      "subId": 7216227,
      "mainId": 72162,
      "order": 16,
      "descTextMapHash": 2938043100,
      "acceptCond": [
        {
          "type": "QUEST_COND_STATE_EQUAL",
          "param": [
            7216212,
            3,
            0,
            0,
            0
          ],
          "param_str": ""
        }
      ],
      "finishCond": [
        {
          "type": "QUEST_CONTENT_COMPLETE_TALK",
          "param": [
            7216206,
            0
          ],
          "param_str": ""
        }
      ],
      "failCond": [],
      "guide": {
        "type": "QUEST_GUIDE_NPC",
        "param": [
          "3063"
        ],
        "guideScene": 3
      },
      "isRewind": true,
      "finishExec": [],
      "failExec": [],
      "beginExec": [
        {
          "type": "QUEST_EXEC_REGISTER_DYNAMIC_GROUP",
          "param": [
            "3",
            "133217235"
          ],
          "param_str": ""
        }
      ],
      "exclusiveNpcList": [
        3063,
        20382
      ],
      "exclusiveNpcPriority": 1100
    },
    {
      "subId": 7216228,
      "mainId": 72162,
      "order": 20,
      "descTextMapHash": 1432039684,
      "acceptCond": [
        {
          "type": "QUEST_COND_STATE_EQUAL",
          "param": [
            7216221,
            3,
            0,
            0,
            0
          ],
          "param_str": ""
        }
      ],
      "finishCond": [
        {
          "type": "QUEST_CONTENT_COMPLETE_TALK",
          "param": [
            7216208,
            0
          ],
          "param_str": ""
        }
      ],
      "failCond": [],
      "guide": {
        "type": "QUEST_GUIDE_NPC",
        "param": [
          "3063"
        ],
        "guideScene": 3
      },
      "isRewind": true,
      "finishExec": [],
      "failExec": [],
      "beginExec": [
        {
          "type": "QUEST_EXEC_REGISTER_DYNAMIC_GROUP",
          "param": [
            "3",
            "133217235"
          ],
          "param_str": ""
        }
      ],
      "exclusiveNpcList": [
        3063,
        20383
      ],
      "exclusiveNpcPriority": 1100
    },
    {
      "subId": 7216229,
      "mainId": 72162,
      "order": 24,
      "descTextMapHash": 563266100,
      "acceptCond": [
        {
          "type": "QUEST_COND_STATE_EQUAL",
          "param": [
            7216222,
            3,
            0,
            0,
            0
          ],
          "param_str": ""
        }
      ],
      "finishCond": [
        {
          "type": "QUEST_CONTENT_COMPLETE_TALK",
          "param": [
            7216210,
            0
          ],
          "param_str": ""
        }
      ],
      "failCond": [],
      "guide": {
        "type": "QUEST_GUIDE_NPC",
        "param": [
          "3063"
        ],
        "guideScene": 3
      },
      "isRewind": true,
      "finishExec": [],
      "failExec": [],
      "beginExec": [
        {
          "type": "QUEST_EXEC_REGISTER_DYNAMIC_GROUP",
          "param": [
            "3",
            "133217235"
          ],
          "param_str": ""
        }
      ],
      "exclusiveNpcList": [
        3063,
        20381
      ],
      "exclusiveNpcPriority": 1100
    },
    {
      "subId": 7216230,
      "mainId": 72162,
      "order": 28,
      "descTextMapHash": 3316856228,
      "acceptCond": [
        {
          "type": "QUEST_COND_STATE_EQUAL",
          "param": [
            7216225,
            3,
            0,
            0,
            0
          ],
          "param_str": ""
        }
      ],
      "finishCond": [
        {
          "type": "QUEST_CONTENT_COMPLETE_TALK",
          "param": [
            7216212,
            0
          ],
          "param_str": ""
        }
      ],
      "failCond": [],
      "guide": {
        "type": "QUEST_GUIDE_NPC",
        "param": [
          "3063"
        ],
        "guideScene": 3
      },
      "isRewind": true,
      "finishExec": [],
      "failExec": [],
      "beginExec": [
        {
          "type": "QUEST_EXEC_REGISTER_DYNAMIC_GROUP",
          "param": [
            "3",
            "133217235"
          ],
          "param_str": ""
        }
      ],
      "exclusiveNpcList": [
        3063,
        20380
      ],
      "exclusiveNpcPriority": 1100
    },
    {
      "subId": 7216231,
      "mainId": 72162,
      "order": 29,
      "descTextMapHash": 2818712764,
      "acceptCond": [
        {
          "type": "QUEST_COND_STATE_EQUAL",
          "param": [
            7216230,
            3,
            0,
            0,
            0
          ],
          "param_str": ""
        }
      ],
      "finishCond": [
        {
          "type": "QUEST_CONTENT_FINISH_PLOT",
          "param": [
            7216231,
            0
          ],
          "param_str": ""
        }
      ],
      "failCond": [],
      "guide": {
        "type": "QUEST_GUIDE_NPC",
        "param": [
          "3063"
        ],
        "guideScene": 3
      },
      "isRewind": true,
      "finishExec": [],
      "failExec": [],
      "beginExec": [
        {
          "type": "QUEST_EXEC_REGISTER_DYNAMIC_GROUP",
          "param": [
            "3",
            "133217235"
          ],
          "param_str": ""
        }
      ],
      "exclusiveNpcList": [
        3063
      ],
      "exclusiveNpcPriority": 1100
    }
  ],
  "talks": [
    {
      "id": 7216201,
      "beginWay": "TALK_BEGIN_MANUAL",
      "activeMode": "PLAY_MODE_HOST",
      "beginCond": [
        {
          "type": "QUEST_COND_STATE_EQUAL",
          "param": [
            "7216202",
            "2"
          ],
          "param_str": ""
        }
      ],
      "priority": 9,
      "initDialog": 721620101,
      "npcId": [
        3063,
        1005
      ],
      "performCfg": "QuestDialogue/WQ/Inazuma_72162/Q7216201",
      "heroTalk": "TALK_HERO_MAIN",
      "questId": 72162,
      "prePerformCfg": "",
      "talkMarkType": "TALK_MARK_COMMON"
    },
    {
      "id": 7216202,
      "beginWay": "TALK_BEGIN_MANUAL",
      "activeMode": "PLAY_MODE_HOST",
      "beginCondComb": "LOGIC_OR",
      "beginCond": [
        {
          "type": "QUEST_COND_STATE_EQUAL",
          "param": [
            "7216203",
            "2"
          ],
          "param_str": ""
        },
        {
          "type": "QUEST_COND_STATE_EQUAL",
          "param": [
            "7216205",
            "2"
          ],
          "param_str": ""
        },
        {
          "type": "QUEST_COND_STATE_EQUAL",
          "param": [
            "7216210",
            "2"
          ],
          "param_str": ""
        },
        {
          "type": "QUEST_COND_STATE_EQUAL",
          "param": [
            "7216207",
            "2"
          ],
          "param_str": ""
        },
        {
          "type": "QUEST_COND_STATE_EQUAL",
          "param": [
            "7216208",
            "2"
          ],
          "param_str": ""
        }
      ],
      "priority": 5,
      "initDialog": 721620201,
      "npcId": [
        3063
      ],
      "performCfg": "",
      "heroTalk": "TALK_HERO_MAIN",
      "questId": 72162,
      "prePerformCfg": ""
    },
    {
      "id": 7216203,
      "beginWay": "TALK_BEGIN_MANUAL",
      "activeMode": "PLAY_MODE_HOST",
      "beginCond": [
        {
          "type": "QUEST_COND_STATE_EQUAL",
          "param": [
            "7216217",
            "2"
          ],
          "param_str": ""
        }
      ],
      "priority": 9,
      "initDialog": 721620301,
      "npcId": [
        3063
      ],
      "performCfg": "QuestDialogue/WQ/Inazuma_72162/Q7216203",
      "heroTalk": "TALK_HERO_MAIN",
      "questId": 72162,
      "prePerformCfg": ""
    },
    {
      "id": 7216204,
      "beginWay": "TALK_BEGIN_MANUAL",
      "activeMode": "PLAY_MODE_HOST",
      "beginCond": [
        {
          "type": "QUEST_COND_STATE_EQUAL",
          "param": [
            "7216219",
            "2"
          ],
          "param_str": ""
        }
      ],
      "priority": 9,
      "initDialog": 721620401,
      "npcId": [
        3063
      ],
      "performCfg": "",
      "heroTalk": "TALK_HERO_MAIN",
      "questId": 72162,
      "prePerformCfg": ""
    },
    {
      "id": 7216206,
      "beginWay": "TALK_BEGIN_AUTO",
      "activeMode": "PLAY_MODE_HOST",
      "beginCond": [
        {
          "type": "QUEST_COND_STATE_EQUAL",
          "param": [
            "7216227",
            "2"
          ],
          "param_str": ""
        }
      ],
      "priority": 9,
      "initDialog": 721620601,
      "npcId": [
        3063,
        20382
      ],
      "performCfg": "QuestDialogue/WQ/Inazuma_72162/Q7216206",
      "heroTalk": "TALK_HERO_MAIN",
      "questId": 72162,
      "prePerformCfg": ""
    },
    {
      "id": 7216207,
      "beginWay": "TALK_BEGIN_AUTO",
      "activeMode": "PLAY_MODE_HOST",
      "beginCond": [
        {
          "type": "QUEST_COND_STATE_EQUAL",
          "param": [
            "7216213",
            "2"
          ],
          "param_str": ""
        }
      ],
      "priority": 9,
      "initDialog": 721620701,
      "npcId": [
        3063
      ],
      "performCfg": "QuestDialogue/WQ/Inazuma_72162/Q7216207",
      "heroTalk": "TALK_HERO_MAIN",
      "questId": 72162,
      "prePerformCfg": ""
    },
    {
      "id": 7216208,
      "beginWay": "TALK_BEGIN_AUTO",
      "activeMode": "PLAY_MODE_HOST",
      "beginCond": [
        {
          "type": "QUEST_COND_STATE_EQUAL",
          "param": [
            "7216228",
            "2"
          ],
          "param_str": ""
        }
      ],
      "priority": 9,
      "initDialog": 721620801,
      "npcId": [
        3063,
        20383
      ],
      "performCfg": "QuestDialogue/WQ/Inazuma_72162/Q7216208",
      "heroTalk": "TALK_HERO_MAIN",
      "questId": 72162,
      "prePerformCfg": ""
    },
    {
      "id": 7216209,
      "beginWay": "TALK_BEGIN_AUTO",
      "activeMode": "PLAY_MODE_HOST",
      "beginCond": [
        {
          "type": "QUEST_COND_STATE_EQUAL",
          "param": [
            "7216215",
            "2"
          ],
          "param_str": ""
        }
      ],
      "priority": 9,
      "initDialog": 721620901,
      "npcId": [
        3063
      ],
      "performCfg": "QuestDialogue/WQ/Inazuma_72162/Q7216209",
      "heroTalk": "TALK_HERO_MAIN",
      "questId": 72162,
      "prePerformCfg": ""
    },
    {
      "id": 7216210,
      "beginWay": "TALK_BEGIN_AUTO",
      "activeMode": "PLAY_MODE_HOST",
      "beginCond": [
        {
          "type": "QUEST_COND_STATE_EQUAL",
          "param": [
            "7216229",
            "2"
          ],
          "param_str": ""
        }
      ],
      "priority": 9,
      "initDialog": 721621001,
      "npcId": [
        3063,
        20381,
        1005
      ],
      "performCfg": "QuestDialogue/WQ/Inazuma_72162/Q7216210",
      "heroTalk": "TALK_HERO_MAIN",
      "questId": 72162,
      "prePerformCfg": ""
    },
    {
      "id": 7216211,
      "beginWay": "TALK_BEGIN_AUTO",
      "activeMode": "PLAY_MODE_HOST",
      "beginCond": [
        {
          "type": "QUEST_COND_STATE_EQUAL",
          "param": [
            "7216224",
            "2"
          ],
          "param_str": ""
        }
      ],
      "priority": 9,
      "initDialog": 721621101,
      "npcId": [
        3063
      ],
      "performCfg": "QuestDialogue/WQ/Inazuma_72162/Q7216211",
      "heroTalk": "TALK_HERO_MAIN",
      "questId": 72162,
      "prePerformCfg": ""
    },
    {
      "id": 7216212,
      "beginWay": "TALK_BEGIN_AUTO",
      "activeMode": "PLAY_MODE_HOST",
      "beginCond": [
        {
          "type": "QUEST_COND_STATE_EQUAL",
          "param": [
            "7216230",
            "2"
          ],
          "param_str": ""
        }
      ],
      "priority": 9,
      "initDialog": 721621201,
      "npcId": [
        20380,
        3063
      ],
      "performCfg": "QuestDialogue/WQ/Inazuma_72162/Q7216212",
      "heroTalk": "TALK_HERO_MAIN",
      "questId": 72162,
      "prePerformCfg": ""
    },
    {
      "id": 7216213,
      "beginWay": "TALK_BEGIN_MANUAL",
      "activeMode": "PLAY_MODE_HOST",
      "beginCond": [
        {
          "type": "QUEST_COND_STATE_EQUAL",
          "param": [
            "7216226",
            "2"
          ],
          "param_str": ""
        }
      ],
      "priority": 9,
      "initDialog": 721621301,
      "npcId": [
        3063
      ],
      "performCfg": "QuestDialogue/WQ/Inazuma_72162/Q7216213",
      "heroTalk": "TALK_HERO_MAIN",
      "questId": 72162,
      "prePerformCfg": ""
    },
    {
      "id": 7216214,
      "beginWay": "TALK_BEGIN_AUTO",
      "activeMode": "PLAY_MODE_HOST",
      "beginCond": [
        {
          "type": "QUEST_COND_STATE_EQUAL",
          "param": [
            "7216204",
            "2"
          ],
          "param_str": ""
        }
      ],
      "priority": 5,
      "initDialog": 721629902,
      "npcId": [
        3063
      ],
      "performCfg": "QuestDialogue/WQ/Inazuma_72162/Q7216214",
      "heroTalk": "TALK_HERO_MAIN",
      "questId": 72162,
      "prePerformCfg": ""
    }
  ]
}