{
  "id": 72183,
  "type": "WQ",
  "titleTextMapHash": 356432359,
  "descTextMapHash": 2885578206,
  "luaPath": "Actor/Quest/WQ72183",
  "rewardIdList": [
    172183
  ],
  "subQuests": [
    {
      "subId": 7218301,
      "mainId": 72183,
      "order": 1,
      "descTextMapHash": 3023700716,
      "acceptCond": [
        {
          "type": "QUEST_COND_PACK_HAVE_ITEM",
          "param": [
            100966,
            1,
            0,
            0,
            0
          ],
          "param_str": ""
        }
      ],
      "finishCond": [
        {
          "type": "QUEST_CONTENT_COMPLETE_TALK",
          "param": [
            7218301,
            0
          ],
          "param_str": ""
        }
      ],
      "failCond": [],
      "guide": {
        "type": "QUEST_GUIDE_NPC",
        "param": [
          "3098"
        ],
        "guideScene": 3,
        "guideStyle": "QUEST_GUIDE_STYLE_START",
        "guideLayer": "QUEST_GUIDE_LAYER_SCENE"
      },
      "isRewind": true,
      "finishExec": [],
      "failExec": [],
      "beginExec": [],
      "exclusiveNpcList": [
        3098
      ],
      "exclusiveNpcPriority": 1100
    },
    {
      "subId": 7218302,
      "mainId": 72183,
      "order": 2,
      "descTextMapHash": 1944426500,
      "acceptCond": [
        {
          "type": "QUEST_COND_STATE_EQUAL",
          "param": [
            7218301,
            3,
            0,
            0,
            0
          ],
          "param_str": ""
        }
      ],
      "finishCond": [
        {
          "type": "QUEST_CONTENT_COMPLETE_TALK",
          "param": [
            7218302,
            0
          ],
          "param_str": ""
        }
      ],
      "failCond": [],
      "guide": {
        "type": "QUEST_GUIDE_NPC",
        "param": [
          "2093"
        ],
        "guideScene": 3,
        "guideStyle": "QUEST_GUIDE_STYLE_TARGET",
        "guideLayer": "QUEST_GUIDE_LAYER_SCENE"
      },
      "finishParent": true,
      "isRewind": true,
      "finishExec": [
        {
          "type": "QUEST_EXEC_DEL_PACK_ITEM",
          "param": [
            "100966",
            "1"
          ],
          "param_str": ""
        }
      ],
      "failExec": [],
      "beginExec": [],
      "exclusiveNpcList": [
        2093
      ],
      "exclusiveNpcPriority": 1100
    }
  ],
  "talks": [
    {
      "id": 7218301,
      "beginWay": "TALK_BEGIN_MANUAL",
      "activeMode": "PLAY_MODE_SINGLE",
      "beginCond": [
        {
          "type": "QUEST_COND_STATE_EQUAL",
          "param": [
            "7218301",
            "2"
          ],
          "param_str": ""
        }
      ],
      "priority": 5,
      "initDialog": 721830101,
      "npcId": [
        3098
      ],
      "performCfg": "QuestDialogue/WQ/Inazuma_72183/Q7218301",
      "questId": 72183,
      "prePerformCfg": ""
    },
    {
      "id": 7218302,
      "beginWay": "TALK_BEGIN_MANUAL",
      "activeMode": "PLAY_MODE_SINGLE",
      "beginCond": [
        {
          "type": "QUEST_COND_STATE_EQUAL",
          "param": [
            "7218302",
            "2"
          ],
          "param_str": ""
        }
      ],
      "priority": 5,
      "initDialog": 721830201,
      "npcId": [
        2093
      ],
      "performCfg": "QuestDialogue/WQ/Inazuma_72183/Q7218302",
      "questId": 72183,
      "prePerformCfg": ""
    }
  ]
}