{
  "id": 72180,
  "type": "WQ",
  "titleTextMapHash": 1978060311,
  "descTextMapHash": 190918998,
  "luaPath": "Actor/Quest/WQ72180",
  "showType": "QUEST_HIDDEN",
  "subQuests": [
    {
      "subId": 7218001,
      "mainId": 72180,
      "order": 1,
      "descTextMapHash": 2965514244,
      "showType": "QUEST_HIDDEN",
      "acceptCond": [
        {
          "type": "QUEST_COND_STATE_EQUAL",
          "param": [
            201310,
            3,
            0,
            0,
            0
          ],
          "param_str": ""
        }
      ],
      "finishCond": [
        {
          "type": "QUEST_CONTENT_LUA_NOTIFY",
          "param": [
            0,
            0
          ],
          "param_str": "fin_7210110",
          "count": 1
        }
      ],
      "failCond": [],
      "guide": {
        "param": []
      },
      "finishParent": true,
      "isRewind": true,
      "finishExec": [
        {
          "type": "QUEST_EXEC_LOCK_POINT",
          "param": [
            "3",
            "354"
          ],
          "param_str": ""
        }
      ],
      "failExec": [],
      "beginExec": [
        {
          "type": "QUEST_EXEC_UNLOCK_POINT",
          "param": [
            "3",
            "354"
          ],
          "param_str": ""
        }
      ],
      "exclusiveNpcPriority": 1100
    }
  ]
}