{
  "id": 72254,
  "type": "WQ",
  "titleTextMapHash": 3337977431,
  "descTextMapHash": 1853885206,
  "luaPath": "Actor/Quest/WQ72254",
  "showType": "QUEST_HIDDEN",
  "subQuests": [
    {
      "subId": 7225401,
      "mainId": 72254,
      "order": 1,
      "descTextMapHash": 301686084,
      "showType": "QUEST_HIDDEN",
      "acceptCond": [
        {
          "type": "QUEST_COND_STATE_EQUAL",
          "param": [
            7224401,
            3,
            0,
            0,
            0
          ],
          "param_str": ""
        }
      ],
      "finishCond": [
        {
          "type": "QUEST_CONTENT_FINISH_ITEM_GIVING",
          "param": [
            7224403,
            0
          ],
          "param_str": ""
        }
      ],
      "failCond": [],
      "guide": {
        "param": []
      },
      "finishParent": true,
      "isRewind": true,
      "finishExec": [
        {
          "type": "QUEST_EXEC_NOTIFY_GROUP_LUA",
          "param": [
            "5",
            "155006042"
          ],
          "param_str": ""
        }
      ],
      "failExec": [],
      "beginExec": [
        {
          "type": "QUEST_EXEC_ACTIVE_ITEM_GIVING",
          "param": [
            "7224403"
          ],
          "param_str": ""
        }
      ]
    }
  ],
  "talks": [
    {
      "id": 7225401,
      "beginWay": "TALK_BEGIN_MANUAL",
      "activeMode": "PLAY_MODE_HOST",
      "beginCondComb": "LOGIC_AND",
      "beginCond": [
        {
          "type": "QUEST_COND_STATE_EQUAL",
          "param": [
            "7225401",
            "2"
          ],
          "param_str": ""
        },
        {
          "type": "QUEST_COND_ITEM_GIVING_ACTIVED",
          "param": [
            "7224403"
          ],
          "param_str": ""
        }
      ],
      "priority": 5,
      "initDialog": 722540101,
      "npcId": [
        20499
      ],
      "performCfg": "",
      "questId": 72254,
      "prePerformCfg": ""
    }
  ]
}