{
  "id": 72659,
  "type": "WQ",
  "titleTextMapHash": 2622390759,
  "descTextMapHash": 853526054,
  "luaPath": "Actor/Quest/WQ72659",
  "suggestTrackMainQuestList": [
    72661
  ],
  "rewardIdList": [
    172659
  ],
  "subQuests": [
    {
      "subId": 7265901,
      "mainId": 72659,
      "order": 1,
      "descTextMapHash": 2079757108,
      "acceptCond": [
        {
          "type": "QUEST_COND_ACTIVITY_COND",
          "param": [
            5041002,
            1,
            0,
            0,
            0
          ],
          "param_str": ""
        }
      ],
      "finishCond": [
        {
          "type": "QUEST_CONTENT_COMPLETE_TALK",
          "param": [
            7265901,
            0
          ],
          "param_str": ""
        }
      ],
      "failCond": [],
      "guide": {
        "type": "QUEST_GUIDE_NPC",
        "param": [
          "3200"
        ],
        "guideScene": 3,
        "guideStyle": "QUEST_GUIDE_STYLE_TARGET"
      },
      "isRewind": true,
      "finishExec": [],
      "failExec": [],
      "beginExec": [],
      "exclusiveNpcList": [
        3200
      ],
      "exclusiveNpcPriority": 1100
    },
    {
      "subId": 7265902,
      "mainId": 72659,
      "order": 2,
      "descTextMapHash": 3325083116,
      "acceptCondComb": "LOGIC_AND",
      "acceptCond": [
        {
          "type": "QUEST_COND_STATE_EQUAL",
          "param": [
            7265901,
            3,
            0,
            0,
            0
          ],
          "param_str": ""
        }
      ],
      "finishCond": [
        {
          "type": "QUEST_CONTENT_COMPLETE_TALK",
          "param": [
            7265902,
            0
          ],
          "param_str": ""
        }
      ],
      "failCond": [],
      "guide": {
        "type": "QUEST_GUIDE_NPC",
        "param": [
          "2615"
        ],
        "guideScene": 3,
        "guideStyle": "QUEST_GUIDE_STYLE_TARGET"
      },
      "finishParent": true,
      "isRewind": true,
      "finishExec": [],
      "failExec": [],
      "beginExec": [],
      "exclusiveNpcList": [
        3200,
        2615
      ],
      "exclusiveNpcPriority": 1100
    }
  ],
  "talks": [
    {
      "id": 7265901,
      "beginWay": "TALK_BEGIN_MANUAL",
      "activeMode": "PLAY_MODE_SINGLE",
      "beginCond": [
        {
          "type": "QUEST_COND_STATE_EQUAL",
          "param": [
            "7265901",
            "2"
          ],
          "param_str": ""
        }
      ],
      "priority": 5,
      "initDialog": 726590101,
      "npcId": [
        3200,
        1005
      ],
      "performCfg": "QuestDialogue/WQ/Daoqi_72659/Q7265901",
      "heroTalk": "TALK_HERO_MAIN",
      "questId": 72659,
      "prePerformCfg": ""
    },
    {
      "id": 7265902,
      "beginWay": "TALK_BEGIN_MANUAL",
      "activeMode": "PLAY_MODE_SINGLE",
      "beginCond": [
        {
          "type": "QUEST_COND_STATE_EQUAL",
          "param": [
            "7265902",
            "2"
          ],
          "param_str": ""
        }
      ],
      "priority": 5,
      "initDialog": 726590201,
      "npcId": [
        2615,
        1005
      ],
      "performCfg": "QuestDialogue/WQ/Daoqi_72659/Q7265902",
      "heroTalk": "TALK_HERO_MAIN",
      "questId": 72659,
      "prePerformCfg": ""
    },
    {
      "id": 7265903,
      "beginWay": "TALK_BEGIN_MANUAL",
      "activeMode": "PLAY_MODE_SINGLE",
      "beginCond": [
        {
          "type": "QUEST_COND_STATE_EQUAL",
          "param": [
            "7265902",
            "2"
          ],
          "param_str": ""
        }
      ],
      "priority": 5,
      "initDialog": 726590301,
      "npcId": [
        3200
      ],
      "performCfg": "",
      "heroTalk": "TALK_HERO_MAIN",
      "questId": 72659,
      "prePerformCfg": ""
    }
  ]
}