{
  "id": 72678,
  "type": "WQ",
  "titleTextMapHash": 1388571831,
  "descTextMapHash": 4176557542,
  "luaPath": "Actor/Quest/WQ72678",
  "rewardIdList": [
    172678
  ],
  "subQuests": [
    {
      "subId": 7267801,
      "mainId": 72678,
      "order": 2,
      "descTextMapHash": 3468194260,
      "acceptCond": [
        {
          "type": "QUEST_COND_STATE_EQUAL",
          "param": [
            7267810,
            3,
            0,
            0,
            0
          ],
          "param_str": ""
        }
      ],
      "finishCond": [
        {
          "type": "QUEST_CONTENT_COMPLETE_TALK",
          "param": [
            7267801,
            0
          ],
          "param_str": ""
        }
      ],
      "failCond": [],
      "guide": {
        "type": "QUEST_GUIDE_LOCATION",
        "param": [
          "Q7267801_N3160"
        ],
        "guideScene": 3,
        "guideStyle": "QUEST_GUIDE_STYLE_POINT",
        "guideLayer": "QUEST_GUIDE_LAYER_SCENE"
      },
      "isRewind": true,
      "finishExec": [],
      "failExec": [],
      "beginExec": [],
      "exclusiveNpcList": [
        3160,
        12354,
        3188,
        3161
      ],
      "exclusiveNpcPriority": 1100
    },
    {
      "subId": 7267802,
      "mainId": 72678,
      "order": 3,
      "descTextMapHash": 515633540,
      "acceptCond": [
        {
          "type": "QUEST_COND_STATE_EQUAL",
          "param": [
            7267801,
            3,
            0,
            0,
            0
          ],
          "param_str": ""
        }
      ],
      "finishCond": [
        {
          "type": "QUEST_CONTENT_FINISH_PLOT",
          "param": [
            7267802,
            0
          ],
          "param_str": ""
        }
      ],
      "failCond": [],
      "guide": {
        "type": "QUEST_GUIDE_LOCATION",
        "param": [
          "Q7267801_N10000005"
        ],
        "guideScene": 3,
        "guideStyle": "QUEST_GUIDE_STYLE_POINT",
        "guideLayer": "QUEST_GUIDE_LAYER_SCENE"
      },
      "finishExec": [],
      "failExec": [],
      "beginExec": [],
      "exclusiveNpcList": [
        3160,
        12354,
        3188,
        3161
      ],
      "exclusiveNpcPriority": 1100
    },
    {
      "subId": 7267803,
      "mainId": 72678,
      "order": 4,
      "descTextMapHash": 3379884412,
      "acceptCond": [
        {
          "type": "QUEST_COND_STATE_EQUAL",
          "param": [
            7267802,
            3,
            0,
            0,
            0
          ],
          "param_str": ""
        }
      ],
      "finishCond": [
        {
          "type": "QUEST_CONTENT_COMPLETE_TALK",
          "param": [
            7267803,
            0
          ],
          "param_str": ""
        }
      ],
      "failCond": [],
      "guide": {
        "type": "QUEST_GUIDE_NPC",
        "param": [
          "3160"
        ],
        "guideScene": 3,
        "guideStyle": "QUEST_GUIDE_STYLE_TARGET",
        "guideLayer": "QUEST_GUIDE_LAYER_SCENE"
      },
      "isRewind": true,
      "finishExec": [],
      "failExec": [],
      "beginExec": [],
      "exclusiveNpcList": [
        3160,
        3188,
        3161
      ],
      "exclusiveNpcPriority": 1100
    },
    {
      "subId": 7267804,
      "mainId": 72678,
      "order": 5,
      "descTextMapHash": 4131673020,
      "acceptCond": [
        {
          "type": "QUEST_COND_STATE_EQUAL",
          "param": [
            7267803,
            3,
            0,
            0,
            0
          ],
          "param_str": ""
        }
      ],
      "finishCond": [
        {
          "type": "QUEST_CONTENT_COMPLETE_TALK",
          "param": [
            7267804,
            0
          ],
          "param_str": ""
        }
      ],
      "failCond": [],
      "guide": {
        "type": "QUEST_GUIDE_LOCATION",
        "param": [
          "Q7267804_N3160"
        ],
        "guideScene": 3,
        "guideStyle": "QUEST_GUIDE_STYLE_POINT",
        "guideLayer": "QUEST_GUIDE_LAYER_SCENE"
      },
      "isRewind": true,
      "finishExec": [],
      "failExec": [],
      "beginExec": [],
      "exclusiveNpcList": [
        3160,
        12354,
        3188,
        3161
      ],
      "exclusiveNpcPriority": 1100
    },
    {
      "subId": 7267805,
      "mainId": 72678,
      "order": 7,
      "descTextMapHash": 3552036020,
      "acceptCond": [
        {
          "type": "QUEST_COND_STATE_EQUAL",
          "param": [
            7267809,
            3,
            0,
            0,
            0
          ],
          "param_str": ""
        }
      ],
      "finishCond": [
        {
          "type": "QUEST_CONTENT_FINISH_PLOT",
          "param": [
            7267805,
            0
          ],
          "param_str": ""
        }
      ],
      "failCond": [],
      "guide": {
        "type": "QUEST_GUIDE_LOCATION",
        "param": [
          "Q7267805_N3160"
        ],
        "guideScene": 3,
        "guideStyle": "QUEST_GUIDE_STYLE_POINT",
        "guideLayer": "QUEST_GUIDE_LAYER_SCENE"
      },
      "isRewind": true,
      "finishExec": [],
      "failExec": [],
      "beginExec": [],
      "exclusiveNpcList": [
        3160,
        3188,
        3161
      ],
      "exclusiveNpcPriority": 1100
    },
    {
      "subId": 7267806,
      "mainId": 72678,
      "order": 8,
      "descTextMapHash": 2000026716,
      "acceptCond": [
        {
          "type": "QUEST_COND_STATE_EQUAL",
          "param": [
            7267805,
            3,
            0,
            0,
            0
          ],
          "param_str": ""
        }
      ],
      "finishCond": [
        {
          "type": "QUEST_CONTENT_FINISH_PLOT",
          "param": [
            7267806,
            0
          ],
          "param_str": ""
        }
      ],
      "failCond": [],
      "guide": {
        "type": "QUEST_GUIDE_LOCATION",
        "param": [
          "Q7267808_guide1"
        ],
        "guideScene": 3,
        "guideStyle": "QUEST_GUIDE_STYLE_POINT",
        "guideLayer": "QUEST_GUIDE_LAYER_SCENE"
      },
      "isRewind": true,
      "finishExec": [],
      "failExec": [],
      "beginExec": [],
      "exclusiveNpcList": [
        3160,
        3188,
        3161
      ],
      "exclusiveNpcPriority": 1100
    },
    {
      "subId": 7267807,
      "mainId": 72678,
      "order": 9,
      "descTextMapHash": 1747547708,
      "acceptCond": [
        {
          "type": "QUEST_COND_STATE_EQUAL",
          "param": [
            7267806,
            3,
            0,
            0,
            0
          ],
          "param_str": ""
        }
      ],
      "finishCond": [
        {
          "type": "QUEST_CONTENT_COMPLETE_TALK",
          "param": [
            7267805,
            0
          ],
          "param_str": ""
        }
      ],
      "failCond": [],
      "guide": {
        "type": "QUEST_GUIDE_LOCATION",
        "param": [
          "Q7267806_N3160"
        ],
        "guideScene": 3,
        "guideStyle": "QUEST_GUIDE_STYLE_POINT",
        "guideLayer": "QUEST_GUIDE_LAYER_SCENE"
      },
      "isRewind": true,
      "finishExec": [
        {
          "type": "QUEST_EXEC_SET_QUEST_GLOBAL_VAR",
          "param": [
            "72675",
            "0"
          ],
          "param_str": ""
        }
      ],
      "failExec": [],
      "beginExec": [],
      "exclusiveNpcList": [
        3160,
        12354,
        3188,
        3161
      ],
      "exclusiveNpcPriority": 1100
    },
    {
      "subId": 7267808,
      "mainId": 72678,
      "order": 99,
      "descTextMapHash": 4164538460,
      "acceptCond": [
        {
          "type": "QUEST_COND_STATE_EQUAL",
          "param": [
            99902,
            3,
            0,
            0,
            0
          ],
          "param_str": ""
        }
      ],
      "finishCond": [
        {
          "type": "QUEST_CONTENT_FINISH_PLOT",
          "param": [
            7267808,
            0
          ],
          "param_str": ""
        }
      ],
      "failCond": [],
      "guide": {
        "type": "QUEST_GUIDE_LOCATION",
        "param": [
          "Q7267808_guide1"
        ],
        "guideScene": 3,
        "guideStyle": "QUEST_GUIDE_STYLE_POINT",
        "guideLayer": "QUEST_GUIDE_LAYER_SCENE"
      },
      "isRewind": true,
      "finishExec": [],
      "failExec": [],
      "beginExec": []
    },
    {
      "subId": 7267809,
      "mainId": 72678,
      "order": 6,
      "descTextMapHash": 3023900164,
      "acceptCond": [
        {
          "type": "QUEST_COND_STATE_EQUAL",
          "param": [
            7267804,
            3,
            0,
            0,
            0
          ],
          "param_str": ""
        }
      ],
      "finishCond": [
        {
          "type": "QUEST_CONTENT_FINISH_PLOT",
          "param": [
            7267809,
            0
          ],
          "param_str": ""
        }
      ],
      "failCond": [],
      "guide": {
        "type": "QUEST_GUIDE_LOCATION",
        "param": [
          "Q7267808_guide2"
        ],
        "guideScene": 3,
        "guideStyle": "QUEST_GUIDE_STYLE_POINT",
        "guideLayer": "QUEST_GUIDE_LAYER_SCENE"
      },
      "isRewind": true,
      "finishExec": [],
      "failExec": [],
      "beginExec": [],
      "exclusiveNpcList": [
        3160,
        3188,
        3161
      ],
      "exclusiveNpcPriority": 1100
    },
    {
      "subId": 7267810,
      "mainId": 72678,
      "order": 1,
      "descTextMapHash": 2267351580,
      "showType": "QUEST_HIDDEN",
      "acceptCond": [
        {
          "type": "QUEST_COND_STATE_EQUAL",
          "param": [
            7267707,
            3,
            0,
            0,
            0
          ],
          "param_str": ""
        },
        {
          "type": "QUEST_COND_ACTIVITY_COND",
          "param": [
            5055009,
            1,
            0,
            0,
            0
          ],
          "param_str": ""
        }
      ],
      "finishCond": [
        {
          "type": "QUEST_CONTENT_FINISH_PLOT",
          "param": [
            7267810,
            0
          ],
          "param_str": ""
        }
      ],
      "failCond": [],
      "guide": {
        "param": []
      },
      "isRewind": true,
      "finishExec": [],
      "failExec": [],
      "beginExec": []
    },
    {
      "subId": 7267811,
      "mainId": 72678,
      "order": 10,
      "descTextMapHash": 2859375460,
      "acceptCond": [
        {
          "type": "QUEST_COND_STATE_EQUAL",
          "param": [
            7267807,
            3,
            0,
            0,
            0
          ],
          "param_str": ""
        }
      ],
      "finishCond": [
        {
          "type": "QUEST_CONTENT_COMPLETE_TALK",
          "param": [
            7267811,
            0
          ],
          "param_str": ""
        }
      ],
      "failCond": [],
      "guide": {
        "type": "QUEST_GUIDE_NPC",
        "param": [
          "3159"
        ],
        "guideScene": 3,
        "guideStyle": "QUEST_GUIDE_STYLE_TARGET",
        "guideLayer": "QUEST_GUIDE_LAYER_SCENE"
      },
      "finishParent": true,
      "isRewind": true,
      "finishExec": [
        {
          "type": "QUEST_EXEC_SET_QUEST_GLOBAL_VAR",
          "param": [
            "5055",
            "0"
          ],
          "param_str": ""
        }
      ],
      "failExec": [],
      "beginExec": [],
      "exclusiveNpcList": [
        3160,
        3188,
        3161,
        3159
      ],
      "exclusiveNpcPriority": 1100
    }
  ],
  "talks": [
    {
      "id": 7267801,
      "beginWay": "TALK_BEGIN_AUTO",
      "activeMode": "PLAY_MODE_SINGLE",
      "beginCond": [
        {
          "type": "QUEST_COND_STATE_EQUAL",
          "param": [
            "7267801",
            "2"
          ],
          "param_str": ""
        }
      ],
      "priority": 5,
      "initDialog": 726780101,
      "npcId": [
        12354
      ],
      "performCfg": "QuestDialogue/WQ/Liyue_72678/Q7267801",
      "heroTalk": "TALK_HERO_MAIN",
      "questId": 72678,
      "prePerformCfg": ""
    },
    {
      "id": 7267803,
      "beginWay": "TALK_BEGIN_MANUAL",
      "activeMode": "PLAY_MODE_SINGLE",
      "beginCond": [
        {
          "type": "QUEST_COND_STATE_EQUAL",
          "param": [
            "7267803",
            "2"
          ],
          "param_str": ""
        }
      ],
      "priority": 5,
      "initDialog": 726780301,
      "npcId": [
        3160
      ],
      "performCfg": "QuestDialogue/WQ/Liyue_72678/Q7267803",
      "heroTalk": "TALK_HERO_MAIN",
      "questId": 72678,
      "prePerformCfg": ""
    },
    {
      "id": 7267804,
      "beginWay": "TALK_BEGIN_AUTO",
      "activeMode": "PLAY_MODE_SINGLE",
      "beginCond": [
        {
          "type": "QUEST_COND_STATE_EQUAL",
          "param": [
            "7267804",
            "2"
          ],
          "param_str": ""
        }
      ],
      "priority": 5,
      "initDialog": 726780401,
      "npcId": [
        12354
      ],
      "performCfg": "QuestDialogue/WQ/Liyue_72678/Q7267804",
      "heroTalk": "TALK_HERO_MAIN",
      "questId": 72678,
      "prePerformCfg": ""
    },
    {
      "id": 7267805,
      "beginWay": "TALK_BEGIN_AUTO",
      "activeMode": "PLAY_MODE_SINGLE",
      "beginCond": [
        {
          "type": "QUEST_COND_STATE_EQUAL",
          "param": [
            "7267807",
            "2"
          ],
          "param_str": ""
        }
      ],
      "priority": 5,
      "initDialog": 726780501,
      "npcId": [
        12354
      ],
      "performCfg": "QuestDialogue/WQ/Liyue_72678/Q7267805",
      "heroTalk": "TALK_HERO_MAIN",
      "questId": 72678,
      "prePerformCfg": ""
    },
    {
      "id": 7267808,
      "beginWay": "TALK_BEGIN_MANUAL",
      "activeMode": "PLAY_MODE_SINGLE",
      "beginCond": [
        {
          "type": "QUEST_COND_STATE_EQUAL",
          "param": [
            "7267802",
            "2"
          ],
          "param_str": ""
        }
      ],
      "priority": 5,
      "npcId": [
        12354
      ],
      "performCfg": "QuestDialogue/WQ/Liyue_72678/Q7267808",
      "heroTalk": "TALK_HERO_MAIN",
      "questId": 72678,
      "prePerformCfg": ""
    },
    {
      "id": 7267811,
      "beginWay": "TALK_BEGIN_MANUAL",
      "activeMode": "PLAY_MODE_SINGLE",
      "beginCond": [
        {
          "type": "QUEST_COND_STATE_EQUAL",
          "param": [
            "7267811",
            "2"
          ],
          "param_str": ""
        }
      ],
      "priority": 5,
      "initDialog": 726790101,
      "npcId": [
        3159
      ],
      "performCfg": "QuestDialogue/WQ/Inazuma_72679/Q7267901",
      "heroTalk": "TALK_HERO_MAIN",
      "questId": 72678,
      "prePerformCfg": ""
    }
  ]
}