{
  "id": 72716,
  "type": "WQ",
  "titleTextMapHash": 93595663,
  "descTextMapHash": 2446776502,
  "luaPath": "Actor/Quest/WQ72716",
  "subQuests": [
    {
      "subId": 7271601,
      "mainId": 72716,
      "order": 1,
      "descTextMapHash": 2117524556,
      "acceptCond": [
        {
          "type": "QUEST_COND_CITY_REPUTATION_REQUEST",
          "param": [
            0,
            0,
            0,
            0,
            0
          ],
          "param_str": ""
        }
      ],
      "finishCond": [
        {
          "type": "QUEST_CONTENT_FINISH_ITEM_GIVING",
          "param": [
            7271601,
            0
          ],
          "param_str": ""
        }
      ],
      "failCond": [],
      "guide": {
        "type": "QUEST_GUIDE_NPC",
        "param": [
          "3106"
        ],
        "guideScene": 3,
        "guideStyle": "QUEST_GUIDE_STYLE_TARGET",
        "guideLayer": "QUEST_GUIDE_LAYER_SCENE"
      },
      "isRewind": true,
      "finishExec": [],
      "failExec": [],
      "beginExec": [
        {
          "type": "QUEST_EXEC_ACTIVE_ITEM_GIVING",
          "param": [
            "7271601"
          ],
          "param_str": ""
        }
      ],
      "exclusiveNpcList": [
        3106
      ],
      "exclusiveNpcPriority": 1100
    },
    {
      "subId": 7271602,
      "mainId": 72716,
      "order": 2,
      "descTextMapHash": 3783945596,
      "acceptCond": [
        {
          "type": "QUEST_COND_STATE_EQUAL",
          "param": [
            7271601,
            3,
            0,
            0,
            0
          ],
          "param_str": ""
        }
      ],
      "finishCond": [
        {
          "type": "QUEST_CONTENT_COMPLETE_TALK",
          "param": [
            7271602,
            0
          ],
          "param_str": ""
        }
      ],
      "failCond": [],
      "guide": {
        "type": "QUEST_GUIDE_NPC",
        "param": [
          "3106"
        ],
        "guideScene": 3,
        "guideStyle": "QUEST_GUIDE_STYLE_TARGET",
        "guideLayer": "QUEST_GUIDE_LAYER_SCENE"
      },
      "finishParent": true,
      "isRewind": true,
      "finishExec": [],
      "failExec": [],
      "beginExec": [],
      "exclusiveNpcList": [
        3106
      ],
      "exclusiveNpcPriority": 1100
    }
  ],
  "talks": [
    {
      "id": 7271601,
      "activeMode": "PLAY_MODE_SINGLE",
      "beginCondComb": "LOGIC_AND",
      "beginCond": [
        {
          "type": "QUEST_COND_STATE_EQUAL",
          "param": [
            "7271601",
            "2"
          ],
          "param_str": ""
        },
        {
          "type": "QUEST_COND_ITEM_GIVING_ACTIVED",
          "param": [
            "7271601"
          ],
          "param_str": ""
        }
      ],
      "priority": 5,
      "initDialog": 727160101,
      "npcId": [
        3106
      ],
      "performCfg": "",
      "questId": 72716,
      "dontBlockDaily": true,
      "prePerformCfg": ""
    },
    {
      "id": 7271602,
      "beginWay": "TALK_BEGIN_AUTO",
      "activeMode": "PLAY_MODE_SINGLE",
      "beginCond": [
        {
          "type": "QUEST_COND_STATE_EQUAL",
          "param": [
            "7271602",
            "2"
          ],
          "param_str": ""
        }
      ],
      "priority": 5,
      "initDialog": 727160201,
      "npcId": [
        3106
      ],
      "performCfg": "",
      "questId": 72716,
      "prePerformCfg": ""
    }
  ]
}