{
  "id": 72916,
  "type": "WQ",
  "titleTextMapHash": 178534871,
  "descTextMapHash": 1460330566,
  "luaPath": "",
  "showType": "QUEST_HIDDEN",
  "rewardIdList": [
    553018
  ],
  "subQuests": [
    {
      "subId": 7291601,
      "mainId": 72916,
      "order": 1,
      "descTextMapHash": 332563508,
      "showType": "QUEST_HIDDEN",
      "acceptCondComb": "LOGIC_OR",
      "acceptCond": [
        {
          "type": "QUEST_COND_COMPLETE_TALK",
          "param": [
            7291601,
            0,
            0,
            0,
            0
          ],
          "param_str": ""
        }
      ],
      "finishCond": [
        {
          "type": "QUEST_CONTENT_COMPLETE_TALK",
          "param": [
            7291601,
            0
          ],
          "param_str": ""
        }
      ],
      "failCond": [],
      "guide": {
        "param": []
      },
      "finishParent": true,
      "finishExec": [],
      "failExec": [],
      "beginExec": []
    }
  ]
}