{
  "id": 72942,
  "type": "WQ",
  "titleTextMapHash": 1941336943,
  "descTextMapHash": 2776365654,
  "luaPath": "",
  "showType": "QUEST_HIDDEN",
  "rewardIdList": [
    553033
  ],
  "subQuests": [
    {
      "subId": 7294201,
      "mainId": 72942,
      "order": 1,
      "descTextMapHash": 241815268,
      "showType": "QUEST_HIDDEN",
      "acceptCondComb": "LOGIC_OR",
      "acceptCond": [
        {
          "type": "QUEST_COND_COMPLETE_TALK",
          "param": [
            7294201,
            0,
            0,
            0,
            0
          ],
          "param_str": ""
        }
      ],
      "finishCond": [
        {
          "type": "QUEST_CONTENT_COMPLETE_TALK",
          "param": [
            7294201,
            0
          ],
          "param_str": ""
        }
      ],
      "failCond": [],
      "guide": {
        "param": []
      },
      "finishParent": true,
      "finishExec": [],
      "failExec": [],
      "beginExec": []
    }
  ]
}