{
  "id": 72943,
  "type": "WQ",
  "titleTextMapHash": 1910443863,
  "descTextMapHash": 2304021006,
  "luaPath": "",
  "showType": "QUEST_HIDDEN",
  "rewardIdList": [
    553035
  ],
  "subQuests": [
    {
      "subId": 7294301,
      "mainId": 72943,
      "order": 1,
      "descTextMapHash": 2292536756,
      "showType": "QUEST_HIDDEN",
      "acceptCondComb": "LOGIC_OR",
      "acceptCond": [
        {
          "type": "QUEST_COND_COMPLETE_TALK",
          "param": [
            7294301,
            0,
            0,
            0,
            0
          ],
          "param_str": ""
        }
      ],
      "finishCond": [
        {
          "type": "QUEST_CONTENT_COMPLETE_TALK",
          "param": [
            7294301,
            0
          ],
          "param_str": ""
        }
      ],
      "failCond": [],
      "guide": {
        "param": []
      },
      "finishParent": true,
      "finishExec": [],
      "failExec": [],
      "beginExec": []
    }
  ]
}