{
  "id": 73000,
  "type": "WQ",
  "titleTextMapHash": 2506906151,
  "descTextMapHash": 4122341006,
  "luaPath": "Actor/Quest/WQ73000",
  "suggestTrackMainQuestList": [
    73073
  ],
  "rewardIdList": [
    173000
  ],
  "chapterId": 10070,
  "subQuests": [
    {
      "mainId": 73000,
      "subId": 7300001,
      "order": 1,
      "showType": "QUEST_HIDDEN",
      "descTextMapHash": 2462268884,
      "acceptCond": [
        {
          "type": "QUEST_COND_UNKNOWN",
          "param": [
            0,
            0
          ]
        }
      ],
      "finishCond": [],
      "failCond": [],
      "guide": {
        "type": "QUEST_GUIDE_NPC",
        "param": [
          "20600"
        ],
        "guideScene": 3,
        "guideStyle": "QUEST_GUIDE_STYLE_TARGET",
        "guideLayer": "QUEST_GUIDE_LAYER_SCENE"
      },
      "finishExec": [],
      "failExec": [],
      "beginExec": []
    },
    {
      "mainId": 73000,
      "subId": 7300002,
      "order": 2,
      "descTextMapHash": 543834724,
      "acceptCond": [
        {
          "type": "QUEST_COND_UNKNOWN",
          "param": [
            0,
            0
          ]
        }
      ],
      "finishCond": [],
      "failCond": [],
      "guide": {
        "type": "QUEST_GUIDE_LOCATION",
        "autoGuide": "QUEST_GUIDE_AUTO_ENABLE",
        "param": [
          "WQL1_AREAQQSEARCH",
          "40"
        ],
        "guideScene": 3,
        "guideStyle": "QUEST_GUIDE_STYLE_POINT",
        "guideLayer": "QUEST_GUIDE_LAYER_SCENE"
      },
      "finishExec": [],
      "failExec": [],
      "beginExec": []
    },
    {
      "mainId": 73000,
      "subId": 7300003,
      "order": 3,
      "descTextMapHash": 3134273836,
      "acceptCond": [
        {
          "type": "QUEST_COND_UNKNOWN",
          "param": [
            0,
            0
          ]
        }
      ],
      "finishCond": [],
      "failCond": [],
      "guide": {
        "type": "QUEST_GUIDE_LOCATION",
        "autoGuide": "QUEST_GUIDE_AUTO_ENABLE",
        "param": [
          "WQL1_AREAPALMSEARCH",
          "40"
        ],
        "guideScene": 3,
        "guideStyle": "QUEST_GUIDE_STYLE_POINT",
        "guideLayer": "QUEST_GUIDE_LAYER_SCENE"
      },
      "finishExec": [],
      "failExec": [],
      "beginExec": []
    },
    {
      "mainId": 73000,
      "subId": 7300004,
      "order": 4,
      "descTextMapHash": 274931124,
      "acceptCond": [
        {
          "type": "QUEST_COND_UNKNOWN",
          "param": [
            0,
            0
          ]
        }
      ],
      "finishCond": [],
      "failCond": [],
      "guide": {
        "type": "QUEST_GUIDE_LOCATION",
        "autoGuide": "QUEST_GUIDE_AUTO_ENABLE",
        "param": [
          "WQL1_AREAROBOTHOLE",
          "0"
        ],
        "guideScene": 3,
        "guideStyle": "QUEST_GUIDE_STYLE_POINT",
        "guideLayer": "QUEST_GUIDE_LAYER_SCENE"
      },
      "finishExec": [],
      "failExec": [],
      "beginExec": []
    },
    {
      "mainId": 73000,
      "subId": 7300005,
      "order": 6,
      "descTextMapHash": 2880716516,
      "acceptCond": [
        {
          "type": "QUEST_COND_UNKNOWN",
          "param": [
            0,
            0
          ]
        }
      ],
      "finishCond": [],
      "failCond": [],
      "guide": {
        "type": "QUEST_GUIDE_LOCATION",
        "autoGuide": "QUEST_GUIDE_AUTO_ENABLE",
        "param": [
          "WQL1_AREAFIRSTGEAR",
          "0"
        ],
        "guideScene": 3,
        "guideStyle": "QUEST_GUIDE_STYLE_POINT",
        "guideLayer": "QUEST_GUIDE_LAYER_SCENE"
      },
      "finishExec": [],
      "failExec": [],
      "beginExec": []
    },
    {
      "mainId": 73000,
      "subId": 7300006,
      "order": 8,
      "descTextMapHash": 3314389444,
      "acceptCond": [
        {
          "type": "QUEST_COND_UNKNOWN",
          "param": [
            0,
            0
          ]
        }
      ],
      "finishCond": [],
      "failCond": [],
      "guide": {
        "type": "QUEST_GUIDE_LOCATION",
        "autoGuide": "QUEST_GUIDE_AUTO_ENABLE",
        "param": [
          "WQL1_NPCROBOTBACK",
          "0"
        ],
        "guideScene": 3,
        "guideStyle": "QUEST_GUIDE_STYLE_POINT",
        "guideLayer": "QUEST_GUIDE_LAYER_SCENE"
      },
      "finishExec": [],
      "failExec": [],
      "beginExec": []
    },
    {
      "mainId": 73000,
      "subId": 7300007,
      "order": 9,
      "descTextMapHash": 3297629828,
      "acceptCond": [
        {
          "type": "QUEST_COND_UNKNOWN",
          "param": [
            0,
            0
          ]
        }
      ],
      "finishCond": [],
      "failCond": [],
      "guide": {
        "type": "QUEST_GUIDE_NPC",
        "autoGuide": "QUEST_GUIDE_AUTO_ENABLE",
        "param": [
          "20601"
        ],
        "guideScene": 3,
        "guideStyle": "QUEST_GUIDE_STYLE_TARGET",
        "guideLayer": "QUEST_GUIDE_LAYER_SCENE"
      },
      "finishExec": [],
      "failExec": [],
      "beginExec": []
    },
    {
      "mainId": 73000,
      "subId": 7300008,
      "order": 13,
      "descTextMapHash": 3752805740,
      "acceptCond": [
        {
          "type": "QUEST_COND_UNKNOWN",
          "param": [
            0,
            0
          ]
        }
      ],
      "finishCond": [],
      "failCond": [],
      "guide": {
        "type": "QUEST_GUIDE_NPC",
        "autoGuide": "QUEST_GUIDE_AUTO_ENABLE",
        "param": [
          "4157"
        ],
        "guideScene": 3,
        "guideStyle": "QUEST_GUIDE_STYLE_TARGET",
        "guideLayer": "QUEST_GUIDE_LAYER_SCENE"
      },
      "finishExec": [],
      "failExec": [],
      "beginExec": []
    },
    {
      "mainId": 73000,
      "subId": 7300009,
      "order": 10,
      "descTextMapHash": 4254990532,
      "acceptCond": [
        {
          "type": "QUEST_COND_UNKNOWN",
          "param": [
            0,
            0
          ]
        }
      ],
      "finishCond": [],
      "failCond": [],
      "guide": {
        "type": "QUEST_GUIDE_NPC",
        "autoGuide": "QUEST_GUIDE_AUTO_ENABLE",
        "param": [
          "20600"
        ],
        "guideScene": 3,
        "guideStyle": "QUEST_GUIDE_STYLE_TARGET",
        "guideLayer": "QUEST_GUIDE_LAYER_SCENE"
      },
      "finishExec": [],
      "failExec": [],
      "beginExec": []
    },
    {
      "mainId": 73000,
      "subId": 7300010,
      "order": 11,
      "descTextMapHash": 1915693828,
      "acceptCond": [
        {
          "type": "QUEST_COND_UNKNOWN",
          "param": [
            0,
            0
          ]
        }
      ],
      "finishCond": [],
      "failCond": [],
      "guide": {
        "type": "QUEST_GUIDE_NPC",
        "autoGuide": "QUEST_GUIDE_AUTO_ENABLE",
        "param": [
          "20601"
        ],
        "guideScene": 3,
        "guideStyle": "QUEST_GUIDE_STYLE_TARGET",
        "guideLayer": "QUEST_GUIDE_LAYER_SCENE"
      },
      "finishExec": [],
      "failExec": [],
      "beginExec": []
    },
    {
      "mainId": 73000,
      "subId": 7300011,
      "order": 12,
      "showType": "QUEST_HIDDEN",
      "acceptCond": [
        {
          "type": "QUEST_COND_UNKNOWN",
          "param": [
            0,
            0
          ]
        }
      ],
      "finishCond": [],
      "failCond": [],
      "guide": {
        "guideScene": 3,
        "guideStyle": "QUEST_GUIDE_STYLE_TARGET",
        "guideLayer": "QUEST_GUIDE_LAYER_SCENE"
      },
      "finishExec": [],
      "failExec": [],
      "beginExec": []
    },
    {
      "mainId": 73000,
      "subId": 7300012,
      "order": 99,
      "descTextMapHash": 2122350580,
      "acceptCond": [
        {
          "type": "QUEST_COND_UNKNOWN",
          "param": [
            0,
            0
          ]
        }
      ],
      "finishCond": [],
      "failCond": [],
      "guide": {
        "type": "QUEST_GUIDE_LOCATION",
        "autoGuide": "QUEST_GUIDE_AUTO_ENABLE",
        "param": [
          "WQL1_NPCBASEFRONT",
          "0"
        ],
        "guideScene": 3,
        "guideStyle": "QUEST_GUIDE_STYLE_POINT",
        "guideLayer": "QUEST_GUIDE_LAYER_SCENE"
      },
      "finishExec": [],
      "failExec": [],
      "beginExec": []
    },
    {
      "mainId": 73000,
      "subId": 7300013,
      "order": 99,
      "descTextMapHash": 1239773364,
      "acceptCond": [
        {
          "type": "QUEST_COND_UNKNOWN",
          "param": [
            0,
            0
          ]
        }
      ],
      "finishCond": [],
      "failCond": [],
      "guide": {
        "type": "QUEST_GUIDE_LOCATION",
        "autoGuide": "QUEST_GUIDE_AUTO_ENABLE",
        "param": [
          "WQL1_NPCBASEGEAR",
          "0"
        ],
        "guideScene": 3,
        "guideStyle": "QUEST_GUIDE_STYLE_POINT",
        "guideLayer": "QUEST_GUIDE_LAYER_SCENE"
      },
      "finishExec": [],
      "failExec": [],
      "beginExec": []
    },
    {
      "mainId": 73000,
      "subId": 7300014,
      "order": 99,
      "descTextMapHash": 1219948660,
      "acceptCond": [
        {
          "type": "QUEST_COND_UNKNOWN",
          "param": [
            0,
            0
          ]
        }
      ],
      "finishCond": [],
      "failCond": [],
      "guide": {
        "type": "QUEST_GUIDE_NPC",
        "autoGuide": "QUEST_GUIDE_AUTO_ENABLE",
        "param": [
          "20645"
        ],
        "guideScene": 3,
        "guideStyle": "QUEST_GUIDE_STYLE_TARGET",
        "guideLayer": "QUEST_GUIDE_LAYER_SCENE"
      },
      "finishExec": [],
      "failExec": [],
      "beginExec": []
    },
    {
      "mainId": 73000,
      "subId": 7300015,
      "order": 99,
      "descTextMapHash": 844071356,
      "acceptCond": [
        {
          "type": "QUEST_COND_UNKNOWN",
          "param": [
            0,
            0
          ]
        }
      ],
      "finishCond": [],
      "failCond": [],
      "guide": {
        "type": "QUEST_GUIDE_NPC",
        "autoGuide": "QUEST_GUIDE_AUTO_ENABLE",
        "param": [
          "4183"
        ],
        "guideScene": 3,
        "guideStyle": "QUEST_GUIDE_STYLE_TARGET",
        "guideLayer": "QUEST_GUIDE_LAYER_SCENE"
      },
      "finishExec": [],
      "failExec": [],
      "beginExec": []
    },
    {
      "mainId": 73000,
      "subId": 7300016,
      "order": 5,
      "descTextMapHash": 428855380,
      "acceptCond": [
        {
          "type": "QUEST_COND_UNKNOWN",
          "param": [
            0,
            0
          ]
        }
      ],
      "finishCond": [],
      "failCond": [],
      "guide": {
        "type": "QUEST_GUIDE_LOCATION",
        "autoGuide": "QUEST_GUIDE_AUTO_ENABLE",
        "param": [
          "WQL1_AREAMID1",
          "0"
        ],
        "guideScene": 3,
        "guideStyle": "QUEST_GUIDE_STYLE_POINT",
        "guideLayer": "QUEST_GUIDE_LAYER_SCENE"
      },
      "finishExec": [],
      "failExec": [],
      "beginExec": []
    },
    {
      "mainId": 73000,
      "subId": 7300017,
      "order": 7,
      "descTextMapHash": 849237804,
      "acceptCond": [
        {
          "type": "QUEST_COND_UNKNOWN",
          "param": [
            0,
            0
          ]
        }
      ],
      "finishCond": [],
      "failCond": [],
      "guide": {
        "type": "QUEST_GUIDE_LOCATION",
        "autoGuide": "QUEST_GUIDE_AUTO_ENABLE",
        "param": [
          "WQL1_AREAMID2",
          "0"
        ],
        "guideScene": 3,
        "guideStyle": "QUEST_GUIDE_STYLE_POINT",
        "guideLayer": "QUEST_GUIDE_LAYER_SCENE"
      },
      "finishExec": [],
      "failExec": [],
      "beginExec": []
    },
    {
      "mainId": 73000,
      "subId": 7300018,
      "order": 99,
      "descTextMapHash": 2265243356,
      "acceptCond": [
        {
          "type": "QUEST_COND_UNKNOWN",
          "param": [
            0,
            0
          ]
        }
      ],
      "finishCond": [],
      "failCond": [],
      "guide": {
        "type": "QUEST_GUIDE_NPC",
        "autoGuide": "QUEST_GUIDE_AUTO_ENABLE",
        "param": [
          "20645"
        ],
        "guideScene": 3,
        "guideStyle": "QUEST_GUIDE_STYLE_TARGET",
        "guideLayer": "QUEST_GUIDE_LAYER_SCENE"
      },
      "finishExec": [],
      "failExec": [],
      "beginExec": []
    },
    {
      "mainId": 73000,
      "subId": 7300019,
      "order": 99,
      "descTextMapHash": 641697420,
      "acceptCond": [
        {
          "type": "QUEST_COND_UNKNOWN",
          "param": [
            0,
            0
          ]
        }
      ],
      "finishCond": [],
      "failCond": [],
      "guide": {
        "type": "QUEST_GUIDE_LOCATION",
        "autoGuide": "QUEST_GUIDE_AUTO_ENABLE",
        "param": [
          "WQL1_BURY1",
          "0"
        ],
        "guideScene": 3,
        "guideStyle": "QUEST_GUIDE_STYLE_POINT",
        "guideLayer": "QUEST_GUIDE_LAYER_SCENE"
      },
      "finishExec": [],
      "failExec": [],
      "beginExec": []
    },
    {
      "mainId": 73000,
      "subId": 7300020,
      "order": 14,
      "descTextMapHash": 1534969620,
      "acceptCond": [
        {
          "type": "QUEST_COND_UNKNOWN",
          "param": [
            0,
            0
          ]
        }
      ],
      "finishCond": [],
      "failCond": [],
      "guide": {
        "type": "QUEST_GUIDE_NPC",
        "autoGuide": "QUEST_GUIDE_AUTO_ENABLE",
        "param": [
          "4157"
        ],
        "guideScene": 3,
        "guideStyle": "QUEST_GUIDE_STYLE_TARGET",
        "guideLayer": "QUEST_GUIDE_LAYER_SCENE"
      },
      "finishExec": [],
      "failExec": [],
      "beginExec": []
    }
  ],
  "talks": [
    {
      "id": 7300001,
      "beginWay": "TALK_BEGIN_MANUAL",
      "activeMode": "PLAY_MODE_HOST",
      "beginCondComb": "LOGIC_AND",
      "beginCond": [
        {
          "type": "QUEST_COND_STATE_EQUAL",
          "param": [
            "7300001",
            "2"
          ],
          "param_str": ""
        },
        {
          "type": "QUEST_COND_QUEST_GLOBAL_VAR_EQUAL",
          "param": [
            "73027",
            "0"
          ],
          "param_str": ""
        }
      ],
      "priority": 5,
      "initDialog": 730000101,
      "npcId": [
        20600
      ],
      "performCfg": "QuestDialogue/WQ/Sumeru_73000/Q7300001",
      "heroTalk": "TALK_HERO_MAIN",
      "questId": 73000,
      "prePerformCfg": "",
      "talkMarkType": "TALK_MARK_COMMON"
    },
    {
      "id": 7300002,
      "beginWay": "TALK_BEGIN_MANUAL",
      "activeMode": "PLAY_MODE_HOST",
      "beginCondComb": "LOGIC_AND",
      "beginCond": [
        {
          "type": "QUEST_COND_STATE_EQUAL",
          "param": [
            "7300007",
            "2"
          ],
          "param_str": ""
        },
        {
          "type": "QUEST_COND_QUEST_GLOBAL_VAR_EQUAL",
          "param": [
            "7219808",
            "7"
          ],
          "param_str": ""
        }
      ],
      "priority": 5,
      "initDialog": 730000201,
      "npcId": [
        20601
      ],
      "performCfg": "QuestDialogue/WQ/Sumeru_73000/Q7300002",
      "heroTalk": "TALK_HERO_MAIN",
      "questId": 73000,
      "prePerformCfg": ""
    },
    {
      "id": 7300003,
      "beginWay": "TALK_BEGIN_MANUAL",
      "activeMode": "PLAY_MODE_HOST",
      "beginCondComb": "LOGIC_AND",
      "beginCond": [
        {
          "type": "QUEST_COND_STATE_EQUAL",
          "param": [
            "7300007",
            "2"
          ],
          "param_str": ""
        },
        {
          "type": "QUEST_COND_QUEST_GLOBAL_VAR_LESS",
          "param": [
            "7219808",
            "7"
          ],
          "param_str": ""
        }
      ],
      "priority": 5,
      "initDialog": 730000301,
      "npcId": [
        20601
      ],
      "performCfg": "QuestDialogue/WQ/Sumeru_73000/Q7300003",
      "heroTalk": "TALK_HERO_MAIN",
      "questId": 73000,
      "prePerformCfg": ""
    },
    {
      "id": 7300004,
      "beginWay": "TALK_BEGIN_MANUAL",
      "activeMode": "PLAY_MODE_HOST",
      "beginCond": [
        {
          "type": "QUEST_COND_STATE_EQUAL",
          "param": [
            "7300007",
            "3"
          ],
          "param_str": ""
        },
        {
          "type": "QUEST_COND_STATE_EQUAL",
          "param": [
            "7300009",
            "2"
          ],
          "param_str": ""
        }
      ],
      "priority": 5,
      "initDialog": 730000401,
      "npcId": [
        20601
      ],
      "performCfg": "",
      "heroTalk": "TALK_HERO_MAIN",
      "questId": 73000,
      "prePerformCfg": ""
    },
    {
      "id": 7300005,
      "beginWay": "TALK_BEGIN_MANUAL",
      "activeMode": "PLAY_MODE_HOST",
      "beginCond": [
        {
          "type": "QUEST_COND_STATE_EQUAL",
          "param": [
            "7300009",
            "2"
          ],
          "param_str": ""
        }
      ],
      "priority": 5,
      "initDialog": 730000501,
      "npcId": [
        20600
      ],
      "performCfg": "QuestDialogue/WQ/Sumeru_73000/Q7300005",
      "heroTalk": "TALK_HERO_MAIN",
      "questId": 73000,
      "prePerformCfg": ""
    },
    {
      "id": 7300006,
      "beginWay": "TALK_BEGIN_MANUAL",
      "activeMode": "PLAY_MODE_HOST",
      "beginCondComb": "LOGIC_AND",
      "beginCond": [
        {
          "type": "QUEST_COND_STATE_EQUAL",
          "param": [
            "7300010",
            "2"
          ],
          "param_str": ""
        },
        {
          "type": "QUEST_COND_QUEST_GLOBAL_VAR_EQUAL",
          "param": [
            "73027",
            "0"
          ],
          "param_str": ""
        }
      ],
      "priority": 5,
      "initDialog": 730000601,
      "npcId": [
        20601
      ],
      "performCfg": "QuestDialogue/WQ/Sumeru_73000/Q7300006",
      "heroTalk": "TALK_HERO_MAIN",
      "questId": 73000,
      "prePerformCfg": ""
    },
    {
      "id": 7300007,
      "beginWay": "TALK_BEGIN_AUTO",
      "activeMode": "PLAY_MODE_HOST",
      "beginCond": [
        {
          "type": "QUEST_COND_STATE_EQUAL",
          "param": [
            "7300008",
            "2"
          ],
          "param_str": ""
        }
      ],
      "priority": 5,
      "initDialog": 730000701,
      "npcId": [
        4157
      ],
      "performCfg": "QuestDialogue/WQ/Sumeru_73000/Q7300007",
      "heroTalk": "TALK_HERO_MAIN",
      "questId": 73000,
      "prePerformCfg": ""
    },
    {
      "id": 7300008,
      "activeMode": "PLAY_MODE_HOST",
      "priority": 5,
      "initDialog": 730000801,
      "npcId": [
        4157
      ],
      "performCfg": "QuestDialogue/WQ/Sumeru_73000/Q7300008",
      "heroTalk": "TALK_HERO_MAIN",
      "questId": 73000,
      "prePerformCfg": ""
    },
    {
      "id": 7300009,
      "activeMode": "PLAY_MODE_HOST",
      "priority": 5,
      "initDialog": 730000901,
      "npcId": [
        4157
      ],
      "performCfg": "QuestDialogue/WQ/Sumeru_73000/Q7300009",
      "heroTalk": "TALK_HERO_MAIN",
      "questId": 73000,
      "prePerformCfg": ""
    },
    {
      "id": 7300010,
      "activeMode": "PLAY_MODE_HOST",
      "priority": 5,
      "initDialog": 730001001,
      "npcId": [
        4157
      ],
      "performCfg": "QuestDialogue/WQ/Sumeru_73000/Q7300010",
      "heroTalk": "TALK_HERO_MAIN",
      "questId": 73000,
      "prePerformCfg": ""
    },
    {
      "id": 7300011,
      "activeMode": "PLAY_MODE_HOST",
      "priority": 5,
      "initDialog": 730001101,
      "npcId": [
        4157
      ],
      "performCfg": "QuestDialogue/WQ/Sumeru_73000/Q7300011",
      "heroTalk": "TALK_HERO_MAIN",
      "questId": 73000,
      "prePerformCfg": ""
    },
    {
      "id": 7300012,
      "activeMode": "PLAY_MODE_HOST",
      "priority": 5,
      "initDialog": 730001201,
      "npcId": [
        4157
      ],
      "performCfg": "QuestDialogue/WQ/Sumeru_73000/Q7300012",
      "heroTalk": "TALK_HERO_MAIN",
      "questId": 73000,
      "prePerformCfg": ""
    },
    {
      "id": 7300013,
      "beginWay": "TALK_BEGIN_MANUAL",
      "activeMode": "PLAY_MODE_HOST",
      "beginCondComb": "LOGIC_AND",
      "beginCond": [
        {
          "type": "QUEST_COND_STATE_EQUAL",
          "param": [
            "7300020",
            "2"
          ],
          "param_str": ""
        },
        {
          "type": "QUEST_COND_QUEST_GLOBAL_VAR_EQUAL",
          "param": [
            "10010",
            "1"
          ],
          "param_str": ""
        }
      ],
      "priority": 5,
      "initDialog": 730001301,
      "npcId": [
        4157
      ],
      "performCfg": "QuestDialogue/WQ/Sumeru_73000/Q7300013",
      "heroTalk": "TALK_HERO_MAIN",
      "questId": 73000,
      "prePerformCfg": ""
    },
    {
      "id": 7300014,
      "beginWay": "TALK_BEGIN_MANUAL",
      "activeMode": "PLAY_MODE_HOST",
      "beginCondComb": "LOGIC_AND",
      "beginCond": [
        {
          "type": "QUEST_COND_STATE_EQUAL",
          "param": [
            "7300020",
            "2"
          ],
          "param_str": ""
        },
        {
          "type": "QUEST_COND_QUEST_GLOBAL_VAR_EQUAL",
          "param": [
            "10010",
            "0"
          ],
          "param_str": ""
        }
      ],
      "priority": 5,
      "initDialog": 730001401,
      "npcId": [
        4157
      ],
      "performCfg": "QuestDialogue/WQ/Sumeru_73000/Q7300014",
      "heroTalk": "TALK_HERO_MAIN",
      "questId": 73000,
      "prePerformCfg": ""
    },
    {
      "id": 7300015,
      "beginWay": "TALK_BEGIN_MANUAL",
      "activeMode": "PLAY_MODE_HOST",
      "beginCondComb": "LOGIC_AND",
      "beginCond": [
        {
          "type": "QUEST_COND_STATE_EQUAL",
          "param": [
            "7300001",
            "2"
          ],
          "param_str": ""
        },
        {
          "type": "QUEST_COND_STATE_EQUAL",
          "param": [
            "7308417",
            "3"
          ],
          "param_str": ""
        }
      ],
      "priority": 10,
      "initDialog": 730001501,
      "npcId": [
        20600
      ],
      "performCfg": "QuestDialogue/WQ/Sumeru_73000/Q7300015",
      "heroTalk": "TALK_HERO_MAIN",
      "questId": 73000,
      "prePerformCfg": "",
      "talkMarkType": "TALK_MARK_COMMON"
    },
    {
      "id": 7300016,
      "beginWay": "TALK_BEGIN_MANUAL",
      "activeMode": "PLAY_MODE_HOST",
      "beginCondComb": "LOGIC_AND",
      "beginCond": [
        {
          "type": "QUEST_COND_STATE_EQUAL",
          "param": [
            "7300010",
            "2"
          ],
          "param_str": ""
        },
        {
          "type": "QUEST_COND_STATE_EQUAL",
          "param": [
            "7308417",
            "3"
          ],
          "param_str": ""
        }
      ],
      "priority": 10,
      "initDialog": 730001601,
      "npcId": [
        20601
      ],
      "performCfg": "QuestDialogue/WQ/Sumeru_73000/Q7300016",
      "heroTalk": "TALK_HERO_MAIN",
      "questId": 73000,
      "prePerformCfg": ""
    }
  ]
}