{
  "id": 73013,
  "type": "WQ",
  "titleTextMapHash": 2493613607,
  "descTextMapHash": 314186982,
  "luaPath": "Actor/Quest/WQ73013",
  "suggestTrackMainQuestList": [
    73033
  ],
  "rewardIdList": [
    173013
  ],
  "chapterId": 10069,
  "subQuests": [
    {
      "mainId": 73013,
      "subId": 7301301,
      "order": 1,
      "showType": "QUEST_HIDDEN",
      "acceptCond": [
        {
          "type": "QUEST_COND_UNKNOWN",
          "param": [
            0,
            0
          ]
        }
      ],
      "finishCond": [],
      "failCond": [],
      "guide": {},
      "finishExec": [],
      "failExec": [],
      "beginExec": []
    },
    {
      "mainId": 73013,
      "subId": 7301302,
      "order": 2,
      "showType": "QUEST_HIDDEN",
      "acceptCond": [
        {
          "type": "QUEST_COND_UNKNOWN",
          "param": [
            0,
            0
          ]
        }
      ],
      "finishCond": [],
      "failCond": [],
      "guide": {},
      "finishExec": [],
      "failExec": [],
      "beginExec": []
    },
    {
      "mainId": 73013,
      "subId": 7301303,
      "order": 3,
      "descTextMapHash": 1616489508,
      "acceptCond": [
        {
          "type": "QUEST_COND_UNKNOWN",
          "param": [
            0,
            0
          ]
        }
      ],
      "finishCond": [],
      "failCond": [],
      "guide": {
        "type": "QUEST_GUIDE_NPC",
        "param": [
          "20649",
          "11",
          "38"
        ],
        "guideScene": 3,
        "guideStyle": "QUEST_GUIDE_STYLE_TARGET"
      },
      "finishExec": [],
      "failExec": [],
      "beginExec": []
    },
    {
      "mainId": 73013,
      "subId": 7301304,
      "order": 88,
      "acceptCond": [
        {
          "type": "QUEST_COND_UNKNOWN",
          "param": [
            0,
            0
          ]
        }
      ],
      "finishCond": [],
      "failCond": [],
      "guide": {
        "type": "QUEST_GUIDE_NPC",
        "param": [
          "20649"
        ],
        "guideScene": 3,
        "guideStyle": "QUEST_GUIDE_STYLE_TARGET"
      },
      "finishExec": [],
      "failExec": [],
      "beginExec": []
    },
    {
      "mainId": 73013,
      "subId": 7301305,
      "order": 99,
      "showType": "QUEST_HIDDEN",
      "acceptCond": [
        {
          "type": "QUEST_COND_UNKNOWN",
          "param": [
            0,
            0
          ]
        }
      ],
      "finishCond": [],
      "failCond": [],
      "guide": {},
      "finishExec": [],
      "failExec": [],
      "beginExec": []
    }
  ],
  "talks": [
    {
      "id": 7301301,
      "beginWay": "TALK_BEGIN_MANUAL",
      "activeMode": "PLAY_MODE_HOST",
      "beginCond": [
        {
          "type": "QUEST_COND_STATE_EQUAL",
          "param": [
            "7301301",
            "2"
          ],
          "param_str": ""
        }
      ],
      "priority": 5,
      "initDialog": 730130101,
      "npcId": [
        20649,
        20646,
        1005
      ],
      "performCfg": "QuestDialogue/WQ/Sumeru_73013/Q7301301",
      "heroTalk": "TALK_HERO_MAIN",
      "questId": 73013,
      "prePerformCfg": "",
      "talkMarkType": "TALK_MARK_COMMON"
    },
    {
      "id": 7301302,
      "beginWay": "TALK_BEGIN_MANUAL",
      "activeMode": "PLAY_MODE_HOST",
      "beginCond": [
        {
          "type": "QUEST_COND_STATE_EQUAL",
          "param": [
            "7301302",
            "2"
          ],
          "param_str": ""
        }
      ],
      "priority": 5,
      "initDialog": 730130201,
      "npcId": [
        20649
      ],
      "performCfg": "",
      "questId": 73013,
      "prePerformCfg": ""
    },
    {
      "id": 7301303,
      "beginWay": "TALK_BEGIN_MANUAL",
      "activeMode": "PLAY_MODE_HOST",
      "beginCond": [
        {
          "type": "QUEST_COND_STATE_EQUAL",
          "param": [
            "7301303",
            "2"
          ],
          "param_str": ""
        }
      ],
      "priority": 5,
      "initDialog": 730130301,
      "npcId": [
        20649,
        1005
      ],
      "performCfg": "QuestDialogue/WQ/Sumeru_73013/Q7301303",
      "heroTalk": "TALK_HERO_MAIN",
      "questId": 73013,
      "prePerformCfg": ""
    },
    {
      "id": 7301304,
      "beginWay": "TALK_BEGIN_MANUAL",
      "activeMode": "PLAY_MODE_HOST",
      "beginCond": [
        {
          "type": "QUEST_COND_STATE_EQUAL",
          "param": [
            "7301303",
            "3"
          ],
          "param_str": ""
        }
      ],
      "priority": 5,
      "initDialog": 730130401,
      "npcId": [
        20649
      ],
      "performCfg": "",
      "questId": 73013,
      "prePerformCfg": "",
      "questIdleTalk": true
    },
    {
      "id": 7301305,
      "beginWay": "TALK_BEGIN_MANUAL",
      "activeMode": "PLAY_MODE_HOST",
      "beginCond": [
        {
          "type": "QUEST_COND_STATE_EQUAL",
          "param": [
            "7301303",
            "3"
          ],
          "param_str": ""
        }
      ],
      "priority": 5,
      "initDialog": 730130501,
      "npcId": [
        20650
      ],
      "performCfg": "",
      "questId": 73013,
      "prePerformCfg": "",
      "questIdleTalk": true
    },
    {
      "id": 7301306,
      "beginWay": "TALK_BEGIN_MANUAL",
      "activeMode": "PLAY_MODE_HOST",
      "beginCond": [
        {
          "type": "QUEST_COND_STATE_EQUAL",
          "param": [
            "7301303",
            "3"
          ],
          "param_str": ""
        }
      ],
      "priority": 5,
      "initDialog": 730130601,
      "npcId": [
        20653
      ],
      "performCfg": "",
      "questId": 73013,
      "prePerformCfg": "",
      "questIdleTalk": true
    },
    {
      "id": 7301307,
      "beginWay": "TALK_BEGIN_MANUAL",
      "activeMode": "PLAY_MODE_HOST",
      "beginCond": [
        {
          "type": "QUEST_COND_STATE_EQUAL",
          "param": [
            "7301303",
            "3"
          ],
          "param_str": ""
        }
      ],
      "priority": 5,
      "initDialog": 730130701,
      "npcId": [
        20652
      ],
      "performCfg": "",
      "questId": 73013,
      "prePerformCfg": "",
      "questIdleTalk": true
    },
    {
      "id": 7301308,
      "beginWay": "TALK_BEGIN_MANUAL",
      "activeMode": "PLAY_MODE_HOST",
      "beginCond": [
        {
          "type": "QUEST_COND_STATE_EQUAL",
          "param": [
            "7301303",
            "3"
          ],
          "param_str": ""
        }
      ],
      "priority": 5,
      "initDialog": 730130801,
      "npcId": [
        20651
      ],
      "performCfg": "",
      "questId": 73013,
      "prePerformCfg": "",
      "questIdleTalk": true
    }
  ]
}