{
  "id": 73024,
  "type": "WQ",
  "series": 73001,
  "titleTextMapHash": 1544711135,
  "descTextMapHash": 2642635270,
  "luaPath": "Actor/Quest/WQ73024",
  "subQuests": [
    {
      "mainId": 73024,
      "subId": 7302401,
      "order": 1,
      "showType": "QUEST_HIDDEN",
      "descTextMapHash": 3509347612,
      "acceptCond": [
        {
          "type": "QUEST_COND_UNKNOWN",
          "param": [
            0,
            0
          ]
        }
      ],
      "finishCond": [],
      "failCond": [],
      "guide": {},
      "finishExec": [],
      "failExec": [],
      "beginExec": []
    },
    {
      "mainId": 73024,
      "subId": 7302402,
      "order": 5,
      "descTextMapHash": 2903336036,
      "acceptCond": [
        {
          "type": "QUEST_COND_UNKNOWN",
          "param": [
            0,
            0
          ]
        }
      ],
      "finishCond": [],
      "failCond": [],
      "guide": {
        "type": "QUEST_GUIDE_LOCATION",
        "autoGuide": "QUEST_GUIDE_AUTO_ENABLE",
        "param": [
          "Q7302402",
          "20"
        ],
        "guideScene": 3,
        "guideStyle": "QUEST_GUIDE_STYLE_TARGET",
        "guideLayer": "QUEST_GUIDE_LAYER_SCENE"
      },
      "finishExec": [],
      "failExec": [],
      "beginExec": []
    },
    {
      "mainId": 73024,
      "subId": 7302403,
      "order": 6,
      "showType": "QUEST_HIDDEN",
      "descTextMapHash": 4053270820,
      "acceptCond": [
        {
          "type": "QUEST_COND_UNKNOWN",
          "param": [
            0,
            0
          ]
        }
      ],
      "finishCond": [],
      "failCond": [],
      "guide": {
        "type": "QUEST_GUIDE_NPC",
        "autoGuide": "QUEST_GUIDE_AUTO_ENABLE",
        "param": [
          "4198"
        ],
        "guideScene": 3,
        "guideStyle": "QUEST_GUIDE_STYLE_TARGET",
        "guideLayer": "QUEST_GUIDE_LAYER_SCENE"
      },
      "finishExec": [],
      "failExec": [],
      "beginExec": []
    },
    {
      "mainId": 73024,
      "subId": 7302404,
      "order": 7,
      "showType": "QUEST_HIDDEN",
      "descTextMapHash": 3121770044,
      "acceptCond": [
        {
          "type": "QUEST_COND_UNKNOWN",
          "param": [
            0,
            0
          ]
        }
      ],
      "finishCond": [],
      "failCond": [],
      "guide": {},
      "finishExec": [],
      "failExec": [],
      "beginExec": []
    },
    {
      "mainId": 73024,
      "subId": 7302405,
      "order": 8,
      "showType": "QUEST_HIDDEN",
      "descTextMapHash": 2919979620,
      "acceptCond": [
        {
          "type": "QUEST_COND_UNKNOWN",
          "param": [
            0,
            0
          ]
        }
      ],
      "finishCond": [],
      "failCond": [],
      "guide": {},
      "finishExec": [],
      "failExec": [],
      "beginExec": []
    },
    {
      "mainId": 73024,
      "subId": 7302406,
      "order": 4,
      "showType": "QUEST_HIDDEN",
      "descTextMapHash": 1978531212,
      "acceptCond": [
        {
          "type": "QUEST_COND_UNKNOWN",
          "param": [
            0,
            0
          ]
        }
      ],
      "finishCond": [],
      "failCond": [],
      "guide": {},
      "finishExec": [],
      "failExec": [],
      "beginExec": []
    },
    {
      "mainId": 73024,
      "subId": 7302407,
      "order": 9,
      "showType": "QUEST_HIDDEN",
      "descTextMapHash": 2894992612,
      "acceptCond": [
        {
          "type": "QUEST_COND_UNKNOWN",
          "param": [
            0,
            0
          ]
        }
      ],
      "finishCond": [],
      "failCond": [],
      "guide": {},
      "finishExec": [],
      "failExec": [],
      "beginExec": []
    },
    {
      "mainId": 73024,
      "subId": 7302408,
      "order": 10,
      "showType": "QUEST_HIDDEN",
      "descTextMapHash": 16304356,
      "acceptCond": [
        {
          "type": "QUEST_COND_UNKNOWN",
          "param": [
            0,
            0
          ]
        }
      ],
      "finishCond": [],
      "failCond": [],
      "guide": {},
      "finishExec": [],
      "failExec": [],
      "beginExec": []
    },
    {
      "mainId": 73024,
      "subId": 7302409,
      "order": 3,
      "showType": "QUEST_HIDDEN",
      "descTextMapHash": 2370386044,
      "acceptCond": [
        {
          "type": "QUEST_COND_UNKNOWN",
          "param": [
            0,
            0
          ]
        }
      ],
      "finishCond": [],
      "failCond": [],
      "guide": {},
      "finishExec": [],
      "failExec": [],
      "beginExec": []
    },
    {
      "mainId": 73024,
      "subId": 7302410,
      "order": 2,
      "showType": "QUEST_HIDDEN",
      "descTextMapHash": 362455044,
      "acceptCond": [
        {
          "type": "QUEST_COND_UNKNOWN",
          "param": [
            0,
            0
          ]
        }
      ],
      "finishCond": [],
      "failCond": [],
      "guide": {},
      "finishExec": [],
      "failExec": [],
      "beginExec": []
    }
  ],
  "talks": [
    {
      "id": 7302401,
      "beginWay": "TALK_BEGIN_MANUAL",
      "activeMode": "PLAY_MODE_HOST",
      "beginCondComb": "LOGIC_AND",
      "beginCond": [
        {
          "type": "QUEST_COND_STATE_EQUAL",
          "param": [
            "7302403",
            "2"
          ],
          "param_str": ""
        },
        {
          "type": "QUEST_COND_QUEST_GLOBAL_VAR_EQUAL",
          "param": [
            "300010",
            "1"
          ],
          "param_str": ""
        }
      ],
      "priority": 5,
      "initDialog": 730240101,
      "npcId": [
        4198,
        1005
      ],
      "performCfg": "QuestDialogue/WQ/Sumeru_73024/Q7302401",
      "questId": 73024,
      "prePerformCfg": ""
    },
    {
      "id": 7302404,
      "beginWay": "TALK_BEGIN_MANUAL",
      "activeMode": "PLAY_MODE_HOST",
      "beginCondComb": "LOGIC_OR",
      "beginCond": [
        {
          "type": "QUEST_COND_STATE_EQUAL",
          "param": [
            "7302401",
            "2"
          ],
          "param_str": ""
        },
        {
          "type": "QUEST_COND_STATE_EQUAL",
          "param": [
            "7302406",
            "2"
          ],
          "param_str": ""
        }
      ],
      "priority": 5,
      "initDialog": 730240401,
      "npcId": [
        4198
      ],
      "performCfg": "QuestDialogue/WQ/Sumeru_73024/Q7302404",
      "questId": 73024,
      "prePerformCfg": "",
      "talkMarkType": "TALK_MARK_COMMON",
      "lowPriority": true
    },
    {
      "id": 7302405,
      "beginWay": "TALK_BEGIN_MANUAL",
      "activeMode": "PLAY_MODE_HOST",
      "beginCondComb": "LOGIC_AND",
      "beginCond": [
        {
          "type": "QUEST_COND_STATE_EQUAL",
          "param": [
            "7302403",
            "2"
          ],
          "param_str": ""
        },
        {
          "type": "QUEST_COND_QUEST_GLOBAL_VAR_EQUAL",
          "param": [
            "300010",
            "0"
          ],
          "param_str": ""
        }
      ],
      "priority": 5,
      "initDialog": 730240501,
      "npcId": [
        4198,
        1005
      ],
      "performCfg": "QuestDialogue/WQ/Sumeru_73024/Q7302405",
      "questId": 73024,
      "prePerformCfg": ""
    }
  ]
}