{
  "id": 73086,
  "type": "WQ",
  "titleTextMapHash": 3944702351,
  "descTextMapHash": 2475142878,
  "luaPath": "Actor/Quest/WQ73086",
  "showType": "QUEST_HIDDEN",
  "subQuests": [
    {
      "mainId": 73086,
      "subId": 7308601,
      "order": 1,
      "showType": "QUEST_HIDDEN",
      "descTextMapHash": 2611374604,
      "acceptCond": [
        {
          "type": "QUEST_COND_UNKNOWN",
          "param": [
            0,
            0
          ]
        }
      ],
      "finishCond": [],
      "failCond": [],
      "guide": {
        "type": "QUEST_GUIDE_NPC",
        "param": [
          "4221"
        ],
        "guideScene": 3,
        "guideStyle": "QUEST_GUIDE_STYLE_TARGET",
        "guideLayer": "QUEST_GUIDE_LAYER_SCENE"
      },
      "finishExec": [],
      "failExec": [],
      "beginExec": []
    },
    {
      "mainId": 73086,
      "subId": 7308602,
      "order": 2,
      "showType": "QUEST_HIDDEN",
      "descTextMapHash": 116386092,
      "acceptCond": [
        {
          "type": "QUEST_COND_UNKNOWN",
          "param": [
            0,
            0
          ]
        }
      ],
      "finishCond": [],
      "failCond": [],
      "guide": {},
      "finishExec": [],
      "failExec": [],
      "beginExec": []
    },
    {
      "mainId": 73086,
      "subId": 7308603,
      "order": 3,
      "showType": "QUEST_HIDDEN",
      "descTextMapHash": 1140651068,
      "acceptCond": [
        {
          "type": "QUEST_COND_UNKNOWN",
          "param": [
            0,
            0
          ]
        }
      ],
      "finishCond": [],
      "failCond": [],
      "guide": {
        "param": [
          "30"
        ],
        "guideScene": 3
      },
      "finishExec": [],
      "failExec": [],
      "beginExec": []
    },
    {
      "mainId": 73086,
      "subId": 7308604,
      "order": 4,
      "showType": "QUEST_HIDDEN",
      "descTextMapHash": 3607090060,
      "acceptCond": [
        {
          "type": "QUEST_COND_UNKNOWN",
          "param": [
            0,
            0
          ]
        }
      ],
      "finishCond": [],
      "failCond": [],
      "guide": {
        "type": "QUEST_GUIDE_NPC",
        "param": [
          "4221"
        ],
        "guideScene": 3,
        "guideStyle": "QUEST_GUIDE_STYLE_TARGET",
        "guideLayer": "QUEST_GUIDE_LAYER_SCENE"
      },
      "finishExec": [],
      "failExec": [],
      "beginExec": []
    },
    {
      "mainId": 73086,
      "subId": 7308605,
      "order": 5,
      "showType": "QUEST_HIDDEN",
      "descTextMapHash": 583835844,
      "acceptCond": [
        {
          "type": "QUEST_COND_UNKNOWN",
          "param": [
            0,
            0
          ]
        }
      ],
      "finishCond": [],
      "failCond": [],
      "guide": {
        "type": "QUEST_GUIDE_NPC",
        "param": [
          "4221"
        ],
        "guideScene": 3,
        "guideStyle": "QUEST_GUIDE_STYLE_TARGET",
        "guideLayer": "QUEST_GUIDE_LAYER_SCENE"
      },
      "finishExec": [],
      "failExec": [],
      "beginExec": []
    },
    {
      "mainId": 73086,
      "subId": 7308606,
      "order": 6,
      "showType": "QUEST_HIDDEN",
      "descTextMapHash": 270467644,
      "acceptCond": [
        {
          "type": "QUEST_COND_UNKNOWN",
          "param": [
            0,
            0
          ]
        }
      ],
      "finishCond": [],
      "failCond": [],
      "guide": {
        "type": "QUEST_GUIDE_NPC",
        "param": [
          "4221"
        ],
        "guideScene": 3,
        "guideStyle": "QUEST_GUIDE_STYLE_TARGET",
        "guideLayer": "QUEST_GUIDE_LAYER_SCENE"
      },
      "finishExec": [],
      "failExec": [],
      "beginExec": []
    },
    {
      "mainId": 73086,
      "subId": 7308607,
      "order": 7,
      "showType": "QUEST_HIDDEN",
      "descTextMapHash": 543964244,
      "acceptCond": [
        {
          "type": "QUEST_COND_UNKNOWN",
          "param": [
            0,
            0
          ]
        }
      ],
      "finishCond": [],
      "failCond": [],
      "guide": {},
      "finishExec": [],
      "failExec": [],
      "beginExec": []
    },
    {
      "mainId": 73086,
      "subId": 7308608,
      "order": 8,
      "showType": "QUEST_HIDDEN",
      "descTextMapHash": 408653404,
      "acceptCond": [
        {
          "type": "QUEST_COND_UNKNOWN",
          "param": [
            0,
            0
          ]
        }
      ],
      "finishCond": [],
      "failCond": [],
      "guide": {
        "param": [
          "30"
        ],
        "guideScene": 3
      },
      "finishExec": [],
      "failExec": [],
      "beginExec": []
    },
    {
      "mainId": 73086,
      "subId": 7308609,
      "order": 9,
      "showType": "QUEST_HIDDEN",
      "descTextMapHash": 2804716732,
      "acceptCond": [
        {
          "type": "QUEST_COND_UNKNOWN",
          "param": [
            0,
            0
          ]
        }
      ],
      "finishCond": [],
      "failCond": [],
      "guide": {
        "type": "QUEST_GUIDE_NPC",
        "param": [
          "4221"
        ],
        "guideScene": 3,
        "guideStyle": "QUEST_GUIDE_STYLE_TARGET",
        "guideLayer": "QUEST_GUIDE_LAYER_SCENE"
      },
      "finishExec": [],
      "failExec": [],
      "beginExec": []
    },
    {
      "mainId": 73086,
      "subId": 7308610,
      "order": 10,
      "showType": "QUEST_HIDDEN",
      "descTextMapHash": 1332238996,
      "acceptCond": [
        {
          "type": "QUEST_COND_UNKNOWN",
          "param": [
            0,
            0
          ]
        }
      ],
      "finishCond": [],
      "failCond": [],
      "guide": {
        "type": "QUEST_GUIDE_NPC",
        "param": [
          "4221"
        ],
        "guideScene": 3,
        "guideStyle": "QUEST_GUIDE_STYLE_TARGET",
        "guideLayer": "QUEST_GUIDE_LAYER_SCENE"
      },
      "finishExec": [],
      "failExec": [],
      "beginExec": []
    },
    {
      "mainId": 73086,
      "subId": 7308611,
      "order": 11,
      "showType": "QUEST_HIDDEN",
      "descTextMapHash": 4168498732,
      "acceptCond": [
        {
          "type": "QUEST_COND_UNKNOWN",
          "param": [
            0,
            0
          ]
        }
      ],
      "finishCond": [],
      "failCond": [],
      "guide": {
        "type": "QUEST_GUIDE_NPC",
        "param": [
          "4221"
        ],
        "guideScene": 3,
        "guideStyle": "QUEST_GUIDE_STYLE_TARGET",
        "guideLayer": "QUEST_GUIDE_LAYER_SCENE"
      },
      "finishExec": [],
      "failExec": [],
      "beginExec": []
    },
    {
      "mainId": 73086,
      "subId": 7308612,
      "order": 12,
      "showType": "QUEST_HIDDEN",
      "descTextMapHash": 664616484,
      "acceptCond": [
        {
          "type": "QUEST_COND_UNKNOWN",
          "param": [
            0,
            0
          ]
        }
      ],
      "finishCond": [],
      "failCond": [],
      "guide": {},
      "finishExec": [],
      "failExec": [],
      "beginExec": []
    },
    {
      "mainId": 73086,
      "subId": 7308613,
      "order": 13,
      "showType": "QUEST_HIDDEN",
      "descTextMapHash": 1580846308,
      "acceptCond": [
        {
          "type": "QUEST_COND_UNKNOWN",
          "param": [
            0,
            0
          ]
        }
      ],
      "finishCond": [],
      "failCond": [],
      "guide": {
        "param": [
          "30"
        ],
        "guideScene": 3
      },
      "finishExec": [],
      "failExec": [],
      "beginExec": []
    },
    {
      "mainId": 73086,
      "subId": 7308614,
      "order": 14,
      "showType": "QUEST_HIDDEN",
      "descTextMapHash": 1104256724,
      "acceptCond": [
        {
          "type": "QUEST_COND_UNKNOWN",
          "param": [
            0,
            0
          ]
        }
      ],
      "finishCond": [],
      "failCond": [],
      "guide": {
        "type": "QUEST_GUIDE_NPC",
        "param": [
          "4221"
        ],
        "guideScene": 3,
        "guideStyle": "QUEST_GUIDE_STYLE_TARGET",
        "guideLayer": "QUEST_GUIDE_LAYER_SCENE"
      },
      "finishExec": [],
      "failExec": [],
      "beginExec": []
    },
    {
      "mainId": 73086,
      "subId": 7308615,
      "order": 15,
      "showType": "QUEST_HIDDEN",
      "descTextMapHash": 1210666684,
      "acceptCond": [
        {
          "type": "QUEST_COND_UNKNOWN",
          "param": [
            0,
            0
          ]
        }
      ],
      "finishCond": [],
      "failCond": [],
      "guide": {
        "type": "QUEST_GUIDE_NPC",
        "param": [
          "4221"
        ],
        "guideScene": 3,
        "guideStyle": "QUEST_GUIDE_STYLE_TARGET",
        "guideLayer": "QUEST_GUIDE_LAYER_SCENE"
      },
      "finishExec": [],
      "failExec": [],
      "beginExec": []
    }
  ],
  "talks": [
    {
      "id": 7308601,
      "beginWay": "TALK_BEGIN_MANUAL",
      "activeMode": "PLAY_MODE_HOST",
      "beginCond": [
        {
          "type": "QUEST_COND_STATE_EQUAL",
          "param": [
            "7308601",
            "2"
          ],
          "param_str": ""
        }
      ],
      "priority": 5,
      "nextTalks": [
        7308602,
        7308603
      ],
      "initDialog": 730860101,
      "npcId": [
        4221
      ],
      "performCfg": "",
      "heroTalk": "TALK_HERO_MAIN",
      "questId": 73086,
      "prePerformCfg": ""
    },
    {
      "id": 7308602,
      "activeMode": "PLAY_MODE_HOST",
      "beginCond": [
        {
          "type": "QUEST_COND_STATE_EQUAL",
          "param": [
            "7308601",
            "2"
          ],
          "param_str": ""
        }
      ],
      "priority": 5,
      "initDialog": 730860201,
      "npcId": [
        4221
      ],
      "performCfg": "",
      "heroTalk": "TALK_HERO_MAIN",
      "questId": 73086,
      "prePerformCfg": ""
    },
    {
      "id": 7308603,
      "activeMode": "PLAY_MODE_HOST",
      "beginCond": [
        {
          "type": "QUEST_COND_STATE_EQUAL",
          "param": [
            "7308601",
            "2"
          ],
          "param_str": ""
        }
      ],
      "priority": 5,
      "initDialog": 730860301,
      "npcId": [
        4221
      ],
      "performCfg": "",
      "heroTalk": "TALK_HERO_MAIN",
      "questId": 73086,
      "prePerformCfg": ""
    },
    {
      "id": 7308604,
      "beginWay": "TALK_BEGIN_MANUAL",
      "activeMode": "PLAY_MODE_HOST",
      "beginCond": [
        {
          "type": "QUEST_COND_STATE_EQUAL",
          "param": [
            "7308604",
            "2"
          ],
          "param_str": ""
        }
      ],
      "priority": 5,
      "initDialog": 730860401,
      "npcId": [
        4221
      ],
      "performCfg": "",
      "heroTalk": "TALK_HERO_MAIN",
      "questId": 73086,
      "prePerformCfg": ""
    },
    {
      "id": 7308605,
      "beginWay": "TALK_BEGIN_MANUAL",
      "activeMode": "PLAY_MODE_HOST",
      "beginCond": [
        {
          "type": "QUEST_COND_STATE_EQUAL",
          "param": [
            "7308605",
            "2"
          ],
          "param_str": ""
        }
      ],
      "priority": 5,
      "initDialog": 730860501,
      "npcId": [
        4221
      ],
      "performCfg": "",
      "heroTalk": "TALK_HERO_MAIN",
      "questId": 73086,
      "prePerformCfg": ""
    },
    {
      "id": 7308606,
      "beginWay": "TALK_BEGIN_MANUAL",
      "activeMode": "PLAY_MODE_HOST",
      "beginCond": [
        {
          "type": "QUEST_COND_STATE_EQUAL",
          "param": [
            "7308606",
            "2"
          ],
          "param_str": ""
        }
      ],
      "priority": 5,
      "nextTalks": [
        7308607,
        7308608
      ],
      "initDialog": 730860601,
      "npcId": [
        422101
      ],
      "performCfg": "",
      "heroTalk": "TALK_HERO_MAIN",
      "questId": 73086,
      "prePerformCfg": ""
    },
    {
      "id": 7308607,
      "beginWay": "TALK_BEGIN_MANUAL",
      "activeMode": "PLAY_MODE_HOST",
      "beginCond": [
        {
          "type": "QUEST_COND_STATE_EQUAL",
          "param": [
            "7308606",
            "2"
          ],
          "param_str": ""
        }
      ],
      "priority": 5,
      "initDialog": 730860701,
      "npcId": [
        422101
      ],
      "performCfg": "",
      "heroTalk": "TALK_HERO_MAIN",
      "questId": 73086,
      "prePerformCfg": ""
    },
    {
      "id": 7308608,
      "beginWay": "TALK_BEGIN_MANUAL",
      "activeMode": "PLAY_MODE_HOST",
      "beginCond": [
        {
          "type": "QUEST_COND_STATE_EQUAL",
          "param": [
            "7308606",
            "2"
          ],
          "param_str": ""
        }
      ],
      "priority": 5,
      "initDialog": 730860801,
      "npcId": [
        422101
      ],
      "performCfg": "",
      "heroTalk": "TALK_HERO_MAIN",
      "questId": 73086,
      "prePerformCfg": ""
    },
    {
      "id": 7308609,
      "beginWay": "TALK_BEGIN_MANUAL",
      "activeMode": "PLAY_MODE_HOST",
      "beginCond": [
        {
          "type": "QUEST_COND_STATE_EQUAL",
          "param": [
            "7308609",
            "2"
          ],
          "param_str": ""
        }
      ],
      "priority": 5,
      "initDialog": 730860901,
      "npcId": [
        422101
      ],
      "performCfg": "",
      "heroTalk": "TALK_HERO_MAIN",
      "questId": 73086,
      "prePerformCfg": ""
    },
    {
      "id": 7308610,
      "beginWay": "TALK_BEGIN_MANUAL",
      "activeMode": "PLAY_MODE_HOST",
      "beginCond": [
        {
          "type": "QUEST_COND_STATE_EQUAL",
          "param": [
            "7308610",
            "2"
          ],
          "param_str": ""
        }
      ],
      "priority": 5,
      "initDialog": 730861001,
      "npcId": [
        422101
      ],
      "performCfg": "",
      "heroTalk": "TALK_HERO_MAIN",
      "questId": 73086,
      "prePerformCfg": ""
    },
    {
      "id": 7308611,
      "beginWay": "TALK_BEGIN_MANUAL",
      "activeMode": "PLAY_MODE_HOST",
      "beginCond": [
        {
          "type": "QUEST_COND_STATE_EQUAL",
          "param": [
            "7308611",
            "2"
          ],
          "param_str": ""
        }
      ],
      "priority": 5,
      "nextTalks": [
        7308612,
        7308613
      ],
      "initDialog": 730861101,
      "npcId": [
        422102
      ],
      "performCfg": "",
      "heroTalk": "TALK_HERO_MAIN",
      "questId": 73086,
      "prePerformCfg": ""
    },
    {
      "id": 7308612,
      "beginWay": "TALK_BEGIN_MANUAL",
      "activeMode": "PLAY_MODE_HOST",
      "beginCond": [
        {
          "type": "QUEST_COND_STATE_EQUAL",
          "param": [
            "7308611",
            "2"
          ],
          "param_str": ""
        }
      ],
      "priority": 5,
      "initDialog": 730861201,
      "npcId": [
        422102
      ],
      "performCfg": "",
      "heroTalk": "TALK_HERO_MAIN",
      "questId": 73086,
      "prePerformCfg": ""
    },
    {
      "id": 7308613,
      "beginWay": "TALK_BEGIN_MANUAL",
      "activeMode": "PLAY_MODE_HOST",
      "beginCond": [
        {
          "type": "QUEST_COND_STATE_EQUAL",
          "param": [
            "7308611",
            "2"
          ],
          "param_str": ""
        }
      ],
      "priority": 5,
      "initDialog": 730861301,
      "npcId": [
        422102
      ],
      "performCfg": "",
      "heroTalk": "TALK_HERO_MAIN",
      "questId": 73086,
      "prePerformCfg": ""
    },
    {
      "id": 7308614,
      "beginWay": "TALK_BEGIN_MANUAL",
      "activeMode": "PLAY_MODE_HOST",
      "beginCond": [
        {
          "type": "QUEST_COND_STATE_EQUAL",
          "param": [
            "7308614",
            "2"
          ],
          "param_str": ""
        }
      ],
      "priority": 5,
      "initDialog": 730861401,
      "npcId": [
        422102
      ],
      "performCfg": "",
      "heroTalk": "TALK_HERO_MAIN",
      "questId": 73086,
      "prePerformCfg": ""
    },
    {
      "id": 7308615,
      "beginWay": "TALK_BEGIN_MANUAL",
      "activeMode": "PLAY_MODE_HOST",
      "beginCond": [
        {
          "type": "QUEST_COND_STATE_EQUAL",
          "param": [
            "7308615",
            "2"
          ],
          "param_str": ""
        }
      ],
      "priority": 5,
      "initDialog": 730861501,
      "npcId": [
        422102
      ],
      "performCfg": "",
      "heroTalk": "TALK_HERO_MAIN",
      "questId": 73086,
      "prePerformCfg": ""
    }
  ]
}