{
  "id": 73116,
  "type": "WQ",
  "titleTextMapHash": 2200514895,
  "descTextMapHash": 1827796518,
  "luaPath": "Actor/Quest/WQ73116",
  "showType": "QUEST_HIDDEN",
  "subQuests": [
    {
      "mainId": 73116,
      "subId": 7311601,
      "order": 1,
      "showType": "QUEST_HIDDEN",
      "descTextMapHash": 2726213812,
      "acceptCond": [
        {
          "type": "QUEST_COND_UNKNOWN",
          "param": [
            0,
            0
          ]
        }
      ],
      "finishCond": [],
      "failCond": [],
      "guide": {},
      "finishExec": [],
      "failExec": [],
      "beginExec": []
    },
    {
      "mainId": 73116,
      "subId": 7311602,
      "order": 2,
      "showType": "QUEST_HIDDEN",
      "descTextMapHash": 3402448220,
      "acceptCond": [
        {
          "type": "QUEST_COND_UNKNOWN",
          "param": [
            0,
            0
          ]
        }
      ],
      "finishCond": [],
      "failCond": [],
      "guide": {
        "type": "QUEST_GUIDE_NPC",
        "param": [
          "20757"
        ],
        "guideScene": 3,
        "guideStyle": "QUEST_GUIDE_STYLE_TARGET",
        "guideLayer": "QUEST_GUIDE_LAYER_SCENE"
      },
      "finishExec": [],
      "failExec": [],
      "beginExec": []
    },
    {
      "mainId": 73116,
      "subId": 7311603,
      "order": 3,
      "showType": "QUEST_HIDDEN",
      "descTextMapHash": 243853796,
      "acceptCond": [
        {
          "type": "QUEST_COND_UNKNOWN",
          "param": [
            0,
            0
          ]
        }
      ],
      "finishCond": [],
      "failCond": [],
      "guide": {},
      "finishExec": [],
      "failExec": [],
      "beginExec": []
    },
    {
      "mainId": 73116,
      "subId": 7311604,
      "order": 4,
      "showType": "QUEST_HIDDEN",
      "descTextMapHash": 3766645476,
      "acceptCond": [
        {
          "type": "QUEST_COND_UNKNOWN",
          "param": [
            0,
            0
          ]
        }
      ],
      "finishCond": [],
      "failCond": [],
      "guide": {},
      "finishExec": [],
      "failExec": [],
      "beginExec": []
    },
    {
      "mainId": 73116,
      "subId": 7311605,
      "order": 5,
      "showType": "QUEST_HIDDEN",
      "descTextMapHash": 303436588,
      "acceptCond": [
        {
          "type": "QUEST_COND_UNKNOWN",
          "param": [
            0,
            0
          ]
        }
      ],
      "finishCond": [],
      "failCond": [],
      "guide": {},
      "finishExec": [],
      "failExec": [],
      "beginExec": []
    },
    {
      "mainId": 73116,
      "subId": 7311606,
      "order": 6,
      "showType": "QUEST_HIDDEN",
      "descTextMapHash": 2122536188,
      "acceptCond": [
        {
          "type": "QUEST_COND_UNKNOWN",
          "param": [
            0,
            0
          ]
        }
      ],
      "finishCond": [],
      "failCond": [],
      "guide": {},
      "finishExec": [],
      "failExec": [],
      "beginExec": []
    },
    {
      "mainId": 73116,
      "subId": 7311607,
      "order": 7,
      "showType": "QUEST_HIDDEN",
      "descTextMapHash": 4256618724,
      "acceptCond": [
        {
          "type": "QUEST_COND_UNKNOWN",
          "param": [
            0,
            0
          ]
        }
      ],
      "finishCond": [],
      "failCond": [],
      "guide": {},
      "finishExec": [],
      "failExec": [],
      "beginExec": []
    },
    {
      "mainId": 73116,
      "subId": 7311608,
      "order": 8,
      "showType": "QUEST_HIDDEN",
      "acceptCond": [
        {
          "type": "QUEST_COND_UNKNOWN",
          "param": [
            0,
            0
          ]
        }
      ],
      "finishCond": [],
      "failCond": [],
      "guide": {},
      "finishExec": [],
      "failExec": [],
      "beginExec": []
    }
  ],
  "talks": [
    {
      "id": 7311602,
      "beginWay": "TALK_BEGIN_MANUAL",
      "activeMode": "PLAY_MODE_HOST",
      "beginCond": [
        {
          "type": "QUEST_COND_STATE_EQUAL",
          "param": [
            "7311602",
            "2"
          ],
          "param_str": ""
        }
      ],
      "priority": 5,
      "initDialog": 731160201,
      "npcId": [
        20757
      ],
      "performCfg": "",
      "questId": 73116,
      "prePerformCfg": ""
    }
  ]
}