{
  "id": 73114,
  "type": "WQ",
  "titleTextMapHash": 2836286071,
  "descTextMapHash": 2313762046,
  "luaPath": "Actor/Quest/WQ73114",
  "showType": "QUEST_HIDDEN",
  "subQuests": [
    {
      "mainId": 73114,
      "subId": 7311401,
      "order": 1,
      "showType": "QUEST_HIDDEN",
      "descTextMapHash": 10909644,
      "acceptCond": [
        {
          "type": "QUEST_COND_UNKNOWN",
          "param": [
            0,
            0
          ]
        }
      ],
      "finishCond": [],
      "failCond": [],
      "guide": {},
      "finishExec": [],
      "failExec": [],
      "beginExec": []
    },
    {
      "mainId": 73114,
      "subId": 7311402,
      "order": 2,
      "showType": "QUEST_HIDDEN",
      "descTextMapHash": 2337360852,
      "acceptCond": [
        {
          "type": "QUEST_COND_UNKNOWN",
          "param": [
            0,
            0
          ]
        }
      ],
      "finishCond": [],
      "failCond": [],
      "guide": {
        "type": "QUEST_GUIDE_NPC",
        "param": [
          "20755"
        ],
        "guideScene": 3,
        "guideStyle": "QUEST_GUIDE_STYLE_TARGET",
        "guideLayer": "QUEST_GUIDE_LAYER_SCENE"
      },
      "finishExec": [],
      "failExec": [],
      "beginExec": []
    },
    {
      "mainId": 73114,
      "subId": 7311403,
      "order": 3,
      "showType": "QUEST_HIDDEN",
      "descTextMapHash": 2465315204,
      "acceptCond": [
        {
          "type": "QUEST_COND_UNKNOWN",
          "param": [
            0,
            0
          ]
        }
      ],
      "finishCond": [],
      "failCond": [],
      "guide": {},
      "finishExec": [],
      "failExec": [],
      "beginExec": []
    },
    {
      "mainId": 73114,
      "subId": 7311404,
      "order": 4,
      "showType": "QUEST_HIDDEN",
      "descTextMapHash": 41230964,
      "acceptCond": [
        {
          "type": "QUEST_COND_UNKNOWN",
          "param": [
            0,
            0
          ]
        }
      ],
      "finishCond": [],
      "failCond": [],
      "guide": {},
      "finishExec": [],
      "failExec": [],
      "beginExec": []
    },
    {
      "mainId": 73114,
      "subId": 7311405,
      "order": 5,
      "showType": "QUEST_HIDDEN",
      "descTextMapHash": 3891403532,
      "acceptCond": [
        {
          "type": "QUEST_COND_UNKNOWN",
          "param": [
            0,
            0
          ]
        }
      ],
      "finishCond": [],
      "failCond": [],
      "guide": {},
      "finishExec": [],
      "failExec": [],
      "beginExec": []
    },
    {
      "mainId": 73114,
      "subId": 7311406,
      "order": 6,
      "showType": "QUEST_HIDDEN",
      "descTextMapHash": 1398177452,
      "acceptCond": [
        {
          "type": "QUEST_COND_UNKNOWN",
          "param": [
            0,
            0
          ]
        }
      ],
      "finishCond": [],
      "failCond": [],
      "guide": {},
      "finishExec": [],
      "failExec": [],
      "beginExec": []
    },
    {
      "mainId": 73114,
      "subId": 7311407,
      "order": 7,
      "showType": "QUEST_HIDDEN",
      "descTextMapHash": 3690620916,
      "acceptCond": [
        {
          "type": "QUEST_COND_UNKNOWN",
          "param": [
            0,
            0
          ]
        }
      ],
      "finishCond": [],
      "failCond": [],
      "guide": {},
      "finishExec": [],
      "failExec": [],
      "beginExec": []
    },
    {
      "mainId": 73114,
      "subId": 7311408,
      "order": 8,
      "showType": "QUEST_HIDDEN",
      "acceptCond": [
        {
          "type": "QUEST_COND_UNKNOWN",
          "param": [
            0,
            0
          ]
        }
      ],
      "finishCond": [],
      "failCond": [],
      "guide": {},
      "finishExec": [],
      "failExec": [],
      "beginExec": []
    }
  ],
  "talks": [
    {
      "id": 7311402,
      "beginWay": "TALK_BEGIN_MANUAL",
      "activeMode": "PLAY_MODE_HOST",
      "beginCond": [
        {
          "type": "QUEST_COND_STATE_EQUAL",
          "param": [
            "7311402",
            "2"
          ],
          "param_str": ""
        }
      ],
      "priority": 5,
      "initDialog": 731140201,
      "npcId": [
        20755
      ],
      "performCfg": "",
      "questId": 73114,
      "prePerformCfg": ""
    }
  ]
}