{
  "id": 73150,
  "type": "WQ",
  "titleTextMapHash": 172435807,
  "descTextMapHash": 248143382,
  "luaPath": "Actor/Quest/WQ73150",
  "showType": "QUEST_HIDDEN",
  "subQuests": [
    {
      "mainId": 73150,
      "subId": 7315001,
      "order": 1,
      "showType": "QUEST_HIDDEN",
      "descTextMapHash": 1682355628,
      "acceptCond": [
        {
          "type": "QUEST_COND_UNKNOWN",
          "param": [
            0,
            0
          ]
        }
      ],
      "finishCond": [],
      "failCond": [],
      "guide": {},
      "finishExec": [],
      "failExec": [],
      "beginExec": []
    },
    {
      "mainId": 73150,
      "subId": 7315002,
      "order": 2,
      "showType": "QUEST_HIDDEN",
      "descTextMapHash": 1395171756,
      "acceptCond": [
        {
          "type": "QUEST_COND_UNKNOWN",
          "param": [
            0,
            0
          ]
        }
      ],
      "finishCond": [],
      "failCond": [],
      "guide": {},
      "finishExec": [],
      "failExec": [],
      "beginExec": []
    }
  ]
}