{
  "id": 73182,
  "type": "WQ",
  "titleTextMapHash": 390855807,
  "descTextMapHash": 2821076502,
  "luaPath": "Actor/Quest/WQ73182",
  "showType": "QUEST_HIDDEN",
  "rewardIdList": [
    210013
  ],
  "subQuests": [
    {
      "mainId": 73182,
      "subId": 7318201,
      "order": 1,
      "showType": "QUEST_HIDDEN",
      "acceptCond": [
        {
          "type": "QUEST_COND_UNKNOWN",
          "param": [
            0,
            0
          ]
        }
      ],
      "finishCond": [],
      "failCond": [],
      "guide": {},
      "finishExec": [],
      "failExec": [],
      "beginExec": []
    },
    {
      "mainId": 73182,
      "subId": 7318202,
      "order": 2,
      "showType": "QUEST_HIDDEN",
      "acceptCond": [
        {
          "type": "QUEST_COND_UNKNOWN",
          "param": [
            0,
            0
          ]
        }
      ],
      "finishCond": [],
      "failCond": [],
      "guide": {},
      "finishExec": [],
      "failExec": [],
      "beginExec": []
    },
    {
      "mainId": 73182,
      "subId": 7318203,
      "order": 3,
      "showType": "QUEST_HIDDEN",
      "acceptCond": [
        {
          "type": "QUEST_COND_UNKNOWN",
          "param": [
            0,
            0
          ]
        }
      ],
      "finishCond": [],
      "failCond": [],
      "guide": {},
      "finishExec": [],
      "failExec": [],
      "beginExec": []
    }
  ],
  "talks": [
    {
      "id": 7318201,
      "beginWay": "TALK_BEGIN_MANUAL",
      "beginCond": [
        {
          "type": "QUEST_COND_STATE_EQUAL",
          "param": [
            "7318202",
            "3"
          ],
          "param_str": ""
        }
      ],
      "priority": 5,
      "initDialog": 731820101,
      "npcId": [
        20809
      ],
      "performCfg": "",
      "heroTalk": "TALK_HERO_MAIN",
      "questId": 73182,
      "prePerformCfg": ""
    }
  ]
}