{
  "id": 73208,
  "type": "WQ",
  "titleTextMapHash": 2817942215,
  "descTextMapHash": 4046262670,
  "luaPath": "Actor/Quest/WQ73208",
  "showType": "QUEST_HIDDEN",
  "subQuests": [
    {
      "mainId": 73208,
      "subId": 7320801,
      "order": 1,
      "showType": "QUEST_HIDDEN",
      "acceptCond": [
        {
          "type": "QUEST_COND_UNKNOWN",
          "param": [
            0,
            0
          ]
        }
      ],
      "finishCond": [],
      "failCond": [],
      "guide": {},
      "finishExec": [],
      "failExec": [],
      "beginExec": []
    },
    {
      "mainId": 73208,
      "subId": 7320802,
      "order": 2,
      "showType": "QUEST_HIDDEN",
      "acceptCond": [
        {
          "type": "QUEST_COND_UNKNOWN",
          "param": [
            0,
            0
          ]
        }
      ],
      "finishCond": [],
      "failCond": [],
      "guide": {},
      "finishExec": [],
      "failExec": [],
      "beginExec": []
    },
    {
      "mainId": 73208,
      "subId": 7320803,
      "order": 3,
      "showType": "QUEST_HIDDEN",
      "acceptCond": [
        {
          "type": "QUEST_COND_UNKNOWN",
          "param": [
            0,
            0
          ]
        }
      ],
      "finishCond": [],
      "failCond": [],
      "guide": {},
      "finishExec": [],
      "failExec": [],
      "beginExec": []
    },
    {
      "mainId": 73208,
      "subId": 7320804,
      "order": 4,
      "showType": "QUEST_HIDDEN",
      "acceptCond": [
        {
          "type": "QUEST_COND_UNKNOWN",
          "param": [
            0,
            0
          ]
        }
      ],
      "finishCond": [],
      "failCond": [],
      "guide": {},
      "finishExec": [],
      "failExec": [],
      "beginExec": []
    },
    {
      "mainId": 73208,
      "subId": 7320805,
      "order": 5,
      "showType": "QUEST_HIDDEN",
      "acceptCond": [
        {
          "type": "QUEST_COND_UNKNOWN",
          "param": [
            0,
            0
          ]
        }
      ],
      "finishCond": [],
      "failCond": [],
      "guide": {},
      "finishExec": [],
      "failExec": [],
      "beginExec": []
    },
    {
      "mainId": 73208,
      "subId": 7320806,
      "order": 6,
      "showType": "QUEST_HIDDEN",
      "acceptCond": [
        {
          "type": "QUEST_COND_UNKNOWN",
          "param": [
            0,
            0
          ]
        }
      ],
      "finishCond": [],
      "failCond": [],
      "guide": {},
      "finishExec": [],
      "failExec": [],
      "beginExec": []
    }
  ]
}