{
  "id": 73202,
  "type": "WQ",
  "titleTextMapHash": 2329814959,
  "descTextMapHash": 1805364566,
  "luaPath": "Actor/Quest/WQ73202",
  "showType": "QUEST_HIDDEN",
  "subQuests": [
    {
      "mainId": 73202,
      "subId": 7320201,
      "order": 1,
      "showType": "QUEST_HIDDEN",
      "acceptCond": [
        {
          "type": "QUEST_COND_UNKNOWN",
          "param": [
            0,
            0
          ]
        }
      ],
      "finishCond": [],
      "failCond": [],
      "guide": {},
      "finishExec": [],
      "failExec": [],
      "beginExec": []
    }
  ],
  "talks": [
    {
      "id": 7320201,
      "beginWay": "TALK_BEGIN_MANUAL",
      "activeMode": "PLAY_MODE_SINGLE",
      "beginCond": [
        {
          "type": "QUEST_COND_STATE_EQUAL",
          "param": [
            "7320201",
            "2"
          ],
          "param_str": ""
        }
      ],
      "priority": 3,
      "initDialog": 732020101,
      "npcId": [
        12745
      ],
      "performCfg": "",
      "questId": 73202,
      "prePerformCfg": ""
    }
  ]
}