{
  "id": 73211,
  "type": "WQ",
  "titleTextMapHash": 1401357231,
  "descTextMapHash": 145106166,
  "luaPath": "Actor/Quest/WQ73211",
  "showType": "QUEST_HIDDEN",
  "subQuests": [
    {
      "mainId": 73211,
      "subId": 7321101,
      "order": 1,
      "showType": "QUEST_HIDDEN",
      "descTextMapHash": 3439751020,
      "acceptCond": [
        {
          "type": "QUEST_COND_UNKNOWN",
          "param": [
            0,
            0
          ]
        }
      ],
      "finishCond": [],
      "failCond": [],
      "guide": {},
      "finishExec": [],
      "failExec": [],
      "beginExec": []
    },
    {
      "mainId": 73211,
      "subId": 7321102,
      "order": 2,
      "showType": "QUEST_HIDDEN",
      "descTextMapHash": 3283768980,
      "acceptCond": [
        {
          "type": "QUEST_COND_UNKNOWN",
          "param": [
            0,
            0
          ]
        }
      ],
      "finishCond": [],
      "failCond": [],
      "guide": {
        "param": [
          "10"
        ],
        "guideScene": 3
      },
      "finishExec": [],
      "failExec": [],
      "beginExec": []
    },
    {
      "mainId": 73211,
      "subId": 7321103,
      "order": 3,
      "showType": "QUEST_HIDDEN",
      "descTextMapHash": 1340172596,
      "acceptCond": [
        {
          "type": "QUEST_COND_UNKNOWN",
          "param": [
            0,
            0
          ]
        }
      ],
      "finishCond": [],
      "failCond": [],
      "guide": {},
      "finishExec": [],
      "failExec": [],
      "beginExec": []
    },
    {
      "mainId": 73211,
      "subId": 7321104,
      "order": 4,
      "showType": "QUEST_HIDDEN",
      "descTextMapHash": 1880630388,
      "acceptCond": [
        {
          "type": "QUEST_COND_UNKNOWN",
          "param": [
            0,
            0
          ]
        }
      ],
      "finishCond": [],
      "failCond": [],
      "guide": {
        "param": [
          "20"
        ],
        "guideScene": 3
      },
      "finishExec": [],
      "failExec": [],
      "beginExec": []
    },
    {
      "mainId": 73211,
      "subId": 7321105,
      "order": 5,
      "showType": "QUEST_HIDDEN",
      "descTextMapHash": 422720164,
      "acceptCond": [
        {
          "type": "QUEST_COND_UNKNOWN",
          "param": [
            0,
            0
          ]
        }
      ],
      "finishCond": [],
      "failCond": [],
      "guide": {},
      "finishExec": [],
      "failExec": [],
      "beginExec": []
    },
    {
      "mainId": 73211,
      "subId": 7321106,
      "order": 6,
      "showType": "QUEST_HIDDEN",
      "descTextMapHash": 1544580836,
      "acceptCond": [
        {
          "type": "QUEST_COND_UNKNOWN",
          "param": [
            0,
            0
          ]
        }
      ],
      "finishCond": [],
      "failCond": [],
      "guide": {
        "param": [
          "20"
        ],
        "guideScene": 3
      },
      "finishExec": [],
      "failExec": [],
      "beginExec": []
    },
    {
      "mainId": 73211,
      "subId": 7321107,
      "order": 7,
      "showType": "QUEST_HIDDEN",
      "descTextMapHash": 1264422188,
      "acceptCond": [
        {
          "type": "QUEST_COND_UNKNOWN",
          "param": [
            0,
            0
          ]
        }
      ],
      "finishCond": [],
      "failCond": [],
      "guide": {},
      "finishExec": [],
      "failExec": [],
      "beginExec": []
    },
    {
      "mainId": 73211,
      "subId": 7321108,
      "order": 8,
      "showType": "QUEST_HIDDEN",
      "descTextMapHash": 1240373996,
      "acceptCond": [
        {
          "type": "QUEST_COND_UNKNOWN",
          "param": [
            0,
            0
          ]
        }
      ],
      "finishCond": [],
      "failCond": [],
      "guide": {
        "param": [
          "10"
        ],
        "guideScene": 3
      },
      "finishExec": [],
      "failExec": [],
      "beginExec": []
    },
    {
      "mainId": 73211,
      "subId": 7321109,
      "order": 9,
      "showType": "QUEST_HIDDEN",
      "descTextMapHash": 813018308,
      "acceptCond": [
        {
          "type": "QUEST_COND_UNKNOWN",
          "param": [
            0,
            0
          ]
        }
      ],
      "finishCond": [],
      "failCond": [],
      "guide": {},
      "finishExec": [],
      "failExec": [],
      "beginExec": []
    },
    {
      "mainId": 73211,
      "subId": 7321110,
      "order": 10,
      "showType": "QUEST_HIDDEN",
      "descTextMapHash": 3514124092,
      "acceptCond": [
        {
          "type": "QUEST_COND_UNKNOWN",
          "param": [
            0,
            0
          ]
        }
      ],
      "finishCond": [],
      "failCond": [],
      "guide": {
        "type": "QUEST_GUIDE_NPC",
        "param": [
          "1005"
        ],
        "guideScene": 3,
        "guideStyle": "QUEST_GUIDE_STYLE_TARGET",
        "guideLayer": "QUEST_GUIDE_LAYER_SCENE"
      },
      "finishExec": [],
      "failExec": [],
      "beginExec": []
    }
  ],
  "talks": [
    {
      "id": 7321111,
      "beginWay": "TALK_BEGIN_MANUAL",
      "activeMode": "PLAY_MODE_HOST",
      "beginCond": [
        {
          "type": "QUEST_COND_STATE_EQUAL",
          "param": [
            "7321102",
            "2"
          ],
          "param_str": ""
        }
      ],
      "priority": 5,
      "npcId": [
        20886
      ],
      "performCfg": "QuestDialogue/WQ/Sumeru_73211/Q7321111",
      "questId": 73211,
      "prePerformCfg": ""
    }
  ]
}