{
  "id": 73235,
  "type": "WQ",
  "titleTextMapHash": 2326106863,
  "descTextMapHash": 1394920062,
  "luaPath": "Actor/Quest/WQ73235",
  "suggestTrackMainQuestList": [
    73231,
    73251
  ],
  "rewardIdList": [
    173235
  ],
  "chapterId": 10121,
  "subQuests": [
    {
      "mainId": 73235,
      "subId": 7323501,
      "order": 5,
      "descTextMapHash": 1763275708,
      "acceptCond": [
        {
          "type": "QUEST_COND_UNKNOWN",
          "param": [
            0,
            0
          ]
        }
      ],
      "finishCond": [],
      "failCond": [],
      "guide": {
        "type": "QUEST_GUIDE_LOCATION",
        "param": [
          "guide_Q7323502",
          "20"
        ],
        "guideScene": 3,
        "guideStyle": "QUEST_GUIDE_STYLE_POINT",
        "guideLayer": "QUEST_GUIDE_LAYER_UI"
      },
      "finishExec": [],
      "failExec": [],
      "beginExec": []
    },
    {
      "mainId": 73235,
      "subId": 7323502,
      "order": 6,
      "descTextMapHash": 2581930644,
      "acceptCond": [
        {
          "type": "QUEST_COND_UNKNOWN",
          "param": [
            0,
            0
          ]
        }
      ],
      "finishCond": [],
      "failCond": [],
      "guide": {
        "type": "QUEST_GUIDE_LOCATION",
        "param": [
          "guide_Q7323504",
          "20"
        ],
        "guideScene": 3,
        "guideStyle": "QUEST_GUIDE_STYLE_TARGET",
        "guideLayer": "QUEST_GUIDE_LAYER_UI"
      },
      "finishExec": [],
      "failExec": [],
      "beginExec": []
    },
    {
      "mainId": 73235,
      "subId": 7323503,
      "order": 8,
      "descTextMapHash": 3212179684,
      "acceptCond": [
        {
          "type": "QUEST_COND_UNKNOWN",
          "param": [
            0,
            0
          ]
        }
      ],
      "finishCond": [],
      "failCond": [],
      "guide": {
        "type": "QUEST_GUIDE_LOCATION",
        "param": [
          "Q7323503_guide",
          "25"
        ],
        "guideScene": 3,
        "guideStyle": "QUEST_GUIDE_STYLE_POINT",
        "guideLayer": "QUEST_GUIDE_LAYER_UI"
      },
      "finishExec": [],
      "failExec": [],
      "beginExec": []
    },
    {
      "mainId": 73235,
      "subId": 7323504,
      "order": 7,
      "descTextMapHash": 3689783564,
      "acceptCond": [
        {
          "type": "QUEST_COND_UNKNOWN",
          "param": [
            0,
            0
          ]
        }
      ],
      "finishCond": [],
      "failCond": [],
      "guide": {
        "type": "QUEST_GUIDE_LOCATION",
        "param": [
          "guide_Q7323504",
          "20"
        ],
        "guideScene": 3,
        "guideStyle": "QUEST_GUIDE_STYLE_TARGET",
        "guideLayer": "QUEST_GUIDE_LAYER_UI"
      },
      "finishExec": [],
      "failExec": [],
      "beginExec": []
    },
    {
      "mainId": 73235,
      "subId": 7323505,
      "order": 11,
      "descTextMapHash": 3690341476,
      "acceptCond": [
        {
          "type": "QUEST_COND_UNKNOWN",
          "param": [
            0,
            0
          ]
        }
      ],
      "finishCond": [],
      "failCond": [],
      "guide": {
        "type": "QUEST_GUIDE_LOCATION",
        "param": [
          "guide_Q7323505",
          "60"
        ],
        "guideScene": 3,
        "guideStyle": "QUEST_GUIDE_STYLE_TARGET",
        "guideLayer": "QUEST_GUIDE_LAYER_UI"
      },
      "finishExec": [],
      "failExec": [],
      "beginExec": []
    },
    {
      "mainId": 73235,
      "subId": 7323506,
      "order": 14,
      "descTextMapHash": 1449882628,
      "acceptCond": [
        {
          "type": "QUEST_COND_UNKNOWN",
          "param": [
            0,
            0
          ]
        }
      ],
      "finishCond": [],
      "failCond": [],
      "guide": {
        "type": "QUEST_GUIDE_NPC",
        "param": [
          "4283"
        ],
        "guideScene": 3,
        "guideStyle": "QUEST_GUIDE_STYLE_TARGET",
        "guideLayer": "QUEST_GUIDE_LAYER_UI"
      },
      "finishExec": [],
      "failExec": [],
      "beginExec": []
    },
    {
      "mainId": 73235,
      "subId": 7323507,
      "order": 12,
      "showType": "QUEST_HIDDEN",
      "descTextMapHash": 3257334380,
      "acceptCond": [
        {
          "type": "QUEST_COND_UNKNOWN",
          "param": [
            0,
            0
          ]
        }
      ],
      "finishCond": [],
      "failCond": [],
      "guide": {
        "param": [
          "30"
        ],
        "guideScene": 3
      },
      "finishExec": [],
      "failExec": [],
      "beginExec": []
    },
    {
      "mainId": 73235,
      "subId": 7323508,
      "order": 9,
      "descTextMapHash": 11118172,
      "acceptCond": [
        {
          "type": "QUEST_COND_UNKNOWN",
          "param": [
            0,
            0
          ]
        }
      ],
      "finishCond": [],
      "failCond": [],
      "guide": {
        "type": "QUEST_GUIDE_NPC",
        "param": [
          "4283"
        ],
        "guideScene": 3,
        "guideStyle": "QUEST_GUIDE_STYLE_TARGET",
        "guideLayer": "QUEST_GUIDE_LAYER_UI"
      },
      "finishExec": [],
      "failExec": [],
      "beginExec": []
    },
    {
      "mainId": 73235,
      "subId": 7323509,
      "order": 59,
      "showType": "QUEST_HIDDEN",
      "descTextMapHash": 1760272964,
      "acceptCond": [
        {
          "type": "QUEST_COND_UNKNOWN",
          "param": [
            0,
            0
          ]
        }
      ],
      "finishCond": [],
      "failCond": [],
      "guide": {
        "guideScene": 3
      },
      "finishExec": [],
      "failExec": [],
      "beginExec": []
    },
    {
      "mainId": 73235,
      "subId": 7323510,
      "order": 27,
      "descTextMapHash": 3485665452,
      "acceptCond": [
        {
          "type": "QUEST_COND_UNKNOWN",
          "param": [
            0,
            0
          ]
        }
      ],
      "finishCond": [],
      "failCond": [],
      "guide": {
        "type": "QUEST_GUIDE_LOCATION",
        "param": [
          "Q7323510_guide"
        ],
        "guideScene": 3,
        "guideStyle": "QUEST_GUIDE_STYLE_POINT",
        "guideLayer": "QUEST_GUIDE_LAYER_UI"
      },
      "finishExec": [],
      "failExec": [],
      "beginExec": []
    },
    {
      "mainId": 73235,
      "subId": 7323511,
      "order": 30,
      "showType": "QUEST_HIDDEN",
      "descTextMapHash": 2525467764,
      "acceptCond": [
        {
          "type": "QUEST_COND_UNKNOWN",
          "param": [
            0,
            0
          ]
        }
      ],
      "finishCond": [],
      "failCond": [],
      "guide": {
        "guideScene": 3
      },
      "finishExec": [],
      "failExec": [],
      "beginExec": []
    },
    {
      "mainId": 73235,
      "subId": 7323512,
      "order": 13,
      "showType": "QUEST_HIDDEN",
      "descTextMapHash": 2912282100,
      "acceptCond": [
        {
          "type": "QUEST_COND_UNKNOWN",
          "param": [
            0,
            0
          ]
        }
      ],
      "finishCond": [],
      "failCond": [],
      "guide": {
        "guideScene": 3
      },
      "finishExec": [],
      "failExec": [],
      "beginExec": []
    },
    {
      "mainId": 73235,
      "subId": 7323513,
      "order": 1,
      "showType": "QUEST_HIDDEN",
      "descTextMapHash": 3460345636,
      "acceptCond": [
        {
          "type": "QUEST_COND_UNKNOWN",
          "param": [
            0,
            0
          ]
        }
      ],
      "finishCond": [],
      "failCond": [],
      "guide": {
        "guideScene": 3
      },
      "finishExec": [],
      "failExec": [],
      "beginExec": []
    },
    {
      "mainId": 73235,
      "subId": 7323514,
      "order": 2,
      "showType": "QUEST_HIDDEN",
      "descTextMapHash": 1541117124,
      "acceptCond": [
        {
          "type": "QUEST_COND_UNKNOWN",
          "param": [
            0,
            0
          ]
        }
      ],
      "finishCond": [],
      "failCond": [],
      "guide": {
        "guideScene": 3
      },
      "finishExec": [],
      "failExec": [],
      "beginExec": []
    },
    {
      "mainId": 73235,
      "subId": 7323515,
      "order": 3,
      "showType": "QUEST_HIDDEN",
      "descTextMapHash": 1823603300,
      "acceptCond": [
        {
          "type": "QUEST_COND_UNKNOWN",
          "param": [
            0,
            0
          ]
        }
      ],
      "finishCond": [],
      "failCond": [],
      "guide": {
        "param": [
          "30"
        ],
        "guideScene": 3
      },
      "finishExec": [],
      "failExec": [],
      "beginExec": []
    },
    {
      "mainId": 73235,
      "subId": 7323516,
      "order": 32,
      "descTextMapHash": 4206349892,
      "acceptCond": [
        {
          "type": "QUEST_COND_UNKNOWN",
          "param": [
            0,
            0
          ]
        }
      ],
      "finishCond": [],
      "failCond": [],
      "guide": {
        "type": "QUEST_GUIDE_LOCATION",
        "param": [
          "guide_Q7323504",
          "30"
        ],
        "guideScene": 3,
        "guideStyle": "QUEST_GUIDE_STYLE_POINT",
        "guideLayer": "QUEST_GUIDE_LAYER_UI"
      },
      "finishExec": [],
      "failExec": [],
      "beginExec": []
    },
    {
      "mainId": 73235,
      "subId": 7323517,
      "order": 33,
      "descTextMapHash": 1644258868,
      "acceptCond": [
        {
          "type": "QUEST_COND_UNKNOWN",
          "param": [
            0,
            0
          ]
        }
      ],
      "finishCond": [],
      "failCond": [],
      "guide": {
        "type": "QUEST_GUIDE_NPC",
        "param": [
          "4283"
        ],
        "guideScene": 3,
        "guideStyle": "QUEST_GUIDE_STYLE_TARGET",
        "guideLayer": "QUEST_GUIDE_LAYER_UI"
      },
      "finishExec": [],
      "failExec": [],
      "beginExec": []
    },
    {
      "mainId": 73235,
      "subId": 7323518,
      "order": 44,
      "showType": "QUEST_HIDDEN",
      "descTextMapHash": 1688950332,
      "acceptCond": [
        {
          "type": "QUEST_COND_UNKNOWN",
          "param": [
            0,
            0
          ]
        }
      ],
      "finishCond": [],
      "failCond": [],
      "guide": {
        "type": "QUEST_GUIDE_LOCATION",
        "param": [
          "guide_Q7323518",
          "30"
        ],
        "guideScene": 3,
        "guideStyle": "QUEST_GUIDE_STYLE_TARGET",
        "guideLayer": "QUEST_GUIDE_LAYER_SCENE"
      },
      "finishExec": [],
      "failExec": [],
      "beginExec": []
    },
    {
      "mainId": 73235,
      "subId": 7323519,
      "order": 28,
      "descTextMapHash": 3232734092,
      "acceptCond": [
        {
          "type": "QUEST_COND_UNKNOWN",
          "param": [
            0,
            0
          ]
        }
      ],
      "finishCond": [],
      "failCond": [],
      "guide": {
        "type": "QUEST_GUIDE_LOCATION",
        "param": [
          "Q7323519_guide"
        ],
        "guideScene": 3,
        "guideStyle": "QUEST_GUIDE_STYLE_POINT",
        "guideLayer": "QUEST_GUIDE_LAYER_UI",
        "HAKCBAEEHGD": 301,
        "LHEFHHHJNAJ": 3010004
      },
      "finishExec": [],
      "failExec": [],
      "beginExec": []
    },
    {
      "mainId": 73235,
      "subId": 7323520,
      "order": 56,
      "showType": "QUEST_HIDDEN",
      "descTextMapHash": 1652353716,
      "acceptCond": [
        {
          "type": "QUEST_COND_UNKNOWN",
          "param": [
            0,
            0
          ]
        }
      ],
      "finishCond": [],
      "failCond": [],
      "guide": {},
      "finishExec": [],
      "failExec": [],
      "beginExec": []
    },
    {
      "mainId": 73235,
      "subId": 7323521,
      "order": 58,
      "descTextMapHash": 1682716244,
      "acceptCond": [
        {
          "type": "QUEST_COND_UNKNOWN",
          "param": [
            0,
            0
          ]
        }
      ],
      "finishCond": [],
      "failCond": [],
      "guide": {
        "type": "QUEST_GUIDE_NPC",
        "param": [
          "20892"
        ],
        "guideScene": 3,
        "guideStyle": "QUEST_GUIDE_STYLE_TARGET",
        "guideLayer": "QUEST_GUIDE_LAYER_SCENE"
      },
      "finishExec": [],
      "failExec": [],
      "beginExec": []
    },
    {
      "mainId": 73235,
      "subId": 7323522,
      "order": 29,
      "descTextMapHash": 4044306972,
      "acceptCond": [
        {
          "type": "QUEST_COND_UNKNOWN",
          "param": [
            0,
            0
          ]
        }
      ],
      "finishCond": [],
      "failCond": [],
      "guide": {
        "type": "QUEST_GUIDE_LOCATION",
        "param": [
          "Q7323522_guide"
        ],
        "guideScene": 3,
        "guideStyle": "QUEST_GUIDE_STYLE_POINT",
        "guideLayer": "QUEST_GUIDE_LAYER_UI",
        "HAKCBAEEHGD": 401,
        "LHEFHHHJNAJ": 4010008
      },
      "finishExec": [],
      "failExec": [],
      "beginExec": []
    },
    {
      "mainId": 73235,
      "subId": 7323523,
      "order": 39,
      "descTextMapHash": 2865218828,
      "acceptCond": [
        {
          "type": "QUEST_COND_UNKNOWN",
          "param": [
            0,
            0
          ]
        }
      ],
      "finishCond": [],
      "failCond": [],
      "guide": {
        "type": "QUEST_GUIDE_LOCATION",
        "param": [
          "Q7323523_guide"
        ],
        "guideScene": 3,
        "guideStyle": "QUEST_GUIDE_STYLE_POINT",
        "guideLayer": "QUEST_GUIDE_LAYER_UI"
      },
      "finishExec": [],
      "failExec": [],
      "beginExec": []
    },
    {
      "mainId": 73235,
      "subId": 7323524,
      "order": 40,
      "descTextMapHash": 2821026700,
      "acceptCond": [
        {
          "type": "QUEST_COND_UNKNOWN",
          "param": [
            0,
            0
          ]
        }
      ],
      "finishCond": [],
      "failCond": [],
      "guide": {
        "type": "QUEST_GUIDE_LOCATION",
        "param": [
          "Q7323524_guide"
        ],
        "guideScene": 3,
        "guideStyle": "QUEST_GUIDE_STYLE_POINT",
        "guideLayer": "QUEST_GUIDE_LAYER_UI"
      },
      "finishExec": [],
      "failExec": [],
      "beginExec": []
    },
    {
      "mainId": 73235,
      "subId": 7323525,
      "order": 41,
      "descTextMapHash": 4190868436,
      "acceptCond": [
        {
          "type": "QUEST_COND_UNKNOWN",
          "param": [
            0,
            0
          ]
        }
      ],
      "finishCond": [],
      "failCond": [],
      "guide": {
        "type": "QUEST_GUIDE_LOCATION",
        "param": [
          "Q7323525_guide"
        ],
        "guideScene": 3,
        "guideStyle": "QUEST_GUIDE_STYLE_POINT",
        "guideLayer": "QUEST_GUIDE_LAYER_UI"
      },
      "finishExec": [],
      "failExec": [],
      "beginExec": []
    },
    {
      "mainId": 73235,
      "subId": 7323526,
      "order": 42,
      "descTextMapHash": 3611914092,
      "acceptCond": [
        {
          "type": "QUEST_COND_UNKNOWN",
          "param": [
            0,
            0
          ]
        }
      ],
      "finishCond": [],
      "failCond": [],
      "guide": {
        "type": "QUEST_GUIDE_LOCATION",
        "param": [
          "Q7323526_guide"
        ],
        "guideScene": 3,
        "guideStyle": "QUEST_GUIDE_STYLE_POINT",
        "guideLayer": "QUEST_GUIDE_LAYER_UI"
      },
      "finishExec": [],
      "failExec": [],
      "beginExec": []
    },
    {
      "mainId": 73235,
      "subId": 7323527,
      "order": 43,
      "descTextMapHash": 3765378012,
      "acceptCond": [
        {
          "type": "QUEST_COND_UNKNOWN",
          "param": [
            0,
            0
          ]
        }
      ],
      "finishCond": [],
      "failCond": [],
      "guide": {
        "type": "QUEST_GUIDE_LOCATION",
        "param": [
          "Q7323527_guide"
        ],
        "guideScene": 3,
        "guideStyle": "QUEST_GUIDE_STYLE_POINT",
        "guideLayer": "QUEST_GUIDE_LAYER_UI"
      },
      "finishExec": [],
      "failExec": [],
      "beginExec": []
    },
    {
      "mainId": 73235,
      "subId": 7323528,
      "order": 57,
      "showType": "QUEST_HIDDEN",
      "descTextMapHash": 1242840204,
      "acceptCond": [
        {
          "type": "QUEST_COND_UNKNOWN",
          "param": [
            0,
            0
          ]
        }
      ],
      "finishCond": [],
      "failCond": [],
      "guide": {},
      "finishExec": [],
      "failExec": [],
      "beginExec": []
    },
    {
      "mainId": 73235,
      "subId": 7323529,
      "order": 38,
      "showType": "QUEST_HIDDEN",
      "descTextMapHash": 3295379076,
      "acceptCond": [
        {
          "type": "QUEST_COND_UNKNOWN",
          "param": [
            0,
            0
          ]
        }
      ],
      "finishCond": [],
      "failCond": [],
      "guide": {},
      "finishExec": [],
      "failExec": [],
      "beginExec": []
    },
    {
      "mainId": 73235,
      "subId": 7323530,
      "order": 37,
      "showType": "QUEST_HIDDEN",
      "descTextMapHash": 3879177108,
      "acceptCond": [
        {
          "type": "QUEST_COND_UNKNOWN",
          "param": [
            0,
            0
          ]
        }
      ],
      "finishCond": [],
      "failCond": [],
      "guide": {},
      "finishExec": [],
      "failExec": [],
      "beginExec": []
    },
    {
      "mainId": 73235,
      "subId": 7323531,
      "order": 36,
      "showType": "QUEST_HIDDEN",
      "descTextMapHash": 3417542596,
      "acceptCond": [
        {
          "type": "QUEST_COND_UNKNOWN",
          "param": [
            0,
            0
          ]
        }
      ],
      "finishCond": [],
      "failCond": [],
      "guide": {},
      "finishExec": [],
      "failExec": [],
      "beginExec": []
    },
    {
      "mainId": 73235,
      "subId": 7323532,
      "order": 35,
      "showType": "QUEST_HIDDEN",
      "descTextMapHash": 4136337892,
      "acceptCond": [
        {
          "type": "QUEST_COND_UNKNOWN",
          "param": [
            0,
            0
          ]
        }
      ],
      "finishCond": [],
      "failCond": [],
      "guide": {},
      "finishExec": [],
      "failExec": [],
      "beginExec": []
    },
    {
      "mainId": 73235,
      "subId": 7323533,
      "order": 34,
      "showType": "QUEST_HIDDEN",
      "descTextMapHash": 2055379180,
      "acceptCond": [
        {
          "type": "QUEST_COND_UNKNOWN",
          "param": [
            0,
            0
          ]
        }
      ],
      "finishCond": [],
      "failCond": [],
      "guide": {},
      "finishExec": [],
      "failExec": [],
      "beginExec": []
    },
    {
      "mainId": 73235,
      "subId": 7323534,
      "order": 55,
      "showType": "QUEST_HIDDEN",
      "descTextMapHash": 2925846292,
      "acceptCond": [
        {
          "type": "QUEST_COND_UNKNOWN",
          "param": [
            0,
            0
          ]
        }
      ],
      "finishCond": [],
      "failCond": [],
      "guide": {
        "type": "QUEST_GUIDE_LOCATION",
        "param": [
          "Q7323526_guide",
          "50"
        ],
        "guideScene": 3,
        "guideStyle": "QUEST_GUIDE_STYLE_POINT",
        "guideLayer": "QUEST_GUIDE_LAYER_UI"
      },
      "finishExec": [],
      "failExec": [],
      "beginExec": []
    },
    {
      "mainId": 73235,
      "subId": 7323535,
      "order": 54,
      "descTextMapHash": 1753167812,
      "acceptCond": [
        {
          "type": "QUEST_COND_UNKNOWN",
          "param": [
            0,
            0
          ]
        }
      ],
      "finishCond": [],
      "failCond": [],
      "guide": {
        "type": "QUEST_GUIDE_LOCATION",
        "param": [
          "Q7323527_guide"
        ],
        "guideScene": 3,
        "guideStyle": "QUEST_GUIDE_STYLE_POINT",
        "guideLayer": "QUEST_GUIDE_LAYER_UI"
      },
      "finishExec": [],
      "failExec": [],
      "beginExec": []
    },
    {
      "mainId": 73235,
      "subId": 7323536,
      "order": 53,
      "descTextMapHash": 4244136084,
      "acceptCond": [
        {
          "type": "QUEST_COND_UNKNOWN",
          "param": [
            0,
            0
          ]
        }
      ],
      "finishCond": [],
      "failCond": [],
      "guide": {
        "type": "QUEST_GUIDE_LOCATION",
        "param": [
          "Q7323526_guide"
        ],
        "guideScene": 3,
        "guideStyle": "QUEST_GUIDE_STYLE_POINT",
        "guideLayer": "QUEST_GUIDE_LAYER_UI"
      },
      "finishExec": [],
      "failExec": [],
      "beginExec": []
    },
    {
      "mainId": 73235,
      "subId": 7323537,
      "order": 52,
      "descTextMapHash": 897635196,
      "acceptCond": [
        {
          "type": "QUEST_COND_UNKNOWN",
          "param": [
            0,
            0
          ]
        }
      ],
      "finishCond": [],
      "failCond": [],
      "guide": {
        "type": "QUEST_GUIDE_LOCATION",
        "param": [
          "Q7323525_guide"
        ],
        "guideScene": 3,
        "guideStyle": "QUEST_GUIDE_STYLE_POINT",
        "guideLayer": "QUEST_GUIDE_LAYER_UI"
      },
      "finishExec": [],
      "failExec": [],
      "beginExec": []
    },
    {
      "mainId": 73235,
      "subId": 7323538,
      "order": 51,
      "descTextMapHash": 2661838692,
      "acceptCond": [
        {
          "type": "QUEST_COND_UNKNOWN",
          "param": [
            0,
            0
          ]
        }
      ],
      "finishCond": [],
      "failCond": [],
      "guide": {
        "type": "QUEST_GUIDE_LOCATION",
        "param": [
          "Q7323524_guide"
        ],
        "guideScene": 3,
        "guideStyle": "QUEST_GUIDE_STYLE_POINT",
        "guideLayer": "QUEST_GUIDE_LAYER_UI"
      },
      "finishExec": [],
      "failExec": [],
      "beginExec": []
    },
    {
      "mainId": 73235,
      "subId": 7323539,
      "order": 50,
      "descTextMapHash": 365754868,
      "acceptCond": [
        {
          "type": "QUEST_COND_UNKNOWN",
          "param": [
            0,
            0
          ]
        }
      ],
      "finishCond": [],
      "failCond": [],
      "guide": {
        "type": "QUEST_GUIDE_LOCATION",
        "param": [
          "Q7323523_guide"
        ],
        "guideScene": 3,
        "guideStyle": "QUEST_GUIDE_STYLE_POINT",
        "guideLayer": "QUEST_GUIDE_LAYER_UI"
      },
      "finishExec": [],
      "failExec": [],
      "beginExec": []
    },
    {
      "mainId": 73235,
      "subId": 7323540,
      "order": 15,
      "showType": "QUEST_HIDDEN",
      "descTextMapHash": 2682358764,
      "acceptCond": [
        {
          "type": "QUEST_COND_UNKNOWN",
          "param": [
            0,
            0
          ]
        }
      ],
      "finishCond": [],
      "failCond": [],
      "guide": {
        "guideScene": 3
      },
      "finishExec": [],
      "failExec": [],
      "beginExec": []
    },
    {
      "mainId": 73235,
      "subId": 7323541,
      "order": 16,
      "showType": "QUEST_HIDDEN",
      "descTextMapHash": 1266337724,
      "acceptCond": [
        {
          "type": "QUEST_COND_UNKNOWN",
          "param": [
            0,
            0
          ]
        }
      ],
      "finishCond": [],
      "failCond": [],
      "guide": {
        "guideScene": 3
      },
      "finishExec": [],
      "failExec": [],
      "beginExec": []
    },
    {
      "mainId": 73235,
      "subId": 7323542,
      "order": 17,
      "showType": "QUEST_HIDDEN",
      "descTextMapHash": 106664924,
      "acceptCond": [
        {
          "type": "QUEST_COND_UNKNOWN",
          "param": [
            0,
            0
          ]
        }
      ],
      "finishCond": [],
      "failCond": [],
      "guide": {
        "guideScene": 3
      },
      "finishExec": [],
      "failExec": [],
      "beginExec": []
    },
    {
      "mainId": 73235,
      "subId": 7323543,
      "order": 18,
      "showType": "QUEST_HIDDEN",
      "descTextMapHash": 449956564,
      "acceptCond": [
        {
          "type": "QUEST_COND_UNKNOWN",
          "param": [
            0,
            0
          ]
        }
      ],
      "finishCond": [],
      "failCond": [],
      "guide": {
        "guideScene": 3
      },
      "finishExec": [],
      "failExec": [],
      "beginExec": []
    },
    {
      "mainId": 73235,
      "subId": 7323544,
      "order": 19,
      "showType": "QUEST_HIDDEN",
      "descTextMapHash": 239723260,
      "acceptCond": [
        {
          "type": "QUEST_COND_UNKNOWN",
          "param": [
            0,
            0
          ]
        }
      ],
      "finishCond": [],
      "failCond": [],
      "guide": {
        "guideScene": 3
      },
      "finishExec": [],
      "failExec": [],
      "beginExec": []
    },
    {
      "mainId": 73235,
      "subId": 7323545,
      "order": 20,
      "descTextMapHash": 3308235956,
      "acceptCond": [
        {
          "type": "QUEST_COND_UNKNOWN",
          "param": [
            0,
            0
          ]
        }
      ],
      "finishCond": [],
      "failCond": [],
      "guide": {
        "type": "QUEST_GUIDE_LOCATION",
        "param": [
          "Q7323545_guide"
        ],
        "guideScene": 3,
        "guideStyle": "QUEST_GUIDE_STYLE_POINT",
        "guideLayer": "QUEST_GUIDE_LAYER_UI"
      },
      "finishExec": [],
      "failExec": [],
      "beginExec": []
    },
    {
      "mainId": 73235,
      "subId": 7323546,
      "order": 21,
      "descTextMapHash": 2823540004,
      "acceptCond": [
        {
          "type": "QUEST_COND_UNKNOWN",
          "param": [
            0,
            0
          ]
        }
      ],
      "finishCond": [],
      "failCond": [],
      "guide": {
        "type": "QUEST_GUIDE_LOCATION",
        "param": [
          "Q7323546_guide"
        ],
        "guideScene": 3,
        "guideStyle": "QUEST_GUIDE_STYLE_POINT",
        "guideLayer": "QUEST_GUIDE_LAYER_UI"
      },
      "finishExec": [],
      "failExec": [],
      "beginExec": []
    },
    {
      "mainId": 73235,
      "subId": 7323547,
      "order": 22,
      "descTextMapHash": 1014174708,
      "acceptCond": [
        {
          "type": "QUEST_COND_UNKNOWN",
          "param": [
            0,
            0
          ]
        }
      ],
      "finishCond": [],
      "failCond": [],
      "guide": {
        "type": "QUEST_GUIDE_LOCATION",
        "param": [
          "Q7323547_guide"
        ],
        "guideScene": 3,
        "guideStyle": "QUEST_GUIDE_STYLE_POINT",
        "guideLayer": "QUEST_GUIDE_LAYER_UI"
      },
      "finishExec": [],
      "failExec": [],
      "beginExec": []
    },
    {
      "mainId": 73235,
      "subId": 7323548,
      "order": 23,
      "descTextMapHash": 3844515476,
      "acceptCond": [
        {
          "type": "QUEST_COND_UNKNOWN",
          "param": [
            0,
            0
          ]
        }
      ],
      "finishCond": [],
      "failCond": [],
      "guide": {
        "type": "QUEST_GUIDE_LOCATION",
        "param": [
          "Q7323548_guide"
        ],
        "guideScene": 3,
        "guideStyle": "QUEST_GUIDE_STYLE_POINT",
        "guideLayer": "QUEST_GUIDE_LAYER_UI"
      },
      "finishExec": [],
      "failExec": [],
      "beginExec": []
    },
    {
      "mainId": 73235,
      "subId": 7323549,
      "order": 24,
      "descTextMapHash": 425040876,
      "acceptCond": [
        {
          "type": "QUEST_COND_UNKNOWN",
          "param": [
            0,
            0
          ]
        }
      ],
      "finishCond": [],
      "failCond": [],
      "guide": {
        "type": "QUEST_GUIDE_LOCATION",
        "param": [
          "Q7323549_guide"
        ],
        "guideScene": 3,
        "guideStyle": "QUEST_GUIDE_STYLE_POINT",
        "guideLayer": "QUEST_GUIDE_LAYER_UI"
      },
      "finishExec": [],
      "failExec": [],
      "beginExec": []
    },
    {
      "mainId": 73235,
      "subId": 7323550,
      "order": 25,
      "showType": "QUEST_HIDDEN",
      "descTextMapHash": 931585692,
      "acceptCond": [
        {
          "type": "QUEST_COND_UNKNOWN",
          "param": [
            0,
            0
          ]
        }
      ],
      "finishCond": [],
      "failCond": [],
      "guide": {
        "guideScene": 3
      },
      "finishExec": [],
      "failExec": [],
      "beginExec": []
    },
    {
      "mainId": 73235,
      "subId": 7323551,
      "order": 10,
      "showType": "QUEST_HIDDEN",
      "descTextMapHash": 1556644012,
      "acceptCond": [
        {
          "type": "QUEST_COND_UNKNOWN",
          "param": [
            0,
            0
          ]
        }
      ],
      "finishCond": [],
      "failCond": [],
      "guide": {
        "guideScene": 3
      },
      "finishExec": [],
      "failExec": [],
      "beginExec": []
    },
    {
      "mainId": 73235,
      "subId": 7323552,
      "order": 4,
      "showType": "QUEST_HIDDEN",
      "descTextMapHash": 3193208012,
      "acceptCond": [
        {
          "type": "QUEST_COND_UNKNOWN",
          "param": [
            0,
            0
          ]
        }
      ],
      "finishCond": [],
      "failCond": [],
      "guide": {
        "param": [
          "30"
        ],
        "guideScene": 3
      },
      "finishExec": [],
      "failExec": [],
      "beginExec": []
    }
  ],
  "talks": [
    {
      "id": 7323501,
      "beginWay": "TALK_BEGIN_MANUAL",
      "activeMode": "PLAY_MODE_HOST",
      "priority": 5,
      "initDialog": 732350101,
      "npcId": [
        20987
      ],
      "performCfg": "",
      "questId": 73235,
      "prePerformCfg": ""
    },
    {
      "id": 7323502,
      "beginWay": "TALK_BEGIN_MANUAL",
      "activeMode": "PLAY_MODE_HOST",
      "beginCond": [
        {
          "type": "QUEST_COND_STATE_EQUAL",
          "param": [
            "7323504",
            "2"
          ],
          "param_str": ""
        }
      ],
      "priority": 5,
      "nextTalks": [
        7323503,
        7323504
      ],
      "initDialog": 732350201,
      "npcId": [
        4283,
        20987
      ],
      "performCfg": "QuestDialogue/WQ/Sumeru_73235/Q7323502",
      "heroTalk": "TALK_HERO_MAIN",
      "questId": 73235,
      "prePerformCfg": ""
    },
    {
      "id": 7323503,
      "activeMode": "PLAY_MODE_HOST",
      "beginCondComb": "LOGIC_AND",
      "beginCond": [
        {
          "type": "QUEST_COND_STATE_EQUAL",
          "param": [
            "7323504",
            "2"
          ],
          "param_str": ""
        },
        {
          "type": "QUEST_COND_STATE_EQUAL",
          "param": [
            "7323513",
            "2"
          ],
          "param_str": ""
        },
        {
          "type": "QUEST_COND_STATE_EQUAL",
          "param": [
            "7323514",
            "2"
          ],
          "param_str": ""
        },
        {
          "type": "QUEST_COND_STATE_EQUAL",
          "param": [
            "7323515",
            "2"
          ],
          "param_str": ""
        }
      ],
      "priority": 5,
      "initDialog": 732350301,
      "npcId": [
        4283,
        1005,
        20987
      ],
      "performCfg": "QuestDialogue/WQ/Sumeru_73235/Q7323503",
      "heroTalk": "TALK_HERO_MAIN",
      "questId": 73235,
      "prePerformCfg": ""
    },
    {
      "id": 7323504,
      "activeMode": "PLAY_MODE_HOST",
      "beginCondComb": "LOGIC_A_AND_ETCOR",
      "beginCond": [
        {
          "type": "QUEST_COND_STATE_EQUAL",
          "param": [
            "7323504",
            "2"
          ],
          "param_str": ""
        },
        {
          "type": "QUEST_COND_STATE_EQUAL",
          "param": [
            "7323513",
            "3"
          ],
          "param_str": ""
        },
        {
          "type": "QUEST_COND_STATE_EQUAL",
          "param": [
            "7323514",
            "3"
          ],
          "param_str": ""
        },
        {
          "type": "QUEST_COND_STATE_EQUAL",
          "param": [
            "7323515",
            "3"
          ],
          "param_str": ""
        }
      ],
      "priority": 5,
      "initDialog": 732350401,
      "npcId": [
        4283
      ],
      "performCfg": "QuestDialogue/WQ/Sumeru_73235/Q7323504",
      "heroTalk": "TALK_HERO_MAIN",
      "questId": 73235,
      "prePerformCfg": ""
    },
    {
      "id": 7323505,
      "beginWay": "TALK_BEGIN_MANUAL",
      "activeMode": "PLAY_MODE_HOST",
      "beginCond": [
        {
          "type": "QUEST_COND_STATE_EQUAL",
          "param": [
            "7323508",
            "2"
          ],
          "param_str": ""
        }
      ],
      "priority": 5,
      "initDialog": 732350501,
      "npcId": [
        20987,
        4283
      ],
      "performCfg": "QuestDialogue/WQ/Sumeru_73235/Q7323505",
      "heroTalk": "TALK_HERO_MAIN",
      "questId": 73235,
      "prePerformCfg": ""
    },
    {
      "id": 7323506,
      "beginWay": "TALK_BEGIN_MANUAL",
      "activeMode": "PLAY_MODE_HOST",
      "beginCond": [
        {
          "type": "QUEST_COND_STATE_EQUAL",
          "param": [
            "7323506",
            "2"
          ],
          "param_str": ""
        }
      ],
      "priority": 5,
      "nextTalks": [
        7323507,
        7323512
      ],
      "initDialog": 732350601,
      "npcId": [
        4283,
        20987
      ],
      "performCfg": "QuestDialogue/WQ/Sumeru_73235/Q7323506",
      "heroTalk": "TALK_HERO_MAIN",
      "questId": 73235,
      "prePerformCfg": ""
    },
    {
      "id": 7323507,
      "activeMode": "PLAY_MODE_HOST",
      "beginCondComb": "LOGIC_A_AND_ETCOR",
      "beginCond": [
        {
          "type": "QUEST_COND_STATE_EQUAL",
          "param": [
            "7323506",
            "2"
          ],
          "param_str": ""
        },
        {
          "type": "QUEST_COND_STATE_EQUAL",
          "param": [
            "7323513",
            "2"
          ],
          "param_str": ""
        },
        {
          "type": "QUEST_COND_STATE_EQUAL",
          "param": [
            "7323514",
            "2"
          ],
          "param_str": ""
        },
        {
          "type": "QUEST_COND_STATE_EQUAL",
          "param": [
            "7323515",
            "2"
          ],
          "param_str": ""
        }
      ],
      "priority": 5,
      "initDialog": 732350701,
      "npcId": [
        4283,
        20987,
        1005
      ],
      "performCfg": "QuestDialogue/WQ/Sumeru_73235/Q7323507",
      "heroTalk": "TALK_HERO_MAIN",
      "questId": 73235,
      "prePerformCfg": ""
    },
    {
      "id": 7323511,
      "beginWay": "TALK_BEGIN_MANUAL",
      "activeMode": "PLAY_MODE_HOST",
      "priority": 5,
      "initDialog": 732351101,
      "npcId": [
        1005
      ],
      "performCfg": "",
      "questId": 73235,
      "prePerformCfg": ""
    },
    {
      "id": 7323512,
      "activeMode": "PLAY_MODE_HOST",
      "beginCondComb": "LOGIC_AND",
      "beginCond": [
        {
          "type": "QUEST_COND_STATE_EQUAL",
          "param": [
            "7323506",
            "2"
          ],
          "param_str": ""
        },
        {
          "type": "QUEST_COND_STATE_EQUAL",
          "param": [
            "7323513",
            "3"
          ],
          "param_str": ""
        },
        {
          "type": "QUEST_COND_STATE_EQUAL",
          "param": [
            "7323514",
            "3"
          ],
          "param_str": ""
        },
        {
          "type": "QUEST_COND_STATE_EQUAL",
          "param": [
            "7323515",
            "3"
          ],
          "param_str": ""
        }
      ],
      "priority": 5,
      "initDialog": 732351201,
      "npcId": [
        4283,
        1005,
        20987
      ],
      "performCfg": "QuestDialogue/WQ/Sumeru_73235/Q7323512",
      "heroTalk": "TALK_HERO_MAIN",
      "questId": 73235,
      "prePerformCfg": ""
    },
    {
      "id": 7323517,
      "beginWay": "TALK_BEGIN_MANUAL",
      "activeMode": "PLAY_MODE_HOST",
      "beginCondComb": "LOGIC_A_AND_ETCOR",
      "beginCond": [
        {
          "type": "QUEST_COND_STATE_EQUAL",
          "param": [
            "7323517",
            "2"
          ],
          "param_str": ""
        },
        {
          "type": "QUEST_COND_STATE_NOT_EQUAL",
          "param": [
            "7303803",
            "3"
          ],
          "param_str": ""
        },
        {
          "type": "QUEST_COND_QUEST_NOT_RECEIVE",
          "param": [
            "7303803",
            "1"
          ],
          "param_str": ""
        }
      ],
      "priority": 5,
      "initDialog": 732351701,
      "npcId": [
        4283,
        20987
      ],
      "performCfg": "QuestDialogue/WQ/Sumeru_73235/Q7323517",
      "heroTalk": "TALK_HERO_MAIN",
      "questId": 73235,
      "prePerformCfg": ""
    },
    {
      "id": 7323518,
      "beginWay": "TALK_BEGIN_MANUAL",
      "activeMode": "PLAY_MODE_HOST",
      "beginCondComb": "LOGIC_AND",
      "beginCond": [
        {
          "type": "QUEST_COND_STATE_EQUAL",
          "param": [
            "7323517",
            "2"
          ],
          "param_str": ""
        },
        {
          "type": "QUEST_COND_STATE_EQUAL",
          "param": [
            "7303803",
            "3"
          ],
          "param_str": ""
        }
      ],
      "priority": 5,
      "initDialog": 732351801,
      "npcId": [
        4283,
        20987
      ],
      "performCfg": "QuestDialogue/WQ/Sumeru_73235/Q7323518",
      "heroTalk": "TALK_HERO_MAIN",
      "questId": 73235,
      "prePerformCfg": ""
    },
    {
      "id": 7323519,
      "activeMode": "PLAY_MODE_HOST",
      "priority": 5,
      "initDialog": 732351901,
      "npcId": [
        1005,
        20987,
        4283
      ],
      "performCfg": "QuestDialogue/WQ/Sumeru_73235/Q7323519",
      "heroTalk": "TALK_HERO_MAIN",
      "questId": 73235,
      "prePerformCfg": ""
    },
    {
      "id": 7323521,
      "beginWay": "TALK_BEGIN_MANUAL",
      "activeMode": "PLAY_MODE_HOST",
      "beginCond": [
        {
          "type": "QUEST_COND_STATE_EQUAL",
          "param": [
            "7323521",
            "2"
          ],
          "param_str": ""
        }
      ],
      "priority": 5,
      "nextTalks": [
        7323522,
        7323523
      ],
      "initDialog": 732352101,
      "npcId": [
        20892,
        4283,
        20987,
        1005
      ],
      "performCfg": "QuestDialogue/WQ/Sumeru_73235/Q7323521",
      "heroTalk": "TALK_HERO_MAIN",
      "questId": 73235,
      "prePerformCfg": ""
    },
    {
      "id": 7323522,
      "activeMode": "PLAY_MODE_HOST",
      "beginCond": [
        {
          "type": "QUEST_COND_STATE_EQUAL",
          "param": [
            "7323521",
            "2"
          ],
          "param_str": ""
        }
      ],
      "priority": 5,
      "initDialog": 732352201,
      "npcId": [
        20892
      ],
      "performCfg": "QuestDialogue/WQ/Sumeru_73235/Q7323522",
      "heroTalk": "TALK_HERO_MAIN",
      "questId": 73235,
      "prePerformCfg": ""
    },
    {
      "id": 7323523,
      "activeMode": "PLAY_MODE_HOST",
      "beginCond": [
        {
          "type": "QUEST_COND_STATE_EQUAL",
          "param": [
            "7323521",
            "2"
          ],
          "param_str": ""
        }
      ],
      "priority": 5,
      "initDialog": 732352301,
      "npcId": [
        20892
      ],
      "performCfg": "QuestDialogue/WQ/Sumeru_73235/Q7323523",
      "heroTalk": "TALK_HERO_MAIN",
      "questId": 73235,
      "prePerformCfg": ""
    }
  ]
}