{
  "id": 73314,
  "type": "WQ",
  "titleTextMapHash": 467528167,
  "descTextMapHash": 833397670,
  "luaPath": "Actor/Quest/WQ73314",
  "rewardIdList": [
    173340
  ],
  "chapterId": 10126,
  "subQuests": [
    {
      "mainId": 73314,
      "subId": 7331401,
      "order": 1,
      "showType": "QUEST_HIDDEN",
      "descTextMapHash": 2855489876,
      "acceptCond": [
        {
          "type": "QUEST_COND_UNKNOWN",
          "param": [
            0,
            0
          ]
        }
      ],
      "finishCond": [],
      "failCond": [],
      "guide": {
        "guideLayer": "QUEST_GUIDE_LAYER_UI"
      },
      "finishExec": [],
      "failExec": [],
      "beginExec": []
    },
    {
      "mainId": 73314,
      "subId": 7331402,
      "order": 2,
      "showType": "QUEST_HIDDEN",
      "descTextMapHash": 1098817980,
      "acceptCond": [
        {
          "type": "QUEST_COND_UNKNOWN",
          "param": [
            0,
            0
          ]
        }
      ],
      "finishCond": [],
      "failCond": [],
      "guide": {
        "param": [
          "30"
        ],
        "guideScene": 3,
        "guideLayer": "QUEST_GUIDE_LAYER_UI"
      },
      "finishExec": [],
      "failExec": [],
      "beginExec": []
    },
    {
      "mainId": 73314,
      "subId": 7331403,
      "order": 3,
      "showType": "QUEST_HIDDEN",
      "descTextMapHash": 2586852284,
      "acceptCond": [
        {
          "type": "QUEST_COND_UNKNOWN",
          "param": [
            0,
            0
          ]
        }
      ],
      "finishCond": [],
      "failCond": [],
      "guide": {
        "type": "QUEST_GUIDE_NPC",
        "param": [
          "20987"
        ],
        "guideScene": 3,
        "guideStyle": "QUEST_GUIDE_STYLE_TARGET",
        "guideLayer": "QUEST_GUIDE_LAYER_UI"
      },
      "finishExec": [],
      "failExec": [],
      "beginExec": []
    },
    {
      "mainId": 73314,
      "subId": 7331404,
      "order": 5,
      "descTextMapHash": 3594825580,
      "acceptCond": [
        {
          "type": "QUEST_COND_UNKNOWN",
          "param": [
            0,
            0
          ]
        }
      ],
      "finishCond": [],
      "failCond": [],
      "guide": {
        "type": "QUEST_GUIDE_LOCATION",
        "param": [
          "Q7331404_guide",
          "30"
        ],
        "guideScene": 3,
        "guideStyle": "QUEST_GUIDE_STYLE_POINT",
        "guideLayer": "QUEST_GUIDE_LAYER_UI"
      },
      "finishExec": [],
      "failExec": [],
      "beginExec": []
    },
    {
      "mainId": 73314,
      "subId": 7331405,
      "order": 6,
      "descTextMapHash": 3553787484,
      "acceptCond": [
        {
          "type": "QUEST_COND_UNKNOWN",
          "param": [
            0,
            0
          ]
        }
      ],
      "finishCond": [],
      "failCond": [],
      "guide": {
        "type": "QUEST_GUIDE_NPC",
        "param": [
          "20959"
        ],
        "guideScene": 3,
        "guideStyle": "QUEST_GUIDE_STYLE_TARGET",
        "guideLayer": "QUEST_GUIDE_LAYER_UI"
      },
      "finishExec": [],
      "failExec": [],
      "beginExec": []
    },
    {
      "mainId": 73314,
      "subId": 7331406,
      "order": 7,
      "descTextMapHash": 4233312228,
      "acceptCond": [
        {
          "type": "QUEST_COND_UNKNOWN",
          "param": [
            0,
            0
          ]
        }
      ],
      "finishCond": [],
      "failCond": [],
      "guide": {
        "type": "QUEST_GUIDE_LOCATION",
        "param": [
          "[3_4420:267.862,336.380,6409.657]",
          "50"
        ],
        "guideScene": 3,
        "guideStyle": "QUEST_GUIDE_STYLE_POINT",
        "guideLayer": "QUEST_GUIDE_LAYER_UI"
      },
      "finishExec": [],
      "failExec": [],
      "beginExec": []
    },
    {
      "mainId": 73314,
      "subId": 7331407,
      "order": 10,
      "descTextMapHash": 1935905348,
      "acceptCond": [
        {
          "type": "QUEST_COND_UNKNOWN",
          "param": [
            0,
            0
          ]
        }
      ],
      "finishCond": [],
      "failCond": [],
      "guide": {
        "type": "QUEST_GUIDE_NPC",
        "param": [
          "20959"
        ],
        "guideScene": 3,
        "guideStyle": "QUEST_GUIDE_STYLE_TARGET",
        "guideLayer": "QUEST_GUIDE_LAYER_UI"
      },
      "finishExec": [],
      "failExec": [],
      "beginExec": []
    },
    {
      "mainId": 73314,
      "subId": 7331408,
      "order": 4,
      "showType": "QUEST_HIDDEN",
      "descTextMapHash": 102954860,
      "acceptCond": [
        {
          "type": "QUEST_COND_UNKNOWN",
          "param": [
            0,
            0
          ]
        }
      ],
      "finishCond": [],
      "failCond": [],
      "guide": {
        "guideLayer": "QUEST_GUIDE_LAYER_UI"
      },
      "finishExec": [],
      "failExec": [],
      "beginExec": []
    },
    {
      "mainId": 73314,
      "subId": 7331409,
      "order": 11,
      "showType": "QUEST_HIDDEN",
      "descTextMapHash": 475438388,
      "acceptCond": [
        {
          "type": "QUEST_COND_UNKNOWN",
          "param": [
            0,
            0
          ]
        }
      ],
      "finishCond": [],
      "failCond": [],
      "guide": {},
      "finishExec": [],
      "failExec": [],
      "beginExec": []
    }
  ],
  "talks": [
    {
      "id": 7331402,
      "beginWay": "TALK_BEGIN_MANUAL",
      "activeMode": "PLAY_MODE_HOST",
      "beginCondComb": "LOGIC_AND",
      "beginCond": [
        {
          "type": "QUEST_COND_STATE_EQUAL",
          "param": [
            "7331403",
            "2"
          ],
          "param_str": ""
        },
        {
          "type": "QUEST_COND_QUEST_GLOBAL_VAR_EQUAL",
          "param": [
            "7325103",
            "1"
          ],
          "param_str": ""
        }
      ],
      "priority": 5,
      "initDialog": 733140201,
      "npcId": [
        20987
      ],
      "performCfg": "QuestDialogue/WQ/Sumeru_73314/Q7331402",
      "heroTalk": "TALK_HERO_MAIN",
      "questId": 73314,
      "prePerformCfg": ""
    },
    {
      "id": 7331403,
      "beginWay": "TALK_BEGIN_MANUAL",
      "activeMode": "PLAY_MODE_HOST",
      "beginCondComb": "LOGIC_AND",
      "beginCond": [
        {
          "type": "QUEST_COND_STATE_EQUAL",
          "param": [
            "7331403",
            "2"
          ],
          "param_str": ""
        },
        {
          "type": "QUEST_COND_QUEST_GLOBAL_VAR_EQUAL",
          "param": [
            "7325103",
            "0"
          ],
          "param_str": ""
        }
      ],
      "priority": 5,
      "initDialog": 733140301,
      "npcId": [
        20987
      ],
      "performCfg": "QuestDialogue/WQ/Sumeru_73314/Q7331403",
      "heroTalk": "TALK_HERO_MAIN",
      "questId": 73314,
      "prePerformCfg": ""
    },
    {
      "id": 7331405,
      "beginWay": "TALK_BEGIN_MANUAL",
      "activeMode": "PLAY_MODE_HOST",
      "beginCond": [
        {
          "type": "QUEST_COND_STATE_EQUAL",
          "param": [
            "7331405",
            "2"
          ],
          "param_str": ""
        }
      ],
      "priority": 5,
      "initDialog": 733140501,
      "npcId": [
        20959
      ],
      "performCfg": "QuestDialogue/WQ/Sumeru_73314/Q7331405",
      "heroTalk": "TALK_HERO_MAIN",
      "questId": 73314,
      "prePerformCfg": "",
      "talkMarkType": "TALK_MARK_COMMON"
    },
    {
      "id": 7331407,
      "beginWay": "TALK_BEGIN_MANUAL",
      "activeMode": "PLAY_MODE_HOST",
      "beginCond": [
        {
          "type": "QUEST_COND_STATE_EQUAL",
          "param": [
            "7331407",
            "2"
          ],
          "param_str": ""
        }
      ],
      "priority": 5,
      "initDialog": 733140701,
      "npcId": [
        20959
      ],
      "performCfg": "QuestDialogue/WQ/Sumeru_73314/Q7331407",
      "heroTalk": "TALK_HERO_MAIN",
      "questId": 73314,
      "prePerformCfg": ""
    }
  ]
}