{
  "id": 73334,
  "type": "WQ",
  "titleTextMapHash": 2136539967,
  "descTextMapHash": 2610159286,
  "luaPath": "Actor/Quest/WQ73334",
  "rewardIdList": [
    173340
  ],
  "chapterId": 10126,
  "subQuests": [
    {
      "mainId": 73334,
      "subId": 7333401,
      "order": 1,
      "showType": "QUEST_HIDDEN",
      "descTextMapHash": 445694500,
      "acceptCond": [
        {
          "type": "QUEST_COND_UNKNOWN",
          "param": [
            0,
            0
          ]
        }
      ],
      "finishCond": [],
      "failCond": [],
      "guide": {
        "guideLayer": "QUEST_GUIDE_LAYER_UI"
      },
      "finishExec": [],
      "failExec": [],
      "beginExec": []
    },
    {
      "mainId": 73334,
      "subId": 7333402,
      "order": 2,
      "showType": "QUEST_HIDDEN",
      "descTextMapHash": 1189185628,
      "acceptCond": [
        {
          "type": "QUEST_COND_UNKNOWN",
          "param": [
            0,
            0
          ]
        }
      ],
      "finishCond": [],
      "failCond": [],
      "guide": {
        "param": [
          "30"
        ],
        "guideScene": 3,
        "guideLayer": "QUEST_GUIDE_LAYER_UI"
      },
      "finishExec": [],
      "failExec": [],
      "beginExec": []
    },
    {
      "mainId": 73334,
      "subId": 7333403,
      "order": 3,
      "showType": "QUEST_HIDDEN",
      "descTextMapHash": 419705204,
      "acceptCond": [
        {
          "type": "QUEST_COND_UNKNOWN",
          "param": [
            0,
            0
          ]
        }
      ],
      "finishCond": [],
      "failCond": [],
      "guide": {
        "type": "QUEST_GUIDE_NPC",
        "param": [
          "20987"
        ],
        "guideScene": 3,
        "guideStyle": "QUEST_GUIDE_STYLE_TARGET",
        "guideLayer": "QUEST_GUIDE_LAYER_UI"
      },
      "finishExec": [],
      "failExec": [],
      "beginExec": []
    },
    {
      "mainId": 73334,
      "subId": 7333404,
      "order": 5,
      "descTextMapHash": 3065458780,
      "acceptCond": [
        {
          "type": "QUEST_COND_UNKNOWN",
          "param": [
            0,
            0
          ]
        }
      ],
      "finishCond": [],
      "failCond": [],
      "guide": {
        "type": "QUEST_GUIDE_LOCATION",
        "param": [
          "Q7333404_guide",
          "30"
        ],
        "guideScene": 3,
        "guideStyle": "QUEST_GUIDE_STYLE_POINT",
        "guideLayer": "QUEST_GUIDE_LAYER_UI"
      },
      "finishExec": [],
      "failExec": [],
      "beginExec": []
    },
    {
      "mainId": 73334,
      "subId": 7333405,
      "order": 6,
      "descTextMapHash": 1848104780,
      "acceptCond": [
        {
          "type": "QUEST_COND_UNKNOWN",
          "param": [
            0,
            0
          ]
        }
      ],
      "finishCond": [],
      "failCond": [],
      "guide": {
        "type": "QUEST_GUIDE_NPC",
        "param": [
          "20964"
        ],
        "guideScene": 3,
        "guideStyle": "QUEST_GUIDE_STYLE_TARGET",
        "guideLayer": "QUEST_GUIDE_LAYER_UI"
      },
      "finishExec": [],
      "failExec": [],
      "beginExec": []
    },
    {
      "mainId": 73334,
      "subId": 7333406,
      "order": 7,
      "descTextMapHash": 936693316,
      "acceptCond": [
        {
          "type": "QUEST_COND_UNKNOWN",
          "param": [
            0,
            0
          ]
        }
      ],
      "finishCond": [],
      "failCond": [],
      "guide": {
        "type": "QUEST_GUIDE_LOCATION",
        "param": [
          "[3_3989:691.142,155.810,6677.738]",
          "50"
        ],
        "guideScene": 3,
        "guideStyle": "QUEST_GUIDE_STYLE_POINT",
        "guideLayer": "QUEST_GUIDE_LAYER_UI"
      },
      "finishExec": [],
      "failExec": [],
      "beginExec": []
    },
    {
      "mainId": 73334,
      "subId": 7333407,
      "order": 11,
      "descTextMapHash": 4060359028,
      "acceptCond": [
        {
          "type": "QUEST_COND_UNKNOWN",
          "param": [
            0,
            0
          ]
        }
      ],
      "finishCond": [],
      "failCond": [],
      "guide": {
        "type": "QUEST_GUIDE_NPC",
        "param": [
          "20964"
        ],
        "guideScene": 3,
        "guideStyle": "QUEST_GUIDE_STYLE_TARGET",
        "guideLayer": "QUEST_GUIDE_LAYER_UI"
      },
      "finishExec": [],
      "failExec": [],
      "beginExec": []
    },
    {
      "mainId": 73334,
      "subId": 7333408,
      "order": 4,
      "showType": "QUEST_HIDDEN",
      "descTextMapHash": 2889546644,
      "acceptCond": [
        {
          "type": "QUEST_COND_UNKNOWN",
          "param": [
            0,
            0
          ]
        }
      ],
      "finishCond": [],
      "failCond": [],
      "guide": {
        "guideLayer": "QUEST_GUIDE_LAYER_UI"
      },
      "finishExec": [],
      "failExec": [],
      "beginExec": []
    },
    {
      "mainId": 73334,
      "subId": 7333409,
      "order": 12,
      "showType": "QUEST_HIDDEN",
      "descTextMapHash": 1135420796,
      "acceptCond": [
        {
          "type": "QUEST_COND_UNKNOWN",
          "param": [
            0,
            0
          ]
        }
      ],
      "finishCond": [],
      "failCond": [],
      "guide": {},
      "finishExec": [],
      "failExec": [],
      "beginExec": []
    },
    {
      "mainId": 73334,
      "subId": 7333410,
      "order": 8,
      "descTextMapHash": 2528284452,
      "acceptCond": [
        {
          "type": "QUEST_COND_UNKNOWN",
          "param": [
            0,
            0
          ]
        }
      ],
      "finishCond": [],
      "failCond": [],
      "guide": {
        "type": "QUEST_GUIDE_LOCATION",
        "param": [
          "[3_3989:691.142,155.810,6677.738]",
          "50"
        ],
        "guideScene": 3,
        "guideStyle": "QUEST_GUIDE_STYLE_POINT",
        "guideLayer": "QUEST_GUIDE_LAYER_UI"
      },
      "finishExec": [],
      "failExec": [],
      "beginExec": []
    },
    {
      "mainId": 73334,
      "subId": 7333411,
      "order": 9,
      "descTextMapHash": 2652781300,
      "acceptCond": [
        {
          "type": "QUEST_COND_UNKNOWN",
          "param": [
            0,
            0
          ]
        }
      ],
      "finishCond": [],
      "failCond": [],
      "guide": {
        "type": "QUEST_GUIDE_LOCATION",
        "param": [
          "[3_3989:691.142,155.810,6677.738]",
          "50"
        ],
        "guideScene": 3,
        "guideStyle": "QUEST_GUIDE_STYLE_POINT",
        "guideLayer": "QUEST_GUIDE_LAYER_UI"
      },
      "finishExec": [],
      "failExec": [],
      "beginExec": []
    },
    {
      "mainId": 73334,
      "subId": 7333413,
      "order": 10,
      "showType": "QUEST_HIDDEN",
      "descTextMapHash": 962669132,
      "acceptCond": [
        {
          "type": "QUEST_COND_UNKNOWN",
          "param": [
            0,
            0
          ]
        }
      ],
      "finishCond": [],
      "failCond": [],
      "guide": {},
      "finishExec": [],
      "failExec": [],
      "beginExec": []
    }
  ],
  "talks": [
    {
      "id": 7333402,
      "beginWay": "TALK_BEGIN_MANUAL",
      "activeMode": "PLAY_MODE_HOST",
      "beginCondComb": "LOGIC_AND",
      "beginCond": [
        {
          "type": "QUEST_COND_STATE_EQUAL",
          "param": [
            "7333403",
            "2"
          ],
          "param_str": ""
        },
        {
          "type": "QUEST_COND_QUEST_GLOBAL_VAR_EQUAL",
          "param": [
            "7325103",
            "1"
          ],
          "param_str": ""
        }
      ],
      "priority": 5,
      "initDialog": 733340201,
      "npcId": [
        20987
      ],
      "performCfg": "QuestDialogue/WQ/Sumeru_73334/Q7333402",
      "heroTalk": "TALK_HERO_MAIN",
      "questId": 73334,
      "prePerformCfg": ""
    },
    {
      "id": 7333403,
      "beginWay": "TALK_BEGIN_MANUAL",
      "activeMode": "PLAY_MODE_HOST",
      "beginCondComb": "LOGIC_AND",
      "beginCond": [
        {
          "type": "QUEST_COND_STATE_EQUAL",
          "param": [
            "7333403",
            "2"
          ],
          "param_str": ""
        },
        {
          "type": "QUEST_COND_QUEST_GLOBAL_VAR_EQUAL",
          "param": [
            "7325103",
            "0"
          ],
          "param_str": ""
        }
      ],
      "priority": 5,
      "initDialog": 733340301,
      "npcId": [
        20987
      ],
      "performCfg": "QuestDialogue/WQ/Sumeru_73334/Q7333403",
      "heroTalk": "TALK_HERO_MAIN",
      "questId": 73334,
      "prePerformCfg": ""
    },
    {
      "id": 7333405,
      "beginWay": "TALK_BEGIN_MANUAL",
      "activeMode": "PLAY_MODE_HOST",
      "beginCond": [
        {
          "type": "QUEST_COND_STATE_EQUAL",
          "param": [
            "7333405",
            "2"
          ],
          "param_str": ""
        }
      ],
      "priority": 5,
      "initDialog": 733340501,
      "npcId": [
        20964
      ],
      "performCfg": "QuestDialogue/WQ/Sumeru_73334/Q7333405",
      "heroTalk": "TALK_HERO_MAIN",
      "questId": 73334,
      "prePerformCfg": "",
      "talkMarkType": "TALK_MARK_COMMON"
    },
    {
      "id": 7333407,
      "beginWay": "TALK_BEGIN_MANUAL",
      "activeMode": "PLAY_MODE_HOST",
      "beginCond": [
        {
          "type": "QUEST_COND_STATE_EQUAL",
          "param": [
            "7333407",
            "2"
          ],
          "param_str": ""
        }
      ],
      "priority": 5,
      "initDialog": 733340701,
      "npcId": [
        20964
      ],
      "performCfg": "QuestDialogue/WQ/Sumeru_73334/Q7333407",
      "heroTalk": "TALK_HERO_MAIN",
      "questId": 73334,
      "prePerformCfg": ""
    },
    {
      "id": 7333420,
      "beginWay": "TALK_BEGIN_MANUAL",
      "activeMode": "PLAY_MODE_HOST",
      "beginCondComb": "LOGIC_OR",
      "beginCond": [
        {
          "type": "QUEST_COND_STATE_EQUAL",
          "param": [
            "7333407",
            "2"
          ],
          "param_str": ""
        },
        {
          "type": "QUEST_COND_QUEST_NOT_RECEIVE",
          "param": [
            "7333407",
            "1"
          ],
          "param_str": ""
        }
      ],
      "priority": 3,
      "initDialog": 733342001,
      "npcId": [
        20964
      ],
      "performCfg": "",
      "heroTalk": "TALK_HERO_MAIN",
      "questId": 73334,
      "prePerformCfg": "",
      "questIdleTalk": true,
      "lowPriority": true
    }
  ]
}