{
  "id": 73506,
  "type": "WQ",
  "titleTextMapHash": 1029199495,
  "descTextMapHash": 545422422,
  "luaPath": "Actor/Quest/WQ73506",
  "rewardIdList": [
    173506
  ],
  "subQuests": [
    {
      "mainId": 73506,
      "subId": 7350601,
      "order": 1,
      "descTextMapHash": 347634284,
      "acceptCond": [
        {
          "type": "QUEST_COND_UNKNOWN",
          "param": [
            0,
            0
          ]
        }
      ],
      "finishCond": [],
      "failCond": [],
      "guide": {
        "type": "QUEST_GUIDE_NPC",
        "param": [
          "4070"
        ],
        "guideScene": 3,
        "guideStyle": "QUEST_GUIDE_STYLE_TARGET",
        "guideLayer": "QUEST_GUIDE_LAYER_SCENE"
      },
      "finishExec": [],
      "failExec": [],
      "beginExec": []
    },
    {
      "mainId": 73506,
      "subId": 7350602,
      "order": 2,
      "descTextMapHash": 1402776652,
      "acceptCond": [
        {
          "type": "QUEST_COND_UNKNOWN",
          "param": [
            0,
            0
          ]
        }
      ],
      "finishCond": [],
      "failCond": [],
      "guide": {
        "type": "QUEST_GUIDE_LOCATION",
        "param": [
          "Q7350602_N30261",
          "35"
        ],
        "guideScene": 1074,
        "guideStyle": "QUEST_GUIDE_STYLE_POINT",
        "guideLayer": "QUEST_GUIDE_LAYER_SCENE"
      },
      "finishExec": [],
      "failExec": [],
      "beginExec": []
    },
    {
      "mainId": 73506,
      "subId": 7350603,
      "order": 3,
      "descTextMapHash": 782190884,
      "acceptCond": [
        {
          "type": "QUEST_COND_UNKNOWN",
          "param": [
            0,
            0
          ]
        }
      ],
      "finishCond": [],
      "failCond": [],
      "guide": {
        "type": "QUEST_GUIDE_NPC",
        "param": [
          "30279"
        ],
        "guideScene": 3,
        "guideStyle": "QUEST_GUIDE_STYLE_TARGET",
        "guideLayer": "QUEST_GUIDE_LAYER_SCENE"
      },
      "finishExec": [],
      "failExec": [],
      "beginExec": []
    }
  ],
  "talks": [
    {
      "id": 7350601,
      "beginWay": "TALK_BEGIN_MANUAL",
      "activeMode": "PLAY_MODE_SINGLE",
      "beginCond": [
        {
          "type": "QUEST_COND_STATE_EQUAL",
          "param": [
            "7350601",
            "2"
          ],
          "param_str": ""
        }
      ],
      "priority": 5,
      "initDialog": 735060101,
      "npcId": [
        4070
      ],
      "performCfg": "QuestDialogue/WQ/Sumeru_73506/Q7350601",
      "heroTalk": "TALK_HERO_MAIN",
      "questId": 73506,
      "prePerformCfg": ""
    },
    {
      "id": 7350602,
      "beginWay": "TALK_BEGIN_MANUAL",
      "activeMode": "PLAY_MODE_SINGLE",
      "beginCond": [
        {
          "type": "QUEST_COND_STATE_EQUAL",
          "param": [
            "7350602",
            "2"
          ],
          "param_str": ""
        }
      ],
      "priority": 5,
      "nextTalks": [
        7350621,
        7350622
      ],
      "initDialog": 735060201,
      "npcId": [
        30279,
        2602
      ],
      "performCfg": "QuestDialogue/WQ/Sumeru_73506/Q7350602",
      "heroTalk": "TALK_HERO_MAIN",
      "questId": 73506,
      "prePerformCfg": ""
    },
    {
      "id": 7350603,
      "beginWay": "TALK_BEGIN_MANUAL",
      "activeMode": "PLAY_MODE_SINGLE",
      "beginCond": [
        {
          "type": "QUEST_COND_STATE_EQUAL",
          "param": [
            "7350603",
            "2"
          ],
          "param_str": ""
        }
      ],
      "priority": 5,
      "initDialog": 735060301,
      "npcId": [
        30279
      ],
      "performCfg": "QuestDialogue/WQ/Sumeru_73506/Q7350603",
      "heroTalk": "TALK_HERO_MAIN",
      "questId": 73506,
      "prePerformCfg": ""
    },
    {
      "id": 7350604,
      "beginWay": "TALK_BEGIN_MANUAL",
      "activeMode": "PLAY_MODE_SINGLE",
      "beginCond": [
        {
          "type": "QUEST_COND_STATE_EQUAL",
          "param": [
            "7350603",
            "2"
          ],
          "param_str": ""
        }
      ],
      "priority": 5,
      "initDialog": 735060401,
      "npcId": [
        2602
      ],
      "performCfg": "QuestDialogue/WQ/Sumeru_73506/Q7350604",
      "heroTalk": "TALK_HERO_MAIN",
      "questId": 73506,
      "prePerformCfg": ""
    },
    {
      "id": 7350621,
      "activeMode": "PLAY_MODE_SINGLE",
      "beginCondComb": "LOGIC_AND",
      "beginCond": [
        {
          "type": "QUEST_COND_STATE_EQUAL",
          "param": [
            "7350602",
            "2"
          ],
          "param_str": ""
        },
        {
          "type": "QUEST_COND_QUEST_GLOBAL_VAR_EQUAL",
          "param": [
            "302617",
            "1"
          ],
          "param_str": ""
        }
      ],
      "priority": 3,
      "nextTalks": [
        7350623
      ],
      "initDialog": 735062101,
      "npcId": [
        2602
      ],
      "performCfg": "QuestDialogue/WQ/Sumeru_73506/Q7350621",
      "heroTalk": "TALK_HERO_MAIN",
      "questId": 73506,
      "prePerformCfg": ""
    },
    {
      "id": 7350622,
      "activeMode": "PLAY_MODE_SINGLE",
      "beginCondComb": "LOGIC_AND",
      "beginCond": [
        {
          "type": "QUEST_COND_STATE_EQUAL",
          "param": [
            "7350602",
            "2"
          ],
          "param_str": ""
        },
        {
          "type": "QUEST_COND_QUEST_GLOBAL_VAR_EQUAL",
          "param": [
            "302617",
            "0"
          ],
          "param_str": ""
        }
      ],
      "priority": 3,
      "nextTalks": [
        7350623
      ],
      "initDialog": 735062201,
      "npcId": [
        2602
      ],
      "performCfg": "QuestDialogue/WQ/Sumeru_73506/Q7350622",
      "heroTalk": "TALK_HERO_MAIN",
      "questId": 73506,
      "prePerformCfg": ""
    },
    {
      "id": 7350623,
      "activeMode": "PLAY_MODE_SINGLE",
      "beginCond": [
        {
          "type": "QUEST_COND_STATE_EQUAL",
          "param": [
            "7350602",
            "2"
          ],
          "param_str": ""
        }
      ],
      "priority": 3,
      "initDialog": 735062301,
      "npcId": [
        2602
      ],
      "performCfg": "QuestDialogue/WQ/Sumeru_73506/Q7350623",
      "heroTalk": "TALK_HERO_MAIN",
      "questId": 73506,
      "prePerformCfg": ""
    }
  ]
}