{
  "id": 73517,
  "type": "WQ",
  "titleTextMapHash": 4138030311,
  "descTextMapHash": 878525902,
  "luaPath": "Actor/Quest/WQ73517",
  "rewardIdList": [
    173517
  ],
  "subQuests": [
    {
      "mainId": 73517,
      "subId": 7351701,
      "order": 2,
      "descTextMapHash": 3548750868,
      "acceptCond": [
        {
          "type": "QUEST_COND_UNKNOWN",
          "param": [
            0,
            0
          ]
        }
      ],
      "finishCond": [],
      "failCond": [],
      "guide": {
        "type": "QUEST_GUIDE_NPC",
        "param": [
          "30342"
        ],
        "guideScene": 3,
        "guideStyle": "QUEST_GUIDE_STYLE_TARGET",
        "guideLayer": "QUEST_GUIDE_LAYER_SCENE"
      },
      "finishExec": [],
      "failExec": [],
      "beginExec": []
    },
    {
      "mainId": 73517,
      "subId": 7351702,
      "order": 1,
      "descTextMapHash": 1751640932,
      "acceptCond": [
        {
          "type": "QUEST_COND_UNKNOWN",
          "param": [
            0,
            0
          ]
        }
      ],
      "finishCond": [],
      "failCond": [],
      "guide": {},
      "finishExec": [],
      "failExec": [],
      "beginExec": []
    }
  ],
  "talks": [
    {
      "id": 7351701,
      "beginWay": "TALK_BEGIN_MANUAL",
      "activeMode": "PLAY_MODE_SINGLE",
      "beginCond": [
        {
          "type": "QUEST_COND_STATE_EQUAL",
          "param": [
            "7351701",
            "2"
          ],
          "param_str": ""
        }
      ],
      "priority": 5,
      "initDialog": 735170101,
      "npcId": [
        30342,
        30343
      ],
      "performCfg": "QuestDialogue/WQ/V3.6SandSworm/Q7351701",
      "heroTalk": "TALK_HERO_MAIN",
      "questId": 73517,
      "prePerformCfg": "",
      "forceNpcNotDestroy": true
    }
  ]
}