{
  "id": 73651,
  "type": "WQ",
  "series": 5087,
  "titleTextMapHash": 646461503,
  "descTextMapHash": 2139817382,
  "luaPath": "Actor/Quest/WQ73651",
  "rewardIdList": [
    173651
  ],
  "subQuests": [
    {
      "mainId": 73651,
      "subId": 7365101,
      "order": 1,
      "descTextMapHash": 843307292,
      "acceptCond": [
        {
          "type": "QUEST_COND_UNKNOWN",
          "param": [
            0,
            0
          ]
        }
      ],
      "finishCond": [],
      "failCond": [],
      "guide": {
        "type": "QUEST_GUIDE_NPC",
        "param": [
          "30226"
        ],
        "guideScene": 3,
        "guideStyle": "QUEST_GUIDE_STYLE_TARGET",
        "guideLayer": "QUEST_GUIDE_LAYER_SCENE"
      },
      "finishExec": [],
      "failExec": [],
      "beginExec": []
    }
  ],
  "talks": [
    {
      "id": 7365101,
      "beginWay": "TALK_BEGIN_MANUAL",
      "activeMode": "PLAY_MODE_SINGLE",
      "beginCond": [
        {
          "type": "QUEST_COND_STATE_EQUAL",
          "param": [
            "7365101",
            "2"
          ],
          "param_str": ""
        }
      ],
      "priority": 5,
      "initDialog": 736510101,
      "npcId": [
        30226,
        1005
      ],
      "performCfg": "QuestDialogue/WQ/Sumeru_73651/Q7365101",
      "heroTalk": "TALK_HERO_MAIN",
      "questId": 73651,
      "prePerformCfg": ""
    }
  ]
}