{
  "id": 73662,
  "type": "WQ",
  "titleTextMapHash": 125132599,
  "descTextMapHash": 2043499574,
  "luaPath": "Actor/Quest/WQ73662",
  "subQuests": [
    {
      "mainId": 73662,
      "subId": 7366201,
      "order": 1,
      "descTextMapHash": 1310403828,
      "acceptCond": [
        {
          "type": "QUEST_COND_UNKNOWN",
          "param": [
            0,
            0
          ]
        }
      ],
      "finishCond": [],
      "failCond": [],
      "guide": {
        "type": "QUEST_GUIDE_NPC",
        "param": [
          "4140"
        ],
        "guideScene": 3,
        "guideStyle": "QUEST_GUIDE_STYLE_TARGET",
        "guideLayer": "QUEST_GUIDE_LAYER_SCENE"
      },
      "finishExec": [],
      "failExec": [],
      "beginExec": []
    },
    {
      "mainId": 73662,
      "subId": 7366202,
      "order": 2,
      "descTextMapHash": 4084209916,
      "acceptCond": [
        {
          "type": "QUEST_COND_UNKNOWN",
          "param": [
            0,
            0
          ]
        }
      ],
      "finishCond": [],
      "failCond": [],
      "guide": {
        "type": "QUEST_GUIDE_NPC",
        "param": [
          "4140"
        ],
        "guideScene": 3,
        "guideStyle": "QUEST_GUIDE_STYLE_TARGET",
        "guideLayer": "QUEST_GUIDE_LAYER_SCENE"
      },
      "finishExec": [],
      "failExec": [],
      "beginExec": []
    }
  ],
  "talks": [
    {
      "id": 7366201,
      "activeMode": "PLAY_MODE_SINGLE",
      "beginCondComb": "LOGIC_AND",
      "beginCond": [
        {
          "type": "QUEST_COND_STATE_EQUAL",
          "param": [
            "7366201",
            "2"
          ],
          "param_str": ""
        },
        {
          "type": "QUEST_COND_ITEM_GIVING_ACTIVED",
          "param": [
            "7366201"
          ],
          "param_str": ""
        }
      ],
      "priority": 5,
      "initDialog": 736620101,
      "npcId": [
        4140
      ],
      "performCfg": "",
      "questId": 73662,
      "dontBlockDaily": true,
      "prePerformCfg": ""
    },
    {
      "id": 7366202,
      "beginWay": "TALK_BEGIN_AUTO",
      "activeMode": "PLAY_MODE_SINGLE",
      "beginCond": [
        {
          "type": "QUEST_COND_STATE_EQUAL",
          "param": [
            "7366202",
            "2"
          ],
          "param_str": ""
        }
      ],
      "priority": 5,
      "initDialog": 736620201,
      "npcId": [
        4140
      ],
      "performCfg": "",
      "questId": 73662,
      "prePerformCfg": ""
    }
  ]
}