{
  "id": 73666,
  "type": "WQ",
  "titleTextMapHash": 501820783,
  "descTextMapHash": 523583294,
  "luaPath": "Actor/Quest/WQ73666",
  "subQuests": [
    {
      "mainId": 73666,
      "subId": 7366601,
      "order": 1,
      "descTextMapHash": 58374612,
      "acceptCond": [
        {
          "type": "QUEST_COND_UNKNOWN",
          "param": [
            0,
            0
          ]
        }
      ],
      "finishCond": [],
      "failCond": [],
      "guide": {
        "type": "QUEST_GUIDE_LOCATION",
        "param": [
          "Q7366601",
          "30"
        ],
        "guideScene": 3,
        "guideStyle": "QUEST_GUIDE_STYLE_TARGET",
        "guideLayer": "QUEST_GUIDE_LAYER_SCENE"
      },
      "finishExec": [],
      "failExec": [],
      "beginExec": []
    }
  ]
}