{
  "id": 73698,
  "type": "WQ",
  "series": 73697,
  "titleTextMapHash": 1202961559,
  "descTextMapHash": 1888522494,
  "luaPath": "Actor/Quest/WQ73698",
  "suggestTrackMainQuestList": [
    73699
  ],
  "rewardIdList": [
    173698
  ],
  "subQuests": [
    {
      "mainId": 73698,
      "subId": 7369801,
      "order": 5,
      "descTextMapHash": 1622786732,
      "acceptCond": [
        {
          "type": "QUEST_COND_UNKNOWN",
          "param": [
            0,
            0
          ]
        }
      ],
      "finishCond": [],
      "failCond": [],
      "guide": {
        "type": "QUEST_GUIDE_NPC",
        "param": [
          "4284"
        ],
        "guideScene": 3,
        "guideStyle": "QUEST_GUIDE_STYLE_TARGET",
        "guideLayer": "QUEST_GUIDE_LAYER_SCENE"
      },
      "finishExec": [],
      "failExec": [],
      "beginExec": []
    },
    {
      "mainId": 73698,
      "subId": 7369802,
      "order": 6,
      "descTextMapHash": 378201940,
      "acceptCond": [
        {
          "type": "QUEST_COND_UNKNOWN",
          "param": [
            0,
            0
          ]
        }
      ],
      "finishCond": [],
      "failCond": [],
      "guide": {
        "type": "QUEST_GUIDE_LOCATION",
        "param": [
          "Q7369802_guide"
        ],
        "guideScene": 3,
        "guideStyle": "QUEST_GUIDE_STYLE_TARGET"
      },
      "finishExec": [],
      "failExec": [],
      "beginExec": []
    },
    {
      "mainId": 73698,
      "subId": 7369803,
      "order": 7,
      "descTextMapHash": 773320212,
      "acceptCond": [
        {
          "type": "QUEST_COND_UNKNOWN",
          "param": [
            0,
            0
          ]
        }
      ],
      "finishCond": [],
      "failCond": [],
      "guide": {
        "guideScene": 3,
        "guideStyle": "QUEST_GUIDE_STYLE_TARGET"
      },
      "finishExec": [],
      "failExec": [],
      "beginExec": []
    },
    {
      "mainId": 73698,
      "subId": 7369804,
      "order": 8,
      "descTextMapHash": 2026762652,
      "acceptCond": [
        {
          "type": "QUEST_COND_UNKNOWN",
          "param": [
            0,
            0
          ]
        }
      ],
      "finishCond": [],
      "failCond": [],
      "guide": {
        "type": "QUEST_GUIDE_LOCATION",
        "param": [
          "Q7369804_guide"
        ],
        "guideScene": 3,
        "guideStyle": "QUEST_GUIDE_STYLE_TARGET"
      },
      "finishExec": [],
      "failExec": [],
      "beginExec": []
    },
    {
      "mainId": 73698,
      "subId": 7369805,
      "order": 9,
      "descTextMapHash": 3841571812,
      "acceptCond": [
        {
          "type": "QUEST_COND_UNKNOWN",
          "param": [
            0,
            0
          ]
        }
      ],
      "finishCond": [],
      "failCond": [],
      "guide": {
        "guideScene": 3,
        "guideStyle": "QUEST_GUIDE_STYLE_TARGET"
      },
      "finishExec": [],
      "failExec": [],
      "beginExec": []
    },
    {
      "mainId": 73698,
      "subId": 7369806,
      "order": 10,
      "descTextMapHash": 1619359004,
      "acceptCond": [
        {
          "type": "QUEST_COND_UNKNOWN",
          "param": [
            0,
            0
          ]
        }
      ],
      "finishCond": [],
      "failCond": [],
      "guide": {
        "type": "QUEST_GUIDE_LOCATION",
        "param": [
          "Q7369806_N13210"
        ],
        "guideScene": 3,
        "guideStyle": "QUEST_GUIDE_STYLE_POINT",
        "guideLayer": "QUEST_GUIDE_LAYER_SCENE"
      },
      "finishExec": [],
      "failExec": [],
      "beginExec": []
    }
  ],
  "talks": [
    {
      "id": 7369801,
      "beginWay": "TALK_BEGIN_MANUAL",
      "activeMode": "PLAY_MODE_SINGLE",
      "beginCond": [
        {
          "type": "QUEST_COND_STATE_EQUAL",
          "param": [
            "7369801",
            "2"
          ],
          "param_str": ""
        }
      ],
      "priority": 5,
      "initDialog": 736980101,
      "npcId": [
        4284
      ],
      "performCfg": "QuestDialogue/WQ/Sumeru_73697/Q7369801",
      "heroTalk": "TALK_HERO_MAIN",
      "questId": 73698,
      "prePerformCfg": "",
      "forceNpcNotDestroy": true
    },
    {
      "id": 7369806,
      "beginWay": "TALK_BEGIN_MANUAL",
      "activeMode": "PLAY_MODE_SINGLE",
      "beginCond": [
        {
          "type": "QUEST_COND_STATE_EQUAL",
          "param": [
            "7369806",
            "2"
          ],
          "param_str": ""
        }
      ],
      "priority": 5,
      "initDialog": 736980601,
      "npcId": [
        13210
      ],
      "performCfg": "QuestDialogue/WQ/Sumeru_73697/Q7369806",
      "heroTalk": "TALK_HERO_MAIN",
      "questId": 73698,
      "prePerformCfg": "",
      "forceNpcNotDestroy": true
    }
  ]
}