{
  "id": 73695,
  "type": "WQ",
  "titleTextMapHash": 1449647015,
  "descTextMapHash": 1808605214,
  "luaPath": "Actor/Quest/WQ73695",
  "rewardIdList": [
    173695
  ],
  "subQuests": [
    {
      "mainId": 73695,
      "subId": 7369501,
      "order": 1,
      "descTextMapHash": 711853148,
      "acceptCond": [
        {
          "type": "QUEST_COND_UNKNOWN",
          "param": [
            0,
            0
          ]
        }
      ],
      "finishCond": [],
      "failCond": [],
      "guide": {
        "type": "QUEST_GUIDE_NPC",
        "param": [
          "30351"
        ],
        "guideScene": 3,
        "guideStyle": "QUEST_GUIDE_STYLE_TARGET",
        "guideLayer": "QUEST_GUIDE_LAYER_SCENE"
      },
      "finishExec": [],
      "failExec": [],
      "beginExec": []
    },
    {
      "mainId": 73695,
      "subId": 7369502,
      "order": 2,
      "descTextMapHash": 4162114364,
      "acceptCond": [
        {
          "type": "QUEST_COND_UNKNOWN",
          "param": [
            0,
            0
          ]
        }
      ],
      "finishCond": [],
      "failCond": [],
      "guide": {
        "type": "QUEST_GUIDE_NPC",
        "param": [
          "30351"
        ],
        "guideScene": 3,
        "guideStyle": "QUEST_GUIDE_STYLE_TARGET",
        "guideLayer": "QUEST_GUIDE_LAYER_SCENE"
      },
      "finishExec": [],
      "failExec": [],
      "beginExec": []
    }
  ],
  "talks": [
    {
      "id": 7369502,
      "beginWay": "TALK_BEGIN_MANUAL",
      "activeMode": "PLAY_MODE_HOST",
      "beginCond": [
        {
          "type": "QUEST_COND_STATE_EQUAL",
          "param": [
            "7369502",
            "2"
          ],
          "param_str": ""
        }
      ],
      "priority": 5,
      "initDialog": 736950201,
      "npcId": [
        30351
      ],
      "performCfg": "QuestDialogue/WQ/Sumeru_73695/Q7369502",
      "heroTalk": "TALK_HERO_MAIN",
      "questId": 73695,
      "prePerformCfg": ""
    },
    {
      "id": 7369503,
      "beginWay": "TALK_BEGIN_MANUAL",
      "activeMode": "PLAY_MODE_HOST",
      "beginCondComb": "LOGIC_AND",
      "beginCond": [
        {
          "type": "QUEST_COND_STATE_EQUAL",
          "param": [
            "7369501",
            "2"
          ],
          "param_str": ""
        },
        {
          "type": "QUEST_COND_ITEM_GIVING_ACTIVED",
          "param": [
            "7369503"
          ],
          "param_str": ""
        }
      ],
      "priority": 5,
      "initDialog": 736950201,
      "npcId": [
        30351
      ],
      "performCfg": "QuestDialogue/WQ/Sumeru_73695/Q7369503",
      "heroTalk": "TALK_HERO_MAIN",
      "questId": 73695,
      "prePerformCfg": ""
    }
  ]
}