{
  "id": 73906,
  "type": "WQ",
  "titleTextMapHash": 240594239,
  "descTextMapHash": 684568294,
  "luaPath": "",
  "showType": "QUEST_HIDDEN",
  "rewardIdList": [
    554030
  ],
  "subQuests": [
    {
      "mainId": 73906,
      "subId": 7390601,
      "order": 1,
      "showType": "QUEST_HIDDEN",
      "acceptCond": [
        {
          "type": "QUEST_COND_UNKNOWN",
          "param": [
            0,
            0
          ]
        }
      ],
      "finishCond": [],
      "failCond": [],
      "guide": {},
      "finishExec": [],
      "failExec": [],
      "beginExec": []
    }
  ]
}