{
  "id": 73917,
  "type": "WQ",
  "titleTextMapHash": 3300905471,
  "descTextMapHash": 1606104974,
  "luaPath": "",
  "showType": "QUEST_HIDDEN",
  "rewardIdList": [
    554041
  ],
  "subQuests": [
    {
      "mainId": 73917,
      "subId": 7391701,
      "order": 1,
      "showType": "QUEST_HIDDEN",
      "acceptCond": [
        {
          "type": "QUEST_COND_UNKNOWN",
          "param": [
            0,
            0
          ]
        }
      ],
      "finishCond": [],
      "failCond": [],
      "guide": {},
      "finishExec": [],
      "failExec": [],
      "beginExec": []
    }
  ]
}