{
  "id": 73921,
  "type": "WQ",
  "titleTextMapHash": 301886775,
  "descTextMapHash": 295852510,
  "luaPath": "",
  "showType": "QUEST_HIDDEN",
  "rewardIdList": [
    554003
  ],
  "subQuests": [
    {
      "mainId": 73921,
      "subId": 7392101,
      "order": 1,
      "showType": "QUEST_HIDDEN",
      "acceptCond": [
        {
          "type": "QUEST_COND_UNKNOWN",
          "param": [
            0,
            0
          ]
        }
      ],
      "finishCond": [],
      "failCond": [],
      "guide": {},
      "finishExec": [],
      "failExec": [],
      "beginExec": []
    }
  ]
}