{
  "id": 73932,
  "type": "WQ",
  "titleTextMapHash": 2597808759,
  "descTextMapHash": 1109385718,
  "luaPath": "",
  "showType": "QUEST_HIDDEN",
  "rewardIdList": [
    554014
  ],
  "subQuests": [
    {
      "mainId": 73932,
      "subId": 7393201,
      "order": 1,
      "showType": "QUEST_HIDDEN",
      "acceptCond": [
        {
          "type": "QUEST_COND_UNKNOWN",
          "param": [
            0,
            0
          ]
        }
      ],
      "finishCond": [],
      "failCond": [],
      "guide": {},
      "finishExec": [],
      "failExec": [],
      "beginExec": []
    }
  ]
}