{
  "id": 73935,
  "type": "WQ",
  "titleTextMapHash": 3170480255,
  "descTextMapHash": 1303396662,
  "luaPath": "",
  "showType": "QUEST_HIDDEN",
  "rewardIdList": [
    554017
  ],
  "subQuests": [
    {
      "mainId": 73935,
      "subId": 7393501,
      "order": 1,
      "showType": "QUEST_HIDDEN",
      "acceptCond": [
        {
          "type": "QUEST_COND_UNKNOWN",
          "param": [
            0,
            0
          ]
        }
      ],
      "finishCond": [],
      "failCond": [],
      "guide": {},
      "finishExec": [],
      "failExec": [],
      "beginExec": []
    }
  ]
}