{
  "id": 73941,
  "type": "WQ",
  "titleTextMapHash": 3088570175,
  "descTextMapHash": 284232302,
  "luaPath": "",
  "showType": "QUEST_HIDDEN",
  "rewardIdList": [
    554023
  ],
  "subQuests": [
    {
      "mainId": 73941,
      "subId": 7394101,
      "order": 1,
      "showType": "QUEST_HIDDEN",
      "acceptCond": [
        {
          "type": "QUEST_COND_UNKNOWN",
          "param": [
            0,
            0
          ]
        }
      ],
      "finishCond": [],
      "failCond": [],
      "guide": {},
      "finishExec": [],
      "failExec": [],
      "beginExec": []
    }
  ]
}