{
  "id": 73940,
  "type": "WQ",
  "titleTextMapHash": 2592864831,
  "descTextMapHash": 4025570054,
  "luaPath": "",
  "showType": "QUEST_HIDDEN",
  "rewardIdList": [
    554022
  ],
  "subQuests": [
    {
      "mainId": 73940,
      "subId": 7394001,
      "order": 1,
      "showType": "QUEST_HIDDEN",
      "acceptCond": [
        {
          "type": "QUEST_COND_UNKNOWN",
          "param": [
            0,
            0
          ]
        }
      ],
      "finishCond": [],
      "failCond": [],
      "guide": {},
      "finishExec": [],
      "failExec": [],
      "beginExec": []
    }
  ]
}