{
  "id": 73943,
  "type": "WQ",
  "titleTextMapHash": 1624668735,
  "descTextMapHash": 602227326,
  "luaPath": "",
  "showType": "QUEST_HIDDEN",
  "rewardIdList": [
    554025
  ],
  "subQuests": [
    {
      "mainId": 73943,
      "subId": 7394301,
      "order": 1,
      "showType": "QUEST_HIDDEN",
      "acceptCond": [
        {
          "type": "QUEST_COND_UNKNOWN",
          "param": [
            0,
            0
          ]
        }
      ],
      "finishCond": [],
      "failCond": [],
      "guide": {},
      "finishExec": [],
      "failExec": [],
      "beginExec": []
    }
  ]
}