{
  "id": 73959,
  "type": "WQ",
  "titleTextMapHash": 3879020847,
  "descTextMapHash": 3145449382,
  "luaPath": "",
  "showType": "QUEST_HIDDEN",
  "rewardIdList": [
    554060
  ],
  "subQuests": [
    {
      "mainId": 73959,
      "subId": 7395901,
      "order": 1,
      "showType": "QUEST_HIDDEN",
      "acceptCond": [
        {
          "type": "QUEST_COND_UNKNOWN",
          "param": [
            0,
            0
          ]
        }
      ],
      "finishCond": [],
      "failCond": [],
      "guide": {},
      "finishExec": [],
      "failExec": [],
      "beginExec": []
    }
  ]
}