{
  "id": 73963,
  "type": "WQ",
  "titleTextMapHash": 1389779383,
  "descTextMapHash": 2407969006,
  "luaPath": "",
  "showType": "QUEST_HIDDEN",
  "rewardIdList": [
    554064
  ],
  "subQuests": [
    {
      "mainId": 73963,
      "subId": 7396301,
      "order": 1,
      "showType": "QUEST_HIDDEN",
      "acceptCond": [
        {
          "type": "QUEST_COND_UNKNOWN",
          "param": [
            0,
            0
          ]
        }
      ],
      "finishCond": [],
      "failCond": [],
      "guide": {},
      "finishExec": [],
      "failExec": [],
      "beginExec": []
    }
  ]
}