{
  "id": 73975,
  "type": "WQ",
  "titleTextMapHash": 4095172783,
  "descTextMapHash": 3878259070,
  "luaPath": "",
  "showType": "QUEST_HIDDEN",
  "rewardIdList": [
    554072
  ],
  "subQuests": [
    {
      "mainId": 73975,
      "subId": 7397501,
      "order": 1,
      "showType": "QUEST_HIDDEN",
      "acceptCond": [
        {
          "type": "QUEST_COND_UNKNOWN",
          "param": [
            0,
            0
          ]
        }
      ],
      "finishCond": [],
      "failCond": [],
      "guide": {},
      "finishExec": [],
      "failExec": [],
      "beginExec": []
    }
  ]
}