{
  "id": 8014,
  "series": 1308,
  "titleTextMapHash": 3530024511,
  "descTextMapHash": 2649586286,
  "luaPath": "Actor/Quest/AQ8014",
  "showType": "QUEST_HIDDEN",
  "chapterId": 1308,
  "subQuests": [
    {
      "mainId": 8014,
      "subId": 801401,
      "order": 1,
      "showType": "QUEST_HIDDEN",
      "acceptCond": [
        {
          "type": "QUEST_COND_UNKNOWN",
          "param": [
            0,
            0
          ]
        }
      ],
      "finishCond": [],
      "failCond": [],
      "guide": {},
      "finishExec": [],
      "failExec": [],
      "beginExec": []
    }
  ]
}