{
  "common": {
    "effectAttachShape": {
      "$type": "ConfigEffectAttachSkinnedMesh",
      "mesh": "Body"
    },
    "mass": 1000000000.0,
    "height": 10.0,
    "scale": 0.6000000238418579,
    "disableTickDistance": 10000.0,
    "shouldPauseAnimatorBeforeReady": true,
    "clearAnimatorOnSetLightDeactive": true,
    "clearAIOnSetLightDeactive": true
  },
  "specialPoint": {
    "elementAbsorb": "RootNode",
    "elementPendant": "",
    "elementDrop": "RootNode",
    "bulletAim": "RootNode",
    "hitPoints": [
      "LockPointNeck",
      "LockPointHead",
      "LockPoint01",
      "LockPoint05",
      "LockPoint09"
    ],
    "selectedPoints": [
      "LockPointNeck",
      "LockPointHead",
      "LockPoint01",
      "LockPoint05",
      "LockPoint09"
    ],
    "BFDKBAEPAGA": true,
    "HFJOMFCOAJI": 5.0
  },
  "model": {
    "bornEffect": "",
    "attachEffect": "",
    "canBakeMesh": false
  },
  "combat": {
    "property": {
      "endureType": "Monster_Boss_Other",
      "weight": 1000.0
    },
    "beHit": {
      "hitBloodEffect": "",
      "hitAutoRedirect": false,
      "blendShake": {
        "$type": "IIGJGFPICFL",
        "CEDOPNOMIKP": [
          {
            "CNAAGCGFKDA": 0.33000001311302185,
            "hitBoxNames": ["HitBox_01", "HitBox_02"]
          },
          {
            "CNAAGCGFKDA": 0.6600000262260437,
            "hitBoxNames": ["HitBox_03", "HitBox_04", "HitBox_05"]
          },
          {
            "CNAAGCGFKDA": 1.0,
            "hitBoxNames": ["HitBox_06", "HitBox_07"]
          }
        ]
      }
    },
    "combatLock": {
      "lockShape": "CircleLockEnemy",
      "lockWeightYaxisParam": 0.20000000298023224,
      "lockWeightYaxisThreshold": 15.0,
      "lockType": "Avatar&Monster_Lv4"
    },
    "die": {
      "hasAnimatorDie": true,
      "dieEndTime": 2.0,
      "dieForceDisappearTime": 4.0,
      "dieDisappearEffect": "Eff_Death_Common",
      "dieShaderData": "MonsterDie",
      "dieModelFadeDelay": 0.5,
      "OCGODEHJPME": true,
      "MFJBKFECLNJ": true,
      "IMEEBMBJPGJ": true,
      "ICHFPLMNCLC": true,
      "MBHMAGEPJFH": true,
      "CFHPDHFKMEP": true
    }
  },
  "abilities": [
    {
      "abilityID": "",
      "abilityName": "Monster_Hound_Planelurker_StateControl",
      "abilityOverride": ""
    },
    {
      "abilityID": "",
      "abilityName": "Monster_Hound_Planelurker_SetFollowHoundOff",
      "abilityOverride": ""
    },
    {
      "abilityID": "",
      "abilityName": "Monster_Hound_Planelurker_SetFollowHoundOn",
      "abilityOverride": ""
    },
    {
      "abilityID": "",
      "abilityName": "Monster_Hound_Planelurker_FireEnergy",
      "abilityOverride": ""
    },
    {
      "abilityID": "",
      "abilityName": "Monster_Hound_Planelurker_Steer",
      "abilityOverride": ""
    },
    {
      "abilityID": "",
      "abilityName": "Monster_Hound_Planelurker_OnGroundCharge",
      "abilityOverride": ""
    },
    {
      "abilityID": "",
      "abilityName": "Monster_Hound_Planelurker_RockBreath",
      "abilityOverride": ""
    },
    {
      "abilityID": "",
      "abilityName": "Monster_Hound_Planelurker_DeathTornado",
      "abilityOverride": ""
    },
    {
      "abilityID": "",
      "abilityName": "Monster_Hound_Planelurker_DeathTornadoAS",
      "abilityOverride": ""
    },
    {
      "abilityID": "",
      "abilityName": "Monster_Hound_Planelurker_Swap",
      "abilityOverride": ""
    },
    {
      "abilityID": "",
      "abilityName": "Monster_Hound_Planelurker_ElementBurst",
      "abilityOverride": ""
    },
    {
      "abilityID": "",
      "abilityName": "Monster_Hound_Planelurker_ElementBurstExplode",
      "abilityOverride": ""
    },
    {
      "abilityID": "",
      "abilityName": "Monster_Hound_Planelurker_FindBlinkPoint_ElementBurstStart",
      "abilityOverride": ""
    },
    {
      "abilityID": "",
      "abilityName": "Monster_Hound_Planelurker_ElementBurstAS",
      "abilityOverride": ""
    },
    {
      "abilityID": "",
      "abilityName": "Monster_Hound_Planelurker_Blink",
      "abilityOverride": ""
    },
    {
      "abilityID": "",
      "abilityName": "Monster_Hound_Planelurker_SummonHound",
      "abilityOverride": ""
    },
    {
      "abilityID": "",
      "abilityName": "Monster_Hound_Planelurker_SummonHound_TriggerChargeStart",
      "abilityOverride": ""
    },
    {
      "abilityID": "",
      "abilityName": "Monster_Hound_Planelurker_Corruption_LoseHP",
      "abilityOverride": ""
    },
    {
      "abilityID": "",
      "abilityName": "Monster_Hound_Planelurker_Weak",
      "abilityOverride": ""
    },
    {
      "abilityID": "",
      "abilityName": "Monster_Hound_Planelurker_WeakBS",
      "abilityOverride": ""
    },
    {
      "abilityID": "",
      "abilityName": "Monster_Hound_Planelurker_WeakDestroyRockGadget",
      "abilityOverride": ""
    },
    {
      "abilityID": "",
      "abilityName": "Monster_Hound_Planelurker_ReturnToBorn",
      "abilityOverride": ""
    }
  ],
  "stateLayers": {
    "defaultLayer": {
      "$type": "ConfigNormalStateLayer",
      "FNPGDAEJAPJ": "",
      "stateIDs": {
        "Born": {
          "$type": "ConfigMonsterStateIDInfo",
          "animatorStates": {
            "Born": []
          },
          "canSyncMove": true,
          "resetAnimatorTriggerOnExit": ["DoSkill"]
        },
        "NormalIdle_StandbyFree": {
          "$type": "ConfigMonsterStateIDInfo",
          "animatorStates": {
            "Standby_Free": []
          },
          "canDoSkill": true,
          "canSyncMove": true,
          "resetAnimatorTriggerOnExit": ["DoSkill"]
        },
        "NormalIdle_NotDoSkill01": {
          "$type": "ConfigMonsterStateIDInfo",
          "animatorStates": {
            "Standby_NotDoSkill01": []
          },
          "canSyncMove": true,
          "resetAnimatorTriggerOnExit": ["DoSkill"],
          "BHEPAJIOBDN": true
        },
        "NormalIdle_NotDoSkill02": {
          "$type": "ConfigMonsterStateIDInfo",
          "animatorStates": {
            "Standby_NotDoSkill02": ["Audio_Monster_Planelurker_NotDoSkill02"]
          },
          "canSyncMove": true,
          "resetAnimatorTriggerOnExit": ["DoSkill"],
          "BHEPAJIOBDN": true
        },
        "NormalIdle_DoSkill01": {
          "$type": "ConfigMonsterStateIDInfo",
          "animatorStates": {
            "Standby_DoSkill01": []
          },
          "canDoSkill": true,
          "canSyncMove": true,
          "resetAnimatorTriggerOnExit": ["DoSkill"],
          "BHEPAJIOBDN": true
        },
        "ToSkill01": {
          "$type": "ConfigMonsterStateIDInfo",
          "animatorStates": {
            "ToSkill01": ["Audio_Monster_Planelurker_ToSkill01"]
          },
          "AAEKKGMOKFK": true,
          "resetAnimatorTriggerOnExit": ["DoSkill"],
          "BHEPAJIOBDN": true
        },
        "Alert": {
          "$type": "ConfigMonsterStateIDInfo",
          "animatorStates": {
            "Alert": [
              "Monster_Hound_Planelurker_Alert",
              "Audio_Monster_Planelurker_Alert"
            ]
          },
          "AAEKKGMOKFK": true,
          "resetAnimatorTriggerOnExit": ["BeHit", "DoSkill"],
          "BHEPAJIOBDN": true
        },
        "FireEnergy": {
          "$type": "ConfigMonsterStateIDInfo",
          "animatorStates": {
            "FireEnergy": [
              "Monster_Hound_Planelurker_FireEnergy",
              "Audio_Monster_Planelurker_FireEnergy"
            ]
          },
          "resetAnimatorTriggerOnExit": ["BeHit", "DoSkill"],
          "BHEPAJIOBDN": true
        },
        "Swap": {
          "$type": "ConfigMonsterStateIDInfo",
          "animatorStates": {
            "Swap": [
              "Monster_Hound_Planelurker_Swap",
              "Audio_Monster_Planelurker_Swap"
            ]
          },
          "resetAnimatorTriggerOnExit": ["BeHit", "DoSkill"],
          "BHEPAJIOBDN": true
        },
        "SummonHoundBS": {
          "$type": "ConfigMonsterStateIDInfo",
          "animatorStates": {
            "SummonHound_BS": ["Audio_Monster_Planelurker_ToSkill01"]
          },
          "resetAnimatorTriggerOnExit": ["BeHit", "DoSkill"],
          "BHEPAJIOBDN": true
        },
        "SummonHound": {
          "$type": "ConfigMonsterStateIDInfo",
          "animatorStates": {
            "SummonHound": [
              "Monster_Hound_Planelurker_SummonHound",
              "Audio_Monster_Planelurker_SummonHound"
            ]
          },
          "resetAnimatorTriggerOnExit": ["BeHit", "DoSkill"],
          "BHEPAJIOBDN": true
        },
        "OnGroundChargeBS": {
          "$type": "ConfigMonsterStateIDInfo",
          "animatorStates": {
            "OnGroundCharge_BS": ["Audio_Monster_Planelurker_ToSkill01"]
          },
          "AAEKKGMOKFK": true,
          "resetAnimatorTriggerOnExit": ["BeHit", "DoSkill"],
          "BHEPAJIOBDN": true
        },
        "OnGroundCharge": {
          "$type": "ConfigMonsterStateIDInfo",
          "animatorStates": {
            "OnGroundCharge": [
              "Monster_Hound_Planelurker_OnGroundCharge",
              "Audio_Monster_Planelurker_OnGroundCharge"
            ]
          },
          "AAEKKGMOKFK": true,
          "resetAnimatorTriggerOnExit": ["BeHit", "DoSkill"],
          "BHEPAJIOBDN": true,
          "ECGKJECEAII": true
        },
        "RockBreath": {
          "$type": "ConfigMonsterStateIDInfo",
          "animatorStates": {
            "RockBreathLeft": [
              "Monster_Hound_Planelurker_RockBreath",
              "Audio_Monster_Planelurker_RockBreathLeft"
            ],
            "RockBreathRight": [
              "Monster_Hound_Planelurker_RockBreath",
              "Audio_Monster_Planelurker_RockBreathLeft"
            ]
          },
          "resetAnimatorTriggerOnExit": ["BeHit", "DoSkill"],
          "BHEPAJIOBDN": true
        },
        "DeathTornadoBS": {
          "$type": "ConfigMonsterStateIDInfo",
          "animatorStates": {
            "DeathTornado_BS": ["Audio_Monster_Planelurker_DeathTornado_BS"]
          },
          "resetAnimatorTriggerOnExit": ["BeHit", "DoSkill"],
          "BHEPAJIOBDN": true
        },
        "DeathTornadoLoop": {
          "$type": "ConfigMonsterStateIDInfo",
          "animatorStates": {
            "DeathTornado_Loop": []
          },
          "resetAnimatorTriggerOnExit": ["BeHit", "DoSkill"],
          "BHEPAJIOBDN": true
        },
        "DeathTornadoStay": {
          "$type": "ConfigMonsterStateIDInfo",
          "animatorStates": {
            "DeathTornado_Stay": []
          },
          "resetAnimatorTriggerOnExit": ["BeHit", "DoSkill"],
          "BHEPAJIOBDN": true
        },
        "DeathTornadoAS": {
          "$type": "ConfigMonsterStateIDInfo",
          "animatorStates": {
            "DeathTornado_AS": [
              "Audio_Monster_Planelurker_DeathTornado_AS",
              "Monster_Hound_Planelurker_DeathTornadoAS"
            ]
          },
          "resetAnimatorTriggerOnExit": ["BeHit", "DoSkill"]
        },
        "ElementalBurst": {
          "$type": "ConfigMonsterStateIDInfo",
          "animatorStates": {
            "ElementalBurst_BS": [
              "Audio_Monster_Planelurker_ElementalBurst_BS"
            ],
            "ElementalBurst_Air": [],
            "ElementalBurst_Drop": [
              "Monster_Hound_Planelurker_ElementBurstDrop"
            ],
            "ElementalBurst_UnderGround": [],
            "ElementalBurst_AS": [
              "Monster_Hound_Planelurker_ElementBurstAS",
              "Audio_Monster_Planelurker_ElementalBurst_AS"
            ]
          },
          "AAEKKGMOKFK": true,
          "resetAnimatorTriggerOnExit": ["BeHit", "DoSkill"]
        },
        "ReturnToBorn": {
          "$type": "ConfigMonsterStateIDInfo",
          "animatorStates": {
            "ReturnToBorn": [
              "Monster_Hound_Planelurker_ReturnToBorn",
              "Audio_Monster_Planelurker_ElementalBurst_BS"
            ]
          },
          "resetAnimatorTriggerOnEnter": ["ReturnToBorn"],
          "resetAnimatorTriggerOnExit": ["BeHit", "DoSkill"]
        },
        "Weak": {
          "$type": "ConfigMonsterStateIDInfo",
          "animatorStates": {
            "Weak_BS": [
              "Monster_Hound_Planelurker_WeakBS",
              "Audio_Monster_Planelurker_Weak_BS"
            ],
            "Weak_Loop": ["Monster_Hound_Planelurker_WeakLoop"],
            "Weak_AS": [
              "Monster_Hound_Planelurker_WeakAS",
              "Audio_Monster_Planelurker_Weak_AS"
            ]
          },
          "resetAnimatorTriggerOnEnter": ["WeakStart"],
          "resetAnimatorTriggerOnExit": ["BeHit", "DoSkill", "WeakEnd"]
        },
        "Die": {
          "$type": "ConfigMonsterStateIDInfo",
          "animatorStates": {
            "Die": [
              "Monster_Hound_Planelurker_Die",
              "Audio_Monster_Planelurker_Die"
            ]
          },
          "resetAnimatorTriggerOnExit": ["BeHit", "DoSkill"]
        }
      }
    }
  },
  "billboard": {
    "$type": "NCBABGPMMPL",
    "EBBHBMFMOGD": "BillboardAttach",
    "offset": {
      "y": 2.5
    },
    "OELDMANLPDM": 1.0,
    "KLIMPNOBGLK": true,
    "ANGKJBLILKJ": true,
    "size": "Big"
  },
  "initialPoses": {
    "Default": {}
  },
  "aibeta": {
    "enable": true,
    "moveSetting": {
      "useNavMesh": false,
      "navMeshAgentName": "Undead01",
      "almostReachedDistanceWalk": 2.5,
      "almostReachedDistanceRun": 2.5
    },
    "sensing": {
      "settings": {
        "DefaultSetting": {
          "enableVision": false,
          "feelRange": 10.0
        }
      }
    },
    "threat": {
      "clearThreatTargetDistance": 65.0,
      "clearThreatEdgeDistance": 5.0,
      "clearThreatByTargetOutOfZone": true,
      "clearThreatTimerByTargetOutOfZone": 7.5,
      "viewThreatGrow": 35.0,
      "threatDecreaseSpeed": 200.0,
      "resistTauntLevel": "Monster_TauntLevel_4",
      "auxScoreChangeTargetCD": 0.10000000149011612,
      "abilityGlobalValueScoreSystem": {
        "enable": true,
        "weight": 9999,
        "max": 2.0,
        "compareOperation": "Greater",
        "caredGlobalValueName": "_MONSTER_PLANELURKER_SUMMONHOUNDTAG_"
      }
    },
    "defendArea": {
      "defendRange": 32.5
    },
    "profiling": {
      "lodStrategy": "Best"
    },
    "network": {
      "syncSkill": true
    },
    "skillGroupCDConfigs": [
      {
        "skillGroupCDID": 1,
        "skillGroupCDTime": 5.0
      },
      {
        "skillGroupCDID": 2,
        "skillGroupCDTime": 20.0
      },
      {
        "skillGroupCDID": 3,
        "skillGroupCDTime": 60.0
      },
      {
        "skillGroupCDID": 4,
        "skillGroupCDTime": 10.0
      }
    ],
    "skillSetting": {
      "skillEliteSet": {
        "1": [
          1, 101, 102, 103, 111, 112, 113, 301, 401, 501, 502, 503, 511, 601,
          701, 702, 703, 711, 901
        ],
        "2": [
          1, 101, 102, 103, 111, 112, 113, 301, 401, 501, 502, 503, 511, 602,
          701, 702, 703, 711, 901
        ]
      }
    },
    "skills": {
      "1": {
        "name": "OnAlert",
        "skillType": "OnAlert",
        "castCondition": {
          "pose": [1]
        },
        "publicCDGroup": "",
        "triggerGCD": false,
        "stateIDs": ["Alert"],
        "skillQueryingTime": 3.5,
        "flagTargetReachable": "10",
        "flagSelfOnTemplateCollider": "01",
        "flagSelfInZone": "10",
        "flagTargetInZone": "11"
      },
      "101": {
        "name": "FireEnergy",
        "castCondition": {
          "pose": [101, 301],
          "pickRangeMin": 5.0,
          "pickRangeMax": 25.0
        },
        "cd": 15.0,
        "cdUpperRange": 5.0,
        "publicCDGroup": "",
        "stateIDs": ["FireEnergy"],
        "skillQueryingTime": 2.5,
        "flagTargetReachable": "11",
        "flagSelfOnTemplateCollider": "01",
        "flagSelfInZone": "10",
        "flagTargetInZone": "11"
      },
      "102": {
        "name": "FireEnergy",
        "priority": 4,
        "castCondition": {
          "pose": [101, 301],
          "pickRangeMin": 25.0
        },
        "publicCDGroup": "",
        "stateIDs": ["FireEnergy"],
        "skillQueryingTime": 2.5,
        "flagTargetReachable": "11",
        "flagSelfOnTemplateCollider": "01",
        "flagSelfInZone": "10",
        "flagTargetInZone": "11"
      },
      "103": {
        "name": "FireEnergy",
        "priority": 4,
        "castCondition": {
          "pose": [101, 301],
          "pickRangeMin": 12.5,
          "pickRangeYMin": 5.0
        },
        "publicCDGroup": "",
        "stateIDs": ["FireEnergy"],
        "skillQueryingTime": 2.5,
        "flagTargetReachable": "11",
        "flagSelfOnTemplateCollider": "01",
        "flagSelfInZone": "10",
        "flagTargetInZone": "11"
      },
      "111": {
        "name": "FireEnergy",
        "castCondition": {
          "pose": [201],
          "needReInitCD": true
        },
        "cd": 17.5,
        "cdUpperRange": 5.0,
        "initialCD": 20.0,
        "publicCDGroup": "",
        "skillGroupCDID": 4,
        "stateIDs": ["FireEnergy"],
        "skillQueryingTime": 2.5,
        "flagTargetReachable": "11",
        "flagSelfOnTemplateCollider": "01",
        "flagSelfInZone": "10",
        "flagTargetInZone": "11"
      },
      "112": {
        "name": "FireEnergy",
        "priority": 4,
        "castCondition": {
          "pose": [201],
          "needReInitCD": true,
          "pickRangeYMin": 5.0
        },
        "cd": 5.0,
        "cdUpperRange": 5.0,
        "initialCD": 20.0,
        "publicCDGroup": "",
        "stateIDs": ["FireEnergy"],
        "skillQueryingTime": 2.5,
        "flagTargetReachable": "11",
        "flagSelfOnTemplateCollider": "01",
        "flagSelfInZone": "10",
        "flagTargetInZone": "11"
      },
      "201": {
        "name": "Swap",
        "castCondition": {
          "pose": [101, 301],
          "pickRangeMax": 12.5,
          "pickRangeYMax": 5.0,
          "SkillAnchorRangeMax": 25.0
        },
        "cd": 17.5,
        "cdUpperRange": 5.0,
        "publicCDGroup": "",
        "stateIDs": ["Swap"],
        "skillQueryingTime": 2.5,
        "flagTargetReachable": "10",
        "flagSelfOnTemplateCollider": "01",
        "flagSelfInZone": "10",
        "flagTargetInZone": "10"
      },
      "301": {
        "name": "SummonHound",
        "priority": 1,
        "castCondition": {
          "pose": [201]
        },
        "cd": 999999.0,
        "initialCD": 3.0,
        "publicCDGroup": "",
        "DDLBHDNIIMM": false,
        "stateIDs": ["SummonHoundBS", "SummonHound"],
        "skillQueryingTime": 4.0,
        "flagTargetReachable": "10",
        "flagSelfOnTemplateCollider": "11",
        "flagSelfInZone": "10",
        "flagTargetInZone": "11"
      },
      "401": {
        "name": "OnGroundCharge",
        "castCondition": {
          "pose": [101, 301],
          "pickRangeMax": 50.0,
          "pickRangeYMax": 5.0,
          "SkillAnchorRangeMax": 20.0
        },
        "cd": 17.5,
        "cdUpperRange": 5.0,
        "publicCDGroup": "",
        "stateIDs": ["OnGroundChargeBS", "OnGroundCharge"],
        "skillQueryingTime": 2.5,
        "flagTargetReachable": "10",
        "flagSelfOnTemplateCollider": "01",
        "flagSelfInZone": "10",
        "flagTargetInZone": "10"
      },
      "501": {
        "name": "RockBreath",
        "castCondition": {
          "pose": [101, 301],
          "pickRangeMax": 50.0,
          "pickRangeYMax": 5.0
        },
        "cd": 25.0,
        "cdUpperRange": 7.5,
        "initialCD": 20.0,
        "publicCDGroup": "",
        "skillGroupCDID": 2,
        "stateIDs": ["RockBreath"],
        "skillQueryingTime": 2.5,
        "flagTargetReachable": "10",
        "flagSelfOnTemplateCollider": "01",
        "flagSelfInZone": "10",
        "flagTargetInZone": "10"
      },
      "502": {
        "name": "RockBreath",
        "castCondition": {
          "pose": [101, 301],
          "pickRangeMax": 50.0,
          "pickRangeYMax": 5.0
        },
        "cd": 25.0,
        "cdUpperRange": 7.5,
        "initialCD": 20.0,
        "publicCDGroup": "",
        "skillGroupCDID": 2,
        "stateIDs": ["RockBreath", "Swap"],
        "skillQueryingTime": 2.5,
        "flagTargetReachable": "10",
        "flagSelfOnTemplateCollider": "01",
        "flagSelfInZone": "10",
        "flagTargetInZone": "10"
      },
      "503": {
        "name": "RockBreath",
        "priority": 3,
        "castCondition": {
          "pose": [101, 301],
          "pickRangeMax": 50.0,
          "pickRangeYMax": 5.0
        },
        "cd": 999999.0,
        "initialCD": 20.0,
        "publicCDGroup": "",
        "skillGroupCDID": 2,
        "stateIDs": ["RockBreath"],
        "skillQueryingTime": 2.5,
        "flagTargetReachable": "10",
        "flagSelfOnTemplateCollider": "01",
        "flagSelfInZone": "10",
        "flagTargetInZone": "10"
      },
      "511": {
        "name": "RockBreath",
        "castCondition": {
          "pose": [201],
          "needReInitCD": true,
          "pickRangeYMax": 5.0
        },
        "cd": 17.5,
        "cdUpperRange": 7.5,
        "initialCD": 20.0,
        "publicCDGroup": "",
        "skillGroupCDID": 4,
        "stateIDs": ["RockBreath"],
        "skillQueryingTime": 2.5,
        "flagTargetReachable": "10",
        "flagSelfOnTemplateCollider": "01",
        "flagSelfInZone": "10",
        "flagTargetInZone": "10"
      },
      "601": {
        "name": "DeathTornado",
        "priority": 2,
        "castCondition": {
          "pose": [101, 301],
          "needReInitCD": true,
          "SkillAnchorRangeMax": 25.0
        },
        "cd": 80.0,
        "cdUpperRange": 10.0,
        "initialCD": 25.0,
        "initialCDUpperRange": 7.5,
        "publicCDGroup": "",
        "stateIDs": [
          "DeathTornadoBS",
          "DeathTornadoLoop",
          "DeathTornadoStay",
          "DeathTornadoAS"
        ],
        "skillQueryingTime": 2.5,
        "flagTargetReachable": "10",
        "flagSelfOnTemplateCollider": "01",
        "flagSelfInZone": "10",
        "flagTargetInZone": "10"
      },
      "602": {
        "name": "DeathTornado",
        "priority": 2,
        "castCondition": {
          "pose": [101, 301],
          "SkillAnchorRangeMax": 25.0
        },
        "cd": 115.0,
        "cdUpperRange": 10.0,
        "initialCD": 57.5,
        "initialCDUpperRange": 5.0,
        "publicCDGroup": "",
        "stateIDs": [
          "DeathTornadoBS",
          "DeathTornadoLoop",
          "DeathTornadoStay",
          "DeathTornadoAS"
        ],
        "skillQueryingTime": 2.5,
        "flagTargetReachable": "10",
        "flagSelfOnTemplateCollider": "01",
        "flagSelfInZone": "10",
        "flagTargetInZone": "10"
      },
      "701": {
        "name": "ElementalBurst",
        "priority": 2,
        "castCondition": {
          "pose": [301],
          "needReInitCD": true,
          "SkillAnchorRangeMax": 23.5
        },
        "cd": 90.0,
        "cdUpperRange": 10.0,
        "initialCD": 80.0,
        "initialCDUpperRange": 5.0,
        "publicCDGroup": "",
        "skillGroupCDID": 3,
        "stateIDs": ["ElementalBurst"],
        "skillQueryingTime": 2.5,
        "flagTargetReachable": "10",
        "flagSelfOnTemplateCollider": "01",
        "flagSelfInZone": "10",
        "flagTargetInZone": "11"
      },
      "702": {
        "name": "ElementalBurst",
        "priority": 2,
        "castCondition": {
          "pose": [101, 301],
          "needReInitCD": true,
          "GLGHHKAGENB": 23.5
        },
        "cd": 55.0,
        "cdUpperRange": 10.0,
        "initialCD": 10.0,
        "publicCDGroup": "",
        "skillGroupCDID": 3,
        "stateIDs": ["ElementalBurst"],
        "skillQueryingTime": 2.5,
        "flagTargetReachable": "10",
        "flagSelfOnTemplateCollider": "01",
        "flagSelfInZone": "10",
        "flagTargetInZone": "11"
      },
      "703": {
        "name": "ElementalBurst",
        "priority": 2,
        "castCondition": {
          "pose": [101, 301],
          "GLGHHKAGENB": 25.0
        },
        "cd": 5.0,
        "cdUpperRange": 5.0,
        "initialCD": 5.0,
        "publicCDGroup": "",
        "stateIDs": ["ElementalBurst"],
        "skillQueryingTime": 2.5,
        "flagTargetReachable": "10",
        "flagSelfOnTemplateCollider": "01",
        "flagSelfInZone": "01",
        "flagTargetInZone": "11"
      },
      "711": {
        "name": "ElementalBurst",
        "priority": 2,
        "castCondition": {
          "pose": [201],
          "needReInitCD": true
        },
        "cd": 75.0,
        "cdUpperRange": 15.0,
        "initialCD": 10.0,
        "publicCDGroup": "",
        "stateIDs": ["ElementalBurst"],
        "skillQueryingTime": 2.5,
        "flagTargetReachable": "10",
        "flagSelfOnTemplateCollider": "01",
        "flagSelfInZone": "10",
        "flagTargetInZone": "11"
      },
      "901": {
        "name": "Weak",
        "castCondition": {
          "pose": [301]
        },
        "cd": 999999.0,
        "cdUpperRange": 15.0,
        "initialCD": 999999.0,
        "publicCDGroup": "",
        "stateIDs": ["Weak"],
        "skillQueryingTime": 2.5,
        "flagTargetReachable": "10",
        "flagSelfOnTemplateCollider": "01",
        "flagSelfInZone": "10",
        "flagTargetInZone": "11"
      }
    },
    "skillGCD": 0.5,
    "returnToBornTactic": {
      "enable": true,
      "defaultSetting": {
        "speedLevel": 0,
        "fadeoutBeginTime": 1.0,
        "fadeoutEndTime": 5.75
      }
    }
  },
  "inputKeys": [
    {
      "keyID": 101,
      "inputKeyCode": 257,
      "abilityName": ""
    },
    {
      "keyID": 201,
      "inputKeyCode": 258,
      "abilityName": ""
    },
    {
      "keyID": 301,
      "inputKeyCode": 259,
      "abilityName": ""
    },
    {
      "keyID": 401,
      "inputKeyCode": 260,
      "abilityName": ""
    },
    {
      "keyID": 501,
      "inputKeyCode": 261,
      "abilityName": ""
    },
    {
      "keyID": 601,
      "inputKeyCode": 262,
      "abilityName": ""
    },
    {
      "keyID": 701,
      "inputKeyCode": 263,
      "abilityName": ""
    },
    {
      "keyID": 1,
      "inputKeyCode": 264,
      "abilityName": ""
    },
    {
      "keyID": 901,
      "inputKeyCode": 265,
      "abilityName": ""
    }
  ],
  "move": {
    "$type": "PLMNMICDOHN",
    "EINCMKOBBEG": {
      "includeForces": ["FixedRushMoveType", "RushMoveType"]
    },
    "AOFJJIKKGME": true,
    "DMJNLOIEHNP": false,
    "LHHNPKNFGMD": true
  },
  "cameraAdjust": {
    "default": {
      "$type": "DHCOKBEICGK",
      "priority": 1.0,
      "OPKMFLHBCEL": 10.0,
      "HLJEJHJHEBG": 65.0,
      "MOINKIAMCKG": 1.0,
      "EBDAIBLODLB": 52.5,
      "LGLGNMPNADH": 8.0,
      "EIHIEHJLINB": -5.0,
      "ELCNGKOAJFN": false,
      "KONIGEOBEPA": 30.0,
      "IKNIHFEDDIJ": 20.0,
      "LJGAGFHBAPE": 25.0,
      "FDEEGAFACDO": 30.0,
      "AOEIECPJILN": 55.0,
      "JLKGEFGDOEO": 60.0,
      "EJLANJKCDJO": "CircleR10",
      "AINPPNDKHBG": "CircleR65"
    }
  }
}
