{
  "common": {
    "effectAttachShape": {
      "$type": "ConfigEffectAttachSkinnedMesh",
      "mesh": "EffectMesh"
    },
    "mass": 30.0,
    "height": 1.600000023841858,
    "modelHeight": 1.7000000476837158,
    "affectedByWorld": true,
    "checkInSurface": true,
    "useGrassDisplacement": true
  },
  "headControl": {
    "$type": "GAAIKCFIJMM",
    "useHeadControl": true,
    "KBBNEKBLPFA": 75.0,
    "FJOGFHEFPHN": 30.0,
    "FCDMCPDGFCL": [
      "NormalIdle/Standby",
      "NormalMove/WalkForward",
      "NormalMove/WalkBack",
      "NormalMove/WalkRight",
      "NormalMove/WalkLeft",
      "NormalMove/Run",
      "Turn/TurnLeft",
      "Turn/TurnRight"
    ]
  },
  "model": {
    "bornEffect": "Eff_Monster_Common_Born",
    "attachEffect": ""
  },
  "dither": {
    "showDitherDuration": 1.0
  },
  "combat": {
    "property": {
      "endureType": "Monster_Minion",
      "weight": 80.0
    },
    "beHit": {
      "hitBloodEffect": ""
    },
    "combatLock": {
      "lockShape": "CircleLockEnemy",
      "lockType": "Avatar&Monster_Lv4"
    },
    "die": {
      "hasAnimatorDie": true,
      "dieEndTime": 4.0,
      "dieForceDisappearTime": 15.0,
      "dieDisappearEffect": "",
      "useRagDoll": true,
      "ragDollDieEndTimeDelay": 15.0,
      "OCGODEHJPME": true,
      "MFJBKFECLNJ": true,
      "IMEEBMBJPGJ": true,
      "ICHFPLMNCLC": true,
      "MBHMAGEPJFH": true,
      "CFHPDHFKMEP": true
    },
    "animEvents": {
      "NormalAtk": {
        "attackPattern": {
          "$type": "ConfigAttackCircle",
          "triggerType": "TriggerNoRepeat",
          "born": {
            "$type": "ConfigBornBySelf",
            "offset": {
              "x": 0.0,
              "y": 0.0,
              "z": 0.0
            }
          },
          "fanAngle": 90.0,
          "radius": 1.75
        },
        "attackInfo": {
          "attackTag": "",
          "attenuationTag": "",
          "attenuationGroup": "default",
          "attackProperty": {
            "damagePercentage": 1.0,
            "MKLAMNDEDGB": 0.0,
            "bonusCriticalHurt": 100.0,
            "strikeType": "Blunt",
            "enBreak": 80.0,
            "attackType": "Melee"
          },
          "hitPattern": {
            "onHitEffectName": "default",
            "hitImpulseType": "LV3",
            "hitHaltTimeScale": 0.009999999776482582
          }
        }
      },
      "BirdieKickAtk": {
        "attackPattern": {
          "$type": "ConfigAttackCircle",
          "triggerType": "TriggerNoRepeat",
          "born": {
            "$type": "ConfigBornBySelf",
            "offset": {
              "x": 0.0,
              "y": 0.0,
              "z": 0.0
            }
          },
          "fanAngle": 60.0,
          "radius": 2.0
        },
        "attackInfo": {
          "attackTag": "",
          "attenuationTag": "",
          "attenuationGroup": "default",
          "attackProperty": {
            "damagePercentage": 1.5,
            "MKLAMNDEDGB": 0.0,
            "bonusCriticalHurt": 100.0,
            "strikeType": "Blunt",
            "enBreak": 200.0,
            "attackType": "Melee"
          },
          "hitPattern": {
            "onHitEffectName": "default",
            "hitImpulseType": "LV5"
          },
          "cameraShake": {
            "shakeType": "HitVector",
            "shakeRange": 0.05999999865889549,
            "shakeTime": 0.09000000357627869,
            "shakeDir": {
              "y": -1.0
            }
          }
        }
      }
    }
  },
  "equipController": {
    "sheathPoint": "",
    "attachPoints": {
      "equip01": "WeaponR",
      "equip02": "WeaponL"
    }
  },
  "abilities": [
    {
      "abilityID": "SteerAttack",
      "abilityName": "Thoarder_Male_NoWeapon_SteerAttack",
      "abilityOverride": ""
    },
    {
      "abilityID": "ThrowingKnife",
      "abilityName": "Thoarder_Male_NoWeapon_ThrowingKnife",
      "abilityOverride": ""
    },
    {
      "abilityID": "ThrowingKnife_KnifeManager",
      "abilityName": "Thoarder_Male_NoWeapon_ThrowingKnife_KnifeManager",
      "abilityOverride": ""
    },
    {
      "abilityID": "ThrowBomb",
      "abilityName": "Thoarder_Male_NoWeapon_ThrowBomb",
      "abilityOverride": ""
    },
    {
      "abilityID": "ThrowBomb_BombManager",
      "abilityName": "Thoarder_Male_NoWeapon_ThrowBomb_BombManager",
      "abilityOverride": ""
    },
    {
      "abilityID": "ThrowMolotovCocktail",
      "abilityName": "Thoarder_Male_NoWeapon_ThrowMolotovCocktail",
      "abilityOverride": ""
    },
    {
      "abilityID": "ThrowMolotovCocktail_MolotovManager",
      "abilityName": "Thoarder_Male_NoWeapon_ThrowMolotovCocktail_MolotovManager",
      "abilityOverride": ""
    },
    {
      "abilityID": "SmokeBombInHandL_Start",
      "abilityName": "Thoarder_Die_SmokeBombInHandL_Start",
      "abilityOverride": ""
    },
    {
      "abilityID": "SmokeBombEffect_End",
      "abilityName": "Thoarder_Die_SmokeBombEffect_End",
      "abilityOverride": ""
    },
    {
      "abilityID": "SteerMove",
      "abilityName": "Thoarder_SteerMove",
      "abilityOverride": ""
    },
    {
      "abilityID": "EndureModifier",
      "abilityName": "Thoarder_EndureModifier",
      "abilityOverride": ""
    }
  ],
  "stateLayers": {
    "defaultLayer": {
      "$type": "ConfigNormalStateLayer",
      "FNPGDAEJAPJ": "",
      "stateIDs": {
        "NormalIdle": {
          "$type": "ConfigMonsterStateIDInfo",
          "animatorStates": {
            "Standby": ["Audio_Monster_Thoarder_NoWeapon_Standby"],
            "Born": []
          },
          "canDoSkill": true,
          "canSyncMove": true,
          "resetAnimatorTriggerOnExit": ["DoSkill"]
        },
        "NormalMove": {
          "$type": "ConfigMonsterStateIDInfo",
          "animatorStates": {
            "WalkForward": ["Audio_Monster_Thoarder_NoWeapon_Walk"],
            "WalkBack": ["Audio_Monster_Thoarder_NoWeapon_Walk"],
            "WalkRight": ["Audio_Monster_Thoarder_NoWeapon_Walk"],
            "WalkLeft": ["Audio_Monster_Thoarder_NoWeapon_Walk"],
            "Run": []
          },
          "canDoSkill": true,
          "canSyncMove": true,
          "resetAnimatorTriggerOnExit": ["DoSkill"],
          "BHEPAJIOBDN": true
        },
        "Turn": {
          "$type": "ConfigMonsterStateIDInfo",
          "animatorStates": {
            "TurnLeft": ["Audio_Monster_Thoarder_NoWeapon_Walk"],
            "TurnRight": ["Audio_Monster_Thoarder_NoWeapon_Walk"]
          },
          "canDoSkill": true,
          "canSyncMove": true,
          "resetAnimatorTriggerOnExit": ["DoSkill"],
          "BHEPAJIOBDN": true
        },
        "BeHit": {
          "$type": "ConfigMonsterStateIDInfo",
          "animatorStates": {
            "Hit_L": ["Audio_Monster_Thoarder_NoWeapon_Hit_L"],
            "Hit_H": ["Audio_Monster_Thoarder_NoWeapon_Hit_L"],
            "DHit": []
          },
          "resetAnimatorTriggerOnEnter": ["BeHit"],
          "resetAnimatorTriggerOnExit": ["DoSkill"]
        },
        "BeHitThrow": {
          "$type": "ConfigMonsterStateIDInfo",
          "animatorStates": {
            "HitThrow": ["Audio_Monster_Thoarder_NoWeapon_HitThrow"],
            "HitThrowDrop": [],
            "HitThrowToGround": [
              "Audio_Monster_Thoarder_NoWeapon_HitThrowToGround"
            ]
          },
          "resetAnimatorTriggerOnEnter": ["BeHit", "HitAir2HitDrop"],
          "resetAnimatorTriggerOnExit": ["DoSkill"]
        },
        "Struggle": {
          "$type": "ConfigMonsterStateIDInfo",
          "animatorStates": {
            "Struggle": []
          },
          "resetAnimatorTriggerOnEnter": ["BeHit", "HitAir2HitDrop"],
          "resetAnimatorTriggerOnExit": ["DoSkill"]
        },
        "Die": {
          "$type": "ConfigMonsterStateIDInfo",
          "animatorStates": {
            "Die1": [
              "Monster_Thoarder_Male_NoWeapon_Die",
              "Audio_Monster_Thoarder_NoWeapon_Die"
            ],
            "Die2": [
              "Monster_Thoarder_Male_NoWeapon_Die",
              "Audio_Monster_Thoarder_NoWeapon_Die"
            ],
            "SwimDie": ["Audio_Monster_Thoarder_NoWeapon_SwimDie"],
            "SwimDie_AS": [
              "Monster_Thoarder_Common_SwimDie",
              "Audio_Monster_Thoarder_NoWeapon_SwimDie"
            ]
          }
        },
        "Die_RagDoll": {
          "$type": "ConfigMonsterStateIDInfo",
          "animatorStates": {
            "AirDie": ["Monster_Thoarder_Common_AirDie"]
          },
          "HCCMMNBMCMA": true
        },
        "Life_Alert": {
          "$type": "ConfigMonsterStateIDInfo",
          "animatorStates": {
            "Alert": ["Audio_Monster_Thoarder_NoWeapon_Alert"]
          },
          "resetAnimatorTriggerOnExit": ["BeHit", "DoSkill"]
        },
        "Life_Warning": {
          "$type": "ConfigMonsterStateIDInfo",
          "animatorStates": {
            "Warning": [
              "Monster_Undead01_Warning",
              "Audio_Monster_Thoarder_NoWeapon_Alert"
            ]
          },
          "resetAnimatorTriggerOnExit": ["BeHit", "DoSkill"]
        },
        "NormalAtk": {
          "$type": "ConfigMonsterStateIDInfo",
          "animatorStates": {
            "NormalAtk": [
              "Monster_Thoarder_Male_NoWeapon_NormalAtk",
              "Audio_Monster_Thoarder_NoWeapon_NormalAtk"
            ]
          },
          "resetAnimatorTriggerOnExit": ["BeHit", "DoSkill"]
        },
        "BirdieKick": {
          "$type": "ConfigMonsterStateIDInfo",
          "animatorStates": {
            "BirdieKick": [
              "Monster_Thoarder_Male_NoWeapon_BirdieKick",
              "Audio_Monster_Thoarder_NoWeapon_BirdieKick"
            ],
            "BirdieKick_Part01": ["Monster_Thoarder_Male_NoWeapon_BirdieKick"],
            "BirdieKick_Part02": ["Monster_Thoarder_Male_NoWeapon_BirdieKick"],
            "BirdieKick_Part03": ["Monster_Thoarder_Male_NoWeapon_BirdieKick"]
          },
          "resetAnimatorTriggerOnExit": ["BeHit", "DoSkill"]
        },
        "ThrowingKnife_BS": {
          "$type": "ConfigMonsterStateIDInfo",
          "animatorStates": {
            "ThrowingKnife_BS": [
              "Monster_Thoarder_Male_NoWeapon_ThrowingKnife_BS",
              "Monster_Thoarder_Male_NoWeapon_ThrowingKnife_Throw",
              "Audio_Monster_Thoarder_NoWeapon_ThrowingKnife"
            ]
          },
          "resetAnimatorTriggerOnExit": ["BeHit", "DoSkill"]
        },
        "ThrowingKnife_Throw": {
          "$type": "ConfigMonsterStateIDInfo",
          "animatorStates": {
            "ThrowingKnife_Throw": []
          },
          "resetAnimatorTriggerOnExit": ["BeHit", "DoSkill"]
        },
        "MultiThrow_Ready": {
          "$type": "ConfigMonsterStateIDInfo",
          "animatorStates": {
            "MultiThrow_Ready": []
          },
          "resetAnimatorTriggerOnExit": ["BeHit", "DoSkill"]
        },
        "MultiThrow_Throw01": {
          "$type": "ConfigMonsterStateIDInfo",
          "animatorStates": {
            "MultiThrow_Throw01": ["Monster_Thoarder_Male_NoWeapon_ThrowBomb"]
          },
          "resetAnimatorTriggerOnExit": ["BeHit", "DoSkill"]
        },
        "MultiThrow_Throw02": {
          "$type": "ConfigMonsterStateIDInfo",
          "animatorStates": {
            "MultiThrow_Throw02": ["Monster_Thoarder_Male_NoWeapon_ThrowBomb"]
          },
          "resetAnimatorTriggerOnExit": ["BeHit", "DoSkill"]
        },
        "MultiThrow_Throw03": {
          "$type": "ConfigMonsterStateIDInfo",
          "animatorStates": {
            "MultiThrow_Throw03": ["Monster_Thoarder_Male_NoWeapon_ThrowBomb"]
          },
          "resetAnimatorTriggerOnExit": ["BeHit", "DoSkill"]
        },
        "ThrowBomb_BS": {
          "$type": "ConfigMonsterStateIDInfo",
          "animatorStates": {
            "ThrowBomb_BS": [
              "Monster_Thoarder_Male_NoWeapon_ThrowBomb_BS",
              "Monster_Thoarder_Male_NoWeapon_ThrowBomb_Throw"
            ]
          },
          "resetAnimatorTriggerOnExit": ["BeHit", "DoSkill"]
        },
        "ThrowBomb_Throw": {
          "$type": "ConfigMonsterStateIDInfo",
          "animatorStates": {
            "ThrowBomb_Throw": []
          },
          "resetAnimatorTriggerOnExit": ["BeHit", "DoSkill"]
        },
        "ThrowMolotovCocktail_BS": {
          "$type": "ConfigMonsterStateIDInfo",
          "animatorStates": {
            "ThrowMolotovCocktail_BS": [
              "Monster_Thoarder_Male_NoWeapon_ThrowMolotovCocktail_BS",
              "Monster_Thoarder_Male_NoWeapon_ThrowMolotovCocktail_Throw",
              "Audio_Monster_Thoarder_NoWeapon_ThrowingBottle"
            ]
          },
          "resetAnimatorTriggerOnExit": ["BeHit", "DoSkill"]
        },
        "ThrowMolotovCocktail_Throw": {
          "$type": "ConfigMonsterStateIDInfo",
          "animatorStates": {
            "ThrowMolotovCocktail_Throw": []
          },
          "resetAnimatorTriggerOnExit": ["BeHit", "DoSkill"]
        },
        "Taunt": {
          "$type": "ConfigMonsterStateIDInfo",
          "animatorStates": {
            "Taunt_1": ["Audio_Monster_Thoarder_NoWeapon_Taunt1"],
            "Taunt_2": ["Audio_Monster_Thoarder_NoWeapon_Taunt2"],
            "Taunt_3": ["Audio_Monster_Thoarder_NoWeapon_Taunt3"]
          },
          "resetAnimatorTriggerOnExit": ["BeHit", "DoSkill"]
        }
      }
    }
  },
  "billboard": {
    "$type": "NCBABGPMMPL",
    "EBBHBMFMOGD": "BillboardAttach",
    "offset": {
      "x": -0.05000000074505806
    },
    "BFOMIIKCOGI": "Character",
    "OELDMANLPDM": 0.25,
    "ANGKJBLILKJ": true
  },
  "initialPoses": {
    "Default": {}
  },
  "aibeta": {
    "enable": true,
    "moveSetting": {
      "navMeshAgentName": "Undead01",
      "almostReachedDistanceRun": 1.5
    },
    "sensing": {
      "settings": {
        "DefaultSetting": {
          "feelRange": 8.0
        },
        "HighAlert": {
          "viewRange": 40.0,
          "feelRange": 10.0
        }
      },
      "templates": {
        "DefaultTemplate": {
          "DefaultPoses": "DefaultSetting"
        },
        "HighAlertTemplate": {
          "DefaultPoses": "HighAlert"
        }
      }
    },
    "neurons": {
      "DefaultSetting": ["HIT"]
    },
    "threat": {
      "clearThreatByLostPath": true,
      "clearThreatTimerByDistance": 3.0,
      "viewAttenuation": [
        {
          "x": 10.0,
          "y": 2.0
        },
        {
          "x": 15.0,
          "y": 0.800000011920929
        },
        {
          "x": 20.0,
          "y": 0.5
        },
        {
          "x": 25.0,
          "y": 0.30000001192092896
        },
        {
          "x": 30.0,
          "y": 0.20000000298023224
        }
      ]
    },
    "defendArea": {},
    "profiling": {},
    "skillGroupCDConfigs": [
      {
        "skillGroupCDID": 1,
        "skillGroupCDTime": 7.0
      },
      {
        "skillGroupCDID": 2,
        "skillGroupCDTime": 7.0
      }
    ],
    "skills": {
      "101": {
        "name": "OnAlert",
        "skillType": "OnAlert",
        "faceTarget": true,
        "publicCDGroup": "",
        "ignoreGCD": true,
        "triggerGCD": false,
        "stateIDs": ["Life_Warning"],
        "skillQueryingTime": 3.0,
        "flagTargetReachable": "10",
        "flagSelfOnTemplateCollider": "01",
        "flagSelfInZone": "10",
        "flagTargetInZone": "11"
      },
      "201": {
        "name": "NoWeapon_Attack",
        "combatSkillType": "MeleeAttack",
        "priority": 2,
        "enableSkillPrepare": true,
        "castCondition": {
          "pose": [1001],
          "pickRangeMax": 6.0,
          "castRangeMax": 2.25
        },
        "cd": 5.0,
        "cdUpperRange": 5.0,
        "initialCD": 8.0,
        "publicCDGroup": "",
        "skillGroupCDID": 1,
        "stateIDs": ["NoWeapon_Attack"],
        "flagTargetReachable": "10",
        "flagSelfOnTemplateCollider": "01",
        "flagSelfInZone": "10",
        "flagTargetInZone": "11"
      },
      "211": {
        "name": "BirdieKick",
        "combatSkillType": "MeleeAttack",
        "enableSkillPrepare": true,
        "castCondition": {
          "pose": [1001],
          "maxTargetAngleY": 45.0,
          "pickRangeMin": 2.5,
          "pickRangeMax": 6.0,
          "castRangeMin": 2.0,
          "castRangeMax": 4.5
        },
        "cd": 20.0,
        "cdUpperRange": 10.0,
        "initialCD": 20.0,
        "publicCDGroup": "",
        "skillGroupCDID": 1,
        "stateIDs": ["BirdieKick"],
        "flagTargetReachable": "10",
        "flagSelfOnTemplateCollider": "01",
        "flagSelfInZone": "10",
        "flagTargetInZone": "11"
      },
      "301": {
        "name": "ThrowingKnife",
        "combatSkillType": "RangedAttack",
        "castCondition": {
          "pose": [1001],
          "pickRangeMin": 4.25,
          "pickRangeMax": 15.0,
          "castRangeMin": 4.25,
          "castRangeMax": 10.0
        },
        "cd": 3.0,
        "cdUpperRange": 1.0,
        "publicCDGroup": "",
        "skillGroupCDID": 2,
        "stateIDs": ["ThrowingKnife_BS", "ThrowingKnife_Throw"],
        "flagTargetReachable": "10",
        "flagSelfOnTemplateCollider": "01",
        "flagSelfInZone": "10",
        "flagTargetInZone": "11"
      },
      "302": {
        "name": "MultiThrow",
        "combatSkillType": "RangedAttack",
        "castCondition": {
          "pose": [9999],
          "pickRangeMin": 4.25,
          "pickRangeMax": 15.0,
          "castRangeMin": 4.25,
          "castRangeMax": 10.0
        },
        "cd": 20.0,
        "cdUpperRange": 10.0,
        "initialCD": 20.0,
        "publicCDGroup": "",
        "skillGroupCDID": 2,
        "stateIDs": [
          "MultiThrow_Ready",
          "MultiThrow_Throw01",
          "MultiThrow_Throw02",
          "MultiThrow_Throw03"
        ],
        "flagTargetReachable": "10",
        "flagSelfOnTemplateCollider": "01",
        "flagSelfInZone": "10",
        "flagTargetInZone": "11"
      },
      "304": {
        "name": "ThrowMolotovCocktail",
        "combatSkillType": "RangedAttack",
        "castCondition": {
          "pose": [1001],
          "pickRangeMin": 4.25,
          "pickRangeMax": 15.0,
          "castRangeMin": 4.25,
          "castRangeMax": 10.0
        },
        "cd": 10.0,
        "cdUpperRange": 1.0,
        "publicCDGroup": "",
        "skillGroupCDID": 2,
        "stateIDs": ["ThrowMolotovCocktail_BS", "ThrowMolotovCocktail_Throw"],
        "flagTargetReachable": "10",
        "flagSelfOnTemplateCollider": "01",
        "flagSelfInZone": "10",
        "flagTargetInZone": "11"
      },
      "901": {
        "name": "Taunt",
        "faceTarget": true,
        "castCondition": {
          "pose": [1001],
          "maxTargetAngleY": 45.0,
          "pickRangeMin": 5.0,
          "pickRangeMax": 20.0
        },
        "cd": 3.0,
        "cdUpperRange": 3.0,
        "initialCD": 10.0,
        "publicCDGroup": "RandomAction",
        "ignoreGCD": true,
        "triggerGCD": false,
        "stateIDs": ["Taunt"],
        "flagTargetReachable": "10",
        "flagSelfOnTemplateCollider": "01",
        "flagSelfInZone": "01",
        "flagTargetInZone": "11"
      },
      "902": {
        "name": "Taunt",
        "faceTarget": true,
        "castCondition": {
          "pose": [1001],
          "maxTargetAngleY": 45.0,
          "pickRangeMin": 5.0,
          "pickRangeMax": 20.0
        },
        "cd": 3.0,
        "cdUpperRange": 3.0,
        "initialCD": 10.0,
        "publicCDGroup": "RandomAction",
        "ignoreGCD": true,
        "triggerGCD": false,
        "stateIDs": ["Taunt"],
        "flagTargetReachable": "01",
        "flagSelfOnTemplateCollider": "01",
        "flagSelfInZone": "10",
        "flagTargetInZone": "11"
      },
      "905": {
        "name": "Taunt",
        "faceTarget": true,
        "castCondition": {
          "pose": [1001],
          "maxTargetAngleY": 45.0,
          "pickRangeMin": 10.0,
          "pickRangeMax": 15.0
        },
        "cd": 20.0,
        "cdUpperRange": 5.0,
        "initialCD": 15.0,
        "publicCDGroup": "RandomAction",
        "triggerGCD": false,
        "stateIDs": ["Taunt"],
        "flagTargetReachable": "10",
        "flagSelfOnTemplateCollider": "01",
        "flagSelfInZone": "10",
        "flagTargetInZone": "11"
      }
    },
    "skillGCD": 3.0,
    "returnToBornTactic": {
      "enable": true,
      "defaultSetting": {}
    },
    "wanderTactic": {
      "enable": true,
      "condition": {
        "pose": [1]
      },
      "defaultSetting": {
        "cdMax": 3.0,
        "cdMin": 1.5,
        "distanceFromBorn": 15.0,
        "distanceFromCurrentMin": 3.75,
        "distanceFromCurrentMax": 7.5
      }
    },
    "investigateTactic": {
      "enable": true,
      "condition": {
        "pose": [1]
      }
    },
    "reactActionPointTactic": {
      "enable": true,
      "defaultSetting": {}
    },
    "meleeChargeTactic": {
      "enable": true,
      "condition": {
        "pose": [1001]
      },
      "defaultSetting": {
        "startDistanceMin": 9.0,
        "startDistanceMax": 50.0,
        "stopDistance": 6.5,
        "innerDistance": 7.0
      }
    },
    "facingMoveTactic": {
      "enable": true,
      "condition": {
        "pose": [1001]
      },
      "defaultSetting": {
        "rangeMin": 4.5,
        "rangeMax": 7.0,
        "facingMoveWeight": {
          "forward": 0.0,
          "back": 0.0,
          "left": 5.0,
          "right": 5.0
        },
        "PDOKGBAJNEP": "1111",
        "NGLJBMGMGKF": "1111"
      }
    },
    "findBackTactic": {
      "condition": {
        "pose": [1001]
      },
      "defaultSetting": {
        "cd": 1.0,
        "overtime": 1.0,
        "targetLRSpace": 2.0
      }
    },
    "fleeTactic": {
      "condition": {
        "pose": [1001]
      },
      "defaultSetting": {
        "cd": 2.5,
        "triggerDistance": 1.5,
        "fleeAngle": 100.0,
        "fleeDistanceMin": 3.0,
        "fleeDistanceMax": 5.0,
        "turnToTarget": true
      }
    }
  },
  "inputKeys": [
    {
      "keyID": 201,
      "inputKeyCode": 257,
      "abilityName": ""
    },
    {
      "keyID": 211,
      "inputKeyCode": 258,
      "abilityName": ""
    },
    {
      "keyID": 301,
      "inputKeyCode": 259,
      "abilityName": ""
    },
    {
      "keyID": 303,
      "inputKeyCode": 260,
      "abilityName": ""
    },
    {
      "keyID": 304,
      "inputKeyCode": 261,
      "abilityName": ""
    },
    {
      "keyID": 901,
      "inputKeyCode": 262,
      "abilityName": ""
    },
    {
      "keyID": 905,
      "inputKeyCode": 263,
      "abilityName": ""
    }
  ],
  "move": {
    "$type": "PLMNMICDOHN",
    "BCBPBHLKCPB": "FourDirection",
    "NGNIGPNNLAI": "StoopType"
  },
  "audio": {
    "NCOGLLMIJGO": "",
    "animAudio": {},
    "disableEvent": {
      "text": ""
    },
    "destroyEvent": {
      "text": ""
    },
    "randomVariantSwitchGroup": {
      "text": ""
    },
    "randomVariantSwitchValues": [
      {
        "text": ""
      }
    ]
  }
}
