{
  "common": {
    "effectAttachShape": {
      "$type": "ConfigEffectAttachSkinnedMesh",
      "mesh": "EffectMesh"
    },
    "mass": 1000.0,
    "height": 30.0,
    "affectedByWorld": true,
    "checkInSurface": true,
    "scale": 1.5,
    "shouldPauseAnimatorBeforeReady": true,
    "clearAIOnSetLightDeactive": true,
    "KJCBJDCKPND": true,
    "NCCLLKFLJGL": true
  },
  "headControl": {
    "$type": "GAAIKCFIJMM",
    "useHeadControl": true,
    "KBBNEKBLPFA": 60.0,
    "FJOGFHEFPHN": 30.0,
    "IAEPDEOMGCO": 3.0,
    "FCDMCPDGFCL": ["NormalIdle/Standby", "NormalIdle/Born"]
  },
  "model": {
    "bornEffect": "",
    "attachEffect": "",
    "canBakeMesh": false
  },
  "dither": {
    "normalBetweenCamera": {
      "detectDitherRange": 5.0
    }
  },
  "combat": {
    "property": {
      "endureType": "Monster_Boss_Other",
      "weight": 20000.0
    },
    "beHit": {
      "hitBloodEffect": ""
    },
    "combatLock": {
      "lockShape": "CircleLockEnemy",
      "lockType": "Boss_Lv5"
    },
    "die": {
      "hasAnimatorDie": true,
      "dieEndTime": 1.0,
      "dieForceDisappearTime": 3.5,
      "dieDisappearEffect": "",
      "OCGODEHJPME": true,
      "MFJBKFECLNJ": true,
      "IMEEBMBJPGJ": true,
      "ICHFPLMNCLC": true,
      "MBHMAGEPJFH": true,
      "CFHPDHFKMEP": true
    }
  },
  "abilities": [
    {
      "abilityID": "",
      "abilityName": "Monster_Apep_Flat_MovingState",
      "abilityOverride": ""
    }
  ],
  "stateLayers": {
    "defaultLayer": {
      "$type": "ConfigNormalStateLayer",
      "FNPGDAEJAPJ": "",
      "stateIDs": {
        "NormalIdle": {
          "$type": "ConfigMonsterStateIDInfo",
          "animatorStates": {
            "Born": ["Audio_monster_Apep_Stage2_Flat_gadgetchange"],
            "Standby": ["Audio_monster_Apep_Stage2_Flat_run"]
          },
          "canDoSkill": true,
          "canSyncMove": true,
          "resetAnimatorTriggerOnExit": ["DoSkill"]
        }
      }
    }
  },
  "billboard": {
    "$type": "NCBABGPMMPL",
    "EBBHBMFMOGD": "BillboardAttach",
    "OELDMANLPDM": 1.0,
    "showDistance": 200.0,
    "ANGKJBLILKJ": true,
    "size": "Grand"
  },
  "initialPoses": {
    "Default": {}
  },
  "aibeta": {
    "enable": true,
    "sensing": {
      "settings": {
        "DefaultSetting": {
          "viewRange": 100.0,
          "viewPanoramic": true,
          "feelRange": 25.0
        }
      }
    },
    "threat": {
      "clearThreatTargetDistance": 999.0,
      "clearThreatEdgeDistance": 999.0,
      "clearThreatByTargetOutOfZone": true,
      "clearThreatTimerByTargetOutOfZone": 999.0,
      "resistTauntLevel": "Monster_TauntLevel_5"
    },
    "defendArea": {
      "defendRange": 120.0
    },
    "skillSetting": {},
    "skills": {
      "301": {
        "name": "RushMoveL",
        "priority": 1,
        "castCondition": {
          "pose": [101]
        },
        "cd": 9999.0,
        "publicCDGroup": "",
        "ignoreGCD": true,
        "triggerGCD": false,
        "stateIDs": ["RushMoveL", "RushMoveL_Turn", "RushMoveL_Move"],
        "flagTargetReachable": "11",
        "flagSelfOnTemplateCollider": "01",
        "flagSelfInZone": "10",
        "flagTargetInZone": "11"
      }
    },
    "skillGCD": 0.5
  },
  "inputKeys": [
    {
      "keyID": 401,
      "inputKeyCode": 257,
      "abilityName": ""
    },
    {
      "keyID": 201,
      "inputKeyCode": 258,
      "abilityName": ""
    },
    {
      "keyID": 211,
      "inputKeyCode": 259,
      "abilityName": ""
    },
    {
      "keyID": 231,
      "inputKeyCode": 260,
      "abilityName": ""
    },
    {
      "keyID": 241,
      "inputKeyCode": 261,
      "abilityName": ""
    }
  ]
}
