{
  "common": {
    "effectAttachShape": {
      "$type": "ConfigEffectAttachSkinnedMesh",
      "mesh": "EffectMesh"
    },
    "mass": 80.0,
    "viewSize": 1.5,
    "affectedByWorld": true,
    "checkInSurface": true,
    "useGrassDisplacement": true,
    "KJCBJDCKPND": true,
    "NCCLLKFLJGL": true
  },
  "model": {
    "bornEffect": "",
    "attachEffect": "",
    "canBakeMesh": false
  },
  "dither": {
    "showDitherDuration": 1.0
  },
  "combat": {
    "property": {
      "endureType": "Monster_Demiboss_Other",
      "weight": 200.0
    },
    "beHit": {
      "hitBloodEffect": ""
    },
    "combatLock": {
      "lockShape": "CircleLockEnemy",
      "lockType": "Avatar&Monster_Lv4"
    },
    "die": {
      "dieForceDisappearTime": 1.0,
      "dieDisappearEffect": "",
      "OCGODEHJPME": true,
      "MFJBKFECLNJ": true,
      "IMEEBMBJPGJ": true,
      "MBHMAGEPJFH": true,
      "CFHPDHFKMEP": true
    },
    "animEvents": {
      "RushAtk": {
        "attackPattern": {
          "$type": "MHDMMPENLGB",
          "triggerType": "TriggerNoRepeat",
          "born": {
            "$type": "ConfigBornBySelf",
            "offset": {
              "x": 0.0,
              "y": 0.5,
              "z": 0.25
            }
          },
          "radius": 0.6000000238418579
        },
        "attackInfo": {
          "attackTag": "",
          "attenuationTag": "",
          "attenuationGroup": "default",
          "attackProperty": {
            "damagePercentage": 1.0,
            "MKLAMNDEDGB": 0.0,
            "bonusCriticalHurt": 100.0,
            "strikeType": "Blunt",
            "attackType": "Melee"
          },
          "hitPattern": {
            "onHitEffectName": "default",
            "hitImpulseType": "LV4",
            "retreatType": "ByTangent",
            "canBeDefenceHalt": true
          }
        }
      }
    }
  },
  "abilities": [
    {
      "abilityID": "",
      "abilityName": "Monster_FungusFighterV2_TowerWind_ReleaseBullet",
      "abilityOverride": ""
    },
    {
      "abilityID": "",
      "abilityName": "Monster_FungusFighterV2_Tower_Born",
      "abilityOverride": ""
    },
    {
      "abilityID": "",
      "abilityName": "Monster_FungusFighterV2_TowerWind_ReleaseSkill",
      "abilityOverride": ""
    },
    {
      "abilityID": "",
      "abilityName": "Affix_FungusFighterV2_Tower_ElemMastery",
      "abilityOverride": ""
    },
    {
      "abilityID": "",
      "abilityName": "Monster_FungusFighterV2_Tower_BornEffectGeneral",
      "abilityOverride": ""
    }
  ],
  "stateLayers": {
    "defaultLayer": {
      "$type": "ConfigNormalStateLayer",
      "FNPGDAEJAPJ": "",
      "stateIDs": {
        "Born": {
          "$type": "ConfigMonsterStateIDInfo",
          "animatorStates": {
            "Born": []
          },
          "canDoSkill": true,
          "resetAnimatorTriggerOnExit": ["DoSkill"]
        },
        "NormalIdle": {
          "$type": "ConfigMonsterStateIDInfo",
          "animatorStates": {
            "Standby": []
          },
          "canDoSkill": true,
          "canSyncMove": true,
          "resetAnimatorTriggerOnExit": ["DoSkill"]
        },
        "Attack": {
          "$type": "ConfigMonsterStateIDInfo",
          "animatorStates": {
            "Attack": ["Monster_FungusFighterV2_TowerWind_NormalAttack"]
          },
          "canDoSkill": true,
          "canSyncMove": true,
          "resetAnimatorTriggerOnExit": ["DoSkill"]
        },
        "Skill": {
          "$type": "ConfigMonsterStateIDInfo",
          "animatorStates": {
            "Skill": ["Monster_FungusFighterV2_TowerWind_ReleaseSkill"]
          },
          "canDoSkill": true,
          "canSyncMove": true,
          "resetAnimatorTriggerOnExit": ["DoSkill"]
        }
      }
    }
  },
  "partControl": {
    "parts": [
      {
        "$type": "FMMCPGCNMJF",
        "angularSpeed": 360.0,
        "NCHJLODGJLP": "ShootPoint",
        "LLEBKOAINMG": "RotateToForward",
        "AGAOMJIIDOI": "",
        "CJBHHMJAEJF": 360.0,
        "HFCEMLCNHGD": 360.0
      },
      {
        "$type": "FMMCPGCNMJF",
        "angularSpeed": 360.0,
        "NCHJLODGJLP": "SkillPoint",
        "AGAOMJIIDOI": "",
        "CJBHHMJAEJF": 360.0,
        "HFCEMLCNHGD": 0.0
      }
    ]
  },
  "billboard": {
    "$type": "NCBABGPMMPL",
    "EBBHBMFMOGD": "BillboardAttach",
    "BFOMIIKCOGI": "Character",
    "showDistance": 100.0,
    "JODPNEHOAFM": true,
    "ANGKJBLILKJ": true,
    "size": "Big"
  },
  "initialPoses": {
    "Default": {}
  },
  "aibeta": {
    "enable": true,
    "friendliness": 1,
    "sensing": {
      "settings": {
        "DefaultSetting": {
          "viewRange": 100.0,
          "horizontalFov": 90.0,
          "verticalFov": 45.0,
          "feelRange": 100.0
        }
      }
    },
    "threat": {
      "viewThreatGrow": 1000.0,
      "feelThreatGrow": 1000.0,
      "threatDecreaseSpeed": 500.0,
      "viewAttenuation": [
        {
          "x": 10.0,
          "y": 2.0
        },
        {
          "x": 15.0,
          "y": 1.25
        },
        {
          "x": 20.0,
          "y": 0.5
        }
      ],
      "abilityGlobalValueScoreSystem": {
        "enable": true,
        "weight": 70,
        "max": 1.0,
        "compareOperation": "Greater",
        "caredGlobalValueName": "_IS_LOCKED_BY_WIND_TOWER"
      },
      "targetDistanceScoreSystem": {
        "enable": true,
        "weight": 100,
        "value": 8.0,
        "max": 30.0
      }
    },
    "defendArea": {
      "defendRange": 100.0
    },
    "ui": {
      "hasDirectionIndicator": false
    },
    "skillSetting": {
      "skillEliteSet": {
        "1": [101, 102],
        "2": [102]
      }
    },
    "skills": {
      "101": {
        "name": "Attack",
        "priority": 2,
        "castCondition": {
          "pickRangeMax": 7.0
        },
        "cd": 3.0,
        "cdUpperRange": 1.0,
        "initialCD": 3.0,
        "initialCDUpperRange": 2.0,
        "publicCDGroup": "",
        "stateIDs": ["Attack"],
        "flagTargetReachable": "10",
        "flagSelfOnTemplateCollider": "01",
        "flagSelfInZone": "10",
        "flagTargetInZone": "11"
      },
      "102": {
        "name": "Skill",
        "priority": 1,
        "castCondition": {
          "pose": [102]
        },
        "cd": 15.0,
        "cdUpperRange": 5.0,
        "initialCD": 5.0,
        "initialCDUpperRange": 7.0,
        "publicCDGroup": "Shaman_CreatePillar",
        "ignoreGCD": true,
        "stateIDs": ["Skill"],
        "flagTargetReachable": "10",
        "flagSelfOnTemplateCollider": "01",
        "flagSelfInZone": "10",
        "flagTargetInZone": "11"
      }
    }
  },
  "inputKeys": [
    {
      "keyID": 101,
      "inputKeyCode": 257,
      "abilityName": ""
    },
    {
      "keyID": 102,
      "inputKeyCode": 258,
      "abilityName": ""
    }
  ],
  "move": {
    "$type": "PLMNMICDOHN",
    "EINCMKOBBEG": {
      "muteAll": true
    }
  }
}
