{
  "common": {
    "effectAttachShape": {
      "$type": "ConfigEffectAttachSkinnedMesh",
      "mesh": "EffectMesh"
    },
    "mass": 30.0,
    "affectedByWorld": true,
    "checkInSurface": true,
    "shouldPauseAnimatorBeforeReady": true,
    "clearAnimatorOnSetLightDeactive": true,
    "clearAIOnSetLightDeactive": true
  },
  "dither": {
    "normalBetweenCamera": {
      "detectDitherRange": 5.0
    }
  },
  "combat": {
    "property": {
      "endureType": "Monster_Grunt_Humanoid",
      "weight": 75.0
    },
    "beHit": {
      "hitBloodEffect": ""
    },
    "combatLock": {
      "lockShape": "CircleLockEnemy",
      "lockType": "Avatar&Monster_Lv4"
    },
    "die": {
      "hasAnimatorDie": true,
      "dieEndTime": 2.0,
      "dieForceDisappearTime": 4.0,
      "dieDisappearEffect": "Eff_Death_Common",
      "dieShaderData": "MonsterDie",
      "OCGODEHJPME": true,
      "MFJBKFECLNJ": true,
      "IMEEBMBJPGJ": true,
      "ICHFPLMNCLC": true,
      "MBHMAGEPJFH": true,
      "CFHPDHFKMEP": true
    }
  },
  "equipController": {
    "sheathPoint": "",
    "attachPoints": {
      "equip01": "WeaponR",
      "equip02": "WeaponL"
    }
  },
  "abilities": [
    {
      "abilityID": "WaterBall",
      "abilityName": "Abyss_Water_WaterBall",
      "abilityOverride": ""
    },
    {
      "abilityID": "Bubble_BS",
      "abilityName": "Abyss_Water_Bubble_BS",
      "abilityOverride": ""
    },
    {
      "abilityID": "Bubble",
      "abilityName": "Abyss_Water_Bubble",
      "abilityOverride": ""
    },
    {
      "abilityID": "BlinkEffect",
      "abilityName": "Abyss_Water_BlinkEffect",
      "abilityOverride": ""
    },
    {
      "abilityID": "BlinkPoint",
      "abilityName": "Abyss_Water_BlinkPoint",
      "abilityOverride": ""
    },
    {
      "abilityID": "DoBlink",
      "abilityName": "Abyss_Water_DoBlink",
      "abilityOverride": ""
    },
    {
      "abilityID": "DoBlink_Visible",
      "abilityName": "Abyss_Water_DoBlink_Visible",
      "abilityOverride": ""
    },
    {
      "abilityID": "DoBlink_Damage",
      "abilityName": "Abyss_Water_DoBlink_Damage",
      "abilityOverride": ""
    },
    {
      "abilityID": "Blink_AS",
      "abilityName": "Abyss_Water_Blink_AS",
      "abilityOverride": ""
    },
    {
      "abilityID": "ForceDefend",
      "abilityName": "Abyss_Water_ForceDefend",
      "abilityOverride": ""
    },
    {
      "abilityID": "ForceBlink",
      "abilityName": "Abyss_Water_ForceBlink",
      "abilityOverride": ""
    },
    {
      "abilityID": "ForceBlink_DoBlink",
      "abilityName": "Abyss_Water_ForceBlink_DoBlink",
      "abilityOverride": ""
    },
    {
      "abilityID": "ForceBlink_Visible",
      "abilityName": "Abyss_Water_ForceBlink_Visible",
      "abilityOverride": ""
    },
    {
      "abilityID": "ForceBlink_AS",
      "abilityName": "Abyss_Water_ForceBlink_AS",
      "abilityOverride": ""
    },
    {
      "abilityID": "ElementShield",
      "abilityName": "Abyss_Water_ElementShield",
      "abilityOverride": ""
    },
    {
      "abilityID": "ElementShield_Effect",
      "abilityName": "Abyss_Water_ElementShield_Effect",
      "abilityOverride": ""
    },
    {
      "abilityID": "ElementShield_Remove",
      "abilityName": "Abyss_Water_ElementShield_Remove",
      "abilityOverride": ""
    },
    {
      "abilityID": "DizzyTimer",
      "abilityName": "Abyss_Water_DizzyTimer",
      "abilityOverride": ""
    },
    {
      "abilityID": "AnimationSteer",
      "abilityName": "Abyss_Water_AnimationSteer",
      "abilityOverride": ""
    },
    {
      "abilityID": "ReturnToBorn",
      "abilityName": "Abyss_Water_ReturnToBorn",
      "abilityOverride": ""
    },
    {
      "abilityID": "ReturnToBorn_AS",
      "abilityName": "Abyss_Water_ReturnToBorn_AS",
      "abilityOverride": ""
    },
    {
      "abilityID": "ReturnToBorn_Visible",
      "abilityName": "Abyss_Water_ReturnToBorn_Visible",
      "abilityOverride": ""
    },
    {
      "abilityID": "ReturnToBorn_ElementShield",
      "abilityName": "Abyss_Water_ReturnToBorn_ElementShield",
      "abilityOverride": ""
    },
    {
      "abilityID": "ElementShield_Remove_NoBroken",
      "abilityName": "Abyss_Water_ElementShield_Remove_NoBroken",
      "abilityOverride": ""
    },
    {
      "abilityID": "Monster_Abyss_SpecialsState",
      "abilityName": "Monster_Abyss_SpecialsState",
      "abilityOverride": ""
    },
    {
      "abilityID": "Monster_Abyss_Water_SpecialsState",
      "abilityName": "Monster_Abyss_Water_SpecialsState",
      "abilityOverride": ""
    },
    {
      "abilityID": "Monster_Abyss_ActionPointRegister",
      "abilityName": "Monster_Abyss_ActionPointRegister",
      "abilityOverride": ""
    },
    {
      "abilityID": "Monster_Abyss_Sacrifice_NeuronBroadcaster",
      "abilityName": "Monster_Abyss_Sacrifice_NeuronBroadcaster",
      "abilityOverride": ""
    },
    {
      "abilityID": "Alert",
      "abilityName": "Monster_Abyss_Alert",
      "abilityOverride": ""
    },
    {
      "abilityID": "SacrificeAlert",
      "abilityName": "Abyss_Water_SacrificeAlert",
      "abilityOverride": ""
    },
    {
      "abilityID": "GatherStart",
      "abilityName": "Abyss_Water_GatherStart",
      "abilityOverride": ""
    },
    {
      "abilityID": "GatherLoop",
      "abilityName": "Abyss_Water_GatherLoop",
      "abilityOverride": ""
    },
    {
      "abilityID": "GatherAlert",
      "abilityName": "Abyss_Water_GatherAlert",
      "abilityOverride": ""
    },
    {
      "abilityID": "GatherSuccess",
      "abilityName": "Abyss_Water_GatherSuccess",
      "abilityOverride": ""
    },
    {
      "abilityID": "Monster_Abyss_TurnToSacrifice",
      "abilityName": "Monster_Abyss_TurnToSacrifice",
      "abilityOverride": ""
    },
    {
      "abilityID": "Monster_Abyss_OutOfSacrifice",
      "abilityName": "Monster_Abyss_OutOfSacrifice",
      "abilityOverride": ""
    },
    {
      "abilityID": "Monster_Abyss_Sacrifice_Effect",
      "abilityName": "Monster_Abyss_Sacrifice_Effect",
      "abilityOverride": ""
    }
  ],
  "stateLayers": {
    "defaultLayer": {
      "$type": "ConfigNormalStateLayer",
      "FNPGDAEJAPJ": "",
      "stateIDs": {
        "Born": {
          "$type": "ConfigMonsterStateIDInfo",
          "animatorStates": {
            "Born": ["Monster_Abyss_Water_Born"]
          },
          "canDoSkill": true,
          "canSyncMove": true,
          "resetAnimatorTriggerOnExit": ["DoSkill"]
        },
        "NormalIdle": {
          "$type": "ConfigMonsterStateIDInfo",
          "animatorStates": {
            "Standby": []
          },
          "canDoSkill": true,
          "canSyncMove": true,
          "resetAnimatorTriggerOnExit": ["DoSkill"],
          "BHEPAJIOBDN": true,
          "BKLKHCBEHNL": true
        },
        "Standby_Dizzy": {
          "$type": "ConfigMonsterStateIDInfo",
          "animatorStates": {
            "Standby_Dizzy": []
          },
          "canDoSkill": true,
          "canSyncMove": true,
          "resetAnimatorTriggerOnExit": ["DoSkill"]
        },
        "NormalMove": {
          "$type": "ConfigMonsterStateIDInfo",
          "animatorStates": {
            "Walk": ["Audio_Abyss_Walk"]
          },
          "canDoSkill": true,
          "canSyncMove": true,
          "resetAnimatorTriggerOnExit": ["DoSkill"],
          "BHEPAJIOBDN": true
        },
        "RandomAction": {
          "$type": "ConfigMonsterStateIDInfo",
          "animatorStates": {
            "RandomAction_1": ["Audio_Abyss_RandomAction_1"],
            "RandomAction_2": ["Audio_Abyss_RandomAction_2"],
            "RandomAction_3": ["Audio_Abyss_RandomAction_3"]
          },
          "resetAnimatorTriggerOnExit": ["BeHit", "DoSkill"]
        },
        "BeHit": {
          "$type": "ConfigMonsterStateIDInfo",
          "animatorStates": {
            "Hit_L": ["Audio_Abyss_Hit_L"],
            "Hit_H": ["Audio_Abyss_Hit_H"]
          },
          "resetAnimatorTriggerOnEnter": ["BeHit"],
          "resetAnimatorTriggerOnExit": ["DoSkill"]
        },
        "BeHitThrow": {
          "$type": "ConfigMonsterStateIDInfo",
          "animatorStates": {
            "HitThrow": ["Audio_Abyss_HitThrow"],
            "HitThrowDrop": [],
            "HitThrowToGround": ["Audio_Abyss_HitThrowToGround"]
          },
          "resetAnimatorTriggerOnEnter": ["BeHit", "HitAir2HitDrop"],
          "resetAnimatorTriggerOnExit": ["DoSkill"]
        },
        "Struggle": {
          "$type": "ConfigMonsterStateIDInfo",
          "animatorStates": {
            "Struggle": []
          },
          "resetAnimatorTriggerOnEnter": ["BeHit", "HitAir2HitDrop"],
          "resetAnimatorTriggerOnExit": ["DoSkill"]
        },
        "Die": {
          "$type": "ConfigMonsterStateIDInfo",
          "animatorStates": {
            "Die": ["Monster_Abyss_Die", "Audio_Abyss_Die"],
            "FallingDie": ["Monster_Abyss_Die", "Audio_Abyss_FallingDie"],
            "SwimDie": ["Monster_Abyss_SwimDie"],
            "AirDie": ["Monster_Abyss_AirDie", "Audio_Abyss_Die"]
          }
        },
        "Alert": {
          "$type": "ConfigMonsterStateIDInfo",
          "animatorStates": {
            "Alert": ["Monster_Abyss_Alert", "Audio_Abyss_Alert"]
          },
          "BFDKJHMDDML": 0.0,
          "resetAnimatorTriggerOnExit": ["BeHit", "DoSkill"]
        },
        "SacrificeAlert": {
          "$type": "ConfigMonsterStateIDInfo",
          "animatorStates": {
            "Aware": [
              "Monster_Abyss_Alert",
              "Monster_Abyss_Water_SacrificeAlert",
              "Audio_Abyss_Alert"
            ]
          },
          "BFDKJHMDDML": 0.0,
          "resetAnimatorTriggerOnExit": ["BeHit", "DoSkill"]
        },
        "NormalAtk": {
          "$type": "ConfigMonsterStateIDInfo",
          "animatorStates": {
            "NormalAtk": [
              "Monster_Abyss_Water_NormalAtk",
              "Audio_Abyss_Water_NormalAtk"
            ]
          },
          "resetAnimatorTriggerOnExit": ["BeHit", "DoSkill"]
        },
        "SpecialAtk": {
          "$type": "ConfigMonsterStateIDInfo",
          "animatorStates": {
            "SpecialAtk": [
              "Monster_Abyss_Water_SpecialAtk",
              "Audio_Abyss_Water_SpecialAtk"
            ]
          },
          "resetAnimatorTriggerOnExit": ["BeHit", "DoSkill"]
        },
        "GatherStart": {
          "$type": "ConfigMonsterStateIDInfo",
          "animatorStates": {
            "GatherStart": [
              "Monster_Abyss_Water_GatherStart",
              "Audio_Abyss_Water_GatherStart"
            ]
          },
          "canSyncMove": true,
          "BDFLEJHPFBG": 100.0,
          "resetAnimatorTriggerOnExit": ["BeHit", "DoSkill"]
        },
        "GatherLoop": {
          "$type": "ConfigMonsterStateIDInfo",
          "animatorStates": {
            "GatherLoop": ["Audio_Abyss_Water_GatherLoop"],
            "GatherLoop_End": ["Audio_Abyss_Water_GatherSuccess"]
          },
          "canSyncMove": true,
          "BDFLEJHPFBG": 100.0,
          "resetAnimatorTriggerOnExit": ["BeHit", "DoSkill"]
        },
        "GatherSuccess_Alert": {
          "$type": "ConfigMonsterStateIDInfo",
          "animatorStates": {
            "GatherSuccess_Alert": ["Monster_Abyss_Water_GatherSuccess_Alert"]
          },
          "canSyncMove": true,
          "BDFLEJHPFBG": 100.0,
          "resetAnimatorTriggerOnExit": ["BeHit", "DoSkill"]
        },
        "GatherSuccess": {
          "$type": "ConfigMonsterStateIDInfo",
          "animatorStates": {
            "GatherSuccess": ["Monster_Abyss_Water_GatherSuccess"]
          },
          "canSyncMove": true,
          "BDFLEJHPFBG": 100.0,
          "resetAnimatorTriggerOnExit": ["BeHit", "DoSkill"]
        },
        "Blink": {
          "$type": "ConfigMonsterStateIDInfo",
          "animatorStates": {
            "Blink_BS": [
              "Monster_Abyss_Water_Blink_BS",
              "Audio_Abyss_Water_Blink_BS"
            ],
            "Blink_AS": [
              "Monster_Abyss_Water_Blink_AS",
              "Audio_Abyss_Water_Blink_AS"
            ]
          },
          "AAEKKGMOKFK": true,
          "resetAnimatorTriggerOnExit": ["BeHit", "DoSkill"]
        },
        "ForceBlink": {
          "$type": "ConfigMonsterStateIDInfo",
          "animatorStates": {
            "ForceBlink": ["Monster_Abyss_Water_ForceBlink"]
          },
          "AAEKKGMOKFK": true,
          "BFDKJHMDDML": 0.4000000059604645,
          "resetAnimatorTriggerOnExit": ["BeHit", "DoSkill"]
        },
        "ElementShield_Broken": {
          "$type": "ConfigMonsterStateIDInfo",
          "animatorStates": {
            "ElementShield_Broken": ["Monster_Abyss_Water_ElementShield_Broken"]
          },
          "resetAnimatorTriggerOnExit": ["BeHit", "DoSkill"]
        },
        "ElementShield_Remove": {
          "$type": "ConfigMonsterStateIDInfo",
          "animatorStates": {
            "ElementShield_Remove": ["Monster_Abyss_Water_ElementShield_Remove"]
          },
          "resetAnimatorTriggerOnExit": ["BeHit", "DoSkill"]
        },
        "ReturnToBorn": {
          "$type": "ConfigMonsterStateIDInfo",
          "animatorStates": {
            "ReturnToBorn": [],
            "ReturnToBorn_AS": ["Monster_Abyss_Water_ReturnToBorn_AS"]
          },
          "AAEKKGMOKFK": true,
          "resetAnimatorTriggerOnExit": ["BeHit", "DoSkill"]
        },
        "TurnToSacrifice": {
          "$type": "ConfigMonsterStateIDInfo",
          "animatorStates": {
            "TurnToSacrifice": ["Monster_Abyss_TurnToSacrifice"]
          },
          "canDoSkill": true,
          "resetAnimatorTriggerOnExit": ["BeHit", "DoSkill"]
        },
        "OutOfSacrifice": {
          "$type": "ConfigMonsterStateIDInfo",
          "animatorStates": {
            "OutOfSacrifice": ["Monster_Abyss_OutOfSacrifice"]
          },
          "canDoSkill": true,
          "resetAnimatorTriggerOnExit": ["BeHit", "DoSkill"]
        },
        "Sacrifice": {
          "$type": "ConfigMonsterStateIDInfo",
          "animatorStates": {
            "Sacrifice": []
          },
          "canDoSkill": true,
          "resetAnimatorTriggerOnExit": ["BeHit", "DoSkill"]
        }
      }
    }
  },
  "billboard": {
    "$type": "NCBABGPMMPL",
    "EBBHBMFMOGD": "BillboardAttach",
    "offset": {
      "x": -0.019999999552965164
    },
    "BFOMIIKCOGI": "Character",
    "OELDMANLPDM": 0.20000000298023224,
    "ANGKJBLILKJ": true
  },
  "initialPoses": {
    "Default": {},
    "Sacrifice": {
      "initialPoseID": 9013,
      "initialPoseParams": {
        "boolParams": {
          "Sacrifice": "true"
        }
      }
    }
  },
  "aibeta": {
    "enable": true,
    "precombat": {},
    "sensing": {
      "settings": {
        "DefaultSetting": {
          "viewRange": 45.0,
          "feelRange": 25.0
        },
        "Sacrifice": {
          "viewRange": 10.0
        },
        "NeverCombat": {
          "enableVision": false,
          "hearAttractionRange": 0.0,
          "feelRange": 0.0
        }
      },
      "templates": {
        "DefaultTemplate": {
          "DefaultPoses": "DefaultSetting",
          "9013": "Sacrifice"
        },
        "NeverCombatTemplate": {
          "DefaultPoses": "NeverCombat",
          "9013": "NeverCombat"
        }
      }
    },
    "neurons": {
      "DefaultSetting": ["HIT"],
      "Preach": ["HIT", "PREACH"],
      "NeverCombat": []
    },
    "threat": {
      "clearThreatEdgeDistance": 7.5,
      "clearThreatTimerByDistance": 1.75,
      "viewThreatGrow": 35.0,
      "feelThreatGrow": 100.0,
      "threatDecreaseSpeed": 10.0,
      "resistTauntLevel": "Monster_TauntLevel_2"
    },
    "defendArea": {
      "defendRange": 50.0
    },
    "skillSetting": {
      "skillEliteSet": {
        "1": [301, 302, 401],
        "2": [301, 302, 401],
        "3": [301, 302, 401],
        "4": [302, 303, 304, 305, 403, 502]
      }
    },
    "skills": {
      "102": {
        "name": "OnAlert",
        "skillType": "OnAlert",
        "faceTarget": true,
        "publicCDGroup": "",
        "triggerGCD": false,
        "stateIDs": ["Alert"],
        "skillQueryingTime": 3.0,
        "flagTargetReachable": "10",
        "flagSelfOnTemplateCollider": "01",
        "flagSelfInZone": "10",
        "flagTargetInZone": "11"
      },
      "103": {
        "name": "OnSacrificeAlert",
        "skillType": "OnAlert",
        "faceTarget": true,
        "castCondition": {
          "pose": [9013]
        },
        "publicCDGroup": "",
        "triggerGCD": false,
        "stateIDs": ["SacrificeAlert"],
        "skillQueryingTime": 3.0,
        "flagTargetReachable": "10",
        "flagSelfOnTemplateCollider": "01",
        "flagSelfInZone": "10",
        "flagTargetInZone": "11"
      },
      "104": {
        "name": "OnSacrificeAlert",
        "skillType": "OnNerve",
        "faceTarget": true,
        "castCondition": {
          "pose": [9013]
        },
        "publicCDGroup": "",
        "triggerGCD": false,
        "stateIDs": ["SacrificeAlert"],
        "skillQueryingTime": 3.0,
        "flagTargetReachable": "10",
        "flagSelfOnTemplateCollider": "01",
        "flagSelfInZone": "10",
        "flagTargetInZone": "11",
        "nerveTrigger": ["HIT"]
      },
      "201": {
        "name": "Gather",
        "castCondition": {
          "pose": [201]
        },
        "cd": 0.5,
        "publicCDGroup": "",
        "stateIDs": [
          "GatherStart",
          "GatherLoop",
          "GatherSuccess_Alert",
          "GatherSuccess"
        ],
        "flagTargetReachable": "11",
        "flagSelfOnTemplateCollider": "01",
        "flagSelfInZone": "11",
        "flagTargetInZone": "11"
      },
      "301": {
        "name": "Blink",
        "faceTarget": true,
        "castCondition": {
          "pose": [301],
          "maxTargetAngleY": 30.0,
          "pickRangeMax": 20.0
        },
        "cd": 10.0,
        "cdUpperRange": 10.0,
        "initialCD": 10.0,
        "initialCDUpperRange": 10.0,
        "publicCDGroup": "",
        "stateIDs": ["Blink"],
        "flagTargetReachable": "10",
        "flagSelfOnTemplateCollider": "01",
        "flagSelfInZone": "10",
        "flagTargetInZone": "11"
      },
      "302": {
        "name": "Blink_Charge",
        "priority": 1,
        "faceTarget": true,
        "castCondition": {
          "pose": [301],
          "maxTargetAngleY": 30.0,
          "pickRangeMin": 20.0,
          "pickRangeMax": 50.0
        },
        "cd": 0.5,
        "publicCDGroup": "",
        "stateIDs": ["Blink"],
        "flagTargetReachable": "11",
        "flagSelfOnTemplateCollider": "01",
        "flagSelfInZone": "11",
        "flagTargetInZone": "11"
      },
      "303": {
        "name": "Blink",
        "faceTarget": true,
        "castCondition": {
          "pose": [302],
          "maxTargetAngleY": 30.0,
          "pickRangeMax": 20.0
        },
        "cd": 0.5,
        "initialCD": 5.0,
        "publicCDGroup": "",
        "stateIDs": ["Blink"],
        "flagTargetReachable": "10",
        "flagSelfOnTemplateCollider": "01",
        "flagSelfInZone": "10",
        "flagTargetInZone": "11"
      },
      "304": {
        "name": "Blink_Charge",
        "priority": 1,
        "faceTarget": true,
        "castCondition": {
          "pose": [302],
          "maxTargetAngleY": 30.0,
          "pickRangeMin": 20.0,
          "pickRangeMax": 50.0
        },
        "cd": 0.5,
        "initialCD": 5.0,
        "publicCDGroup": "",
        "stateIDs": ["Blink"],
        "flagTargetReachable": "11",
        "flagSelfOnTemplateCollider": "01",
        "flagSelfInZone": "11",
        "flagTargetInZone": "11"
      },
      "305": {
        "name": "Blink",
        "faceTarget": true,
        "castCondition": {
          "pose": [301],
          "maxTargetAngleY": 30.0,
          "pickRangeMax": 20.0
        },
        "cd": 999999.0,
        "initialCD": 5.0,
        "publicCDGroup": "",
        "stateIDs": ["Blink"],
        "flagTargetReachable": "10",
        "flagSelfOnTemplateCollider": "01",
        "flagSelfInZone": "10",
        "flagTargetInZone": "11"
      },
      "401": {
        "name": "NormalAtk",
        "faceTarget": true,
        "castCondition": {
          "pose": [301],
          "pickRangeMax": 30.0
        },
        "cd": 3.0,
        "cdUpperRange": 2.0,
        "publicCDGroup": "",
        "stateIDs": ["NormalAtk"],
        "flagTargetReachable": "11",
        "flagSelfOnTemplateCollider": "01",
        "flagSelfInZone": "11",
        "flagTargetInZone": "11"
      },
      "403": {
        "name": "NormalAtk",
        "faceTarget": true,
        "castCondition": {
          "pose": [302],
          "pickRangeMax": 30.0
        },
        "cd": 0.5,
        "initialCD": 5.0,
        "publicCDGroup": "",
        "stateIDs": ["NormalAtk"],
        "flagTargetReachable": "11",
        "flagSelfOnTemplateCollider": "01",
        "flagSelfInZone": "11",
        "flagTargetInZone": "11"
      },
      "501": {
        "name": "SpecialAtk",
        "priority": 1,
        "faceTarget": true,
        "castCondition": {
          "pose": [301],
          "pickRangeMax": 20.0
        },
        "cd": 15.0,
        "cdUpperRange": 10.0,
        "initialCD": 15.0,
        "initialCDUpperRange": 10.0,
        "publicCDGroup": "",
        "stateIDs": ["SpecialAtk"],
        "flagTargetReachable": "11",
        "flagSelfOnTemplateCollider": "01",
        "flagSelfInZone": "11",
        "flagTargetInZone": "11"
      },
      "502": {
        "name": "SpecialAtk",
        "priority": 1,
        "faceTarget": true,
        "castCondition": {
          "pose": [302],
          "pickRangeMax": 20.0
        },
        "cd": 0.5,
        "initialCD": 5.0,
        "publicCDGroup": "",
        "stateIDs": ["SpecialAtk"],
        "flagTargetReachable": "11",
        "flagSelfOnTemplateCollider": "01",
        "flagSelfInZone": "11",
        "flagTargetInZone": "11"
      },
      "1301": {
        "name": "TurnToSacrifice",
        "skillType": "ActionPoint",
        "castCondition": {
          "pose": [100, 300]
        },
        "publicCDGroup": "",
        "triggerGCD": false,
        "stateIDs": ["TurnToSacrifice"],
        "skillQueryingTime": 3.0,
        "flagTargetReachable": "10",
        "flagSelfOnTemplateCollider": "01",
        "flagSelfInZone": "10",
        "flagTargetInZone": "11"
      },
      "1302": {
        "name": "OutOfSacrifice",
        "skillType": "OnNerve",
        "castCondition": {
          "pose": [9013]
        },
        "publicCDGroup": "",
        "triggerGCD": false,
        "stateIDs": ["OutOfSacrifice"],
        "skillQueryingTime": 3.0,
        "flagTargetReachable": "10",
        "flagSelfOnTemplateCollider": "01",
        "flagSelfInZone": "10",
        "flagTargetInZone": "11",
        "nerveTrigger": ["AWAKE"]
      }
    },
    "skillGCD": 0.5,
    "returnToBornTactic": {
      "enable": true,
      "defaultSetting": {
        "speedLevel": 0,
        "fadeoutBeginTime": 1.0,
        "fadeoutEndTime": 1.5
      },
      "specification": {
        "301": {
          "speedLevel": 1,
          "fadeoutBeginTime": 3.0,
          "fadeoutEndTime": 3.5
        }
      }
    },
    "wanderTactic": {
      "enable": true,
      "condition": {
        "pose": [100, 300]
      },
      "defaultSetting": {
        "turnSpeedOverride": 0.20000000298023224,
        "distanceFromBorn": 25.0,
        "distanceFromCurrentMin": 7.5
      }
    },
    "followScriptedPathTactic": {
      "enable": true,
      "defaultSetting": {
        "turnSpeedOverrideWalk": 0.5,
        "turnSpeedOverrideRun": 0.5
      }
    },
    "reactActionPointTactic": {
      "enable": true,
      "defaultSetting": {
        "reactList": [
          {
            "pointType": "PreachPoint",
            "pose": [100, 300],
            "nerveTrigger": ["PREACH"],
            "skillID": 1301
          }
        ]
      }
    }
  },
  "inputKeys": [
    {
      "keyID": 1,
      "inputKeyCode": 257,
      "abilityName": ""
    },
    {
      "keyID": 201,
      "inputKeyCode": 258,
      "abilityName": ""
    },
    {
      "keyID": 301,
      "inputKeyCode": 259,
      "abilityName": ""
    },
    {
      "keyID": 401,
      "inputKeyCode": 260,
      "abilityName": ""
    },
    {
      "keyID": 501,
      "inputKeyCode": 261,
      "abilityName": ""
    }
  ],
  "move": {
    "$type": "PLMNMICDOHN",
    "KCNKFNLDDOD": true,
    "NGNIGPNNLAI": "StrongHumanoidType",
    "AHOOIPBGHOO": {
      "101": "None"
    }
  },
  "audio": {
    "NCOGLLMIJGO": "",
    "animAudio": {
      "onTransitionIn": [
        {
          "currentStateName": "Sacrifice",
          "audioEvent": {
            "text": "Play_sfx_monster_abyss_sacrifice"
          }
        },
        {
          "currentStateName": "OutOfSacrifice",
          "audioEvent": {
            "text": "Play_sfx_monster_abyss_sacrifice"
          }
        },
        {
          "currentStateName": "Alert",
          "audioEvent": {
            "text": "Stop_sfx_monster_abyss_sacrifice"
          }
        },
        {
          "currentStateName": "BeHit",
          "audioEvent": {
            "text": "Stop_sfx_monster_abyss_sacrifice"
          }
        },
        {
          "currentStateName": "Die",
          "audioEvent": {
            "text": "Stop_sfx_monster_abyss_sacrifice"
          }
        }
      ],
      "onTransitionOut": [
        {
          "currentStateName": "Blink_BS",
          "audioEvent": {
            "text": "Stop_vo_monster_abyss_skill_blink"
          },
          "otherStateNames": ["Blink"],
          "usage": "Except"
        },
        {
          "currentStateName": "Blink",
          "audioEvent": {
            "text": "Stop_vo_monster_abyss_skill_blink"
          },
          "otherStateNames": ["Blink_AS"],
          "usage": "Except"
        },
        {
          "currentStateName": "SpecialAtk",
          "audioEvent": {
            "text": "Stop_vo_monster_abyss_specialAtk"
          },
          "otherStateNames": [
            "RandomAction_1",
            "RandomAction_2",
            "RandomAction_3",
            "RandomAction_Standby"
          ],
          "usage": "Except"
        },
        {
          "currentStateName": "GatherLoop",
          "audioEvent": {
            "text": "Stop_sfx_monster_abyss_water_gather"
          },
          "otherStateNames": ["GatherLoop_End"],
          "usage": "Except"
        },
        {
          "currentStateName": "Walk",
          "audioEvent": {
            "text": "Stop_sfx_monster_abyss_walk"
          }
        },
        {
          "currentStateName": "RandomAction_3",
          "audioEvent": {
            "text": "Stop_vo_monster_abyss_randomAction03"
          }
        },
        {
          "currentStateName": "RandomAction_2",
          "audioEvent": {
            "text": "Stop_vo_monster_abyss_randomAction02"
          }
        },
        {
          "currentStateName": "RandomAction_1",
          "audioEvent": {
            "text": "Stop_vo_monster_abyss_randomAction01"
          }
        },
        {
          "currentStateName": "GatherStart",
          "audioEvent": {
            "text": "Stop_vo_monster_abyss_superAtk_BS"
          },
          "otherStateNames": ["GatherLoop"],
          "usage": "Except"
        },
        {
          "currentStateName": "GatherSuccess_Alert",
          "audioEvent": {
            "text": "Stop_vo_monster_abyss_superAtk_AS"
          },
          "otherStateNames": ["GatherLoop_End"],
          "usage": "Except"
        },
        {
          "currentStateName": "Sacrifice",
          "audioEvent": {
            "text": "Stop_sfx_monster_abyss_sacrifice"
          }
        }
      ]
    },
    "disableEvent": {
      "text": "Stop_sfx_monster_abyss_sacrifice"
    },
    "destroyEvent": {
      "text": "Stop_sfx_monster_abyss_sacrifice"
    }
  }
}
