{
  "common": {
    "effectAttachShape": {
      "$type": "ConfigEffectAttachSkinnedMesh",
      "mesh": "EffectMesh"
    },
    "mass": 30.0,
    "height": 0.699999988079071,
    "affectedByWorld": true,
    "checkInSurface": true,
    "scale": 2.0,
    "canTriggerElementReactionText": false,
    "useGrassDisplacement": true
  },
  "model": {
    "bornEffect": "",
    "attachEffect": "",
    "canBakeMesh": false
  },
  "dither": {
    "showDitherDuration": 2.0
  },
  "combat": {
    "property": {
      "endureType": "Monster_Minion",
      "weight": 40.0,
      "isInvincible": true
    },
    "beHit": {
      "hitBloodEffect": "",
      "muteAllHitText": true
    },
    "combatLock": {
      "lockShape": "CircleLockEnemy",
      "lockType": "Animal_Lv2"
    },
    "die": {
      "fallWhenAirDie": false,
      "dieEndTime": 2.0,
      "dieForceDisappearTime": 10.0,
      "dieDisappearEffect": ""
    }
  },
  "abilities": [
    {
      "abilityID": "Homeworld_CommonInitial",
      "abilityName": "Animal_Homeworld_Common_Initial",
      "abilityOverride": ""
    }
  ],
  "stateLayers": {
    "defaultLayer": {
      "$type": "ConfigNormalStateLayer",
      "FNPGDAEJAPJ": "",
      "stateIDs": {
        "Born": {
          "$type": "ConfigMonsterStateIDInfo",
          "animatorStates": {
            "Born": ["Audio_Pigeon_FlyUp"]
          },
          "resetAnimatorTriggerOnExit": ["DoSkill"]
        },
        "NormalIdle": {
          "$type": "ConfigMonsterStateIDInfo",
          "animatorStates": {
            "Standby": [],
            "Standby_Aware": []
          },
          "canDoSkill": true,
          "canSyncMove": true,
          "resetAnimatorTriggerOnExit": ["DoSkill"]
        },
        "NormalMove": {
          "$type": "ConfigMonsterStateIDInfo",
          "animatorStates": {
            "Walk": ["Audio_Pigeon_Walk"]
          },
          "canDoSkill": true,
          "canSyncMove": true,
          "resetAnimatorTriggerOnExit": ["DoSkill"],
          "BHEPAJIOBDN": true
        },
        "FlyDown": {
          "$type": "ConfigMonsterStateIDInfo",
          "animatorStates": {
            "FlyDown": ["Audio_Pigeon_FlyUp"],
            "Land": ["Audio_Pigeon_Land"],
            "LandToGround": [
              "Animal_Pigeon_LandToGround",
              "Audio_Pigeon_LandToGround"
            ]
          },
          "canSyncMove": true,
          "resetAnimatorTriggerOnEnter": ["HitAir2HitDrop"],
          "resetAnimatorTriggerOnExit": ["DoSkill"],
          "BHEPAJIOBDN": true
        },
        "FlyUp": {
          "$type": "ConfigMonsterStateIDInfo",
          "animatorStates": {
            "TakeOff": ["Animal_Pigeon_TakeOff", "Audio_Pigeon_TakeOff"],
            "FlyUp": ["Audio_Pigeon_FlyUp"],
            "Disappear": ["Audio_Pigeon_FlyUp"]
          },
          "canSyncMove": true,
          "resetAnimatorTriggerOnExit": ["DoSkill"],
          "BHEPAJIOBDN": true
        },
        "BeHit": {
          "$type": "ConfigMonsterStateIDInfo",
          "animatorStates": {
            "Hit_L": ["Audio_Pigeon_LandToGround"]
          },
          "resetAnimatorTriggerOnEnter": ["BeHit"],
          "resetAnimatorTriggerOnExit": ["DoSkill"]
        },
        "Die": {
          "$type": "ConfigMonsterStateIDInfo",
          "animatorStates": {
            "Die": ["Animal_Pigeon_Die", "Audio_Pigeon_LandToGround"],
            "Die_Disappear": ["Audio_Pigeon_FlyUp"]
          }
        },
        "Aware": {
          "$type": "ConfigMonsterStateIDInfo",
          "animatorStates": {
            "Aware": []
          },
          "canDoSkill": true,
          "resetAnimatorTriggerOnExit": ["BeHit", "DoSkill"]
        },
        "Alert": {
          "$type": "ConfigMonsterStateIDInfo",
          "animatorStates": {
            "Alert": [],
            "Alert_Scared": ["Audio_Pigeon_LandToGround"]
          },
          "canDoSkill": true,
          "resetAnimatorTriggerOnExit": ["BeHit", "DoSkill"]
        },
        "Personality_101": {
          "$type": "ConfigMonsterStateIDInfo",
          "animatorStates": {
            "Personality_101": []
          },
          "canDoSkill": true,
          "resetAnimatorTriggerOnExit": ["BeHit", "DoSkill"]
        },
        "Personality_102": {
          "$type": "ConfigMonsterStateIDInfo",
          "animatorStates": {
            "Personality_102": ["Audio_Pigeon_Personality_102"]
          },
          "canDoSkill": true,
          "resetAnimatorTriggerOnExit": ["BeHit", "DoSkill"]
        },
        "Personality_103": {
          "$type": "ConfigMonsterStateIDInfo",
          "animatorStates": {
            "Personality_103": ["Audio_Pigeon_Personality_103"]
          },
          "canDoSkill": true,
          "resetAnimatorTriggerOnExit": ["BeHit", "DoSkill"]
        },
        "Personality_104": {
          "$type": "ConfigMonsterStateIDInfo",
          "animatorStates": {
            "Personality_104": ["Audio_Pigeon_LandToGround"]
          },
          "canDoSkill": true,
          "resetAnimatorTriggerOnExit": ["BeHit", "DoSkill"]
        }
      }
    }
  },
  "initialPoses": {
    "Default": {
      "initialPoseParams": {
        "intParams": {
          "RandomPose": "2"
        }
      }
    }
  },
  "aibeta": {
    "enable": true,
    "friendliness": 1,
    "decisionArchetype": "Animal_Homeworld",
    "moveSetting": {
      "useNavMesh": false,
      "navMeshAgentName": "Undead01"
    },
    "sensing": {
      "settings": {
        "DefaultSetting": {
          "enableVision": false,
          "feelRange": 12.5
        }
      }
    },
    "neurons": {
      "DefaultSetting": ["HIT"]
    },
    "threat": {
      "viewThreatGrow": 75.0,
      "feelThreatGrow": 1000.0,
      "viewAttenuation": [
        {
          "x": 10.0,
          "y": 1.0
        },
        {
          "x": 20.0,
          "y": 0.10000000149011612
        }
      ]
    },
    "defendArea": {
      "defendRange": 100.0
    },
    "fly": {
      "enable": true,
      "floatingPoses": [901, 903]
    },
    "poseControl": {
      "items": [
        {
          "minTime": 3.0,
          "maxTime": 13.0,
          "poseID": 1,
          "RandomPose": [2],
          "switchOnlyInCanDoSkillState": true
        },
        {
          "minTime": 10.0,
          "maxTime": 100.0,
          "poseID": 2,
          "RandomPose": [1],
          "switchOnlyInCanDoSkillState": true
        }
      ]
    },
    "ui": {
      "hasDirectionIndicator": false
    },
    "skills": {
      "101": {
        "name": "Personality_101",
        "skillType": "Free",
        "castCondition": {
          "pose": [2]
        },
        "cd": 15.0,
        "cdUpperRange": 25.0,
        "initialCD": 2.5,
        "initialCDUpperRange": 5.0,
        "publicCDGroup": "",
        "stateIDs": ["Personality_101"],
        "flagTargetReachable": "10",
        "flagSelfOnTemplateCollider": "01",
        "flagSelfInZone": "10",
        "flagTargetInZone": "11"
      },
      "102": {
        "name": "Personality_102",
        "skillType": "Free",
        "castCondition": {
          "pose": [2]
        },
        "cd": 15.0,
        "cdUpperRange": 25.0,
        "initialCD": 2.5,
        "initialCDUpperRange": 5.0,
        "publicCDGroup": "",
        "stateIDs": ["Personality_102"],
        "flagTargetReachable": "10",
        "flagSelfOnTemplateCollider": "01",
        "flagSelfInZone": "10",
        "flagTargetInZone": "11"
      },
      "103": {
        "name": "Personality_103",
        "skillType": "Free",
        "castCondition": {
          "pose": [2]
        },
        "cd": 15.0,
        "cdUpperRange": 25.0,
        "initialCD": 2.5,
        "initialCDUpperRange": 5.0,
        "publicCDGroup": "",
        "stateIDs": ["Personality_103"],
        "flagTargetReachable": "10",
        "flagSelfOnTemplateCollider": "01",
        "flagSelfInZone": "10",
        "flagTargetInZone": "11"
      },
      "104": {
        "name": "Personality_104",
        "skillType": "Free",
        "castCondition": {
          "pose": [2]
        },
        "cd": 15.0,
        "cdUpperRange": 25.0,
        "initialCD": 2.5,
        "initialCDUpperRange": 5.0,
        "publicCDGroup": "",
        "stateIDs": ["Personality_104"],
        "flagTargetReachable": "10",
        "flagSelfOnTemplateCollider": "01",
        "flagSelfInZone": "10",
        "flagTargetInZone": "11"
      },
      "111": {
        "name": "Personality_101",
        "castCondition": {
          "pose": [2]
        },
        "cd": 15.0,
        "cdUpperRange": 25.0,
        "initialCD": 2.5,
        "initialCDUpperRange": 5.0,
        "publicCDGroup": "",
        "stateIDs": ["Personality_101"],
        "flagTargetReachable": "10",
        "flagSelfOnTemplateCollider": "01",
        "flagSelfInZone": "10",
        "flagTargetInZone": "11"
      },
      "112": {
        "name": "Personality_102",
        "castCondition": {
          "pose": [2]
        },
        "cd": 15.0,
        "cdUpperRange": 25.0,
        "initialCD": 2.5,
        "initialCDUpperRange": 5.0,
        "publicCDGroup": "",
        "stateIDs": ["Personality_102"],
        "flagTargetReachable": "10",
        "flagSelfOnTemplateCollider": "01",
        "flagSelfInZone": "10",
        "flagTargetInZone": "11"
      },
      "113": {
        "name": "Personality_103",
        "castCondition": {
          "pose": [2]
        },
        "cd": 15.0,
        "cdUpperRange": 25.0,
        "initialCD": 2.5,
        "initialCDUpperRange": 5.0,
        "publicCDGroup": "",
        "stateIDs": ["Personality_103"],
        "flagTargetReachable": "10",
        "flagSelfOnTemplateCollider": "01",
        "flagSelfInZone": "10",
        "flagTargetInZone": "11"
      },
      "114": {
        "name": "Personality_104",
        "castCondition": {
          "pose": [2]
        },
        "cd": 15.0,
        "cdUpperRange": 25.0,
        "initialCD": 2.5,
        "initialCDUpperRange": 5.0,
        "publicCDGroup": "",
        "stateIDs": ["Personality_104"],
        "flagTargetReachable": "10",
        "flagSelfOnTemplateCollider": "01",
        "flagSelfInZone": "10",
        "flagTargetInZone": "11"
      }
    },
    "skillGCD": 2.5,
    "returnToBornTactic": {},
    "wanderTactic": {
      "enable": true,
      "condition": {
        "pose": [1]
      },
      "threatLevelLimit": [0, 1, 2],
      "defaultSetting": {
        "turnSpeedOverride": 0.25,
        "distanceFromBorn": 5.0,
        "distanceFromCurrentMax": 3.0
      }
    },
    "landingTactic": {
      "enable": true,
      "condition": {
        "pose": [901]
      },
      "defaultSetting": {
        "speedLevel": 2,
        "landingAngleMax": 40.0,
        "landingAngleMin": 40.0,
        "landingTerrainAltitude": 4.75
      }
    },
    "extractionTactic": {
      "enable": true,
      "condition": {
        "pose": [1, 2, 903]
      },
      "nerveTrigger": ["HIT"],
      "defaultSetting": {
        "extractionAngleMax": 45.0,
        "extractionAngleMin": 30.0,
        "triggerDistance": 0.0,
        "killSelfTime": 3.0
      }
    }
  },
  "move": {
    "$type": "PLMNMICDOHN",
    "AIPJBCHAEPE": "Walk",
    "AHOOIPBGHOO": {
      "1": "Walk",
      "2": "Walk",
      "3": "Walk",
      "901": "Run",
      "902": "Run",
      "903": "Run"
    }
  },
  "animal": {
    "tickAbilityElement": false,
    "hasCharacterRenderering": false
  }
}
