{
  "common": {
    "effectAttachShape": {
      "$type": "ConfigEffectAttachSkinnedMesh",
      "mesh": "EffectMesh"
    },
    "mass": 10000.0,
    "height": 3.0,
    "viewSize": 1.2000000476837158,
    "affectedByWorld": true,
    "checkInSurface": true,
    "scale": 3.0,
    "useGrassDisplacement": true,
    "clearAIOnSetLightDeactive": true,
    "KJCBJDCKPND": true,
    "NCCLLKFLJGL": true,
    "JDFHDFOFPOB": [
      {
        "KIHPGIAEOLJ": "EffectMesh01Point",
        "BNBLJKAAHKN": "EffectMesh01"
      },
      {
        "KIHPGIAEOLJ": "EffectMesh02Point",
        "BNBLJKAAHKN": "EffectMesh02"
      },
      {
        "KIHPGIAEOLJ": "EffectMesh03Point",
        "BNBLJKAAHKN": "EffectMesh03"
      },
      {
        "KIHPGIAEOLJ": "EffectMesh04Point",
        "BNBLJKAAHKN": "EffectMesh04"
      }
    ]
  },
  "headControl": {
    "$type": "GAAIKCFIJMM",
    "useHeadControl": true,
    "KBBNEKBLPFA": 60.0,
    "FJOGFHEFPHN": 60.0,
    "FCDMCPDGFCL": ["Standby", "Walk", "Run", "Turn"]
  },
  "specialPoint": {
    "elementAbsorb": "RootNode",
    "elementPendant": "",
    "elementDrop": "RootNode",
    "bulletAim": "Head"
  },
  "model": {
    "bornEffect": "Eff_Monster_Common_Born",
    "attachEffect": ""
  },
  "dither": {
    "showDitherDuration": 2.0
  },
  "combat": {
    "property": {
      "endureType": "Monster_Demiboss_Other",
      "weight": 150.0
    },
    "beHit": {
      "hitBloodEffect": ""
    },
    "combatLock": {
      "lockShape": "CircleLockEnemy",
      "lockType": "Avatar&Monster_Lv4"
    },
    "die": {
      "hasAnimatorDie": true,
      "dieEndTime": 1.600000023841858,
      "dieForceDisappearTime": 1.600000023841858,
      "dieDisappearEffect": "Eff_Death_Common",
      "dieShaderData": "MonsterDie",
      "OCGODEHJPME": true,
      "MFJBKFECLNJ": true,
      "IMEEBMBJPGJ": true,
      "ICHFPLMNCLC": true,
      "MBHMAGEPJFH": true,
      "CFHPDHFKMEP": true
    },
    "animEvents": {
      "AtkNo": {
        "attackPattern": {
          "$type": "ConfigAttackCircle",
          "triggerType": "TriggerNoRepeat",
          "born": {
            "$type": "ConfigBornBySelf",
            "offset": {
              "x": 0.0,
              "y": 0.0,
              "z": -0.5
            }
          },
          "fanAngle": 60.0,
          "radius": 1.5
        },
        "attackInfo": {
          "attackTag": "",
          "attenuationTag": "",
          "attenuationGroup": "default",
          "attackProperty": {
            "damagePercentage": 0.5,
            "MKLAMNDEDGB": 0.0,
            "bonusCriticalHurt": 100.0,
            "strikeType": "Blunt",
            "attackType": "Melee"
          },
          "hitPattern": {
            "onHitEffectName": "default",
            "hitImpulseType": "LV2",
            "hitHaltTimeScale": 0.009999999776482582
          }
        }
      },
      "SacredAttack01_Hit1": {
        "attackPattern": {
          "$type": "NAMPOMPBMHC",
          "triggerType": "TriggerNoRepeat",
          "born": {
            "$type": "ConfigBornBySelf",
            "offset": {
              "x": 1.0,
              "y": 0.0,
              "z": 3.0
            }
          },
          "size": {
            "x": 3.0,
            "y": 3.0,
            "z": 4.5
          }
        },
        "attackInfo": {
          "attackTag": "",
          "attenuationTag": "",
          "attenuationGroup": "default",
          "attackProperty": {
            "damagePercentage": 0.5,
            "MKLAMNDEDGB": 0.0,
            "elementType": "Fire",
            "bonusCriticalHurt": 30.0,
            "strikeType": "Blunt",
            "enBreak": 200.0,
            "attackType": "Melee"
          },
          "hitPattern": {
            "onHitEffectName": "default",
            "hitImpulseType": "LV3",
            "hitHaltTimeScale": 0.009999999776482582
          }
        }
      },
      "SacredAttack01_Hit2": {
        "attackPattern": {
          "$type": "ConfigAttackCircle",
          "triggerType": "TriggerNoRepeat",
          "born": {
            "$type": "ConfigBornBySelf",
            "offset": {
              "x": 0.0,
              "y": -1.0,
              "z": 0.0
            }
          },
          "height": 4.0,
          "radius": 4.5
        },
        "attackInfo": {
          "attackTag": "",
          "attenuationTag": "",
          "attenuationGroup": "default",
          "attackProperty": {
            "damagePercentage": 0.699999988079071,
            "MKLAMNDEDGB": 0.0,
            "elementType": "Fire",
            "bonusCriticalHurt": 30.0,
            "strikeType": "Blunt",
            "enBreak": 200.0,
            "attackType": "Melee"
          },
          "hitPattern": {
            "onHitEffectName": "default",
            "hitImpulseType": "LV4",
            "hitHaltTimeScale": 0.009999999776482582
          }
        }
      },
      "SacredAttack02": {
        "attackPattern": {
          "$type": "ConfigAttackCircle",
          "triggerType": "TriggerNoRepeat",
          "born": {
            "$type": "ConfigBornBySelf",
            "offset": {
              "x": 0.0,
              "y": -1.0,
              "z": 0.0
            }
          },
          "height": 4.0,
          "radius": 5.5
        },
        "attackInfo": {
          "attackTag": "",
          "attenuationTag": "",
          "attenuationGroup": "default",
          "attackProperty": {
            "damagePercentage": 1.0,
            "MKLAMNDEDGB": 0.0,
            "elementType": "Fire",
            "bonusCriticalHurt": 30.0,
            "strikeType": "Blunt",
            "enBreak": 200.0,
            "attackType": "Melee"
          },
          "hitPattern": {
            "onHitEffectName": "default",
            "hitImpulseType": "LV6",
            "hitHaltTimeScale": 0.009999999776482582
          },
          "cameraShake": {
            "shakeType": "CustomVector",
            "shakeRange": 1.0,
            "shakeTime": 0.30000001192092896,
            "shakeDistance": 30.0,
            "shakeDir": {
              "y": -1.0
            }
          }
        }
      },
      "SacredAttack03_Hit1_1": {
        "attackPattern": {
          "$type": "NAMPOMPBMHC",
          "triggerType": "TriggerNoRepeat",
          "born": {
            "$type": "ConfigBornBySelf",
            "offset": {
              "x": -1.0,
              "y": 0.0,
              "z": 2.0
            }
          },
          "size": {
            "x": 2.5,
            "y": 3.0,
            "z": 2.5
          }
        },
        "attackInfo": {
          "attackTag": "",
          "attenuationTag": "",
          "attenuationGroup": "default",
          "attackProperty": {
            "damagePercentage": 0.5,
            "MKLAMNDEDGB": 0.0,
            "elementType": "Fire",
            "bonusCriticalHurt": 30.0,
            "strikeType": "Blunt",
            "enBreak": 200.0,
            "attackType": "Melee"
          },
          "hitPattern": {
            "onHitEffectName": "default",
            "hitImpulseType": "LV3",
            "hitHaltTimeScale": 0.009999999776482582
          }
        }
      },
      "SacredAttack03_Hit1_2": {
        "attackPattern": {
          "$type": "NAMPOMPBMHC",
          "triggerType": "TriggerNoRepeat",
          "born": {
            "$type": "ConfigBornBySelf",
            "offset": {
              "x": 0.5,
              "y": 0.0,
              "z": 2.0
            }
          },
          "size": {
            "x": 2.5,
            "y": 3.0,
            "z": 2.5
          }
        },
        "attackInfo": {
          "attackTag": "",
          "attenuationTag": "",
          "attenuationGroup": "default",
          "attackProperty": {
            "damagePercentage": 0.5,
            "MKLAMNDEDGB": 0.0,
            "elementType": "Fire",
            "bonusCriticalHurt": 30.0,
            "strikeType": "Blunt",
            "enBreak": 200.0,
            "attackType": "Melee"
          },
          "hitPattern": {
            "onHitEffectName": "default",
            "hitImpulseType": "LV3",
            "hitHaltTimeScale": 0.009999999776482582
          }
        }
      },
      "SacredAttack03_Hit2": {
        "attackPattern": {
          "$type": "NAMPOMPBMHC",
          "triggerType": "TriggerNoRepeat",
          "born": {
            "$type": "ConfigBornBySelf",
            "offset": {
              "x": -1.0,
              "y": 0.0,
              "z": 0.5
            },
            "HOPPHMEKHLG": {
              "$type": "JADOBJDPOLJ",
              "NHGDOBINMBK": {
                "x": 0.0,
                "y": 30.0,
                "z": 0.0
              }
            }
          },
          "size": {
            "x": 3.0,
            "y": 4.0,
            "z": 5.0
          }
        },
        "attackInfo": {
          "attackTag": "",
          "attenuationTag": "",
          "attenuationGroup": "default",
          "attackProperty": {
            "damagePercentage": 0.800000011920929,
            "MKLAMNDEDGB": 0.0,
            "elementType": "Fire",
            "bonusCriticalHurt": 30.0,
            "strikeType": "Blunt",
            "enBreak": 200.0,
            "attackType": "Melee"
          },
          "hitPattern": {
            "onHitEffectName": "default",
            "hitImpulseType": "LV4",
            "hitHaltTimeScale": 0.009999999776482582
          }
        }
      },
      "SacredAttack03_Hit3": {
        "attackPattern": {
          "$type": "ConfigAttackCircle",
          "triggerType": "TriggerNoRepeat",
          "born": {
            "$type": "ConfigBornBySelf",
            "offset": {
              "x": 0.0,
              "y": 0.0,
              "z": 0.0
            }
          },
          "height": 4.0,
          "radius": 5.0
        },
        "attackInfo": {
          "attackTag": "",
          "attenuationTag": "",
          "attenuationGroup": "default",
          "attackProperty": {
            "damagePercentage": 1.0,
            "MKLAMNDEDGB": 0.0,
            "elementType": "Fire",
            "bonusCriticalHurt": 30.0,
            "strikeType": "Blunt",
            "enBreak": 200.0
          },
          "hitPattern": {
            "onHitEffectName": "default",
            "hitImpulseType": "LV5",
            "hitHaltTimeScale": 0.009999999776482582
          },
          "cameraShake": {
            "shakeType": "CustomVector",
            "shakeRange": 1.0,
            "shakeTime": 0.10000000149011612,
            "shakeDistance": 30.0,
            "shakeDir": {
              "y": -1.0
            }
          }
        }
      },
      "SacredAttack06": {
        "attackPattern": {
          "$type": "ConfigAttackCircle",
          "triggerType": "TriggerNoRepeat",
          "born": {
            "$type": "ConfigBornBySelf",
            "offset": {
              "x": 0.0,
              "y": 0.0,
              "z": 0.0
            },
            "HOPPHMEKHLG": {
              "$type": "JADOBJDPOLJ",
              "NHGDOBINMBK": {
                "x": 0.0,
                "y": -90.0,
                "z": 0.0
              }
            }
          },
          "height": 3.0,
          "fanAngle": 180.0,
          "radius": 4.5
        },
        "attackInfo": {
          "attackTag": "",
          "attenuationTag": "",
          "attenuationGroup": "default",
          "attackProperty": {
            "damagePercentage": 0.800000011920929,
            "MKLAMNDEDGB": 0.0,
            "elementType": "Fire",
            "bonusCriticalHurt": 30.0,
            "strikeType": "Blunt",
            "enBreak": 200.0,
            "attackType": "Melee"
          },
          "hitPattern": {
            "onHitEffectName": "default",
            "hitImpulseType": "LV4",
            "hitHaltTimeScale": 0.009999999776482582
          }
        }
      }
    }
  },
  "abilities": [
    {
      "abilityID": "",
      "abilityName": "Monster_Vulture_Sacred_SteerAttack",
      "abilityOverride": ""
    },
    {
      "abilityID": "",
      "abilityName": "Monster_Vulture_Sacred_Attack02_Collider",
      "abilityOverride": ""
    },
    {
      "abilityID": "",
      "abilityName": "Monster_Vulture_Sacred_Attack02_Find",
      "abilityOverride": ""
    },
    {
      "abilityID": "",
      "abilityName": "Monster_Vulture_Sacred_Attack02_Blink",
      "abilityOverride": ""
    },
    {
      "abilityID": "",
      "abilityName": "Monster_Vulture_Sacred_Attack03",
      "abilityOverride": ""
    },
    {
      "abilityID": "",
      "abilityName": "Monster_Vulture_Sacred_Attack04",
      "abilityOverride": ""
    },
    {
      "abilityID": "",
      "abilityName": "Monster_Vulture_Sacred_Attack05_Bullet",
      "abilityOverride": ""
    },
    {
      "abilityID": "",
      "abilityName": "Monster_Vulture_Sacred_SacredEnergy_Detect",
      "abilityOverride": ""
    },
    {
      "abilityID": "",
      "abilityName": "Monster_Vulture_Sacred_SacredEnergy_BridgeToMonster",
      "abilityOverride": ""
    },
    {
      "abilityID": "",
      "abilityName": "Monster_Sacred_Entity_StateTag_ToNormal",
      "abilityOverride": ""
    },
    {
      "abilityID": "",
      "abilityName": "Monster_Sacred_Entity_StateTag_ToEnhance",
      "abilityOverride": ""
    },
    {
      "abilityID": "",
      "abilityName": "Monster_Sacred_Entity_StateTag_ToWeak",
      "abilityOverride": ""
    },
    {
      "abilityID": "",
      "abilityName": "Monster_Sacred_Entity_BodyMaterial_Effect",
      "abilityOverride": ""
    },
    {
      "abilityID": "",
      "abilityName": "Monster_Sacred_Entity_AlertnessTag",
      "abilityOverride": ""
    },
    {
      "abilityID": "",
      "abilityName": "Monster_Sacred_Entity_Attack05Protect",
      "abilityOverride": ""
    },
    {
      "abilityID": "",
      "abilityName": "Monster_Vulture_Sacred_EnhanceDefence",
      "abilityOverride": ""
    },
    {
      "abilityID": "",
      "abilityName": "Monster_Vulture_Sacred_InAirTag",
      "abilityOverride": ""
    }
  ],
  "stateLayers": {
    "defaultLayer": {
      "$type": "ConfigNormalStateLayer",
      "FNPGDAEJAPJ": "",
      "stateIDs": {
        "NormalIdle": {
          "$type": "ConfigMonsterStateIDInfo",
          "animatorStates": {
            "Born": []
          },
          "canDoSkill": true,
          "canSyncMove": true,
          "resetAnimatorTriggerOnExit": ["DoSkill"]
        },
        "Standby": {
          "$type": "ConfigMonsterStateIDInfo",
          "animatorStates": {
            "Standby": []
          },
          "canDoSkill": true,
          "canSyncMove": true,
          "resetAnimatorTriggerOnExit": ["DoSkill"]
        },
        "Walk": {
          "$type": "ConfigMonsterStateIDInfo",
          "animatorStates": {
            "Walk": ["Audio_Monster_Vulture_Sacred_Walk"]
          },
          "canDoSkill": true,
          "canSyncMove": true,
          "resetAnimatorTriggerOnExit": ["DoSkill"],
          "BHEPAJIOBDN": true
        },
        "Run": {
          "$type": "ConfigMonsterStateIDInfo",
          "animatorStates": {
            "Run": ["Audio_Monster_Vulture_Sacred_Run"]
          },
          "canDoSkill": true,
          "canSyncMove": true,
          "resetAnimatorTriggerOnExit": ["DoSkill"],
          "BHEPAJIOBDN": true
        },
        "Turn": {
          "$type": "ConfigMonsterStateIDInfo",
          "animatorStates": {
            "Turn": []
          },
          "canDoSkill": true,
          "canSyncMove": true,
          "resetAnimatorTriggerOnExit": ["DoSkill"],
          "BHEPAJIOBDN": true
        },
        "BeHit": {
          "$type": "ConfigMonsterStateIDInfo",
          "animatorStates": {
            "Hit_L": ["Audio_Monster_Vulture_Sacred_Hit_L"]
          },
          "resetAnimatorTriggerOnEnter": ["BeHit"],
          "resetAnimatorTriggerOnExit": ["DoSkill"]
        },
        "Weak_BS": {
          "$type": "ConfigMonsterStateIDInfo",
          "animatorStates": {
            "Weak_BS": ["Audio_Monster_Vulture_Sacred_Weak_BS"]
          },
          "canSyncMove": true,
          "AAEKKGMOKFK": true,
          "BFDKJHMDDML": 0.0,
          "resetAnimatorTriggerOnEnter": ["BeHit"],
          "resetAnimatorTriggerOnExit": ["BeHit", "DoSkill"],
          "LCIGFDMOEAA": true
        },
        "Weak_Loop": {
          "$type": "ConfigMonsterStateIDInfo",
          "animatorStates": {
            "Weak_Loop": []
          },
          "canSyncMove": true,
          "AAEKKGMOKFK": true,
          "BFDKJHMDDML": 0.0,
          "resetAnimatorTriggerOnEnter": ["BeHit"],
          "resetAnimatorTriggerOnExit": ["BeHit", "DoSkill"],
          "LCIGFDMOEAA": true
        },
        "Weak_AS": {
          "$type": "ConfigMonsterStateIDInfo",
          "animatorStates": {
            "Weak_AS": ["Audio_Monster_Vulture_Sacred_Weak_AS"]
          },
          "canSyncMove": true,
          "AAEKKGMOKFK": true,
          "BFDKJHMDDML": 0.0,
          "resetAnimatorTriggerOnEnter": ["BeHit"],
          "resetAnimatorTriggerOnExit": ["BeHit", "DoSkill"],
          "LCIGFDMOEAA": true
        },
        "AirWeak_BS": {
          "$type": "ConfigMonsterStateIDInfo",
          "animatorStates": {
            "AirWeak_BS": ["Audio_Monster_Vulture_Sacred_AirWeak_BS"]
          },
          "canSyncMove": true,
          "AAEKKGMOKFK": true,
          "BFDKJHMDDML": 0.009999999776482582,
          "resetAnimatorTriggerOnEnter": ["BeHit"],
          "resetAnimatorTriggerOnExit": ["DoSkill"],
          "LCIGFDMOEAA": true
        },
        "Die": {
          "$type": "ConfigMonsterStateIDInfo",
          "animatorStates": {
            "Die": ["Audio_Monster_Vulture_Sacred_Die"]
          },
          "resetAnimatorTriggerOnEnter": ["DoSkill"]
        },
        "Weak_Die": {
          "$type": "ConfigMonsterStateIDInfo",
          "animatorStates": {
            "Weak_Die": ["Audio_Monster_Vulture_Sacred_WeakDie"]
          },
          "resetAnimatorTriggerOnEnter": ["DoSkill"]
        },
        "Personality2": {
          "$type": "ConfigMonsterStateIDInfo",
          "animatorStates": {
            "Personality2": ["Audio_Monster_Vulture_Sacred_Personality2"]
          },
          "canDoSkill": true,
          "resetAnimatorTriggerOnExit": ["BeHit", "DoSkill"]
        },
        "Sacred_Attack01": {
          "$type": "ConfigMonsterStateIDInfo",
          "animatorStates": {
            "Sacred_Attack01": [
              "Monster_Vulture_Sacred_Fire_SacredAttack01",
              "Audio_Monster_Vulture_Sacred_Attack01"
            ]
          },
          "canSyncMove": true,
          "AAEKKGMOKFK": true,
          "BFDKJHMDDML": 0.009999999776482582,
          "resetAnimatorTriggerOnExit": ["BeHit", "DoSkill"],
          "BHEPAJIOBDN": true
        },
        "Sacred_Attack02_BS": {
          "$type": "ConfigMonsterStateIDInfo",
          "animatorStates": {
            "Sacred_Attack02_BS": [
              "Monster_Vulture_Sacred_Fire_SacredAttack02_BS",
              "Audio_Monster_Vulture_Sacred_Attack02_BS"
            ]
          },
          "canSyncMove": true,
          "AAEKKGMOKFK": true,
          "BFDKJHMDDML": 0.009999999776482582,
          "resetAnimatorTriggerOnExit": ["BeHit", "DoSkill"],
          "BHEPAJIOBDN": true
        },
        "Sacred_Attack02_Loop": {
          "$type": "ConfigMonsterStateIDInfo",
          "animatorStates": {
            "Sacred_Attack02_Loop": [
              "Audio_Monster_Vulture_Sacred_Attack02_Loop"
            ]
          },
          "canSyncMove": true,
          "AAEKKGMOKFK": true,
          "BFDKJHMDDML": 0.009999999776482582,
          "resetAnimatorTriggerOnExit": ["BeHit", "DoSkill"],
          "BHEPAJIOBDN": true
        },
        "Sacred_Attack02_AS": {
          "$type": "ConfigMonsterStateIDInfo",
          "animatorStates": {
            "Sacred_Attack02_AS": [
              "Monster_Vulture_Sacred_Fire_SacredAttack02_AS",
              "Audio_Monster_Vulture_Sacred_Attack02_AS"
            ]
          },
          "canSyncMove": true,
          "AAEKKGMOKFK": true,
          "BFDKJHMDDML": 0.009999999776482582,
          "resetAnimatorTriggerOnExit": ["BeHit", "DoSkill"],
          "BHEPAJIOBDN": true
        },
        "Sacred_Attack03": {
          "$type": "ConfigMonsterStateIDInfo",
          "animatorStates": {
            "Sacred_Attack03": [
              "Monster_Vulture_Sacred_Fire_SacredAttack03",
              "Audio_Monster_Vulture_Sacred_Attack03_BS"
            ]
          },
          "canSyncMove": true,
          "AAEKKGMOKFK": true,
          "BFDKJHMDDML": 0.009999999776482582,
          "resetAnimatorTriggerOnExit": ["BeHit", "DoSkill"],
          "BHEPAJIOBDN": true
        },
        "Sacred_Attack03_AS2": {
          "$type": "ConfigMonsterStateIDInfo",
          "animatorStates": {
            "Sacred_Attack03_AS2": ["Audio_Monster_Vulture_Sacred_Attack03_AS2"]
          },
          "canSyncMove": true,
          "AAEKKGMOKFK": true,
          "resetAnimatorTriggerOnExit": ["BeHit", "DoSkill"],
          "BHEPAJIOBDN": true
        },
        "Sacred_Attack04_BS": {
          "$type": "ConfigMonsterStateIDInfo",
          "animatorStates": {
            "Sacred_Attack04_BS": [
              "Monster_Vulture_Sacred_Fire_SacredAttack04_BS",
              "Audio_Monster_Vulture_Sacred_Attack04_BS"
            ]
          },
          "canSyncMove": true,
          "AAEKKGMOKFK": true,
          "BFDKJHMDDML": 0.009999999776482582,
          "resetAnimatorTriggerOnExit": ["BeHit", "DoSkill"],
          "BHEPAJIOBDN": true
        },
        "Sacred_Attack04_Loop": {
          "$type": "ConfigMonsterStateIDInfo",
          "animatorStates": {
            "Sacred_Attack04_Loop": []
          },
          "canSyncMove": true,
          "AAEKKGMOKFK": true,
          "BFDKJHMDDML": 0.009999999776482582,
          "resetAnimatorTriggerOnExit": ["BeHit", "DoSkill"],
          "BHEPAJIOBDN": true
        },
        "Sacred_Attack04_Loop_Extra": {
          "$type": "ConfigMonsterStateIDInfo",
          "animatorStates": {
            "Sacred_Attack04_Loop_Extra": []
          },
          "canSyncMove": true,
          "AAEKKGMOKFK": true,
          "BFDKJHMDDML": 0.009999999776482582,
          "resetAnimatorTriggerOnExit": ["BeHit", "DoSkill"],
          "BHEPAJIOBDN": true
        },
        "Sacred_Attack04_AS": {
          "$type": "ConfigMonsterStateIDInfo",
          "animatorStates": {
            "Sacred_Attack04_AS": [
              "Monster_Vulture_Sacred_Fire_SacredAttack04_AS",
              "Audio_Monster_Vulture_Sacred_Attack04_AS"
            ]
          },
          "canSyncMove": true,
          "AAEKKGMOKFK": true,
          "resetAnimatorTriggerOnExit": ["BeHit", "DoSkill"],
          "BHEPAJIOBDN": true
        },
        "Sacred_Attack05": {
          "$type": "ConfigMonsterStateIDInfo",
          "animatorStates": {
            "Sacred_Attack05": [
              "Monster_Vulture_Sacred_Fire_SacredAttack05",
              "Audio_Monster_Vulture_Sacred_Attack05_BS"
            ]
          },
          "canSyncMove": true,
          "AAEKKGMOKFK": true,
          "BFDKJHMDDML": 0.009999999776482582,
          "resetAnimatorTriggerOnExit": ["BeHit", "DoSkill"],
          "BHEPAJIOBDN": true
        },
        "Sacred_Attack06": {
          "$type": "ConfigMonsterStateIDInfo",
          "animatorStates": {
            "Sacred_Attack06": [
              "Monster_Vulture_Sacred_Fire_SacredAttack06",
              "Audio_Monster_Vulture_Sacred_Attack06_BS"
            ]
          },
          "canSyncMove": true,
          "AAEKKGMOKFK": true,
          "BFDKJHMDDML": 0.009999999776482582,
          "resetAnimatorTriggerOnExit": ["BeHit", "DoSkill"],
          "BHEPAJIOBDN": true,
          "ECGKJECEAII": true
        },
        "Sacred_Turn": {
          "$type": "ConfigMonsterStateIDInfo",
          "animatorStates": {
            "Sacred_Turn": ["Audio_Monster_Vulture_Sacred_Turn"]
          },
          "canSyncMove": true,
          "AAEKKGMOKFK": true,
          "resetAnimatorTriggerOnExit": ["BeHit", "DoSkill"],
          "BHEPAJIOBDN": true,
          "ECGKJECEAII": true
        },
        "Sacred_Enhance": {
          "$type": "ConfigMonsterStateIDInfo",
          "animatorStates": {
            "Sacred_Enhance": [
              "Monster_Vulture_Sacred_Fire_Enhance",
              "Audio_Monster_Vulture_Sacred_Enhance"
            ]
          },
          "canSyncMove": true,
          "AAEKKGMOKFK": true,
          "BFDKJHMDDML": 0.009999999776482582,
          "resetAnimatorTriggerOnExit": ["BeHit", "DoSkill"],
          "BHEPAJIOBDN": true
        }
      }
    }
  },
  "billboard": {
    "$type": "NCBABGPMMPL",
    "EBBHBMFMOGD": "BillboardAttach",
    "offset": {
      "y": -0.15000000596046448
    },
    "BFOMIIKCOGI": "Character",
    "showDistance": 48.0,
    "size": "Grand"
  },
  "initialPoses": {
    "Default": {
      "initialPoseID": 101
    }
  },
  "aibeta": {
    "enable": true,
    "moveSetting": {
      "navMeshAgentName": "Undead01"
    },
    "sensing": {
      "settings": {
        "DefaultSetting": {
          "viewRange": 40.0,
          "feelRange": 10.0
        }
      },
      "templates": {
        "DefaultTemplate": {
          "DefaultPoses": "DefaultSetting"
        }
      }
    },
    "threat": {
      "clearThreatEdgeDistance": 2.0,
      "clearThreatByLostPath": true,
      "viewAttenuation": [
        {
          "x": 10.0,
          "y": 2.0
        },
        {
          "x": 15.0,
          "y": 0.800000011920929
        },
        {
          "x": 20.0,
          "y": 0.5
        },
        {
          "x": 25.0,
          "y": 0.30000001192092896
        },
        {
          "x": 30.0,
          "y": 0.20000000298023224
        }
      ],
      "resistTauntLevel": "Monster_TauntLevel_3"
    },
    "defendArea": {
      "defendRange": 50.0
    },
    "network": {
      "syncSkill": true
    },
    "skillGroupCDConfigs": [
      {
        "skillGroupCDID": 2,
        "skillGroupCDTime": 20.0
      },
      {
        "skillGroupCDID": 3,
        "skillGroupCDTime": 2.0
      }
    ],
    "skills": {
      "101": {
        "name": "Sacred_Enhance",
        "combatSkillType": "RangedAttack",
        "priority": 1,
        "faceTarget": true,
        "castCondition": {
          "pose": [201]
        },
        "cd": 999999.0,
        "publicCDGroup": "",
        "ignoreGCD": true,
        "triggerGCD": false,
        "DDLBHDNIIMM": false,
        "stateIDs": ["Sacred_Enhance"],
        "flagTargetReachable": "11",
        "flagSelfOnTemplateCollider": "11",
        "flagSelfInZone": "11",
        "flagTargetInZone": "11"
      },
      "211": {
        "name": "Personality2",
        "skillType": "Free",
        "castCondition": {
          "pose": [101]
        },
        "cd": 20.0,
        "cdUpperRange": 10.0,
        "initialCD": 2.5,
        "initialCDUpperRange": 5.0,
        "publicCDGroup": "",
        "triggerGCD": false,
        "skillGroupCDID": 3,
        "stateIDs": ["Personality2"],
        "flagTargetReachable": "10",
        "flagSelfOnTemplateCollider": "01",
        "flagSelfInZone": "10",
        "flagTargetInZone": "11"
      },
      "601": {
        "name": "Sacred_Attack01",
        "combatSkillType": "RangedAttack",
        "castCondition": {
          "pose": [202],
          "maxTargetAngleXZ": 90.0,
          "pickRangeMax": 6.0
        },
        "cd": 2.0,
        "cdUpperRange": 1.0,
        "publicCDGroup": "",
        "stateIDs": ["Sacred_Attack01"],
        "flagTargetReachable": "11",
        "flagSelfOnTemplateCollider": "11",
        "flagSelfInZone": "11",
        "flagTargetInZone": "11"
      },
      "602": {
        "name": "Sacred_Attack01",
        "combatSkillType": "RangedAttack",
        "castCondition": {
          "pose": [201],
          "needReInitCD": true,
          "maxTargetAngleXZ": 90.0,
          "pickRangeMax": 6.0
        },
        "cd": 3.0,
        "cdUpperRange": 1.0,
        "initialCD": 4.5,
        "publicCDGroup": "",
        "stateIDs": ["Sacred_Attack01"],
        "flagTargetReachable": "11",
        "flagSelfOnTemplateCollider": "11",
        "flagSelfInZone": "11",
        "flagTargetInZone": "11"
      },
      "611": {
        "name": "Sacred_Attack02",
        "combatSkillType": "RangedAttack",
        "castCondition": {
          "pose": [202],
          "pickRangeMax": 30.0
        },
        "cd": 8.0,
        "cdUpperRange": 2.0,
        "initialCD": 2.5,
        "publicCDGroup": "",
        "stateIDs": [
          "Sacred_Attack02_BS",
          "Sacred_Attack02_Loop",
          "Sacred_Attack02_AS"
        ],
        "flagTargetReachable": "11",
        "flagSelfOnTemplateCollider": "11",
        "flagSelfInZone": "11",
        "flagTargetInZone": "11"
      },
      "621": {
        "name": "Sacred_Attack03",
        "combatSkillType": "RangedAttack",
        "castCondition": {
          "pose": [202],
          "pickRangeMax": 8.0
        },
        "cd": 3.0,
        "cdUpperRange": 1.0,
        "publicCDGroup": "",
        "stateIDs": ["Sacred_Attack03", "Sacred_Attack03_AS2"],
        "flagTargetReachable": "11",
        "flagSelfOnTemplateCollider": "11",
        "flagSelfInZone": "11",
        "flagTargetInZone": "11"
      },
      "631": {
        "name": "Sacred_Attack04",
        "combatSkillType": "RangedAttack",
        "castCondition": {
          "pose": [202],
          "pickRangeMin": 15.0,
          "pickRangeMax": 35.0
        },
        "cd": 8.0,
        "cdUpperRange": 2.0,
        "initialCD": 30.0,
        "publicCDGroup": "",
        "stateIDs": [
          "Sacred_Attack04_BS",
          "Sacred_Attack04_Loop",
          "Sacred_Attack04_Loop_Extra",
          "Sacred_Attack04_AS"
        ],
        "flagTargetReachable": "11",
        "flagSelfOnTemplateCollider": "11",
        "flagSelfInZone": "11",
        "flagTargetInZone": "11"
      },
      "641": {
        "name": "Sacred_Attack05",
        "combatSkillType": "RangedAttack",
        "priority": 2,
        "castCondition": {
          "pose": [202],
          "needReInitCD": true,
          "pickRangeMax": 40.0
        },
        "cd": 30.0,
        "initialCD": 25.0,
        "publicCDGroup": "Sacred_MortalAttack",
        "stateIDs": ["Sacred_Attack05"],
        "flagTargetReachable": "11",
        "flagSelfOnTemplateCollider": "11",
        "flagSelfInZone": "11",
        "flagTargetInZone": "11"
      },
      "651": {
        "name": "Sacred_Attack06",
        "combatSkillType": "RangedAttack",
        "castCondition": {
          "pose": [202],
          "minTargetAngleXZ": 60.0,
          "pickRangeMax": 6.0
        },
        "cd": 3.0,
        "cdUpperRange": 2.0,
        "initialCD": 2.5,
        "publicCDGroup": "",
        "triggerGCD": false,
        "stateIDs": ["Sacred_Attack06"],
        "flagTargetReachable": "11",
        "flagSelfOnTemplateCollider": "11",
        "flagSelfInZone": "11",
        "flagTargetInZone": "11"
      },
      "652": {
        "name": "Sacred_Attack06",
        "combatSkillType": "RangedAttack",
        "castCondition": {
          "pose": [201],
          "needReInitCD": true,
          "minTargetAngleXZ": 60.0,
          "pickRangeMax": 6.0
        },
        "cd": 4.0,
        "cdUpperRange": 2.0,
        "initialCD": 4.5,
        "publicCDGroup": "",
        "stateIDs": ["Sacred_Attack06"],
        "flagTargetReachable": "11",
        "flagSelfOnTemplateCollider": "11",
        "flagSelfInZone": "11",
        "flagTargetInZone": "11"
      },
      "661": {
        "name": "Sacred_Turn",
        "combatSkillType": "RangedAttack",
        "priority": 6,
        "castCondition": {
          "pose": [201, 202],
          "minTargetAngleXZ": 60.0,
          "pickRangeMax": 6.0
        },
        "cd": 8.0,
        "cdUpperRange": 2.0,
        "publicCDGroup": "",
        "ignoreGCD": true,
        "triggerGCD": false,
        "stateIDs": ["Sacred_Turn"],
        "flagTargetReachable": "11",
        "flagSelfOnTemplateCollider": "11",
        "flagSelfInZone": "11",
        "flagTargetInZone": "11"
      },
      "671": {
        "name": "Sacred_Enhance",
        "combatSkillType": "RangedAttack",
        "priority": 1,
        "castCondition": {
          "pose": [201],
          "globalValues": ["SacredEnergy_Recover_Vulture"],
          "LBJLGICBKKC": "SELF"
        },
        "cd": 20.0,
        "publicCDGroup": "",
        "ignoreGCD": true,
        "triggerGCD": false,
        "DDLBHDNIIMM": false,
        "stateIDs": ["Sacred_Enhance"],
        "flagTargetReachable": "11",
        "flagSelfOnTemplateCollider": "11",
        "flagSelfInZone": "11",
        "flagTargetInZone": "11"
      },
      "681": {
        "name": "Sacred_Attack02",
        "combatSkillType": "RangedAttack",
        "priority": 2,
        "castCondition": {
          "pose": [202],
          "globalValues": ["_Vulture_JumpAttack_"],
          "LBJLGICBKKC": "SELF"
        },
        "cd": 2.0,
        "publicCDGroup": "",
        "stateIDs": [
          "Sacred_Attack02_BS",
          "Sacred_Attack02_Loop",
          "Sacred_Attack02_AS"
        ],
        "flagTargetReachable": "11",
        "flagSelfOnTemplateCollider": "11",
        "flagSelfInZone": "11",
        "flagTargetInZone": "11"
      },
      "691": {
        "name": "Sacred_Enhance",
        "combatSkillType": "RangedAttack",
        "priority": 1,
        "castCondition": {
          "pose": [201],
          "needReInitCD": true
        },
        "cd": 2.0,
        "initialCD": 15.0,
        "publicCDGroup": "",
        "ignoreGCD": true,
        "triggerGCD": false,
        "DDLBHDNIIMM": false,
        "stateIDs": ["Sacred_Enhance"],
        "flagTargetReachable": "11",
        "flagSelfOnTemplateCollider": "11",
        "flagSelfInZone": "11",
        "flagTargetInZone": "11"
      }
    },
    "returnToBornTactic": {
      "enable": true,
      "defaultSetting": {}
    },
    "wanderTactic": {
      "enable": true,
      "condition": {
        "pose": [101]
      },
      "defaultSetting": {
        "turnSpeedOverride": 1.0,
        "cdMax": 16.0,
        "cdMin": 8.0,
        "distanceFromBorn": 20.0,
        "distanceFromCurrentMin": 4.0,
        "distanceFromCurrentMax": 7.0
      }
    },
    "meleeChargeTactic": {
      "enable": true,
      "condition": {
        "pose": [201, 202]
      },
      "defaultSetting": {
        "turnSpeedOverride": 2.0,
        "startDistanceMin": 6.0,
        "startDistanceMax": 50.0,
        "stopDistance": 1.0,
        "innerDistance": 3.0
      }
    },
    "DNAHDMGDMCH": {
      "enable": true,
      "defaultSetting": {
        "speedLevel": 1,
        "fleeAngle": 75.0,
        "fleeDistanceMin": 4.0,
        "fleeDistanceMax": 6.0,
        "PPIBDEEBFPN": 0.5
      }
    }
  },
  "inputKeys": [
    {
      "keyID": 601,
      "inputKeyCode": 257,
      "abilityName": ""
    },
    {
      "keyID": 611,
      "inputKeyCode": 258,
      "abilityName": ""
    },
    {
      "keyID": 621,
      "inputKeyCode": 259,
      "abilityName": ""
    },
    {
      "keyID": 631,
      "inputKeyCode": 260,
      "abilityName": ""
    },
    {
      "keyID": 641,
      "inputKeyCode": 261,
      "abilityName": ""
    },
    {
      "keyID": 651,
      "inputKeyCode": 262,
      "abilityName": ""
    },
    {
      "keyID": 661,
      "inputKeyCode": 263,
      "abilityName": ""
    },
    {
      "keyID": 101,
      "inputKeyCode": 264,
      "abilityName": ""
    }
  ],
  "move": {
    "$type": "PLMNMICDOHN",
    "EINCMKOBBEG": {
      "excludeForces": ["RetreatAirType"]
    },
    "MGFACNKNOFC": true
  },
  "audio": {
    "NCOGLLMIJGO": "",
    "animAudio": {
      "onTransitionIn": [
        {
          "currentStateName": "",
          "audioEvent": {
            "text": ""
          }
        }
      ],
      "onTransitionOut": [
        {
          "currentStateName": "Personality2",
          "audioEvent": {
            "text": "Stop_sfx_monster_Vulture_sacred_personality2"
          }
        }
      ]
    }
  }
}
