{
  "common": {
    "effectAttachShape": {
      "$type": "ConfigEffectAttachSkinnedMesh",
      "mesh": "EffectMesh"
    },
    "mass": 9999999.0,
    "height": 1.0,
    "affectedByWorld": true,
    "checkInSurface": true,
    "canTriggerElementReactionText": false,
    "useGrassDisplacement": true,
    "clearAnimatorOnSetLightDeactive": true,
    "clearAIOnSetLightDeactive": true
  },
  "headControl": {
    "$type": "GAAIKCFIJMM",
    "useHeadControl": true,
    "KBBNEKBLPFA": 60.0,
    "FJOGFHEFPHN": 30.0,
    "FCDMCPDGFCL": [
      "NormalIdle/Standby",
      "NormalIdle/Sit",
      "NormalMove/Walk",
      "NormalMove/Run",
      "StandbyToSit",
      "SitToStandby"
    ]
  },
  "model": {
    "bornEffect": "",
    "attachEffect": "",
    "canBakeMesh": false
  },
  "dither": {
    "showDitherDuration": 1.0
  },
  "combat": {
    "property": {
      "endureType": "Monster_Minion",
      "weight": 101.0,
      "isInvincible": true
    },
    "beHit": {
      "hitBloodEffect": "",
      "muteAllHitEffect": true,
      "muteAllHitText": true
    },
    "combatLock": {
      "lockShape": "CircleLockEnemy",
      "denyLockOn": true,
      "lockType": "Animal_Lv2"
    },
    "die": {
      "dieEndTime": 2.0,
      "dieForceDisappearTime": 10.0,
      "dieDisappearEffect": ""
    },
    "animEvents": {
      "DodgeCameraShake": {
        "attackPattern": {
          "$type": "NAMPOMPBMHC",
          "triggerType": "TriggerNoRepeat",
          "JGCLJPCGHMC": true,
          "born": {
            "$type": "ConfigBornBySelf"
          },
          "size": {
            "x": 0.10000000149011612,
            "y": 0.10000000149011612,
            "z": 0.10000000149011612
          }
        },
        "attackInfo": {
          "attackTag": "",
          "attenuationTag": "",
          "attenuationGroup": "default",
          "attackProperty": {
            "damagePercentage": 0.0,
            "MKLAMNDEDGB": 0.0,
            "bonusCriticalHurt": 0.0
          },
          "hitPattern": {
            "onHitEffectName": "none",
            "hitImpulseType": "LV0",
            "hitHaltTimeScale": 0.05000000074505806
          },
          "forceCameraShake": true,
          "cameraShake": {
            "shakeType": "CustomVector",
            "shakeRange": 0.125,
            "shakeTime": 1.0,
            "shakeDistance": 35.0,
            "shakeDir": {
              "y": 1.0
            },
            "extension": {
              "baseOnCamera": true,
              "rangeAttenuation": 0.0
            }
          }
        }
      }
    }
  },
  "abilities": [
    {
      "abilityID": "Homeworld_CommonInitial",
      "abilityName": "Animal_Homeworld_Common_Initial",
      "abilityOverride": ""
    }
  ],
  "stateLayers": {
    "defaultLayer": {
      "$type": "ConfigNormalStateLayer",
      "FNPGDAEJAPJ": "",
      "stateIDs": {
        "Born": {
          "$type": "ConfigMonsterStateIDInfo",
          "animatorStates": {
            "Born": []
          },
          "resetAnimatorTriggerOnExit": ["DoSkill"]
        },
        "NormalIdle": {
          "$type": "ConfigMonsterStateIDInfo",
          "animatorStates": {
            "Standby": [],
            "Sit": ["Audio_Dog_Sit"]
          },
          "canDoSkill": true,
          "canSyncMove": true,
          "resetAnimatorTriggerOnEnter": ["BeHitTrigger"],
          "resetAnimatorTriggerOnExit": ["DoSkill"]
        },
        "NormalMove": {
          "$type": "ConfigMonsterStateIDInfo",
          "animatorStates": {
            "Walk": ["Audio_Monster_Homeworld_Inu_Walk"],
            "Run": ["Audio_Monster_Homeworld_Inu_Run"],
            "Sprint": ["Audio_Monster_Homeworld_Inu_Run"]
          },
          "canSyncMove": true,
          "resetAnimatorTriggerOnEnter": ["BeHitTrigger"],
          "resetAnimatorTriggerOnExit": ["DoSkill"],
          "BHEPAJIOBDN": true
        },
        "Turn": {
          "$type": "ConfigMonsterStateIDInfo",
          "animatorStates": {
            "Turn": ["Audio_Dog_Walk"]
          },
          "canSyncMove": true,
          "resetAnimatorTriggerOnExit": ["DoSkill"],
          "BHEPAJIOBDN": true
        },
        "Die": {
          "$type": "ConfigMonsterStateIDInfo",
          "animatorStates": {
            "Die": [
              "Animal_Homeworld_DogPrick_Disappear",
              "Audio_Dog_StandbyToProne"
            ]
          }
        },
        "Dodge": {
          "$type": "ConfigMonsterStateIDInfo",
          "animatorStates": {
            "Dodge01": [
              "Animal_Homeworld_Inu_Shihandai_Dodge01",
              "Audio_Monster_Homeworld_Inu_Dodge01"
            ],
            "Dodge02": [
              "Animal_Homeworld_Inu_Shihandai_Dodge02",
              "Audio_Monster_Homeworld_Inu_Dodge02"
            ],
            "Dodge03": [
              "Animal_Homeworld_Inu_Shihandai_Dodge03",
              "Audio_Monster_Homeworld_Inu_Dodge03"
            ]
          },
          "resetAnimatorTriggerOnEnter": ["BeHit", "BeHitTrigger"],
          "resetAnimatorTriggerOnExit": ["BeHit", "DoSkill", "BeHitTrigger"]
        },
        "StandbyToSit": {
          "$type": "ConfigMonsterStateIDInfo",
          "animatorStates": {
            "StandbyToSit": ["Audio_Dog_StandbyToSit"]
          },
          "resetAnimatorTriggerOnExit": ["BeHit", "DoSkill"]
        },
        "SitToStandby": {
          "$type": "ConfigMonsterStateIDInfo",
          "animatorStates": {
            "SitToStandby": ["Audio_Dog_SitToStandby"]
          },
          "resetAnimatorTriggerOnExit": ["BeHit", "DoSkill"]
        },
        "Personality_Crouch": {
          "$type": "ConfigMonsterStateIDInfo",
          "animatorStates": {
            "Personality_Crouch01": [],
            "Personality_Crouch02": ["Audio_Monster_Homeworld_Inu_Crouch02"]
          },
          "resetAnimatorTriggerOnExit": ["BeHit", "DoSkill"]
        },
        "Personality_Sit": {
          "$type": "ConfigMonsterStateIDInfo",
          "animatorStates": {
            "Personality_Sit01": []
          },
          "resetAnimatorTriggerOnExit": ["BeHit", "DoSkill"]
        }
      }
    }
  },
  "initialPoses": {
    "Default": {
      "initialPoseID": 1,
      "initialPoseParams": {
        "intParams": {
          "ActionState": "0"
        }
      }
    }
  },
  "aibeta": {
    "enable": true,
    "friendliness": 1,
    "decisionArchetype": "Animal_Homeworld",
    "precombat": {
      "satietyTime": 60.0
    },
    "sensing": {
      "settings": {
        "DefaultSetting": {
          "viewRange": 10.0,
          "horizontalFov": 90.0,
          "verticalFov": 45.0,
          "feelRange": 3.5
        }
      }
    },
    "neurons": {
      "DefaultSetting": ["HIT"],
      "Hungry": ["HIT", "HUNGRY"]
    },
    "threat": {
      "clearThreatTargetDistance": 15.0,
      "clearThreatEdgeDistance": 0.0,
      "clearThreatByTargetOutOfZone": true,
      "clearThreatTimerByDistance": 1.0,
      "threatDecreaseSpeed": 500.0
    },
    "defendArea": {
      "defendRange": 100.0
    },
    "poseControl": {
      "items": [
        {
          "minTime": 7.0,
          "maxTime": 15.0,
          "poseID": 1,
          "RandomPose": [2],
          "switchOnlyInCanDoSkillState": true
        },
        {
          "minTime": 7.0,
          "maxTime": 15.0,
          "poseID": 101,
          "RandomPose": [2],
          "switchOnlyInCanDoSkillState": true
        },
        {
          "minTime": 60.0,
          "maxTime": 120.0,
          "poseID": 2,
          "RandomPose": [1],
          "switchOnlyInCanDoSkillState": true
        },
        {
          "minTime": 15.0,
          "maxTime": 30.0,
          "poseID": 201,
          "RandomPose": [1],
          "switchOnlyInCanDoSkillState": true
        },
        {
          "minTime": 30.0,
          "maxTime": 60.0,
          "poseID": 401,
          "RandomPose": [1],
          "switchOnlyInCanDoSkillState": true
        }
      ]
    },
    "ui": {
      "hasDirectionIndicator": false
    },
    "skills": {
      "101": {
        "name": "Personality_Crouch01Free",
        "castCondition": {
          "pose": [1],
          "needReInitCD": true,
          "pickRangeMax": 5.0
        },
        "cd": 5.0,
        "cdUpperRange": 25.0,
        "initialCD": 10.0,
        "initialCDUpperRange": 15.0,
        "publicCDGroup": "",
        "stateIDs": ["Personality_Crouch"],
        "flagTargetReachable": "10",
        "flagSelfOnTemplateCollider": "01",
        "flagSelfInZone": "10",
        "flagTargetInZone": "11"
      },
      "111": {
        "name": "Personality_Crouch01Fight",
        "castCondition": {
          "pose": [101],
          "needReInitCD": true,
          "pickRangeMax": 5.0
        },
        "cd": 5.0,
        "cdUpperRange": 25.0,
        "initialCD": 10.0,
        "initialCDUpperRange": 15.0,
        "publicCDGroup": "",
        "stateIDs": ["Personality_Crouch"],
        "flagTargetReachable": "10",
        "flagSelfOnTemplateCollider": "01",
        "flagSelfInZone": "10",
        "flagTargetInZone": "11"
      },
      "411": {
        "name": "Personality_Crouch02Chase",
        "castCondition": {
          "pose": [401],
          "needReInitCD": true,
          "pickRangeMax": 5.0
        },
        "cd": 15.0,
        "cdUpperRange": 15.0,
        "initialCD": 1.0,
        "initialCDUpperRange": 4.0,
        "publicCDGroup": "",
        "stateIDs": ["Personality_Crouch"],
        "flagTargetReachable": "10",
        "flagSelfOnTemplateCollider": "01",
        "flagSelfInZone": "10",
        "flagTargetInZone": "11"
      }
    },
    "skillGCD": 5.0,
    "returnToBornTactic": {
      "enable": true,
      "defaultSetting": {}
    },
    "wanderTactic": {
      "enable": true,
      "condition": {
        "pose": [1, 101]
      },
      "threatLevelLimit": [0, 1, 2],
      "defaultSetting": {
        "turnSpeedOverride": 0.75,
        "cdMax": 12.5,
        "cdMin": 7.5,
        "distanceFromBorn": 15.0,
        "distanceFromCurrentMin": 5.0,
        "distanceFromCurrentMax": 7.5
      }
    },
    "combatFollowMoveTactic": {
      "enable": true,
      "condition": {
        "pose": [401]
      },
      "defaultSetting": {
        "startDistance": 20.0,
        "stopDistance": 3.5,
        "middleDistance": 10.0,
        "innerDistance": 6.0,
        "speedLevelOuter": 5,
        "speedLevelInner": 1,
        "outerAngle": 60.0,
        "turnSpeedOverride": 1.5,
        "turnSpeedOverrideOuter": 1.5,
        "useMeleeSlot": false
      }
    },
    "mixin": {
      "setControllerParameterOnBeHitByEntityType": [
        {
          "poseIDs": [1, 2, 101, 201, 401],
          "settings": [
            {
              "entityTypes": ["Bullet", "Avatar", "Field", "Gadget"],
              "onSuccess": {
                "setPoseInt": [
                  {
                    "intID": "RandomPose",
                    "value": 4
                  }
                ],
                "setAnimatorTrigger": [
                  {
                    "triggerID": "BeHitTrigger"
                  }
                ]
              }
            }
          ]
        }
      ]
    }
  },
  "inputKeys": [
    {
      "keyID": 101,
      "inputKeyCode": 257,
      "abilityName": ""
    },
    {
      "keyID": 201,
      "inputKeyCode": 258,
      "abilityName": ""
    },
    {
      "keyID": 411,
      "inputKeyCode": 259,
      "abilityName": ""
    }
  ],
  "move": {
    "$type": "PLMNMICDOHN",
    "AIPJBCHAEPE": "Walk"
  },
  "animal": {
    "tickAbilityElement": false,
    "hasCharacterRenderering": false
  }
}
