{
  "common": {
    "effectAttachShape": {
      "$type": "ConfigEffectAttachSkinnedMesh",
      "mesh": "EffectMesh"
    },
    "mass": 10000.0,
    "height": 2.5,
    "viewSize": 1.2000000476837158,
    "affectedByWorld": true,
    "checkInSurface": true,
    "scale": 2.9000000953674316,
    "useGrassDisplacement": true,
    "clearAIOnSetLightDeactive": true,
    "KJCBJDCKPND": true,
    "NCCLLKFLJGL": true,
    "JDFHDFOFPOB": [
      {
        "KIHPGIAEOLJ": "EffectMesh01Point",
        "BNBLJKAAHKN": "EffectMesh01"
      },
      {
        "KIHPGIAEOLJ": "EffectMesh02Point",
        "BNBLJKAAHKN": "EffectMesh02"
      },
      {
        "KIHPGIAEOLJ": "EffectMesh03Point",
        "BNBLJKAAHKN": "EffectMesh03"
      }
    ]
  },
  "model": {
    "bornEffect": "Eff_Monster_Common_Born",
    "attachEffect": ""
  },
  "dither": {
    "showDitherDuration": 2.0
  },
  "combat": {
    "property": {
      "endureType": "Monster_Demiboss_Other",
      "weight": 150.0
    },
    "beHit": {
      "hitBloodEffect": ""
    },
    "combatLock": {
      "lockShape": "CircleLockEnemy",
      "lockType": "Avatar&Monster_Lv4"
    },
    "die": {
      "hasAnimatorDie": true,
      "dieEndTime": 1.7999999523162842,
      "dieForceDisappearTime": 1.7999999523162842,
      "dieDisappearEffect": "Eff_Death_Common",
      "dieShaderData": "MonsterDie",
      "OCGODEHJPME": true,
      "MFJBKFECLNJ": true,
      "IMEEBMBJPGJ": true,
      "ICHFPLMNCLC": true,
      "MBHMAGEPJFH": true,
      "CFHPDHFKMEP": true
    },
    "animEvents": {
      "AtkNo": {
        "attackPattern": {
          "$type": "ConfigAttackCircle",
          "triggerType": "TriggerNoRepeat",
          "born": {
            "$type": "ConfigBornBySelf",
            "offset": {
              "x": 0.0,
              "y": 0.0,
              "z": -0.5
            }
          },
          "fanAngle": 60.0,
          "radius": 1.5
        },
        "attackInfo": {
          "attackTag": "",
          "attenuationTag": "",
          "attenuationGroup": "default",
          "attackProperty": {
            "damagePercentage": 0.5,
            "MKLAMNDEDGB": 0.0,
            "bonusCriticalHurt": 100.0,
            "strikeType": "Blunt",
            "attackType": "Melee"
          },
          "hitPattern": {
            "onHitEffectName": "default",
            "hitImpulseType": "LV2",
            "hitHaltTimeScale": 0.009999999776482582
          }
        }
      },
      "Atk01_1": {
        "attackPattern": {
          "$type": "ConfigAttackCircle",
          "triggerType": "TriggerNoRepeat",
          "born": {
            "$type": "ConfigBornBySelf",
            "offset": {
              "x": 0.0,
              "y": 0.0,
              "z": 0.0
            }
          },
          "height": 3.0,
          "fanAngle": 90.0,
          "radius": 4.0
        },
        "attackInfo": {
          "attackTag": "",
          "attenuationTag": "",
          "attenuationGroup": "default",
          "attackProperty": {
            "damagePercentage": 0.6000000238418579,
            "MKLAMNDEDGB": 0.0,
            "elementType": "Electric",
            "bonusCriticalHurt": 30.0,
            "strikeType": "Blunt",
            "enBreak": 100.0,
            "attackType": "Melee"
          },
          "hitPattern": {
            "onHitEffectName": "default",
            "hitImpulseType": "LV3",
            "hitHaltTimeScale": 0.009999999776482582
          }
        }
      },
      "Atk01_2": {
        "attackPattern": {
          "$type": "ConfigAttackCircle",
          "triggerType": "TriggerNoRepeat",
          "born": {
            "$type": "ConfigBornBySelf",
            "offset": {
              "x": 0.0,
              "y": 0.0,
              "z": 0.0
            }
          },
          "height": 3.0,
          "fanAngle": 90.0,
          "radius": 4.0
        },
        "attackInfo": {
          "attackTag": "",
          "attenuationTag": "",
          "attenuationGroup": "default",
          "attackProperty": {
            "damagePercentage": 0.4000000059604645,
            "MKLAMNDEDGB": 0.0,
            "elementType": "Electric",
            "bonusCriticalHurt": 30.0,
            "strikeType": "Blunt",
            "enBreak": 100.0,
            "attackType": "Melee"
          },
          "hitPattern": {
            "onHitEffectName": "default",
            "hitImpulseType": "LV3",
            "hitHaltTimeScale": 0.009999999776482582
          }
        }
      },
      "SacredAttack01_Hit1": {
        "attackPattern": {
          "$type": "ConfigAttackCircle",
          "triggerType": "TriggerNoRepeat",
          "born": {
            "$type": "ConfigBornBySelf",
            "offset": {
              "x": 0.0,
              "y": -1.0,
              "z": 0.0
            },
            "HOPPHMEKHLG": {
              "$type": "JADOBJDPOLJ",
              "NHGDOBINMBK": {
                "x": 0.0,
                "y": -45.0,
                "z": 0.0
              }
            }
          },
          "height": 4.0,
          "fanAngle": 150.0,
          "radius": 4.0
        },
        "attackInfo": {
          "attackTag": "",
          "attenuationTag": "",
          "attenuationGroup": "default",
          "attackProperty": {
            "damagePercentage": 0.30000001192092896,
            "MKLAMNDEDGB": 0.0,
            "elementType": "Electric",
            "bonusCriticalHurt": 30.0,
            "strikeType": "Blunt",
            "enBreak": 200.0,
            "attackType": "Melee"
          },
          "hitPattern": {
            "onHitEffectName": "default",
            "hitImpulseType": "LV3",
            "hitHaltTimeScale": 0.009999999776482582
          }
        }
      },
      "SacredAttack01_Hit2": {
        "attackPattern": {
          "$type": "ConfigAttackCircle",
          "triggerType": "TriggerNoRepeat",
          "born": {
            "$type": "ConfigBornBySelf",
            "offset": {
              "x": 0.0,
              "y": -1.0,
              "z": 1.0
            },
            "HOPPHMEKHLG": {
              "$type": "JADOBJDPOLJ",
              "NHGDOBINMBK": {
                "x": 0.0,
                "y": 90.0,
                "z": 0.0
              }
            }
          },
          "height": 4.0,
          "fanAngle": 180.0,
          "radius": 3.0
        },
        "attackInfo": {
          "attackTag": "",
          "attenuationTag": "",
          "attenuationGroup": "default",
          "attackProperty": {
            "damagePercentage": 0.30000001192092896,
            "MKLAMNDEDGB": 0.0,
            "elementType": "Electric",
            "bonusCriticalHurt": 30.0,
            "strikeType": "Blunt",
            "enBreak": 200.0,
            "attackType": "Melee"
          },
          "hitPattern": {
            "onHitEffectName": "default",
            "hitImpulseType": "LV3",
            "hitHaltTimeScale": 0.009999999776482582
          }
        }
      },
      "SacredAttack01_Hit3": {
        "attackPattern": {
          "$type": "ConfigAttackCircle",
          "triggerType": "TriggerNoRepeat",
          "born": {
            "$type": "ConfigBornBySelf",
            "offset": {
              "x": 0.0,
              "y": -1.0,
              "z": 2.0
            }
          },
          "height": 4.0,
          "radius": 3.0
        },
        "attackInfo": {
          "attackTag": "",
          "attenuationTag": "",
          "attenuationGroup": "default",
          "attackProperty": {
            "damagePercentage": 0.5,
            "MKLAMNDEDGB": 0.0,
            "elementType": "Electric",
            "bonusCriticalHurt": 30.0,
            "strikeType": "Blunt",
            "enBreak": 200.0,
            "attackType": "Melee"
          },
          "hitPattern": {
            "onHitEffectName": "default",
            "hitImpulseType": "LV4",
            "hitHaltTimeScale": 0.009999999776482582
          }
        }
      },
      "SacredAttack02": {
        "attackPattern": {
          "$type": "ConfigAttackCircle",
          "triggerType": "TriggerNoRepeat",
          "born": {
            "$type": "ConfigBornBySelf",
            "offset": {
              "x": 0.0,
              "y": -1.0,
              "z": 0.0
            }
          },
          "height": 4.0,
          "radius": 6.0
        },
        "attackInfo": {
          "attackTag": "",
          "attenuationTag": "",
          "attenuationGroup": "default",
          "attackProperty": {
            "damagePercentage": 1.0,
            "MKLAMNDEDGB": 0.0,
            "elementType": "Electric",
            "bonusCriticalHurt": 30.0,
            "strikeType": "Blunt",
            "enBreak": 200.0,
            "attackType": "Melee"
          },
          "hitPattern": {
            "onHitEffectName": "default",
            "hitImpulseType": "LV5",
            "hitHaltTimeScale": 0.009999999776482582
          },
          "cameraShake": {
            "shakeType": "CustomVector",
            "shakeRange": 1.0,
            "shakeTime": 0.30000001192092896,
            "shakeDistance": 30.0,
            "shakeDir": {
              "y": -1.0
            }
          }
        }
      },
      "SacredAttack03_Hit1": {
        "attackPattern": {
          "$type": "ConfigAttackCircle",
          "triggerType": "TriggerNoRepeat",
          "born": {
            "$type": "ConfigBornBySelf",
            "offset": {
              "x": 0.0,
              "y": -1.0,
              "z": 3.5
            }
          },
          "height": 4.0,
          "radius": 2.5999999046325684
        },
        "attackInfo": {
          "attackTag": "",
          "attenuationTag": "",
          "attenuationGroup": "default",
          "attackProperty": {
            "damagePercentage": 0.6000000238418579,
            "MKLAMNDEDGB": 0.0,
            "elementType": "Electric",
            "bonusCriticalHurt": 30.0,
            "strikeType": "Blunt",
            "enBreak": 200.0,
            "attackType": "Melee"
          },
          "hitPattern": {
            "onHitEffectName": "default",
            "hitImpulseType": "LV4",
            "hitHaltTimeScale": 0.009999999776482582
          }
        }
      },
      "SacredAttack03_Hit2_1": {
        "attackPattern": {
          "$type": "NAMPOMPBMHC",
          "triggerType": "TriggerNoRepeat",
          "born": {
            "$type": "ConfigBornBySelf",
            "offset": {
              "x": 0.5,
              "y": 0.0,
              "z": 2.0
            }
          },
          "size": {
            "x": 2.0,
            "y": 4.0,
            "z": 3.0
          }
        },
        "attackInfo": {
          "attackTag": "",
          "attenuationTag": "",
          "attenuationGroup": "default",
          "attackProperty": {
            "damagePercentage": 0.30000001192092896,
            "MKLAMNDEDGB": 0.0,
            "elementType": "Electric",
            "bonusCriticalHurt": 30.0,
            "strikeType": "Blunt",
            "enBreak": 200.0,
            "attackType": "Melee"
          },
          "hitPattern": {
            "onHitEffectName": "default",
            "hitImpulseType": "LV3",
            "hitHaltTimeScale": 0.009999999776482582
          }
        }
      },
      "SacredAttack03_Hit2_2": {
        "attackPattern": {
          "$type": "NAMPOMPBMHC",
          "triggerType": "TriggerNoRepeat",
          "born": {
            "$type": "ConfigBornBySelf",
            "offset": {
              "x": -0.5,
              "y": 0.0,
              "z": 2.0
            }
          },
          "size": {
            "x": 2.0,
            "y": 4.0,
            "z": 3.0
          }
        },
        "attackInfo": {
          "attackTag": "",
          "attenuationTag": "",
          "attenuationGroup": "default",
          "attackProperty": {
            "damagePercentage": 0.30000001192092896,
            "MKLAMNDEDGB": 0.0,
            "elementType": "Electric",
            "bonusCriticalHurt": 30.0,
            "strikeType": "Blunt",
            "enBreak": 200.0,
            "attackType": "Melee"
          },
          "hitPattern": {
            "onHitEffectName": "default",
            "hitImpulseType": "LV3",
            "hitHaltTimeScale": 0.009999999776482582
          }
        }
      },
      "SacredAttack03_Hit2_3": {
        "attackPattern": {
          "$type": "NAMPOMPBMHC",
          "triggerType": "TriggerNoRepeat",
          "born": {
            "$type": "ConfigBornBySelf",
            "offset": {
              "x": 0.5,
              "y": 0.0,
              "z": 2.0
            }
          },
          "size": {
            "x": 2.0,
            "y": 4.0,
            "z": 3.0
          }
        },
        "attackInfo": {
          "attackTag": "",
          "attenuationTag": "",
          "attenuationGroup": "default",
          "attackProperty": {
            "damagePercentage": 0.30000001192092896,
            "MKLAMNDEDGB": 0.0,
            "elementType": "Electric",
            "bonusCriticalHurt": 30.0,
            "strikeType": "Blunt",
            "enBreak": 200.0,
            "attackType": "Melee"
          },
          "hitPattern": {
            "onHitEffectName": "default",
            "hitImpulseType": "LV3",
            "hitHaltTimeScale": 0.009999999776482582
          }
        }
      },
      "SacredAttack03_Hit2_4": {
        "attackPattern": {
          "$type": "NAMPOMPBMHC",
          "triggerType": "TriggerNoRepeat",
          "born": {
            "$type": "ConfigBornBySelf",
            "offset": {
              "x": -0.5,
              "y": 0.0,
              "z": 1.0
            }
          },
          "size": {
            "x": 2.0,
            "y": 4.0,
            "z": 3.0
          }
        },
        "attackInfo": {
          "attackTag": "",
          "attenuationTag": "",
          "attenuationGroup": "default",
          "attackProperty": {
            "damagePercentage": 0.30000001192092896,
            "MKLAMNDEDGB": 0.0,
            "elementType": "Electric",
            "bonusCriticalHurt": 30.0,
            "strikeType": "Blunt",
            "enBreak": 200.0,
            "attackType": "Melee"
          },
          "hitPattern": {
            "onHitEffectName": "default",
            "hitImpulseType": "LV3",
            "hitHaltTimeScale": 0.009999999776482582
          }
        }
      },
      "SacredAttack03_Hit4": {
        "attackPattern": {
          "$type": "ConfigAttackCircle",
          "triggerType": "TriggerNoRepeat",
          "born": {
            "$type": "ConfigBornBySelf",
            "offset": {
              "x": 0.0,
              "y": -1.0,
              "z": 6.5
            }
          },
          "height": 4.0,
          "radius": 3.5
        },
        "attackInfo": {
          "attackTag": "",
          "attenuationTag": "",
          "attenuationGroup": "default",
          "attackProperty": {
            "damagePercentage": 0.800000011920929,
            "MKLAMNDEDGB": 0.0,
            "elementType": "Electric",
            "bonusCriticalHurt": 30.0,
            "strikeType": "Blunt",
            "enBreak": 200.0,
            "attackType": "Melee"
          },
          "hitPattern": {
            "onHitEffectName": "default",
            "hitImpulseType": "LV5",
            "hitHaltTimeScale": 0.009999999776482582
          },
          "cameraShake": {
            "shakeType": "CustomVector",
            "shakeRange": 1.0,
            "shakeTime": 0.20000000298023224,
            "shakeDistance": 30.0,
            "shakeDir": {
              "y": -1.0
            }
          }
        }
      },
      "SacredAttack05": {
        "attackPattern": {
          "$type": "ConfigAttackCircle",
          "triggerType": "TriggerNoRepeat",
          "born": {
            "$type": "ConfigBornBySelf",
            "offset": {
              "x": 0.0,
              "y": -1.0,
              "z": 0.0
            },
            "HOPPHMEKHLG": {
              "$type": "JADOBJDPOLJ",
              "NHGDOBINMBK": {
                "x": 0.0,
                "y": -45.0,
                "z": 0.0
              }
            }
          },
          "height": 4.0,
          "radius": 3.5
        },
        "attackInfo": {
          "attackTag": "",
          "attenuationTag": "",
          "attenuationGroup": "default",
          "attackProperty": {
            "damagePercentage": 0.30000001192092896,
            "MKLAMNDEDGB": 0.0,
            "elementType": "Electric",
            "bonusCriticalHurt": 30.0,
            "strikeType": "Blunt",
            "enBreak": 200.0,
            "attackType": "Melee"
          },
          "hitPattern": {
            "onHitEffectName": "default",
            "hitImpulseType": "LV4",
            "hitHaltTimeScale": 0.009999999776482582
          }
        }
      },
      "SacredAttack05_LastHit": {
        "attackPattern": {
          "$type": "ConfigAttackCircle",
          "triggerType": "TriggerNoRepeat",
          "born": {
            "$type": "ConfigBornBySelf",
            "offset": {
              "x": 0.0,
              "y": -1.0,
              "z": 2.0
            }
          },
          "height": 4.0,
          "radius": 3.0
        },
        "attackInfo": {
          "attackTag": "",
          "attenuationTag": "",
          "attenuationGroup": "default",
          "attackProperty": {
            "damagePercentage": 0.699999988079071,
            "MKLAMNDEDGB": 0.0,
            "elementType": "Electric",
            "bonusCriticalHurt": 30.0,
            "strikeType": "Blunt",
            "enBreak": 200.0,
            "attackType": "Melee"
          },
          "hitPattern": {
            "onHitEffectName": "default",
            "hitImpulseType": "LV4",
            "hitHaltTimeScale": 0.009999999776482582
          },
          "forceCameraShake": true,
          "cameraShake": {
            "shakeType": "CustomVector",
            "shakeRange": 1.0,
            "shakeTime": 0.20000000298023224,
            "shakeDistance": 30.0,
            "shakeDir": {
              "y": -1.0
            }
          }
        }
      }
    }
  },
  "abilities": [
    {
      "abilityID": "",
      "abilityName": "Monster_Scorpion_Sacred_SteerAttack",
      "abilityOverride": ""
    },
    {
      "abilityID": "",
      "abilityName": "Monster_Scorpion_Sacred_Attack02_Find",
      "abilityOverride": ""
    },
    {
      "abilityID": "",
      "abilityName": "Monster_Scorpion_Sacred_Attack02_WarningEffect",
      "abilityOverride": ""
    },
    {
      "abilityID": "",
      "abilityName": "Monster_Scorpion_Sacred_Attack02_Blink",
      "abilityOverride": ""
    },
    {
      "abilityID": "",
      "abilityName": "Monster_Scorpion_Sacred_Attack02_Collider",
      "abilityOverride": ""
    },
    {
      "abilityID": "",
      "abilityName": "Monster_Scorpion_Sacred_Attack02_Visible",
      "abilityOverride": ""
    },
    {
      "abilityID": "",
      "abilityName": "Monster_Scorpion_Sacred_Attack03_Bullet",
      "abilityOverride": ""
    },
    {
      "abilityID": "",
      "abilityName": "Monster_Scorpion_Sacred_SacredAttack03_Check",
      "abilityOverride": ""
    },
    {
      "abilityID": "",
      "abilityName": "Monster_Scorpion_Sacred_SacredAttack04_Effect",
      "abilityOverride": ""
    },
    {
      "abilityID": "",
      "abilityName": "Monster_Scorpion_Sacred_SacredAttack04_Hit1",
      "abilityOverride": ""
    },
    {
      "abilityID": "",
      "abilityName": "Monster_Scorpion_Sacred_SacredAttack04_Hit2",
      "abilityOverride": ""
    },
    {
      "abilityID": "",
      "abilityName": "Monster_Scorpion_Sacred_SacredAttack04_Hit3",
      "abilityOverride": ""
    },
    {
      "abilityID": "",
      "abilityName": "Monster_Scorpion_Sacred_SacredAttack04_Hit4",
      "abilityOverride": ""
    },
    {
      "abilityID": "",
      "abilityName": "Monster_Scorpion_Sacred_SacredAttack04_Hit5",
      "abilityOverride": ""
    },
    {
      "abilityID": "",
      "abilityName": "Monster_Scorpion_Sacred_SacredAttack04_Hit6",
      "abilityOverride": ""
    },
    {
      "abilityID": "",
      "abilityName": "Monster_Scorpion_Sacred_SacredAttack04_Hit7",
      "abilityOverride": ""
    },
    {
      "abilityID": "",
      "abilityName": "Monster_Scorpion_Sacred_SacredAttack04_Hit8",
      "abilityOverride": ""
    },
    {
      "abilityID": "",
      "abilityName": "Monster_Scorpion_Sacred_Attack05_Bullet",
      "abilityOverride": ""
    },
    {
      "abilityID": "",
      "abilityName": "Monster_Scorpion_Sacred_SacredEnergy_Detect",
      "abilityOverride": ""
    },
    {
      "abilityID": "",
      "abilityName": "Monster_Scorpion_Sacred_SacredEnergy_BridgeToMonster",
      "abilityOverride": ""
    },
    {
      "abilityID": "",
      "abilityName": "Monster_Sacred_Entity_StateTag_ToNormal",
      "abilityOverride": ""
    },
    {
      "abilityID": "",
      "abilityName": "Monster_Sacred_Entity_StateTag_ToEnhance",
      "abilityOverride": ""
    },
    {
      "abilityID": "",
      "abilityName": "Monster_Sacred_Entity_StateTag_ToWeak",
      "abilityOverride": ""
    },
    {
      "abilityID": "",
      "abilityName": "Monster_Sacred_Entity_BodyMaterial_Effect",
      "abilityOverride": ""
    },
    {
      "abilityID": "",
      "abilityName": "Monster_Sacred_Entity_AlertnessTag",
      "abilityOverride": ""
    },
    {
      "abilityID": "",
      "abilityName": "Monster_Sacred_Entity_Attack05Protect",
      "abilityOverride": ""
    },
    {
      "abilityID": "",
      "abilityName": "Monster_Scorpion_Sacred_EnhanceDefence",
      "abilityOverride": ""
    }
  ],
  "stateLayers": {
    "defaultLayer": {
      "$type": "ConfigNormalStateLayer",
      "FNPGDAEJAPJ": "",
      "stateIDs": {
        "NormalIdle": {
          "$type": "ConfigMonsterStateIDInfo",
          "animatorStates": {
            "Standby": [],
            "Born": []
          },
          "canDoSkill": true,
          "canSyncMove": true,
          "resetAnimatorTriggerOnExit": ["DoSkill"]
        },
        "Run": {
          "$type": "ConfigMonsterStateIDInfo",
          "animatorStates": {
            "Run": []
          },
          "canDoSkill": true,
          "canSyncMove": true,
          "resetAnimatorTriggerOnExit": ["DoSkill"],
          "BHEPAJIOBDN": true
        },
        "WalkForward": {
          "$type": "ConfigMonsterStateIDInfo",
          "animatorStates": {
            "WalkForward": []
          },
          "canDoSkill": true,
          "canSyncMove": true,
          "resetAnimatorTriggerOnExit": ["DoSkill"],
          "BHEPAJIOBDN": true
        },
        "WalkBack": {
          "$type": "ConfigMonsterStateIDInfo",
          "animatorStates": {
            "WalkBack": []
          },
          "canDoSkill": true,
          "canSyncMove": true,
          "resetAnimatorTriggerOnExit": ["DoSkill"],
          "BHEPAJIOBDN": true
        },
        "WalkLeft": {
          "$type": "ConfigMonsterStateIDInfo",
          "animatorStates": {
            "WalkLeft": []
          },
          "canDoSkill": true,
          "canSyncMove": true,
          "resetAnimatorTriggerOnExit": ["DoSkill"],
          "BHEPAJIOBDN": true
        },
        "WalkRight": {
          "$type": "ConfigMonsterStateIDInfo",
          "animatorStates": {
            "WalkRight": []
          },
          "canDoSkill": true,
          "canSyncMove": true,
          "resetAnimatorTriggerOnExit": ["DoSkill"],
          "BHEPAJIOBDN": true
        },
        "Turn": {
          "$type": "ConfigMonsterStateIDInfo",
          "animatorStates": {
            "Turn": []
          },
          "canDoSkill": true,
          "canSyncMove": true,
          "resetAnimatorTriggerOnExit": ["DoSkill"],
          "BHEPAJIOBDN": true
        },
        "BeHit": {
          "$type": "ConfigMonsterStateIDInfo",
          "animatorStates": {
            "Hit_L": ["Audio_Monster_Scorpion_Sacred_Hit_L"]
          },
          "resetAnimatorTriggerOnEnter": ["BeHit"],
          "resetAnimatorTriggerOnExit": ["DoSkill"]
        },
        "Weak_BS": {
          "$type": "ConfigMonsterStateIDInfo",
          "animatorStates": {
            "Weak_BS": ["Audio_Monster_Scorpion_Sacred_Weak_BS"]
          },
          "canSyncMove": true,
          "AAEKKGMOKFK": true,
          "BFDKJHMDDML": 0.0,
          "resetAnimatorTriggerOnEnter": ["BeHit"],
          "resetAnimatorTriggerOnExit": ["BeHit", "DoSkill"],
          "LCIGFDMOEAA": true
        },
        "Weak_Loop": {
          "$type": "ConfigMonsterStateIDInfo",
          "animatorStates": {
            "Weak_Loop": []
          },
          "canSyncMove": true,
          "AAEKKGMOKFK": true,
          "BFDKJHMDDML": 0.0,
          "resetAnimatorTriggerOnEnter": ["BeHit"],
          "resetAnimatorTriggerOnExit": ["BeHit", "DoSkill"],
          "LCIGFDMOEAA": true
        },
        "Weak_AS": {
          "$type": "ConfigMonsterStateIDInfo",
          "animatorStates": {
            "Weak_AS": ["Audio_Monster_Scorpion_Sacred_Weak_AS"]
          },
          "canSyncMove": true,
          "AAEKKGMOKFK": true,
          "BFDKJHMDDML": 0.0,
          "resetAnimatorTriggerOnEnter": ["BeHit"],
          "resetAnimatorTriggerOnExit": ["BeHit", "DoSkill"],
          "LCIGFDMOEAA": true
        },
        "Die": {
          "$type": "ConfigMonsterStateIDInfo",
          "animatorStates": {
            "Die": ["Audio_Monster_Scorpion_Sacred_Die"]
          },
          "resetAnimatorTriggerOnEnter": ["DoSkill"]
        },
        "Weak_Die": {
          "$type": "ConfigMonsterStateIDInfo",
          "animatorStates": {
            "Weak_Die": ["Audio_Monster_Scorpion_Sacred_Weak_Die"]
          },
          "resetAnimatorTriggerOnEnter": ["DoSkill"]
        },
        "Personality2": {
          "$type": "ConfigMonsterStateIDInfo",
          "animatorStates": {
            "Personality2": ["Audio_Monster_Scorpion_Sacred_Personality2"]
          },
          "canDoSkill": true,
          "resetAnimatorTriggerOnExit": ["BeHit", "DoSkill"]
        },
        "Sacred_Attack01": {
          "$type": "ConfigMonsterStateIDInfo",
          "animatorStates": {
            "Sacred_Attack01": [
              "Monster_Scorpion_Sacred_Electric_SacredAttack01",
              "Audio_Monster_Scorpion_Sacred_Attack01"
            ]
          },
          "canSyncMove": true,
          "AAEKKGMOKFK": true,
          "BFDKJHMDDML": 0.009999999776482582,
          "resetAnimatorTriggerOnExit": ["BeHit", "DoSkill"],
          "BHEPAJIOBDN": true
        },
        "Sacred_Attack02_BS": {
          "$type": "ConfigMonsterStateIDInfo",
          "animatorStates": {
            "Sacred_Attack02_BS": [
              "Monster_Scorpion_Sacred_Electric_SacredAttack02_BS",
              "Audio_Monster_Scorpion_Sacred_Attack02_BS"
            ]
          },
          "canSyncMove": true,
          "AAEKKGMOKFK": true,
          "BFDKJHMDDML": 0.009999999776482582,
          "resetAnimatorTriggerOnExit": ["BeHit", "DoSkill"],
          "BHEPAJIOBDN": true
        },
        "Sacred_Attack02_AS": {
          "$type": "ConfigMonsterStateIDInfo",
          "animatorStates": {
            "Sacred_Attack02_AS": [
              "Monster_Scorpion_Sacred_Electric_SacredAttack02_AS",
              "Audio_Monster_Scorpion_Sacred_Attack02_AS"
            ]
          },
          "canSyncMove": true,
          "AAEKKGMOKFK": true,
          "BFDKJHMDDML": 0.009999999776482582,
          "resetAnimatorTriggerOnExit": ["BeHit", "DoSkill"],
          "BHEPAJIOBDN": true
        },
        "Sacred_Attack03": {
          "$type": "ConfigMonsterStateIDInfo",
          "animatorStates": {
            "Sacred_Attack03": [
              "Monster_Scorpion_Sacred_Electric_SacredAttack03",
              "Audio_Monster_Scorpion_Sacred_Attack03_1"
            ]
          },
          "canSyncMove": true,
          "AAEKKGMOKFK": true,
          "BFDKJHMDDML": 0.009999999776482582,
          "resetAnimatorTriggerOnExit": ["BeHit", "DoSkill"],
          "BHEPAJIOBDN": true
        },
        "Sacred_Attack03_AS2": {
          "$type": "ConfigMonsterStateIDInfo",
          "animatorStates": {
            "Sacred_Attack03_AS2": [
              "Audio_Monster_Scorpion_Sacred_Attack03_AS2"
            ]
          },
          "canSyncMove": true,
          "AAEKKGMOKFK": true,
          "BFDKJHMDDML": 0.009999999776482582,
          "resetAnimatorTriggerOnExit": ["BeHit", "DoSkill"],
          "BHEPAJIOBDN": true
        },
        "Sacred_Attack04_BS": {
          "$type": "ConfigMonsterStateIDInfo",
          "animatorStates": {
            "Sacred_Attack04_BS": ["Audio_Monster_Scorpion_Sacred_Attack04_BS"]
          },
          "canSyncMove": true,
          "AAEKKGMOKFK": true,
          "BFDKJHMDDML": 0.009999999776482582,
          "resetAnimatorTriggerOnExit": ["BeHit", "DoSkill"],
          "BHEPAJIOBDN": true
        },
        "Sacred_Attack04_Loop1": {
          "$type": "ConfigMonsterStateIDInfo",
          "animatorStates": {
            "Sacred_Attack04_Loop1": [
              "Monster_Scorpion_Sacred_Electric_SacredAttack04_Hit1"
            ]
          },
          "canSyncMove": true,
          "AAEKKGMOKFK": true,
          "BFDKJHMDDML": 0.009999999776482582,
          "resetAnimatorTriggerOnExit": ["BeHit", "DoSkill"],
          "BHEPAJIOBDN": true
        },
        "Sacred_Attack04_Loop2": {
          "$type": "ConfigMonsterStateIDInfo",
          "animatorStates": {
            "Sacred_Attack04_Loop2": [
              "Monster_Scorpion_Sacred_Electric_SacredAttack04_Hit2"
            ]
          },
          "canSyncMove": true,
          "AAEKKGMOKFK": true,
          "BFDKJHMDDML": 0.009999999776482582,
          "resetAnimatorTriggerOnExit": ["BeHit", "DoSkill"],
          "BHEPAJIOBDN": true
        },
        "Sacred_Attack04_Loop3": {
          "$type": "ConfigMonsterStateIDInfo",
          "animatorStates": {
            "Sacred_Attack04_Loop3": [
              "Monster_Scorpion_Sacred_Electric_SacredAttack04_Hit3"
            ]
          },
          "canSyncMove": true,
          "AAEKKGMOKFK": true,
          "BFDKJHMDDML": 0.009999999776482582,
          "resetAnimatorTriggerOnExit": ["BeHit", "DoSkill"],
          "BHEPAJIOBDN": true
        },
        "Sacred_Attack04_AS": {
          "$type": "ConfigMonsterStateIDInfo",
          "animatorStates": {
            "Sacred_Attack04_AS": ["Audio_Monster_Scorpion_Sacred_Attack04_AS"]
          },
          "canSyncMove": true,
          "AAEKKGMOKFK": true,
          "BFDKJHMDDML": 0.009999999776482582,
          "resetAnimatorTriggerOnExit": ["BeHit", "DoSkill"],
          "BHEPAJIOBDN": true
        },
        "Sacred_Attack05": {
          "$type": "ConfigMonsterStateIDInfo",
          "animatorStates": {
            "Sacred_Attack05": [
              "Monster_Scorpion_Sacred_Electric_SacredAttack05",
              "Audio_Monster_Scorpion_Sacred_Attack05"
            ]
          },
          "canSyncMove": true,
          "AAEKKGMOKFK": true,
          "BFDKJHMDDML": 0.009999999776482582,
          "resetAnimatorTriggerOnExit": ["BeHit", "DoSkill"],
          "BHEPAJIOBDN": true
        },
        "Sacred_Enhance": {
          "$type": "ConfigMonsterStateIDInfo",
          "animatorStates": {
            "Sacred_Enhance": [
              "Monster_Scorpion_Sacred_Electric_Enhance",
              "Audio_Monster_Scorpion_Sacred_Enhance"
            ]
          },
          "canSyncMove": true,
          "AAEKKGMOKFK": true,
          "BFDKJHMDDML": 0.009999999776482582,
          "resetAnimatorTriggerOnExit": ["BeHit", "DoSkill"],
          "BHEPAJIOBDN": true
        }
      }
    }
  },
  "billboard": {
    "$type": "NCBABGPMMPL",
    "EBBHBMFMOGD": "BillboardAttach",
    "offset": {
      "y": 0.4000000059604645
    },
    "BFOMIIKCOGI": "Character",
    "showDistance": 48.0,
    "size": "Grand"
  },
  "initialPoses": {
    "Default": {
      "initialPoseID": 1
    }
  },
  "aibeta": {
    "enable": true,
    "moveSetting": {
      "navMeshAgentName": "Undead01"
    },
    "sensing": {
      "settings": {
        "DefaultSetting": {
          "viewRange": 40.0,
          "feelRange": 10.0
        }
      },
      "templates": {
        "DefaultTemplate": {
          "DefaultPoses": "DefaultSetting"
        }
      }
    },
    "threat": {
      "clearThreatEdgeDistance": 2.0,
      "clearThreatByLostPath": true,
      "viewAttenuation": [
        {
          "x": 10.0,
          "y": 2.0
        },
        {
          "x": 15.0,
          "y": 0.800000011920929
        },
        {
          "x": 20.0,
          "y": 0.5
        },
        {
          "x": 25.0,
          "y": 0.30000001192092896
        },
        {
          "x": 30.0,
          "y": 0.20000000298023224
        }
      ],
      "resistTauntLevel": "Monster_TauntLevel_3"
    },
    "defendArea": {
      "defendRange": 50.0
    },
    "network": {
      "syncSkill": true
    },
    "skillGroupCDConfigs": [
      {
        "skillGroupCDID": 2,
        "skillGroupCDTime": 20.0
      },
      {
        "skillGroupCDID": 3,
        "skillGroupCDTime": 2.0
      }
    ],
    "skills": {
      "101": {
        "name": "Sacred_Enhance",
        "combatSkillType": "RangedAttack",
        "priority": 1,
        "faceTarget": true,
        "castCondition": {
          "pose": [201]
        },
        "cd": 999999.0,
        "publicCDGroup": "",
        "ignoreGCD": true,
        "triggerGCD": false,
        "DDLBHDNIIMM": false,
        "stateIDs": ["Sacred_Enhance"],
        "flagTargetReachable": "11",
        "flagSelfOnTemplateCollider": "11",
        "flagSelfInZone": "11",
        "flagTargetInZone": "11"
      },
      "211": {
        "name": "Personality2",
        "skillType": "Free",
        "castCondition": {
          "pose": [1]
        },
        "cd": 20.0,
        "cdUpperRange": 10.0,
        "initialCD": 2.5,
        "initialCDUpperRange": 5.0,
        "publicCDGroup": "",
        "triggerGCD": false,
        "skillGroupCDID": 3,
        "stateIDs": ["Personality2"],
        "flagTargetReachable": "10",
        "flagSelfOnTemplateCollider": "01",
        "flagSelfInZone": "10",
        "flagTargetInZone": "11"
      },
      "601": {
        "name": "Sacred_Attack01",
        "combatSkillType": "RangedAttack",
        "castCondition": {
          "pose": [202],
          "maxTargetAngleXZ": 90.0,
          "pickRangeMax": 6.0
        },
        "cd": 2.0,
        "cdUpperRange": 1.0,
        "publicCDGroup": "",
        "stateIDs": ["Sacred_Attack01"],
        "flagTargetReachable": "11",
        "flagSelfOnTemplateCollider": "11",
        "flagSelfInZone": "11",
        "flagTargetInZone": "11"
      },
      "602": {
        "name": "Sacred_Attack01",
        "combatSkillType": "RangedAttack",
        "castCondition": {
          "pose": [201],
          "needReInitCD": true,
          "maxTargetAngleXZ": 90.0,
          "pickRangeMax": 6.0
        },
        "cd": 3.0,
        "cdUpperRange": 1.0,
        "initialCD": 4.0,
        "publicCDGroup": "",
        "stateIDs": ["Sacred_Attack01"],
        "flagTargetReachable": "11",
        "flagSelfOnTemplateCollider": "11",
        "flagSelfInZone": "11",
        "flagTargetInZone": "11"
      },
      "611": {
        "name": "Sacred_Attack02",
        "combatSkillType": "RangedAttack",
        "castCondition": {
          "pose": [202],
          "maxTargetAngleXZ": 90.0,
          "pickRangeMin": 6.0,
          "pickRangeMax": 35.0
        },
        "cd": 4.0,
        "cdUpperRange": 2.0,
        "initialCD": 3.5,
        "publicCDGroup": "",
        "stateIDs": ["Sacred_Attack02_BS", "Sacred_Attack02_AS"],
        "flagTargetReachable": "11",
        "flagSelfOnTemplateCollider": "11",
        "flagSelfInZone": "11",
        "flagTargetInZone": "11"
      },
      "621": {
        "name": "Sacred_Attack03",
        "combatSkillType": "RangedAttack",
        "castCondition": {
          "pose": [202],
          "maxTargetAngleXZ": 90.0,
          "pickRangeMax": 8.0
        },
        "cd": 3.0,
        "cdUpperRange": 1.0,
        "publicCDGroup": "",
        "stateIDs": ["Sacred_Attack03", "Sacred_Attack03_AS2"],
        "flagTargetReachable": "11",
        "flagSelfOnTemplateCollider": "11",
        "flagSelfInZone": "11",
        "flagTargetInZone": "11"
      },
      "631": {
        "name": "Sacred_Attack04",
        "combatSkillType": "RangedAttack",
        "castCondition": {
          "pose": [202],
          "pickRangeMax": 8.0
        },
        "cd": 8.0,
        "cdUpperRange": 2.0,
        "initialCD": 4.5,
        "publicCDGroup": "",
        "stateIDs": [
          "Sacred_Attack04_BS",
          "Sacred_Attack04_Loop1",
          "Sacred_Attack04_Loop2",
          "Sacred_Attack04_Loop3",
          "Sacred_Attack04_AS"
        ],
        "flagTargetReachable": "11",
        "flagSelfOnTemplateCollider": "11",
        "flagSelfInZone": "11",
        "flagTargetInZone": "11"
      },
      "641": {
        "name": "Sacred_Attack05",
        "combatSkillType": "RangedAttack",
        "priority": 2,
        "castCondition": {
          "pose": [202],
          "needReInitCD": true,
          "pickRangeMax": 20.0
        },
        "cd": 30.0,
        "initialCD": 25.0,
        "publicCDGroup": "Sacred_MortalAttack",
        "stateIDs": ["Sacred_Attack05"],
        "flagTargetReachable": "11",
        "flagSelfOnTemplateCollider": "11",
        "flagSelfInZone": "11",
        "flagTargetInZone": "11"
      },
      "661": {
        "name": "Sacred_Enhance",
        "combatSkillType": "RangedAttack",
        "priority": 1,
        "castCondition": {
          "pose": [201],
          "globalValues": ["SacredEnergy_Recover_Scorpion"],
          "LBJLGICBKKC": "SELF"
        },
        "cd": 20.0,
        "publicCDGroup": "",
        "ignoreGCD": true,
        "triggerGCD": false,
        "DDLBHDNIIMM": false,
        "stateIDs": ["Sacred_Enhance"],
        "flagTargetReachable": "11",
        "flagSelfOnTemplateCollider": "11",
        "flagSelfInZone": "11",
        "flagTargetInZone": "11"
      },
      "691": {
        "name": "Sacred_Enhance",
        "combatSkillType": "RangedAttack",
        "priority": 1,
        "castCondition": {
          "pose": [201],
          "needReInitCD": true
        },
        "cd": 2.0,
        "initialCD": 15.0,
        "publicCDGroup": "",
        "ignoreGCD": true,
        "triggerGCD": false,
        "DDLBHDNIIMM": false,
        "stateIDs": ["Sacred_Enhance"],
        "flagTargetReachable": "11",
        "flagSelfOnTemplateCollider": "11",
        "flagSelfInZone": "11",
        "flagTargetInZone": "11"
      }
    },
    "returnToBornTactic": {
      "enable": true,
      "defaultSetting": {}
    },
    "wanderTactic": {
      "enable": true,
      "condition": {
        "pose": [1]
      },
      "defaultSetting": {
        "turnSpeedOverride": 0.30000001192092896,
        "cdMax": 16.0,
        "cdMin": 8.0,
        "distanceFromBorn": 30.0,
        "distanceFromCurrentMin": 8.0,
        "distanceFromCurrentMax": 15.0
      }
    },
    "meleeChargeTactic": {
      "enable": true,
      "condition": {
        "pose": [201, 202]
      },
      "defaultSetting": {
        "turnSpeedOverride": 1.0,
        "startDistanceMin": 12.0,
        "startDistanceMax": 50.0,
        "stopDistance": 4.5,
        "innerDistance": 7.0,
        "useMeleeSlot": false
      }
    },
    "facingMoveTactic": {
      "enable": true,
      "condition": {
        "pose": [201, 202]
      },
      "defaultSetting": {
        "rangeMax": 8.0,
        "restTimeMin": 3.0,
        "facingMoveTurnInterval": 1.600000023841858,
        "facingMoveWeight": {
          "stop": 0.20000000298023224,
          "forward": 0.4000000059604645,
          "back": 0.4000000059604645
        },
        "PDOKGBAJNEP": "1111",
        "NGLJBMGMGKF": "1111"
      }
    },
    "DNAHDMGDMCH": {
      "enable": true,
      "defaultSetting": {
        "speedLevel": 1,
        "fleeAngle": 75.0,
        "fleeDistanceMin": 4.0,
        "fleeDistanceMax": 6.0,
        "PPIBDEEBFPN": 0.5
      }
    }
  },
  "inputKeys": [
    {
      "keyID": 601,
      "inputKeyCode": 257,
      "abilityName": ""
    },
    {
      "keyID": 611,
      "inputKeyCode": 258,
      "abilityName": ""
    },
    {
      "keyID": 621,
      "inputKeyCode": 259,
      "abilityName": ""
    },
    {
      "keyID": 631,
      "inputKeyCode": 260,
      "abilityName": ""
    },
    {
      "keyID": 641,
      "inputKeyCode": 261,
      "abilityName": ""
    },
    {
      "keyID": 651,
      "inputKeyCode": 262,
      "abilityName": ""
    },
    {
      "keyID": 661,
      "inputKeyCode": 263,
      "abilityName": ""
    },
    {
      "keyID": 101,
      "inputKeyCode": 264,
      "abilityName": ""
    }
  ],
  "move": {
    "$type": "PLMNMICDOHN",
    "EINCMKOBBEG": {
      "excludeForces": ["RetreatAirType"]
    },
    "BCBPBHLKCPB": "FourDirection",
    "OOFDCONLBHL": 1.0,
    "MGFACNKNOFC": true,
    "HFHNEKMCEMF": true
  },
  "audio": {
    "NCOGLLMIJGO": "",
    "animAudio": {
      "onTransitionIn": [
        {
          "currentStateName": "WalkForward",
          "audioEvent": {
            "text": "Play_sfx_monster_Scorpion_walk"
          },
          "otherStateNames": ["WalkForward"],
          "usage": "Except"
        },
        {
          "currentStateName": "Run",
          "audioEvent": {
            "text": "Play_sfx_monster_Scorpion_walk"
          },
          "otherStateNames": ["Run"],
          "usage": "Except"
        },
        {
          "currentStateName": "WalkBack",
          "audioEvent": {
            "text": "Play_sfx_monster_Scorpion_walk"
          },
          "otherStateNames": ["WalkBack"],
          "usage": "Except"
        },
        {
          "currentStateName": "WalkLeft",
          "audioEvent": {
            "text": "Play_sfx_monster_Scorpion_walk"
          },
          "otherStateNames": ["WalkLeft"],
          "usage": "Except"
        },
        {
          "currentStateName": "WalkRight",
          "audioEvent": {
            "text": "Play_sfx_monster_Scorpion_walk"
          },
          "otherStateNames": ["WalkRight"],
          "usage": "Except"
        },
        {
          "currentStateName": "Turn",
          "audioEvent": {
            "text": "Play_sfx_monster_Scorpion_walk"
          },
          "otherStateNames": ["Turn"],
          "usage": "Except"
        }
      ],
      "onTransitionOut": [
        {
          "currentStateName": "WalkForward",
          "audioEvent": {
            "text": "Stop_sfx_monster_Scorpion_walk"
          },
          "otherStateNames": ["WalkForward"],
          "usage": "Except"
        },
        {
          "currentStateName": "Run",
          "audioEvent": {
            "text": "Stop_sfx_monster_Scorpion_walk"
          },
          "otherStateNames": ["Run"],
          "usage": "Except"
        },
        {
          "currentStateName": "WalkBack",
          "audioEvent": {
            "text": "Stop_sfx_monster_Scorpion_walk"
          },
          "otherStateNames": ["WalkBack"],
          "usage": "Except"
        },
        {
          "currentStateName": "WalkLeft",
          "audioEvent": {
            "text": "Stop_sfx_monster_Scorpion_walk"
          },
          "otherStateNames": ["WalkLeft"],
          "usage": "Except"
        },
        {
          "currentStateName": "WalkRight",
          "audioEvent": {
            "text": "Stop_sfx_monster_Scorpion_walk"
          },
          "otherStateNames": ["WalkRight"],
          "usage": "Except"
        },
        {
          "currentStateName": "Turn",
          "audioEvent": {
            "text": "Stop_sfx_monster_Scorpion_walk"
          },
          "otherStateNames": ["Turn"],
          "usage": "Except"
        }
      ]
    }
  }
}
