{
  "common": {
    "effectAttachShape": {
      "$type": "ConfigEffectAttachSkinnedMesh",
      "mesh": "EffectMesh"
    },
    "mass": 10000.0,
    "height": 1.5,
    "viewSize": 1.5,
    "affectedByWorld": true,
    "checkInSurface": true,
    "scale": 1.6699999570846558,
    "useGrassDisplacement": true,
    "clearAIOnSetLightDeactive": true,
    "KJCBJDCKPND": true,
    "NCCLLKFLJGL": true
  },
  "headControl": {
    "$type": "GAAIKCFIJMM",
    "useHeadControl": true,
    "KBBNEKBLPFA": 60.0,
    "FJOGFHEFPHN": 30.0,
    "IAEPDEOMGCO": 2.0,
    "FCDMCPDGFCL": ["NormalMove", "Run", "NormalIdle"]
  },
  "specialPoint": {
    "elementAbsorb": "RootNode",
    "elementPendant": "",
    "elementDrop": "RootNode",
    "bulletAim": "Head"
  },
  "model": {
    "bornEffect": "",
    "attachEffect": "",
    "canBakeMesh": false
  },
  "dither": {
    "showDitherDuration": 2.0
  },
  "combat": {
    "property": {
      "endureType": "Monster_Demiboss_Other",
      "weight": 10000.0
    },
    "beHit": {
      "hitBloodEffect": ""
    },
    "combatLock": {
      "lockShape": "CircleLockEnemy",
      "lockType": "Avatar&Monster_Lv4"
    },
    "die": {
      "hasAnimatorDie": true,
      "dieEndTime": 0.15000000596046448,
      "dieForceDisappearTime": 0.20000000298023224,
      "dieDisappearEffect": "Eff_Monster_Vulture_Eremite_Wind_Die",
      "dieDisappearEffectDelay": 0.15000000596046448,
      "OCGODEHJPME": true,
      "MFJBKFECLNJ": true,
      "IMEEBMBJPGJ": true,
      "ICHFPLMNCLC": true,
      "MBHMAGEPJFH": true,
      "CFHPDHFKMEP": true
    }
  },
  "abilities": [
    {
      "abilityID": "SteerControl",
      "abilityName": "Monster_Vulture_Eremite_Wind_StateControl",
      "abilityOverride": ""
    },
    {
      "abilityID": "StreeControl",
      "abilityName": "Monster_Vulture_Eremite_Wind_StreeControl",
      "abilityOverride": ""
    },
    {
      "abilityID": "NormalAttack01_01",
      "abilityName": "Monster_Vulture_Eremite_Wind_NormalAttack01_01",
      "abilityOverride": ""
    },
    {
      "abilityID": "NormalAttack01_02",
      "abilityName": "Monster_Vulture_Eremite_Wind_NormalAttack01_02",
      "abilityOverride": ""
    },
    {
      "abilityID": "DropAttack_01",
      "abilityName": "Monster_Vulture_Eremite_Wind_DropAttack_01",
      "abilityOverride": ""
    },
    {
      "abilityID": "WindArea",
      "abilityName": "Monster_Vulture_Eremite_Wind_WindAreaHandle",
      "abilityOverride": ""
    },
    {
      "abilityID": "Tornado_Alert",
      "abilityName": "Monster_Vulture_Eremite_Wind_Tornado_Alert",
      "abilityOverride": ""
    },
    {
      "abilityID": "Die",
      "abilityName": "Monster_Vulture_Vulture_Eremite_Wind_Die",
      "abilityOverride": ""
    }
  ],
  "stateLayers": {
    "defaultLayer": {
      "$type": "ConfigNormalStateLayer",
      "FNPGDAEJAPJ": "",
      "stateIDs": {
        "NormalIdle": {
          "$type": "ConfigMonsterStateIDInfo",
          "animatorStates": {
            "Standby": [],
            "Born": []
          },
          "canDoSkill": true,
          "canSyncMove": true,
          "resetAnimatorTriggerOnExit": ["DoSkill"]
        },
        "NormalMove": {
          "$type": "ConfigMonsterStateIDInfo",
          "animatorStates": {
            "MoveForward": ["Audio_Monster_Vulture_Eremite_Wind_Fly"]
          },
          "canDoSkill": true,
          "canSyncMove": true,
          "resetAnimatorTriggerOnExit": ["DoSkill"],
          "BHEPAJIOBDN": true
        },
        "Run": {
          "$type": "ConfigMonsterStateIDInfo",
          "animatorStates": {
            "Run": []
          },
          "canDoSkill": true,
          "canSyncMove": true,
          "resetAnimatorTriggerOnExit": ["DoSkill"],
          "BHEPAJIOBDN": true
        },
        "BeHit": {
          "$type": "ConfigMonsterStateIDInfo",
          "animatorStates": {
            "Hit_L": []
          },
          "resetAnimatorTriggerOnEnter": ["BeHit"],
          "resetAnimatorTriggerOnExit": ["DoSkill"]
        },
        "Die": {
          "$type": "ConfigMonsterStateIDInfo",
          "animatorStates": {
            "Die_Air_BS": ["Monster_Vulture_Eremite_Wind_Die"],
            "Die_Air_Loop": [],
            "Die_Air_AS": []
          }
        },
        "Alert": {
          "$type": "ConfigMonsterStateIDInfo",
          "animatorStates": {
            "Alert": [
              "Monster_Vulture_Eremite_Wind_Alert",
              "Audio_Monster_Vulture_Eremite_Wind_Alert"
            ]
          },
          "resetAnimatorTriggerOnExit": ["BeHit", "DoSkill"]
        },
        "TurnLeft": {
          "$type": "ConfigMonsterStateIDInfo",
          "animatorStates": {
            "TurnLeft": ["Audio_Monster_Vulture_Eremite_Wind_Fly"]
          },
          "canSyncMove": true,
          "resetAnimatorTriggerOnExit": ["DoSkill"],
          "BHEPAJIOBDN": true
        },
        "TurnRight": {
          "$type": "ConfigMonsterStateIDInfo",
          "animatorStates": {
            "TurnRight": ["Audio_Monster_Vulture_Eremite_Wind_Fly"]
          },
          "canSyncMove": true,
          "resetAnimatorTriggerOnExit": ["DoSkill"],
          "BHEPAJIOBDN": true
        },
        "NormalAttack01": {
          "$type": "ConfigMonsterStateIDInfo",
          "animatorStates": {
            "NormalAttack01": [
              "Monster_Vulture_Eremite_Wind_01_NormalAttack01",
              "Audio_Monster_Vulture_Eremite_Wind_NormalAttack01"
            ]
          },
          "resetAnimatorTriggerOnExit": ["BeHit", "DoSkill"],
          "BHEPAJIOBDN": true
        },
        "DropAttack01_BS": {
          "$type": "ConfigMonsterStateIDInfo",
          "animatorStates": {
            "DropAttack01_BS": [
              "Audio_Monster_Vulture_Eremite_Wind_DropAttack01_BS"
            ]
          },
          "resetAnimatorTriggerOnExit": ["BeHit", "DoSkill"],
          "BHEPAJIOBDN": true
        },
        "DropAttack01_Loop": {
          "$type": "ConfigMonsterStateIDInfo",
          "animatorStates": {
            "DropAttack01_Loop": []
          },
          "resetAnimatorTriggerOnExit": ["BeHit", "DoSkill"],
          "BHEPAJIOBDN": true
        },
        "DropAttack01_AS": {
          "$type": "ConfigMonsterStateIDInfo",
          "animatorStates": {
            "DropAttack01_AS": [
              "Audio_Monster_Vulture_Eremite_Wind_DropAttack01_AS"
            ]
          },
          "resetAnimatorTriggerOnExit": ["BeHit", "DoSkill"],
          "BHEPAJIOBDN": true
        },
        "AirShoot_01": {
          "$type": "ConfigMonsterStateIDInfo",
          "animatorStates": {
            "AirShoot_01": [
              "Monster_Vulture_Eremite_Wind_01_AirShoot01",
              "Audio_Monster_Vulture_Eremite_Wind_AirShoot_01"
            ]
          },
          "resetAnimatorTriggerOnExit": ["BeHit", "DoSkill"],
          "BHEPAJIOBDN": true
        },
        "WindAttack01_BS": {
          "$type": "ConfigMonsterStateIDInfo",
          "animatorStates": {
            "WindAttack01_BS": [
              "Monster_Vulture_Eremite_Wind_01_WindAreaAttack01",
              "Audio_Monster_ulture_Eremite_Wind_WindAttack01_BS"
            ]
          },
          "resetAnimatorTriggerOnExit": ["BeHit", "DoSkill"],
          "BHEPAJIOBDN": true
        },
        "WindAttack01_Loop": {
          "$type": "ConfigMonsterStateIDInfo",
          "animatorStates": {
            "WindAttack01_Loop": []
          },
          "resetAnimatorTriggerOnExit": ["BeHit", "DoSkill"],
          "BHEPAJIOBDN": true
        },
        "WindAttack01_AS": {
          "$type": "ConfigMonsterStateIDInfo",
          "animatorStates": {
            "WindAttack01_AS": [
              "Audio_Monster_ulture_Eremite_Wind_WindAttack01_AS"
            ]
          },
          "resetAnimatorTriggerOnExit": ["BeHit", "DoSkill"],
          "BHEPAJIOBDN": true
        }
      }
    }
  },
  "billboard": {
    "$type": "NCBABGPMMPL",
    "EBBHBMFMOGD": "BillboardAttach",
    "OELDMANLPDM": 1.0,
    "ANGKJBLILKJ": true,
    "size": "Big"
  },
  "initialPoses": {
    "Default": {
      "initialPoseID": 101
    }
  },
  "aibeta": {
    "enable": true,
    "moveSetting": {
      "navMeshAgentName": "Undead01",
      "almostReachedDistanceRun": 1.5
    },
    "aiCombat": {
      "combatRole": "FIGHTER"
    },
    "sensing": {
      "settings": {
        "DefaultSetting": {
          "feelRange": 30.0
        }
      }
    },
    "neurons": {
      "DefaultSetting": ["HIT"]
    },
    "threat": {
      "clearThreatEdgeDistance": 3.5,
      "clearThreatTimerByDistance": 1.75,
      "viewThreatGrow": 35.0,
      "feelThreatGrow": 100.0,
      "threatDecreaseSpeed": 10.0,
      "resistTauntLevel": "Monster_TauntLevel_3"
    },
    "defendArea": {
      "defendRange": 70.0
    },
    "network": {
      "syncSkill": true
    },
    "skillGroupCDConfigs": [
      {
        "skillGroupCDID": 2,
        "skillGroupCDTime": 20.0
      },
      {
        "skillGroupCDID": 3,
        "skillGroupCDTime": 3.0
      }
    ],
    "skills": {
      "101": {
        "name": "OnAlert",
        "skillType": "OnAlert",
        "publicCDGroup": "",
        "ignoreGCD": true,
        "triggerGCD": false,
        "stateIDs": ["Alert"],
        "flagTargetReachable": "10",
        "flagSelfOnTemplateCollider": "01",
        "flagSelfInZone": "10",
        "flagTargetInZone": "11"
      },
      "201": {
        "name": "NormalAttack01",
        "combatSkillType": "MeleeAttack",
        "castCondition": {
          "pose": [101],
          "pickRangeMax": 10.0
        },
        "cd": 4.0,
        "cdUpperRange": 2.0,
        "publicCDGroup": "",
        "triggerGCD": false,
        "skillGroupCDID": 3,
        "stateIDs": ["NormalAttack01"],
        "flagTargetReachable": "11",
        "flagSelfOnTemplateCollider": "11",
        "flagSelfInZone": "11",
        "flagTargetInZone": "11"
      },
      "211": {
        "name": "DropAttack01",
        "combatSkillType": "MeleeAttack",
        "castCondition": {
          "pose": [101],
          "pickRangeMin": 8.0,
          "pickRangeMax": 15.0
        },
        "cd": 15.0,
        "cdUpperRange": 2.0,
        "publicCDGroup": "",
        "stateIDs": ["DropAttack01_BS", "DropAttack01_Loop", "DropAttack01_AS"],
        "flagTargetReachable": "10",
        "flagSelfOnTemplateCollider": "01",
        "flagSelfInZone": "10",
        "flagTargetInZone": "11"
      },
      "221": {
        "name": "AirShoot_01",
        "combatSkillType": "RangedAttack",
        "castCondition": {
          "pose": [101],
          "pickRangeMax": 20.0
        },
        "cd": 4.0,
        "cdUpperRange": 3.0,
        "publicCDGroup": "",
        "skillGroupCDID": 3,
        "stateIDs": ["AirShoot_01"],
        "flagTargetReachable": "11",
        "flagSelfOnTemplateCollider": "11",
        "flagSelfInZone": "11",
        "flagTargetInZone": "11"
      },
      "231": {
        "name": "WindAttack01",
        "combatSkillType": "RangedAttack",
        "priority": 1,
        "castCondition": {
          "pose": [101],
          "pickRangeMax": 15.0
        },
        "cd": 23.0,
        "cdUpperRange": 5.0,
        "initialCD": 3.0,
        "publicCDGroup": "Eremite_ComboAttack",
        "stateIDs": ["WindAttack01_BS", "WindAttack01_Loop", "WindAttack01_AS"],
        "flagTargetReachable": "11",
        "flagSelfOnTemplateCollider": "11",
        "flagSelfInZone": "11",
        "flagTargetInZone": "11"
      }
    },
    "skillGCD": 2.0,
    "returnToBornTactic": {
      "enable": true,
      "defaultSetting": {}
    },
    "wanderTactic": {},
    "meleeChargeTactic": {
      "enable": true,
      "condition": {
        "pose": [101]
      },
      "defaultSetting": {
        "startDistanceMin": 10.0,
        "startDistanceMax": 99.0,
        "stopDistance": 5.0,
        "innerDistance": 8.0
      }
    }
  },
  "inputKeys": [
    {
      "keyID": 201,
      "inputKeyCode": 257,
      "abilityName": ""
    },
    {
      "keyID": 211,
      "inputKeyCode": 258,
      "abilityName": ""
    },
    {
      "keyID": 221,
      "inputKeyCode": 259,
      "abilityName": ""
    },
    {
      "keyID": 231,
      "inputKeyCode": 260,
      "abilityName": ""
    },
    {
      "keyID": 241,
      "inputKeyCode": 261,
      "abilityName": ""
    }
  ],
  "move": {
    "$type": "PLMNMICDOHN",
    "EINCMKOBBEG": {
      "excludeForces": ["RetreatAirType", "WindZoneType", "AirflowType"]
    },
    "AOFJJIKKGME": true,
    "KCNKFNLDDOD": true,
    "MGFACNKNOFC": true
  }
}
