{
  "common": {
    "effectAttachShape": {
      "$type": "ConfigEffectAttachSkinnedMesh",
      "mesh": "EffectMesh"
    },
    "mass": 30.0,
    "height": 1.0,
    "affectedByWorld": true,
    "checkInSurface": true,
    "useGrassDisplacement": true
  },
  "headControl": {
    "$type": "GAAIKCFIJMM"
  },
  "model": {
    "bornEffect": "Eff_Monster_Common_Born",
    "attachEffect": ""
  },
  "combat": {
    "property": {
      "endureType": "Monster_Minion",
      "weight": 75.0
    },
    "beHit": {
      "hitBloodEffect": ""
    },
    "combatLock": {
      "lockShape": "CircleLockEnemy",
      "lockType": "Avatar&Monster_Lv4"
    },
    "die": {
      "hasAnimatorDie": true,
      "dieEndTime": 2.0,
      "dieForceDisappearTime": 4.0,
      "dieDisappearEffect": "Eff_Death_Common",
      "dieShaderData": "MonsterDie",
      "useRagDoll": true,
      "OCGODEHJPME": true,
      "MFJBKFECLNJ": true,
      "IMEEBMBJPGJ": true,
      "ICHFPLMNCLC": true,
      "MBHMAGEPJFH": true,
      "CFHPDHFKMEP": true
    },
    "animEvents": {
      "Shaman_Rock_MeleeAttack": {
        "attackPattern": {
          "$type": "ConfigAttackCircle",
          "triggerType": "TriggerNoRepeat",
          "born": {
            "$type": "ConfigBornBySelf",
            "offset": {
              "x": 0.0,
              "y": 0.0,
              "z": 0.0
            }
          },
          "fanAngle": 150.0,
          "radius": 3.0
        },
        "attackInfo": {
          "attackTag": "",
          "attenuationTag": "",
          "attenuationGroup": "default",
          "attackProperty": {
            "damagePercentage": 1.0,
            "MKLAMNDEDGB": 0.0,
            "bonusCriticalHurt": 100.0,
            "strikeType": "Blunt",
            "enBreak": 100.0,
            "attackType": "Melee"
          },
          "hitPattern": {
            "onHitEffectName": "default",
            "hitImpulseType": "LV5"
          },
          "cameraShake": {
            "shakeType": "HitVector",
            "shakeRange": 0.20000000298023224,
            "shakeTime": 0.15000000596046448,
            "shakeDistance": 25.0,
            "shakeDir": {
              "x": -1.0,
              "y": -0.30000001192092896
            }
          }
        }
      }
    }
  },
  "equipController": {
    "sheathPoint": "",
    "attachPoints": {
      "equip01": "WeaponR"
    }
  },
  "abilities": [
    {
      "abilityID": "Shaman_Rock_Spike",
      "abilityName": "Shaman_Rock_Spike",
      "abilityOverride": ""
    },
    {
      "abilityID": "Shaman_Rock_CreatePillar",
      "abilityName": "Shaman_Rock_CreatePillar",
      "abilityOverride": ""
    },
    {
      "abilityID": "Shaman_Rock_AnimationSteer",
      "abilityName": "Shaman_Rock_AnimationSteer",
      "abilityOverride": ""
    },
    {
      "abilityID": "Monster_Shaman_Rock_EscapeState",
      "abilityName": "Monster_Shaman_Rock_EscapeState",
      "abilityOverride": ""
    },
    {
      "abilityID": "Monster_Shaman_Rock_SupportAttack",
      "abilityName": "Monster_Shaman_Rock_SupportAttack",
      "abilityOverride": ""
    },
    {
      "abilityID": "Shaman_SpecialsState",
      "abilityName": "Shaman_SpecialsState",
      "abilityOverride": "",
      "KCBHAAMMIGC": true
    },
    {
      "abilityID": "Hili_None_Alert",
      "abilityName": "Hili_None_Alert",
      "abilityOverride": "",
      "KCBHAAMMIGC": true
    }
  ],
  "stateLayers": {
    "defaultLayer": {
      "$type": "ConfigNormalStateLayer",
      "FNPGDAEJAPJ": "",
      "stateIDs": {
        "NormalIdle": {
          "$type": "ConfigMonsterStateIDInfo",
          "animatorStates": {
            "Standby": [],
            "WalkToStandby": [],
            "Born": []
          },
          "canDoSkill": true,
          "canSyncMove": true,
          "resetAnimatorTriggerOnExit": ["DoSkill"]
        },
        "NormalMove": {
          "$type": "ConfigMonsterStateIDInfo",
          "animatorStates": {
            "Walk": ["Audio_Shaman_Water_Walk", "Audio_Shaman_Wind_Walk_Vo"],
            "Run": ["Audio_Shaman_Water_Run", "Audio_Shaman_Wind_Run_Vo"],
            "Escape": ["Audio_Shaman_Water_Run", "Audio_Shaman_Wind_Escape_Vo"]
          },
          "canDoSkill": true,
          "canSyncMove": true,
          "resetAnimatorTriggerOnExit": ["DoSkill"],
          "BHEPAJIOBDN": true
        },
        "Turn": {
          "$type": "ConfigMonsterStateIDInfo",
          "animatorStates": {
            "Turn_Left": ["Audio_Shaman_Water_Turn"],
            "Turn_Right": ["Audio_Shaman_Water_Turn"]
          },
          "canDoSkill": true,
          "canSyncMove": true,
          "resetAnimatorTriggerOnExit": ["DoSkill"],
          "BHEPAJIOBDN": true
        },
        "BeHit": {
          "$type": "ConfigMonsterStateIDInfo",
          "animatorStates": {
            "Hit_L": ["Audio_Shaman_Wind_Hit_L_Vo"],
            "Hit_H": ["Audio_Shaman_Water_Hit_H", "Audio_Shaman_Wind_Hit_H_Vo"]
          },
          "resetAnimatorTriggerOnEnter": ["BeHit"],
          "resetAnimatorTriggerOnExit": ["DoSkill"]
        },
        "BeHitThrow": {
          "$type": "ConfigMonsterStateIDInfo",
          "animatorStates": {
            "HitThrow": [],
            "HitThrowDrop": [],
            "HitThrowToGround": [
              "Audio_Shaman_Water_HitThrowToGround",
              "Audio_Shaman_Wind_Hit_ThrowToGround_Vo"
            ]
          },
          "resetAnimatorTriggerOnEnter": ["BeHit", "HitAir2HitDrop"],
          "resetAnimatorTriggerOnExit": ["DoSkill"]
        },
        "Struggle": {
          "$type": "ConfigMonsterStateIDInfo",
          "animatorStates": {
            "Struggle": []
          },
          "resetAnimatorTriggerOnEnter": ["BeHit", "HitAir2HitDrop"],
          "resetAnimatorTriggerOnExit": ["DoSkill"]
        },
        "Die": {
          "$type": "ConfigMonsterStateIDInfo",
          "animatorStates": {
            "SwimDie": [
              "Monster_Shaman_Die",
              "Audio_Monster_Shaman_Rock_SwimDie"
            ],
            "SwimDie_AS": []
          }
        },
        "Die_Ragdoll": {
          "$type": "ConfigMonsterStateIDInfo",
          "animatorStates": {
            "Die": ["Monster_Shaman_Die", "Audio_Monster_Shaman_Rock_Die"],
            "AirDie": [
              "Monster_Shaman_Die",
              "Audio_Shaman_Water_HitThrowToGround",
              "Audio_Shaman_Water_HitThrowToGround_Vo"
            ]
          },
          "HCCMMNBMCMA": true
        },
        "Life_Alert": {
          "$type": "ConfigMonsterStateIDInfo",
          "animatorStates": {
            "Alert": [
              "Monster_Shaman_Alert",
              "Audio_Shaman_Water_Alert",
              "Audio_Shaman_Wind_Alert_Vo"
            ]
          },
          "resetAnimatorTriggerOnExit": ["BeHit", "DoSkill"],
          "BHEPAJIOBDN": true,
          "BKLKHCBEHNL": true
        },
        "Dance": {
          "$type": "ConfigMonsterStateIDInfo",
          "animatorStates": {
            "Dance": ["Audio_Monster_Shaman_Rock_SupportAttack"]
          },
          "canDoSkill": true,
          "resetAnimatorTriggerOnExit": ["BeHit", "DoSkill"]
        },
        "MeleeAttack": {
          "$type": "ConfigMonsterStateIDInfo",
          "animatorStates": {
            "MeleeAttack": [
              "Monster_Shaman_Rock_MeleeAttack",
              "Audio_Shaman_Water_MeleeAttack",
              "Audio_Shaman_Wind_MeleeAttack_Vo"
            ]
          },
          "BFDKJHMDDML": 0.4000000059604645,
          "resetAnimatorTriggerOnExit": ["BeHit", "DoSkill"]
        },
        "SupportAttack_BS": {
          "$type": "ConfigMonsterStateIDInfo",
          "animatorStates": {
            "SupportAttack_BS": [
              "Audio_Shaman_Water_SupportAttack_BS",
              "Audio_Shaman_Water_SupportAttack_BS_Vo"
            ]
          },
          "resetAnimatorTriggerOnEnter": ["StopSupportAtk"],
          "resetAnimatorTriggerOnExit": ["BeHit", "DoSkill"]
        },
        "SupportAttack": {
          "$type": "ConfigMonsterStateIDInfo",
          "animatorStates": {
            "SupportAttack": ["Audio_Monster_Shaman_Rock_SupportAttack"]
          },
          "resetAnimatorTriggerOnExit": ["BeHit", "DoSkill"]
        },
        "SupportAttack_AS": {
          "$type": "ConfigMonsterStateIDInfo",
          "animatorStates": {
            "SupportAttack_AS": [
              "Audio_Shaman_Water_SupportAttack_AS",
              "Audio_Shaman_Water_SupportAttack_AS_Vo"
            ]
          },
          "resetAnimatorTriggerOnExit": ["BeHit", "DoSkill"]
        },
        "NormalAttack": {
          "$type": "ConfigMonsterStateIDInfo",
          "animatorStates": {
            "NormalAttack_AS": [
              "Monster_Shaman_Rock_NormalAttack",
              "Audio_Shaman_Water_NormalAttack_AS_Vo"
            ]
          },
          "resetAnimatorTriggerOnExit": ["BeHit", "DoSkill"]
        },
        "NormalAttack_BS": {
          "$type": "ConfigMonsterStateIDInfo",
          "animatorStates": {
            "NormalAttack_BS": [
              "Monster_Shaman_Rock_NormalAttack_Effect",
              "Audio_Shaman_Water_NormalAttack_BS_Vo",
              "Audio_Monster_Shaman_Rock_NormalAtk_BS"
            ]
          },
          "resetAnimatorTriggerOnEnter": ["NormalAttackTrigger"],
          "resetAnimatorTriggerOnExit": ["BeHit", "DoSkill"]
        },
        "CreatePillar": {
          "$type": "ConfigMonsterStateIDInfo",
          "animatorStates": {
            "CreatePillar_AS": [
              "Monster_Shaman_Rock_CreatePillar",
              "Audio_Shaman_Water_NormalAttack_AS_Vo"
            ]
          },
          "resetAnimatorTriggerOnExit": ["BeHit", "DoSkill"]
        },
        "CreatePillar_BS": {
          "$type": "ConfigMonsterStateIDInfo",
          "animatorStates": {
            "CreatePillar_BS": ["Monster_Shaman_Rock_CreatePillar_Effect"]
          },
          "resetAnimatorTriggerOnExit": ["BeHit", "DoSkill"]
        }
      }
    }
  },
  "billboard": {
    "$type": "NCBABGPMMPL",
    "EBBHBMFMOGD": "BillboardAttach",
    "offset": {
      "x": -0.10000000149011612,
      "y": -0.10000000149011612
    },
    "BFOMIIKCOGI": "Character",
    "OELDMANLPDM": 0.3199999928474426,
    "ANGKJBLILKJ": true
  },
  "initialPoses": {
    "Default": {},
    "Dance": {
      "initialPoseID": 9012,
      "initialPoseParams": {
        "boolParams": {
          "Dance": "true"
        }
      }
    }
  },
  "aibeta": {
    "enable": true,
    "sensing": {
      "settings": {
        "DefaultSetting": {
          "feelRange": 8.0
        },
        "HighAlert": {
          "viewRange": 40.0,
          "feelRange": 10.0
        },
        "Dance": {
          "viewRange": 10.0
        },
        "NeverCombat": {
          "enableVision": false,
          "hearAttractionRange": 0.0,
          "feelRange": 0.0
        }
      },
      "templates": {
        "DefaultTemplate": {
          "DefaultPoses": "DefaultSetting",
          "9012": "Dance"
        },
        "HighAlertTemplate": {
          "DefaultPoses": "HighAlert",
          "9012": "Dance"
        },
        "NeverCombatTemplate": {
          "DefaultPoses": "NeverCombat",
          "9012": "NeverCombat"
        }
      }
    },
    "neurons": {
      "DefaultSetting": ["HIT"],
      "NeverCombat": []
    },
    "threat": {
      "clearThreatTargetDistance": 30.0,
      "clearThreatEdgeDistance": 0.0,
      "viewThreatGrow": 35.0,
      "feelThreatGrow": 100.0,
      "threatDecreaseSpeed": 10.0
    },
    "defendArea": {},
    "skills": {
      "100": {
        "name": "OnAlert",
        "skillType": "OnAlert",
        "faceTarget": true,
        "publicCDGroup": "",
        "ignoreGCD": true,
        "triggerGCD": false,
        "stateIDs": ["Life_Alert"],
        "skillQueryingTime": 3.0,
        "flagTargetReachable": "10",
        "flagSelfOnTemplateCollider": "01",
        "flagSelfInZone": "10",
        "flagTargetInZone": "11"
      },
      "101": {
        "name": "SupportAttack",
        "castCondition": {
          "pose": [1001],
          "pickRangeMax": 10.0
        },
        "publicCDGroup": "",
        "ignoreGCD": true,
        "triggerGCD": false,
        "stateIDs": ["SupportAttack_BS", "SupportAttack", "SupportAttack_AS"],
        "flagTargetReachable": "11",
        "flagSelfOnTemplateCollider": "11",
        "flagSelfInZone": "11",
        "flagTargetInZone": "11"
      },
      "201": {
        "name": "NormalAttack",
        "castCondition": {
          "pose": [1001],
          "pickRangeMin": 10.0,
          "pickRangeMax": 30.0
        },
        "publicCDGroup": "",
        "ignoreGCD": true,
        "triggerGCD": false,
        "stateIDs": ["NormalAttack_BS", "NormalAttack"],
        "flagTargetReachable": "11",
        "flagSelfOnTemplateCollider": "11",
        "flagSelfInZone": "11",
        "flagTargetInZone": "11"
      },
      "202": {
        "name": "NormalAttack",
        "castCondition": {
          "pose": [1000],
          "pickRangeMin": 3.5,
          "pickRangeMax": 30.0
        },
        "cd": 5.0,
        "cdUpperRange": 2.5,
        "publicCDGroup": "",
        "triggerGCD": false,
        "stateIDs": ["NormalAttack_BS", "NormalAttack"],
        "flagTargetReachable": "11",
        "flagSelfOnTemplateCollider": "11",
        "flagSelfInZone": "11",
        "flagTargetInZone": "11"
      },
      "301": {
        "name": "MeleeAttack",
        "castCondition": {
          "pose": [1000],
          "pickRangeMax": 3.5
        },
        "cd": 3.5,
        "publicCDGroup": "",
        "ignoreGCD": true,
        "stateIDs": ["MeleeAttack"],
        "flagTargetReachable": "11",
        "flagSelfOnTemplateCollider": "01",
        "flagSelfInZone": "11",
        "flagTargetInZone": "11"
      },
      "401": {
        "name": "CreatePillar",
        "priority": 2,
        "castCondition": {
          "pose": [1000],
          "pickRangeMax": 50.0
        },
        "cd": 120.0,
        "publicCDGroup": "Shaman_CreatePillar",
        "triggerGCD": false,
        "stateIDs": ["CreatePillar_BS", "CreatePillar"],
        "flagTargetReachable": "10",
        "flagSelfOnTemplateCollider": "01",
        "flagSelfInZone": "11",
        "flagTargetInZone": "11"
      }
    },
    "skillGCD": 3.5,
    "returnToBornTactic": {
      "enable": true,
      "defaultSetting": {}
    },
    "wanderTactic": {
      "enable": true,
      "condition": {
        "pose": [100]
      },
      "defaultSetting": {
        "cdMax": 5.0,
        "cdMin": 3.0,
        "distanceFromBorn": 20.0,
        "distanceFromCurrentMin": 7.5
      }
    },
    "meleeChargeTactic": {
      "enable": true,
      "condition": {
        "pose": [1000]
      },
      "defaultSetting": {
        "startDistanceMin": 20.0,
        "startDistanceMax": 99.0,
        "stopDistance": 20.0,
        "innerDistance": 0.0
      }
    },
    "fleeTactic": {
      "enable": true,
      "condition": {
        "pose": [1100]
      },
      "defaultSetting": {
        "cd": 0.0,
        "triggerDistance": 3.5,
        "fleeDistanceMin": 5.0,
        "fleeDistanceMax": 6.0
      }
    }
  },
  "inputKeys": [
    {
      "keyID": 101,
      "inputKeyCode": 257,
      "abilityName": ""
    },
    {
      "keyID": 201,
      "inputKeyCode": 258,
      "abilityName": ""
    },
    {
      "keyID": 301,
      "inputKeyCode": 259,
      "abilityName": ""
    },
    {
      "keyID": 401,
      "inputKeyCode": 260,
      "abilityName": ""
    }
  ],
  "move": {
    "$type": "PLMNMICDOHN",
    "NGNIGPNNLAI": "StoopType"
  },
  "audio": {
    "NCOGLLMIJGO": "",
    "animAudio": {
      "onTransitionIn": [
        {
          "currentStateName": "SupportAttack",
          "audioEvent": {
            "text": "Play_vo_monster_shaman_rock_supportAttack"
          }
        },
        {
          "currentStateName": "Dance",
          "audioEvent": {
            "text": "Play_vo_monster_shaman_rock_supportAttack"
          }
        }
      ],
      "onTransitionOut": [
        {
          "currentStateName": "SupportAttack",
          "audioEvent": {
            "text": "Stop_vo_monster_shaman_rock_supportAttack"
          }
        },
        {
          "currentStateName": "Dance",
          "audioEvent": {
            "text": "Stop_vo_monster_shaman_rock_supportAttack"
          }
        }
      ]
    },
    "disableEvent": {
      "text": "Stop_vo_monster_shaman_rock_supportAttack"
    },
    "destroyEvent": {
      "text": "Stop_vo_monster_shaman_rock_supportAttack"
    }
  }
}
