{
  "common": {
    "effectAttachShape": {
      "$type": "ConfigEffectAttachSkinnedMesh",
      "mesh": "EffectMesh"
    },
    "mass": 80.0,
    "height": 0.6000000238418579,
    "affectedByWorld": true,
    "checkInSurface": true,
    "scale": 1.2999999523162842,
    "clearAIOnSetLightDeactive": true,
    "KJCBJDCKPND": true,
    "NCCLLKFLJGL": true
  },
  "model": {
    "bornEffect": "",
    "attachEffect": "",
    "canBakeMesh": false
  },
  "dither": {
    "showDitherDuration": 2.0
  },
  "globalValue": {
    "serverGlobalValues": ["SGV_Fungus_StartBurst_Immediately"],
    "initServerGlobalValues": {
      "SGV_Fungus_StartBurst_Immediately": 0.0
    }
  },
  "combat": {
    "property": {
      "endureType": "Monster_Fungus_Battle",
      "weight": 75.0
    },
    "beHit": {
      "hitBloodEffect": ""
    },
    "combatLock": {
      "lockShape": "CircleLockEnemy",
      "lockType": "Avatar&Monster_Lv4"
    },
    "die": {
      "hasAnimatorDie": true,
      "dieEndTime": 0.5,
      "dieForceDisappearTime": 1.5,
      "dieDisappearEffect": "Eff_Death_Common",
      "dieShaderData": "MonsterDie",
      "OCGODEHJPME": true,
      "MFJBKFECLNJ": true,
      "IMEEBMBJPGJ": true,
      "ICHFPLMNCLC": true,
      "MBHMAGEPJFH": true,
      "CFHPDHFKMEP": true
    },
    "animEvents": {
      "AE_MeleeAttack": {
        "attackPattern": {
          "$type": "ConfigAttackCircle",
          "triggerType": "TriggerNoRepeat",
          "height": 1.399999976158142,
          "radius": 1.75
        },
        "attackInfo": {
          "attackTag": "BVB_FungusRock_Melee",
          "attenuationTag": "",
          "attenuationGroup": "default",
          "attackProperty": {
            "damagePercentage": 1.1799999475479126,
            "MKLAMNDEDGB": 0.0,
            "bonusCriticalHurt": 100.0,
            "strikeType": "Blunt",
            "enBreak": 50.0,
            "attackType": "Melee"
          },
          "hitPattern": {
            "onHitEffectName": "default",
            "hitImpulseType": "LV3"
          }
        }
      },
      "AE_Earthquake": {
        "attackPattern": {
          "$type": "ConfigAttackCircle",
          "triggerType": "TriggerNoRepeat",
          "height": 1.399999976158142,
          "radius": 6.0
        },
        "attackInfo": {
          "attackTag": "BVB_FungusRock_UB",
          "attenuationTag": "",
          "attenuationGroup": "default",
          "attackProperty": {
            "damagePercentage": 11.539999961853027,
            "MKLAMNDEDGB": 0.0,
            "bonusCriticalHurt": 100.0,
            "strikeType": "Blunt",
            "enBreak": 300.0
          },
          "hitPattern": {
            "onHitEffectName": "default",
            "hitImpulseType": "",
            "overrideHitImpulse": {
              "hitLevel": "Air",
              "IPHCEFBMJAJ": 0.0,
              "hitImpulseY": 1360.0
            }
          },
          "forceCameraShake": true,
          "cameraShake": {
            "shakeType": "CustomVector",
            "shakeRange": 3.5,
            "shakeTime": 0.3499999940395355,
            "shakeDistance": 30.0,
            "shakeDir": {
              "y": 1.0
            },
            "extension": {
              "cycleDamping": 0.20999999344348907
            }
          }
        }
      }
    }
  },
  "abilities": [
    {
      "abilityID": "",
      "abilityName": "Fungus_BVB_Universal_ElementalBlast_Immediately",
      "abilityOverride": ""
    },
    {
      "abilityID": "",
      "abilityName": "FungusFighter_Universal_LineMixin",
      "abilityOverride": ""
    },
    {
      "abilityID": "",
      "abilityName": "Fungus_BVB_Un_Water_Bubble_Reject",
      "abilityOverride": ""
    },
    {
      "abilityID": "",
      "abilityName": "Fungus_Deux_BVB_Rock_TeamShield",
      "abilityOverride": ""
    }
  ],
  "stateLayers": {
    "defaultLayer": {
      "$type": "ConfigNormalStateLayer",
      "FNPGDAEJAPJ": "",
      "stateIDs": {
        "Born": {
          "$type": "ConfigMonsterStateIDInfo",
          "animatorStates": {
            "Born": []
          },
          "resetAnimatorTriggerOnExit": ["DoSkill"]
        },
        "NormalIdle": {
          "$type": "ConfigMonsterStateIDInfo",
          "animatorStates": {
            "StandbyFree": [],
            "Standby": []
          },
          "canDoSkill": true,
          "canSyncMove": true,
          "resetAnimatorTriggerOnExit": ["DoSkill"],
          "BHEPAJIOBDN": true,
          "BKLKHCBEHNL": true
        },
        "NormalMove": {
          "$type": "ConfigMonsterStateIDInfo",
          "animatorStates": {
            "WalkForward_BS": ["Audio_Monster_Fungus_Deux_Walk"],
            "WalkForward_AS": ["Monster_Fungus_Deux_BVB_WalkForward"],
            "Run_Decay": ["Audio_Monster_Fungus_Deux_Run"]
          },
          "canDoSkill": true,
          "canSyncMove": true,
          "resetAnimatorTriggerOnExit": ["DoSkill"],
          "BHEPAJIOBDN": true
        },
        "BeHit": {
          "$type": "ConfigMonsterStateIDInfo",
          "animatorStates": {
            "Hit_H": ["Audio_Monster_Fungus_Deux_HitThrow"]
          },
          "canSyncMove": true,
          "resetAnimatorTriggerOnEnter": ["BeHit"],
          "resetAnimatorTriggerOnExit": ["DoSkill"],
          "KHLKKBPCMBA": true
        },
        "BeHitThrowAir": {
          "$type": "ConfigMonsterStateIDInfo",
          "animatorStates": {
            "HitThrow": ["Audio_Monster_Fungus_Deux_HitThrow"],
            "HitThrowDrop": []
          },
          "resetAnimatorTriggerOnEnter": ["BeHit", "HitAir2HitDrop"],
          "resetAnimatorTriggerOnExit": ["DoSkill"],
          "CIFLOMFPGND": [
            {
              "name": "BurstUnavailable"
            }
          ]
        },
        "BeHitThrow": {
          "$type": "ConfigMonsterStateIDInfo",
          "animatorStates": {
            "HitThrowToGround": ["Audio_Monster_Fungus_Deux_HitThrowToGround"]
          },
          "resetAnimatorTriggerOnEnter": ["BeHit"]
        },
        "Struggle": {
          "$type": "ConfigMonsterStateIDInfo",
          "animatorStates": {
            "Struggle": []
          },
          "resetAnimatorTriggerOnEnter": ["BeHit", "HitAir2HitDrop"],
          "resetAnimatorTriggerOnExit": ["DoSkill"],
          "CIFLOMFPGND": [
            {
              "name": "BurstUnavailable"
            }
          ]
        },
        "Die": {
          "$type": "ConfigMonsterStateIDInfo",
          "animatorStates": {
            "Die_BS": ["Audio_Monster_Fungus_Deux_Die"],
            "Die": [],
            "AirDie": [],
            "SwimDie_BS": [],
            "SwimDie": []
          }
        },
        "Warning": {
          "$type": "ConfigMonsterStateIDInfo",
          "animatorStates": {
            "Warning": ["Audio_Monster_Fungus_Deux_Warning"]
          },
          "canSyncMove": true,
          "resetAnimatorTriggerOnExit": ["BeHit", "DoSkill"],
          "BHEPAJIOBDN": true
        },
        "ReturnToBorn": {
          "$type": "ConfigMonsterStateIDInfo",
          "animatorStates": {
            "ReturnToBorn_BS": ["Audio_Monster_Fungus_Deux_ReturnToBorn_BS"],
            "ReturnToBorn_Loop": [],
            "ReturnToBorn_AS": ["Audio_Monster_Fungus_Deux_ReturnToBorn_AS"]
          },
          "AAEKKGMOKFK": true,
          "resetAnimatorTriggerOnExit": ["BeHit", "DoSkill"]
        },
        "NormalAttack": {
          "$type": "ConfigMonsterStateIDInfo",
          "animatorStates": {
            "MeleeAttack_BS": ["Audio_Monster_Fungus_Deux_MeleeAttack_BS"],
            "MeleeAttack_Attack": [
              "Monster_Fungus_Deux_BVB_Rock_MeleeAttack",
              "Audio_Monster_Fungus_Deux_MeleeAttack_Attack"
            ],
            "MeleeAttack_AS": []
          },
          "BFDKJHMDDML": 0.800000011920929,
          "resetAnimatorTriggerOnExit": ["BeHit", "DoSkill"]
        },
        "UnionBurst": {
          "$type": "ConfigMonsterStateIDInfo",
          "animatorStates": {
            "TeamShield": ["Monster_Fungus_Deux_BVB_Rock_TeamShield"]
          },
          "AAEKKGMOKFK": true,
          "BFDKJHMDDML": 0.0,
          "resetAnimatorTriggerOnExit": ["BeHit", "DoSkill"]
        }
      }
    }
  },
  "billboard": {
    "$type": "NCBABGPMMPL",
    "EBBHBMFMOGD": "BillboardAttach",
    "offset": {
      "y": 0.5
    },
    "OELDMANLPDM": 1.0,
    "KLIMPNOBGLK": true,
    "ANGKJBLILKJ": true
  },
  "initialPoses": {
    "Default": {}
  },
  "aibeta": {
    "enable": true,
    "moveSetting": {
      "navMeshAgentName": "Undead01"
    },
    "sensing": {
      "settings": {
        "DefaultSetting": {
          "viewRange": 22.0,
          "feelRange": 30.0
        },
        "NoSensing": {
          "enableVision": false,
          "hearAttractionRange": 0.0,
          "feelRange": 0.0
        }
      },
      "templates": {
        "DefaultTemplate": {
          "DefaultPoses": "DefaultSetting"
        },
        "NoSensing": {
          "DefaultPoses": "NoSensing"
        }
      }
    },
    "neurons": {
      "DefaultSetting": ["HIT"],
      "NeverCombat": []
    },
    "threat": {
      "clearThreatTargetDistance": 30.0,
      "clearThreatEdgeDistance": 5.0,
      "clearThreatTimerByDistance": 2.0,
      "viewAttenuation": [
        {
          "x": 12.0,
          "y": 1.0
        },
        {
          "x": 20.0,
          "y": 0.5
        }
      ]
    },
    "defendArea": {
      "defendRange": 50.0
    },
    "FDMKMDGHLPD": {
      "enable": true
    },
    "skills": {
      "100": {
        "name": "OnAlert",
        "skillType": "OnAlert",
        "faceTarget": true,
        "publicCDGroup": "",
        "triggerGCD": false,
        "stateIDs": ["Warning"],
        "skillQueryingTime": 3.0,
        "flagTargetReachable": "10",
        "flagSelfOnTemplateCollider": "01",
        "flagSelfInZone": "10",
        "flagTargetInZone": "11"
      },
      "201": {
        "name": "NormalAttack",
        "castCondition": {
          "pose": [1001],
          "pickRangeMax": 2.5999999046325684
        },
        "cd": 3.0,
        "publicCDGroup": "",
        "triggerCDOnStart": true,
        "stateIDs": ["NormalAttack"],
        "flagTargetReachable": "10",
        "flagSelfOnTemplateCollider": "11",
        "flagSelfInZone": "11",
        "flagTargetInZone": "11"
      },
      "401": {
        "name": "UnionBurst",
        "castCondition": {
          "pose": [233]
        },
        "publicCDGroup": "",
        "stateIDs": ["UnionBurst"],
        "flagTargetReachable": "10",
        "flagSelfOnTemplateCollider": "01",
        "flagSelfInZone": "10",
        "flagTargetInZone": "11"
      }
    },
    "skillGCD": 2.5999999046325684,
    "target": {
      "IEJMCKOJJPM": ["COMMAND", "POINT", "THREAT"]
    },
    "meleeChargeTactic": {
      "enable": true,
      "condition": {
        "pose": [1001]
      },
      "defaultSetting": {
        "speedLevel": 1,
        "startDistanceMin": 2.299999952316284,
        "stopDistance": 2.299999952316284
      }
    },
    "FAGIGGFKCEN": {
      "enable": true,
      "defaultSetting": {
        "speedLevel": 1
      }
    }
  },
  "inputKeys": [
    {
      "keyID": 201,
      "inputKeyCode": 257,
      "abilityName": ""
    },
    {
      "keyID": 401,
      "inputKeyCode": 259,
      "abilityName": ""
    }
  ],
  "move": {
    "$type": "PLMNMICDOHN",
    "CNPDANKMFNL": "AirBlend3D",
    "NGNIGPNNLAI": "SlimeType"
  }
}
