{
  "common": {
    "effectAttachShape": {
      "$type": "ConfigEffectAttachSkinnedMesh",
      "mesh": "EffectMesh"
    },
    "mass": 10000.0,
    "height": 3.0,
    "viewSize": 1.2000000476837158,
    "affectedByWorld": true,
    "checkInSurface": true,
    "scale": 2.0,
    "useGrassDisplacement": true,
    "clearAIOnSetLightDeactive": true,
    "KJCBJDCKPND": true,
    "NCCLLKFLJGL": true,
    "JDFHDFOFPOB": [
      {
        "KIHPGIAEOLJ": "EffectMesh01Point",
        "BNBLJKAAHKN": "EffectMesh01"
      },
      {
        "KIHPGIAEOLJ": "EffectMesh02Point",
        "BNBLJKAAHKN": "EffectMesh02"
      },
      {
        "KIHPGIAEOLJ": "EffectMesh03Point",
        "BNBLJKAAHKN": "EffectMesh03"
      },
      {
        "KIHPGIAEOLJ": "EffectMesh04Point",
        "BNBLJKAAHKN": "EffectMesh04"
      }
    ]
  },
  "headControl": {
    "$type": "GAAIKCFIJMM",
    "useHeadControl": true,
    "KBBNEKBLPFA": 45.0,
    "FJOGFHEFPHN": 10.0,
    "IAEPDEOMGCO": 2.0,
    "FCDMCPDGFCL": [
      "Standby",
      "WalkForward",
      "WalkBack",
      "WalkLeft",
      "WalkRight",
      "Turn"
    ]
  },
  "specialPoint": {
    "elementAbsorb": "RootNode",
    "elementPendant": "",
    "elementDrop": "RootNode",
    "bulletAim": "AimPoint",
    "selectedPoints": ["AimPoint"],
    "BFDKBAEPAGA": true
  },
  "model": {
    "bornEffect": "Eff_Monster_Common_Born",
    "attachEffect": ""
  },
  "dither": {
    "showDitherDuration": 2.0
  },
  "combat": {
    "property": {
      "endureType": "Monster_Demiboss_Other",
      "weight": 150.0
    },
    "beHit": {
      "hitBloodEffect": ""
    },
    "combatLock": {
      "lockShape": "CircleLockEnemy",
      "lockType": "Avatar&Monster_Lv4"
    },
    "die": {
      "hasAnimatorDie": true,
      "dieEndTime": 1.7999999523162842,
      "dieForceDisappearTime": 1.7999999523162842,
      "dieDisappearEffect": "Eff_Death_Common",
      "dieShaderData": "MonsterDie",
      "OCGODEHJPME": true,
      "MFJBKFECLNJ": true,
      "IMEEBMBJPGJ": true,
      "ICHFPLMNCLC": true,
      "MBHMAGEPJFH": true,
      "CFHPDHFKMEP": true
    },
    "animEvents": {
      "AtkNo": {
        "attackPattern": {
          "$type": "ConfigAttackCircle",
          "triggerType": "TriggerNoRepeat",
          "born": {
            "$type": "ConfigBornBySelf",
            "offset": {
              "x": 0.0,
              "y": 0.0,
              "z": -0.5
            }
          },
          "fanAngle": 60.0,
          "radius": 1.5
        },
        "attackInfo": {
          "attackTag": "",
          "attenuationTag": "",
          "attenuationGroup": "default",
          "attackProperty": {
            "damagePercentage": 0.5,
            "MKLAMNDEDGB": 0.0,
            "bonusCriticalHurt": 100.0,
            "strikeType": "Blunt",
            "attackType": "Melee"
          },
          "hitPattern": {
            "onHitEffectName": "default",
            "hitImpulseType": "LV2",
            "hitHaltTimeScale": 0.009999999776482582
          }
        }
      },
      "SacredAttack01_Hit": {
        "attackPattern": {
          "$type": "NAMPOMPBMHC",
          "triggerType": "TriggerNoRepeat",
          "born": {
            "$type": "ConfigBornBySelf",
            "offset": {
              "x": 0.0,
              "y": 0.0,
              "z": -0.5
            }
          },
          "size": {
            "x": 4.0,
            "y": 5.0,
            "z": 9.0
          }
        },
        "attackInfo": {
          "attackTag": "",
          "attenuationTag": "",
          "attenuationGroup": "default",
          "attackProperty": {
            "damagePercentage": 0.699999988079071,
            "MKLAMNDEDGB": 0.0,
            "elementType": "Wind",
            "bonusCriticalHurt": 100.0,
            "strikeType": "Blunt",
            "enBreak": 200.0,
            "attackType": "Melee"
          },
          "hitPattern": {
            "onHitEffectName": "default",
            "hitImpulseType": "LV5",
            "hitHaltTimeScale": 0.009999999776482582
          }
        }
      },
      "SacredAttack03_Hit1": {
        "attackPattern": {
          "$type": "NAMPOMPBMHC",
          "triggerType": "TriggerNoRepeat",
          "born": {
            "$type": "ConfigBornBySelf",
            "offset": {
              "x": 0.0,
              "y": 0.0,
              "z": 2.0
            }
          },
          "size": {
            "x": 3.0,
            "y": 6.0,
            "z": 6.0
          }
        },
        "attackInfo": {
          "attackTag": "",
          "attenuationTag": "",
          "attenuationGroup": "default",
          "attackProperty": {
            "damagePercentage": 0.5,
            "MKLAMNDEDGB": 0.0,
            "elementType": "Wind",
            "bonusCriticalHurt": 100.0,
            "strikeType": "Blunt",
            "enBreak": 200.0,
            "attackType": "Melee"
          },
          "hitPattern": {
            "onHitEffectName": "default",
            "hitImpulseType": "LV3",
            "hitHaltTimeScale": 0.009999999776482582
          }
        }
      },
      "SacredAttack03_Hit2": {
        "attackPattern": {
          "$type": "NAMPOMPBMHC",
          "triggerType": "TriggerNoRepeat",
          "born": {
            "$type": "ConfigBornBySelf",
            "offset": {
              "x": -0.20000000298023224,
              "y": 0.0,
              "z": 0.5
            }
          },
          "size": {
            "x": 7.0,
            "y": 5.0,
            "z": 5.0
          }
        },
        "attackInfo": {
          "attackTag": "",
          "attenuationTag": "",
          "attenuationGroup": "default",
          "attackProperty": {
            "damagePercentage": 0.699999988079071,
            "MKLAMNDEDGB": 0.0,
            "elementType": "Wind",
            "bonusCriticalHurt": 100.0,
            "strikeType": "Blunt",
            "enBreak": 200.0,
            "attackType": "Melee"
          },
          "hitPattern": {
            "onHitEffectName": "default",
            "hitImpulseType": "LV4",
            "hitHaltTimeScale": 0.009999999776482582,
            "hitImpulseX": true
          }
        }
      },
      "SacredAttack03_Hit3": {
        "attackPattern": {
          "$type": "ConfigAttackCircle",
          "triggerType": "TriggerNoRepeat",
          "born": {
            "$type": "ConfigBornBySelf",
            "offset": {
              "x": 0.0,
              "y": 0.0,
              "z": 0.0
            }
          },
          "height": 5.0,
          "radius": 5.199999809265137
        },
        "attackInfo": {
          "attackTag": "",
          "attenuationTag": "",
          "attenuationGroup": "default",
          "attackProperty": {
            "damagePercentage": 0.8999999761581421,
            "MKLAMNDEDGB": 0.0,
            "elementType": "Wind",
            "bonusCriticalHurt": 30.0,
            "strikeType": "Blunt",
            "enBreak": 200.0
          },
          "hitPattern": {
            "onHitEffectName": "default",
            "hitImpulseType": "LV5",
            "hitHaltTimeScale": 0.009999999776482582
          }
        }
      },
      "SacredAttack04": {
        "attackPattern": {
          "$type": "MHDMMPENLGB",
          "triggerType": "TriggerNoRepeat",
          "born": {
            "$type": "ConfigBornBySelf",
            "offset": {
              "x": 0.0,
              "y": 2.0,
              "z": 0.0
            }
          },
          "radius": 4.0
        },
        "attackInfo": {
          "attackTag": "",
          "attenuationTag": "",
          "attenuationGroup": "default",
          "attackProperty": {
            "damagePercentage": 0.8999999761581421,
            "MKLAMNDEDGB": 0.0,
            "elementType": "Wind",
            "bonusCriticalHurt": 100.0,
            "strikeType": "Blunt",
            "enBreak": 200.0,
            "attackType": "Melee"
          },
          "hitPattern": {
            "onHitEffectName": "default",
            "hitImpulseType": "LV5",
            "retreatType": "ByHitDirection",
            "hitImpulseX": true
          }
        }
      },
      "SacredAttack06": {
        "attackPattern": {
          "$type": "ConfigAttackCircle",
          "triggerType": "TriggerNoRepeat",
          "born": {
            "$type": "ConfigBornBySelf",
            "offset": {
              "x": 0.0,
              "y": 0.0,
              "z": 0.0
            }
          },
          "height": 3.0,
          "fanAngle": 60.0,
          "radius": 6.0
        },
        "attackInfo": {
          "attackTag": "",
          "attenuationTag": "",
          "attenuationGroup": "default",
          "attackProperty": {
            "damagePercentage": 0.699999988079071,
            "MKLAMNDEDGB": 0.0,
            "elementType": "Wind",
            "bonusCriticalHurt": 100.0,
            "strikeType": "Blunt",
            "enBreak": 200.0,
            "attackType": "Melee"
          },
          "hitPattern": {
            "onHitEffectName": "default",
            "hitImpulseType": "LV4",
            "hitHaltTimeScale": 0.009999999776482582
          }
        }
      }
    }
  },
  "abilities": [
    {
      "abilityID": "",
      "abilityName": "Monster_Chrysopelea_Sacred_SteerAttack",
      "abilityOverride": ""
    },
    {
      "abilityID": "",
      "abilityName": "Monster_Chrysopelea_Sacred_AnimalAttack01",
      "abilityOverride": ""
    },
    {
      "abilityID": "",
      "abilityName": "Monster_Chrysopelea_Sacred_Attack01_WindZoneCreate",
      "abilityOverride": ""
    },
    {
      "abilityID": "",
      "abilityName": "Monster_Chrysopelea_Sacred_Attack02_BulletHit1",
      "abilityOverride": ""
    },
    {
      "abilityID": "",
      "abilityName": "Monster_Chrysopelea_Sacred_Attack02_BulletHit2",
      "abilityOverride": ""
    },
    {
      "abilityID": "",
      "abilityName": "Monster_Chrysopelea_Sacred_Attack02_BulletHit3",
      "abilityOverride": ""
    },
    {
      "abilityID": "",
      "abilityName": "Monster_Chrysopelea_Sacred_Attack04_Collider",
      "abilityOverride": ""
    },
    {
      "abilityID": "",
      "abilityName": "Monster_Chrysopelea_Sacred_Attack04_ClearGadget",
      "abilityOverride": ""
    },
    {
      "abilityID": "",
      "abilityName": "Monster_Chrysopelea_Sacred_Attack04_Find",
      "abilityOverride": ""
    },
    {
      "abilityID": "",
      "abilityName": "Monster_Chrysopelea_Sacred_Attack04_Blink",
      "abilityOverride": ""
    },
    {
      "abilityID": "",
      "abilityName": "Monster_Chrysopelea_Sacred_Attack05_CreatBullet",
      "abilityOverride": ""
    },
    {
      "abilityID": "",
      "abilityName": "Monster_Chrysopelea_Sacred_SacredEnergy_Detect",
      "abilityOverride": ""
    },
    {
      "abilityID": "",
      "abilityName": "Monster_Chrysopelea_Sacred_SacredEnergy_BridgeToMonster",
      "abilityOverride": ""
    },
    {
      "abilityID": "",
      "abilityName": "Monster_Sacred_Entity_StateTag_ToNormal",
      "abilityOverride": ""
    },
    {
      "abilityID": "",
      "abilityName": "Monster_Sacred_Entity_StateTag_ToEnhance",
      "abilityOverride": ""
    },
    {
      "abilityID": "",
      "abilityName": "Monster_Sacred_Entity_StateTag_ToWeak",
      "abilityOverride": ""
    },
    {
      "abilityID": "",
      "abilityName": "Monster_Sacred_Entity_BodyMaterial_Effect",
      "abilityOverride": ""
    },
    {
      "abilityID": "",
      "abilityName": "Monster_Sacred_Entity_AlertnessTag",
      "abilityOverride": ""
    },
    {
      "abilityID": "",
      "abilityName": "Monster_Sacred_Entity_Attack05Protect",
      "abilityOverride": ""
    },
    {
      "abilityID": "",
      "abilityName": "Monster_Chrysopelea_Sacred_EnhanceDefence",
      "abilityOverride": ""
    }
  ],
  "stateLayers": {
    "defaultLayer": {
      "$type": "ConfigNormalStateLayer",
      "FNPGDAEJAPJ": "",
      "stateIDs": {
        "NormalIdle": {
          "$type": "ConfigMonsterStateIDInfo",
          "animatorStates": {
            "Born": []
          },
          "canDoSkill": true,
          "canSyncMove": true,
          "resetAnimatorTriggerOnExit": ["DoSkill"],
          "BHEPAJIOBDN": true
        },
        "Standby": {
          "$type": "ConfigMonsterStateIDInfo",
          "animatorStates": {
            "Standby": []
          },
          "canDoSkill": true,
          "canSyncMove": true,
          "resetAnimatorTriggerOnExit": ["DoSkill"],
          "BHEPAJIOBDN": true,
          "BKLKHCBEHNL": true
        },
        "Run": {
          "$type": "ConfigMonsterStateIDInfo",
          "animatorStates": {
            "Run": []
          },
          "canDoSkill": true,
          "canSyncMove": true,
          "resetAnimatorTriggerOnExit": ["DoSkill"],
          "BHEPAJIOBDN": true
        },
        "WalkForward": {
          "$type": "ConfigMonsterStateIDInfo",
          "animatorStates": {
            "WalkForward": []
          },
          "canDoSkill": true,
          "canSyncMove": true,
          "resetAnimatorTriggerOnExit": ["DoSkill"],
          "BHEPAJIOBDN": true
        },
        "WalkBack": {
          "$type": "ConfigMonsterStateIDInfo",
          "animatorStates": {
            "WalkBack": []
          },
          "canDoSkill": true,
          "canSyncMove": true,
          "resetAnimatorTriggerOnExit": ["DoSkill"],
          "BHEPAJIOBDN": true
        },
        "WalkLeft": {
          "$type": "ConfigMonsterStateIDInfo",
          "animatorStates": {
            "WalkLeft": []
          },
          "canDoSkill": true,
          "canSyncMove": true,
          "resetAnimatorTriggerOnExit": ["DoSkill"],
          "BHEPAJIOBDN": true
        },
        "WalkRight": {
          "$type": "ConfigMonsterStateIDInfo",
          "animatorStates": {
            "WalkRight": []
          },
          "canDoSkill": true,
          "canSyncMove": true,
          "resetAnimatorTriggerOnExit": ["DoSkill"],
          "BHEPAJIOBDN": true
        },
        "Turn": {
          "$type": "ConfigMonsterStateIDInfo",
          "animatorStates": {
            "Turn": []
          },
          "canDoSkill": true,
          "canSyncMove": true,
          "resetAnimatorTriggerOnExit": ["DoSkill"],
          "BHEPAJIOBDN": true
        },
        "BeHit": {
          "$type": "ConfigMonsterStateIDInfo",
          "animatorStates": {
            "Hit_L": ["Audio_Monster_Chrysopelea_Sacred_Hit_L"]
          },
          "resetAnimatorTriggerOnEnter": ["BeHit"],
          "resetAnimatorTriggerOnExit": ["DoSkill"]
        },
        "Weak_BS": {
          "$type": "ConfigMonsterStateIDInfo",
          "animatorStates": {
            "Weak_BS": ["Audio_Monster_Chrysopelea_Sacred_Weak_BS"]
          },
          "canSyncMove": true,
          "AAEKKGMOKFK": true,
          "BFDKJHMDDML": 0.0,
          "resetAnimatorTriggerOnEnter": ["BeHit"],
          "resetAnimatorTriggerOnExit": ["BeHit", "DoSkill"],
          "LCIGFDMOEAA": true
        },
        "Weak_Loop": {
          "$type": "ConfigMonsterStateIDInfo",
          "animatorStates": {
            "Weak_Loop": []
          },
          "canSyncMove": true,
          "AAEKKGMOKFK": true,
          "BFDKJHMDDML": 0.0,
          "resetAnimatorTriggerOnEnter": ["BeHit"],
          "resetAnimatorTriggerOnExit": ["BeHit", "DoSkill"],
          "LCIGFDMOEAA": true
        },
        "Weak_AS": {
          "$type": "ConfigMonsterStateIDInfo",
          "animatorStates": {
            "Weak_AS": ["Audio_Monster_Chrysopelea_Sacred_Weak_AS"]
          },
          "canSyncMove": true,
          "AAEKKGMOKFK": true,
          "BFDKJHMDDML": 0.0,
          "resetAnimatorTriggerOnEnter": ["BeHit"],
          "resetAnimatorTriggerOnExit": ["BeHit", "DoSkill"],
          "LCIGFDMOEAA": true
        },
        "Die": {
          "$type": "ConfigMonsterStateIDInfo",
          "animatorStates": {
            "Die": ["Audio_Monster_Chrysopelea_Sacred_Die"],
            "Lying_Die": ["Audio_Monster_Chrysopelea_Sacred_Die"]
          },
          "resetAnimatorTriggerOnEnter": ["DoSkill"]
        },
        "Weak_Die": {
          "$type": "ConfigMonsterStateIDInfo",
          "animatorStates": {
            "Weak_Die": ["Audio_Monster_Chrysopelea_Sacred_Weak_Die"]
          },
          "resetAnimatorTriggerOnEnter": ["DoSkill"]
        },
        "Personality1": {
          "$type": "ConfigMonsterStateIDInfo",
          "animatorStates": {
            "Personality1": ["Audio_Monster_Chrysopelea_Sacred_Personality1"]
          },
          "canDoSkill": true,
          "resetAnimatorTriggerOnExit": ["BeHit", "DoSkill"]
        },
        "Alert": {
          "$type": "ConfigMonsterStateIDInfo",
          "animatorStates": {
            "Alert": ["Audio_Monster_Chrysopelea_Sacred_Enhance"]
          },
          "resetAnimatorTriggerOnExit": ["BeHit", "DoSkill"]
        },
        "Attack_01": {
          "$type": "ConfigMonsterStateIDInfo",
          "animatorStates": {
            "Attack_01": [
              "Monster_Chrysopelea_Sacred_Wind_Attack01",
              "Audio_Monster_Chrysopelea_Attack_01"
            ]
          },
          "canSyncMove": true,
          "AAEKKGMOKFK": true,
          "BFDKJHMDDML": 0.009999999776482582,
          "resetAnimatorTriggerOnExit": ["BeHit", "DoSkill"],
          "BHEPAJIOBDN": true
        },
        "Sacred_Attack01": {
          "$type": "ConfigMonsterStateIDInfo",
          "animatorStates": {
            "Sacred_Attack01": [
              "Monster_Chrysopelea_Sacred_Wind_SacredAttack01",
              "Audio_Monster_Chrysopelea_Sacred_Attack01"
            ]
          },
          "canSyncMove": true,
          "AAEKKGMOKFK": true,
          "BFDKJHMDDML": 0.009999999776482582,
          "resetAnimatorTriggerOnExit": ["BeHit", "DoSkill"],
          "BHEPAJIOBDN": true
        },
        "Sacred_Attack02": {
          "$type": "ConfigMonsterStateIDInfo",
          "animatorStates": {
            "Sacred_Attack02": [
              "Monster_Chrysopelea_Sacred_Wind_SacredAttack02",
              "Audio_Monster_Chrysopelea_Sacred_Attack02"
            ]
          },
          "canSyncMove": true,
          "AAEKKGMOKFK": true,
          "BFDKJHMDDML": 0.009999999776482582,
          "resetAnimatorTriggerOnExit": ["BeHit", "DoSkill"],
          "BHEPAJIOBDN": true
        },
        "Sacred_Attack03": {
          "$type": "ConfigMonsterStateIDInfo",
          "animatorStates": {
            "Sacred_Attack03": [
              "Monster_Chrysopelea_Sacred_Wind_SacredAttack03",
              "Audio_Monster_Chrysopelea_Sacred_Attack03"
            ]
          },
          "canSyncMove": true,
          "AAEKKGMOKFK": true,
          "BFDKJHMDDML": 0.009999999776482582,
          "resetAnimatorTriggerOnExit": ["BeHit", "DoSkill"],
          "BHEPAJIOBDN": true
        },
        "Sacred_Attack04_BS": {
          "$type": "ConfigMonsterStateIDInfo",
          "animatorStates": {
            "Sacred_Attack04_BS": [
              "Monster_Chrysopelea_Sacred_Wind_SacredAttack04_BS",
              "Audio_Monster_Chrysopelea_Sacred_Attack04_BS"
            ]
          },
          "canSyncMove": true,
          "AAEKKGMOKFK": true,
          "BFDKJHMDDML": 0.009999999776482582,
          "resetAnimatorTriggerOnExit": ["BeHit", "DoSkill"],
          "BHEPAJIOBDN": true
        },
        "Sacred_Attack04_Loop": {
          "$type": "ConfigMonsterStateIDInfo",
          "animatorStates": {
            "Sacred_Attack04_Loop": [
              "Monster_Chrysopelea_Sacred_Wind_SacredAttack04_Loop"
            ]
          },
          "canSyncMove": true,
          "AAEKKGMOKFK": true,
          "BFDKJHMDDML": 0.009999999776482582,
          "resetAnimatorTriggerOnExit": ["BeHit", "DoSkill"],
          "BHEPAJIOBDN": true
        },
        "Sacred_Attack04_AS": {
          "$type": "ConfigMonsterStateIDInfo",
          "animatorStates": {
            "Sacred_Attack04_AS": [
              "Monster_Chrysopelea_Sacred_Wind_SacredAttack04_AS",
              "Audio_Monster_Chrysopelea_Sacred_Attack04_AS"
            ]
          },
          "canSyncMove": true,
          "AAEKKGMOKFK": true,
          "BFDKJHMDDML": 0.009999999776482582,
          "resetAnimatorTriggerOnExit": ["BeHit", "DoSkill"],
          "BHEPAJIOBDN": true
        },
        "Sacred_Attack05": {
          "$type": "ConfigMonsterStateIDInfo",
          "animatorStates": {
            "Sacred_Attack05": [
              "Monster_Chrysopelea_Sacred_Wind_SacredAttack05",
              "Audio_Monster_Chrysopelea_Sacred_Attack05"
            ]
          },
          "canSyncMove": true,
          "AAEKKGMOKFK": true,
          "BFDKJHMDDML": 0.009999999776482582,
          "resetAnimatorTriggerOnExit": ["BeHit", "DoSkill"],
          "BHEPAJIOBDN": true
        },
        "Sacred_Attack06": {
          "$type": "ConfigMonsterStateIDInfo",
          "animatorStates": {
            "Sacred_Attack06": [
              "Monster_Chrysopelea_Sacred_Wind_SacredAttack06",
              "Audio_Monster_Chrysopelea_Sacred_Attack06"
            ]
          },
          "canSyncMove": true,
          "AAEKKGMOKFK": true,
          "BFDKJHMDDML": 0.009999999776482582,
          "resetAnimatorTriggerOnExit": ["BeHit", "DoSkill"],
          "BHEPAJIOBDN": true,
          "ECGKJECEAII": true
        },
        "Sacred_Enhance": {
          "$type": "ConfigMonsterStateIDInfo",
          "animatorStates": {
            "Sacred_Enhance": [
              "Monster_Chrysopelea_Sacred_Wind_Enhance",
              "Audio_Monster_Chrysopelea_Sacred_Enhance"
            ]
          },
          "canSyncMove": true,
          "AAEKKGMOKFK": true,
          "BFDKJHMDDML": 0.009999999776482582,
          "resetAnimatorTriggerOnExit": ["BeHit", "DoSkill"],
          "BHEPAJIOBDN": true
        }
      }
    }
  },
  "billboard": {
    "$type": "NCBABGPMMPL",
    "EBBHBMFMOGD": "BillboardAttach",
    "offset": {
      "y": 0.5
    },
    "BFOMIIKCOGI": "Character",
    "showDistance": 48.0,
    "ANGKJBLILKJ": true,
    "size": "Grand"
  },
  "initialPoses": {
    "Default": {
      "initialPoseID": 1
    }
  },
  "aibeta": {
    "enable": true,
    "moveSetting": {
      "navMeshAgentName": "Undead01"
    },
    "sensing": {
      "settings": {
        "DefaultSetting": {
          "viewRange": 40.0,
          "feelRange": 10.0
        }
      },
      "templates": {
        "DefaultTemplate": {
          "DefaultPoses": "DefaultSetting"
        }
      }
    },
    "threat": {
      "clearThreatEdgeDistance": 2.0,
      "clearThreatByLostPath": true,
      "viewAttenuation": [
        {
          "x": 10.0,
          "y": 2.0
        },
        {
          "x": 15.0,
          "y": 0.800000011920929
        },
        {
          "x": 20.0,
          "y": 0.5
        },
        {
          "x": 25.0,
          "y": 0.30000001192092896
        },
        {
          "x": 30.0,
          "y": 0.20000000298023224
        }
      ],
      "resistTauntLevel": "Monster_TauntLevel_3"
    },
    "defendArea": {},
    "network": {
      "syncSkill": true
    },
    "skillGroupCDConfigs": [
      {
        "skillGroupCDID": 2,
        "skillGroupCDTime": 20.0
      },
      {
        "skillGroupCDID": 3,
        "skillGroupCDTime": 2.0
      }
    ],
    "skills": {
      "101": {
        "name": "Sacred_Enhance",
        "combatSkillType": "RangedAttack",
        "priority": 1,
        "faceTarget": true,
        "castCondition": {
          "pose": [201]
        },
        "cd": 999999.0,
        "publicCDGroup": "",
        "ignoreGCD": true,
        "triggerGCD": false,
        "DDLBHDNIIMM": false,
        "stateIDs": ["Sacred_Enhance"],
        "flagTargetReachable": "11",
        "flagSelfOnTemplateCollider": "11",
        "flagSelfInZone": "11",
        "flagTargetInZone": "11"
      },
      "201": {
        "name": "Personality1",
        "skillType": "Free",
        "priority": 6,
        "castCondition": {
          "pose": [1]
        },
        "cd": 15.0,
        "cdUpperRange": 10.0,
        "initialCD": 2.5,
        "initialCDUpperRange": 5.0,
        "publicCDGroup": "",
        "skillGroupCDID": 2,
        "stateIDs": ["Personality1"],
        "flagTargetReachable": "10",
        "flagSelfOnTemplateCollider": "01",
        "flagSelfInZone": "10",
        "flagTargetInZone": "11"
      },
      "501": {
        "name": "RangedAttack1",
        "combatSkillType": "RangedAttack",
        "priority": 6,
        "castCondition": {
          "pose": [202],
          "maxTargetAngleXZ": 90.0,
          "pickRangeMax": 15.0
        },
        "cd": 2.0,
        "cdUpperRange": 1.0,
        "publicCDGroup": "",
        "stateIDs": ["Attack_01"],
        "flagTargetReachable": "11",
        "flagSelfOnTemplateCollider": "11",
        "flagSelfInZone": "11",
        "flagTargetInZone": "11"
      },
      "502": {
        "name": "RangedAttack1",
        "combatSkillType": "RangedAttack",
        "castCondition": {
          "pose": [201],
          "needReInitCD": true,
          "maxTargetAngleXZ": 90.0,
          "pickRangeMax": 15.0
        },
        "cd": 3.0,
        "cdUpperRange": 1.0,
        "initialCD": 4.0,
        "publicCDGroup": "",
        "stateIDs": ["Attack_01"],
        "flagTargetReachable": "11",
        "flagSelfOnTemplateCollider": "11",
        "flagSelfInZone": "11",
        "flagTargetInZone": "11"
      },
      "601": {
        "name": "Sacred_Attack01",
        "combatSkillType": "RangedAttack",
        "castCondition": {
          "pose": [202],
          "pickRangeMax": 5.0
        },
        "cd": 2.0,
        "cdUpperRange": 1.0,
        "publicCDGroup": "",
        "stateIDs": ["Sacred_Attack01"],
        "flagTargetReachable": "11",
        "flagSelfOnTemplateCollider": "11",
        "flagSelfInZone": "11",
        "flagTargetInZone": "11"
      },
      "602": {
        "name": "Sacred_Attack01",
        "combatSkillType": "RangedAttack",
        "castCondition": {
          "pose": [201],
          "needReInitCD": true,
          "pickRangeMax": 5.0
        },
        "cd": 2.0,
        "cdUpperRange": 1.0,
        "initialCD": 4.0,
        "publicCDGroup": "",
        "stateIDs": ["Sacred_Attack01"],
        "flagTargetReachable": "11",
        "flagSelfOnTemplateCollider": "11",
        "flagSelfInZone": "11",
        "flagTargetInZone": "11"
      },
      "611": {
        "name": "Sacred_Attack02",
        "combatSkillType": "RangedAttack",
        "castCondition": {
          "pose": [202],
          "pickRangeMin": 10.0,
          "pickRangeMax": 35.0
        },
        "cd": 4.0,
        "cdUpperRange": 2.0,
        "publicCDGroup": "",
        "stateIDs": ["Sacred_Attack02"],
        "flagTargetReachable": "11",
        "flagSelfOnTemplateCollider": "11",
        "flagSelfInZone": "11",
        "flagTargetInZone": "11"
      },
      "621": {
        "name": "Sacred_Attack03",
        "combatSkillType": "RangedAttack",
        "castCondition": {
          "pose": [202],
          "maxTargetAngleXZ": 90.0,
          "pickRangeMax": 8.0
        },
        "cd": 3.0,
        "cdUpperRange": 1.0,
        "publicCDGroup": "",
        "stateIDs": ["Sacred_Attack03"],
        "flagTargetReachable": "11",
        "flagSelfOnTemplateCollider": "11",
        "flagSelfInZone": "11",
        "flagTargetInZone": "11"
      },
      "631": {
        "name": "Sacred_Attack04",
        "combatSkillType": "RangedAttack",
        "castCondition": {
          "pose": [202],
          "pickRangeMax": 35.0
        },
        "cd": 8.0,
        "cdUpperRange": 2.0,
        "initialCD": 4.5,
        "publicCDGroup": "",
        "stateIDs": [
          "Sacred_Attack04_BS",
          "Sacred_Attack04_Loop",
          "Sacred_Attack04_AS"
        ],
        "flagTargetReachable": "11",
        "flagSelfOnTemplateCollider": "11",
        "flagSelfInZone": "11",
        "flagTargetInZone": "11"
      },
      "641": {
        "name": "Sacred_Attack05",
        "combatSkillType": "RangedAttack",
        "priority": 2,
        "castCondition": {
          "pose": [202],
          "needReInitCD": true,
          "pickRangeMax": 20.0
        },
        "cd": 30.0,
        "initialCD": 25.0,
        "publicCDGroup": "Sacred_MortalAttack",
        "stateIDs": ["Sacred_Attack05"],
        "flagTargetReachable": "11",
        "flagSelfOnTemplateCollider": "11",
        "flagSelfInZone": "11",
        "flagTargetInZone": "11"
      },
      "651": {
        "name": "Sacred_Attack06",
        "combatSkillType": "RangedAttack",
        "castCondition": {
          "pose": [202],
          "minTargetAngleXZ": 150.0,
          "pickRangeMax": 6.0
        },
        "cd": 3.0,
        "cdUpperRange": 1.0,
        "initialCD": 2.5,
        "publicCDGroup": "",
        "triggerGCD": false,
        "stateIDs": ["Sacred_Attack06"],
        "flagTargetReachable": "11",
        "flagSelfOnTemplateCollider": "11",
        "flagSelfInZone": "11",
        "flagTargetInZone": "11"
      },
      "652": {
        "name": "Sacred_Attack06",
        "combatSkillType": "RangedAttack",
        "castCondition": {
          "pose": [201],
          "needReInitCD": true,
          "minTargetAngleXZ": 150.0,
          "pickRangeMax": 6.0
        },
        "cd": 3.0,
        "cdUpperRange": 1.0,
        "initialCD": 4.0,
        "publicCDGroup": "",
        "stateIDs": ["Sacred_Attack06"],
        "flagTargetReachable": "11",
        "flagSelfOnTemplateCollider": "11",
        "flagSelfInZone": "11",
        "flagTargetInZone": "11"
      },
      "661": {
        "name": "Sacred_Enhance",
        "combatSkillType": "RangedAttack",
        "priority": 1,
        "castCondition": {
          "pose": [201],
          "globalValues": ["SacredEnergy_Recover_Chrysopelea"],
          "LBJLGICBKKC": "SELF"
        },
        "cd": 20.0,
        "publicCDGroup": "",
        "ignoreGCD": true,
        "triggerGCD": false,
        "DDLBHDNIIMM": false,
        "stateIDs": ["Sacred_Enhance"],
        "flagTargetReachable": "11",
        "flagSelfOnTemplateCollider": "11",
        "flagSelfInZone": "11",
        "flagTargetInZone": "11"
      },
      "691": {
        "name": "Sacred_Enhance",
        "combatSkillType": "RangedAttack",
        "priority": 1,
        "castCondition": {
          "pose": [201],
          "needReInitCD": true
        },
        "cd": 2.0,
        "initialCD": 15.0,
        "publicCDGroup": "",
        "ignoreGCD": true,
        "triggerGCD": false,
        "DDLBHDNIIMM": false,
        "stateIDs": ["Sacred_Enhance"],
        "flagTargetReachable": "11",
        "flagSelfOnTemplateCollider": "11",
        "flagSelfInZone": "11",
        "flagTargetInZone": "11"
      }
    },
    "returnToBornTactic": {
      "enable": true,
      "defaultSetting": {
        "speedLevel": 1
      }
    },
    "wanderTactic": {
      "enable": true,
      "condition": {
        "pose": [1]
      },
      "defaultSetting": {
        "turnSpeedOverride": 0.30000001192092896,
        "cdMax": 16.0,
        "cdMin": 8.0,
        "distanceFromBorn": 20.0,
        "distanceFromCurrentMin": 6.0
      }
    },
    "meleeChargeTactic": {
      "enable": true,
      "condition": {
        "pose": [201, 202]
      },
      "defaultSetting": {
        "speedLevel": 1,
        "turnSpeedOverride": 1.0,
        "startDistanceMin": 16.0,
        "startDistanceMax": 50.0,
        "stopDistance": 9.899999618530273,
        "innerDistance": 10.0
      }
    },
    "facingMoveTactic": {
      "enable": true,
      "condition": {
        "pose": [201, 202]
      },
      "defaultSetting": {
        "rangeMin": 4.0,
        "rangeMax": 12.0,
        "restTimeMin": 4.0,
        "restTimeMax": 3.0,
        "facingMoveTurnInterval": 2.0,
        "facingMoveWeight": {
          "stop": 0.20000000298023224,
          "forward": 0.20000000298023224,
          "back": 0.20000000298023224
        },
        "PDOKGBAJNEP": "1111",
        "NGLJBMGMGKF": "1111"
      }
    },
    "DNAHDMGDMCH": {
      "enable": true,
      "defaultSetting": {
        "speedLevel": 1,
        "fleeAngle": 75.0,
        "fleeDistanceMin": 4.0,
        "fleeDistanceMax": 6.0,
        "PPIBDEEBFPN": 0.5
      }
    }
  },
  "inputKeys": [
    {
      "keyID": 601,
      "inputKeyCode": 257,
      "abilityName": ""
    },
    {
      "keyID": 611,
      "inputKeyCode": 258,
      "abilityName": ""
    },
    {
      "keyID": 621,
      "inputKeyCode": 259,
      "abilityName": ""
    },
    {
      "keyID": 631,
      "inputKeyCode": 260,
      "abilityName": ""
    },
    {
      "keyID": 641,
      "inputKeyCode": 261,
      "abilityName": ""
    },
    {
      "keyID": 651,
      "inputKeyCode": 262,
      "abilityName": ""
    },
    {
      "keyID": 501,
      "inputKeyCode": 263,
      "abilityName": ""
    },
    {
      "keyID": 511,
      "inputKeyCode": 264,
      "abilityName": ""
    },
    {
      "keyID": 101,
      "inputKeyCode": 265,
      "abilityName": ""
    }
  ],
  "move": {
    "$type": "PLMNMICDOHN",
    "EINCMKOBBEG": {
      "excludeForces": ["RetreatAirType"]
    },
    "BCBPBHLKCPB": "FourDirection",
    "OOFDCONLBHL": 2.0,
    "MGFACNKNOFC": true
  },
  "audio": {
    "NCOGLLMIJGO": "",
    "animAudio": {
      "onTransitionIn": [
        {
          "currentStateName": "",
          "audioEvent": {
            "text": ""
          }
        }
      ],
      "onTransitionOut": [
        {
          "currentStateName": "Personality1",
          "audioEvent": {
            "text": "Stop_sfx_monster_Chrysopelea_sacred_personality1"
          }
        }
      ]
    }
  }
}
