{
  "common": {
    "effectAttachShape": {
      "$type": "ConfigEffectAttachSkinnedMesh",
      "mesh": "EffectMesh"
    },
    "mass": 30.0,
    "height": 1.5,
    "modelHeight": 1.649999976158142,
    "affectedByWorld": true,
    "checkInSurface": true,
    "useGrassDisplacement": true
  },
  "headControl": {
    "$type": "GAAIKCFIJMM",
    "useHeadControl": true,
    "KBBNEKBLPFA": 75.0,
    "FJOGFHEFPHN": 30.0,
    "FCDMCPDGFCL": [
      "NormalIdle/Standby",
      "NormalMove/WalkForward",
      "NormalMove/WalkBack",
      "NormalMove/WalkRight",
      "NormalMove/WalkLeft",
      "NormalMove/Run",
      "Turn/TurnLeft",
      "Turn/TurnRight"
    ]
  },
  "model": {
    "bornEffect": "Eff_Monster_Common_Born",
    "attachEffect": ""
  },
  "dither": {
    "showDitherDuration": 1.0
  },
  "combat": {
    "property": {
      "endureType": "Monster_Minion",
      "weight": 70.0
    },
    "beHit": {
      "hitBloodEffect": ""
    },
    "combatLock": {
      "lockShape": "CircleLockEnemy",
      "lockType": "Avatar&Monster_Lv4"
    },
    "die": {
      "hasAnimatorDie": true,
      "dieEndTime": 4.0,
      "dieForceDisappearTime": 15.0,
      "dieDisappearEffect": "",
      "useRagDoll": true,
      "ragDollDieEndTimeDelay": 15.0,
      "OCGODEHJPME": true,
      "MFJBKFECLNJ": true,
      "IMEEBMBJPGJ": true,
      "ICHFPLMNCLC": true,
      "MBHMAGEPJFH": true,
      "CFHPDHFKMEP": true
    },
    "animEvents": {
      "NormalAtk": {
        "attackPattern": {
          "$type": "ConfigAttackCircle",
          "triggerType": "TriggerNoRepeat",
          "born": {
            "$type": "ConfigBornBySelf",
            "offset": {
              "x": 0.0,
              "y": 0.0,
              "z": 0.30000001192092896
            }
          },
          "fanAngle": 90.0,
          "radius": 1.75
        },
        "attackInfo": {
          "attackTag": "",
          "attenuationTag": "",
          "attenuationGroup": "default",
          "attackProperty": {
            "damagePercentage": 1.0,
            "MKLAMNDEDGB": 0.0,
            "bonusCriticalHurt": 100.0,
            "strikeType": "Slash",
            "enBreak": 100.0,
            "attackType": "Melee"
          },
          "hitPattern": {
            "onHitEffectName": "default",
            "hitImpulseType": "LV3",
            "hitHaltTimeScale": 0.009999999776482582
          }
        }
      },
      "TripleAtk01": {
        "attackPattern": {
          "$type": "ConfigAttackCircle",
          "triggerType": "TriggerNoRepeat",
          "born": {
            "$type": "ConfigBornBySelf",
            "offset": {
              "x": 0.0,
              "y": 0.0,
              "z": 0.0
            }
          },
          "fanAngle": 100.0,
          "radius": 2.0
        },
        "attackInfo": {
          "attackTag": "",
          "attenuationTag": "",
          "attenuationGroup": "default",
          "attackProperty": {
            "damagePercentage": 1.0,
            "MKLAMNDEDGB": 0.0,
            "bonusCriticalHurt": 100.0,
            "strikeType": "Slash",
            "enBreak": 100.0,
            "attackType": "Melee"
          },
          "hitPattern": {
            "onHitEffectName": "default",
            "hitImpulseType": "LV3"
          }
        }
      },
      "TripleAtk02": {
        "attackPattern": {
          "$type": "ConfigAttackCircle",
          "triggerType": "TriggerNoRepeat",
          "born": {
            "$type": "ConfigBornBySelf",
            "offset": {
              "x": 0.0,
              "y": 0.0,
              "z": 0.5
            }
          },
          "fanAngle": 90.0,
          "radius": 2.0
        },
        "attackInfo": {
          "attackTag": "",
          "attenuationTag": "",
          "attenuationGroup": "default",
          "attackProperty": {
            "damagePercentage": 1.0,
            "MKLAMNDEDGB": 0.0,
            "bonusCriticalHurt": 100.0,
            "strikeType": "Slash",
            "enBreak": 100.0,
            "attackType": "Melee"
          },
          "hitPattern": {
            "onHitEffectName": "default",
            "hitImpulseType": "LV3"
          }
        }
      },
      "TripleAtk03": {
        "attackPattern": {
          "$type": "ConfigAttackCircle",
          "triggerType": "TriggerNoRepeat",
          "born": {
            "$type": "ConfigBornBySelf",
            "offset": {
              "x": 0.0,
              "y": 0.0,
              "z": 0.5
            }
          },
          "fanAngle": 75.0,
          "radius": 2.0
        },
        "attackInfo": {
          "attackTag": "",
          "attenuationTag": "",
          "attenuationGroup": "default",
          "attackProperty": {
            "damagePercentage": 1.25,
            "MKLAMNDEDGB": 0.0,
            "bonusCriticalHurt": 100.0,
            "strikeType": "Slash",
            "enBreak": 200.0,
            "attackType": "Melee"
          },
          "hitPattern": {
            "onHitEffectName": "default",
            "hitImpulseType": "LV4"
          },
          "cameraShake": {
            "shakeType": "HitVector",
            "shakeRange": 0.03999999910593033,
            "shakeTime": 0.09000000357627869,
            "shakeDir": {
              "y": -1.0
            }
          }
        }
      },
      "JumpAtk01": {
        "attackPattern": {
          "$type": "ConfigAttackCircle",
          "triggerType": "TriggerNoRepeat",
          "born": {
            "$type": "ConfigBornBySelf",
            "offset": {
              "x": 0.0,
              "y": 0.0,
              "z": 0.5
            }
          },
          "fanAngle": 75.0,
          "radius": 1.75
        },
        "attackInfo": {
          "attackTag": "",
          "attenuationTag": "",
          "attenuationGroup": "default",
          "attackProperty": {
            "damagePercentage": 1.5,
            "MKLAMNDEDGB": 0.0,
            "bonusCriticalHurt": 100.0,
            "strikeType": "Slash",
            "enBreak": 200.0,
            "attackType": "Melee"
          },
          "hitPattern": {
            "onHitEffectName": "default",
            "hitImpulseType": "LV5"
          },
          "cameraShake": {
            "shakeType": "HitVector",
            "shakeRange": 0.05999999865889549,
            "shakeTime": 0.09000000357627869,
            "shakeDir": {
              "y": -1.0
            }
          }
        }
      }
    }
  },
  "equipController": {
    "sheathPoint": "",
    "attachPoints": {
      "equip01": "WeaponR",
      "equip02": "WeaponL"
    }
  },
  "abilities": [
    {
      "abilityID": "SteerAttack",
      "abilityName": "Thoarder_Female_Hatchet_SteerAttack",
      "abilityOverride": ""
    },
    {
      "abilityID": "Throw",
      "abilityName": "Thoarder_Female_Hatchet_Throw",
      "abilityOverride": ""
    },
    {
      "abilityID": "Throw_Effect",
      "abilityName": "Thoarder_Female_Hatchet_Throw_Effect",
      "abilityOverride": ""
    },
    {
      "abilityID": "JumpAttack_RushMove01",
      "abilityName": "Thoarder_Female_Hatchet_JumpAttack_RushMove01",
      "abilityOverride": ""
    },
    {
      "abilityID": "JumpAttack_RushMove02",
      "abilityName": "Thoarder_Female_Hatchet_JumpAttack_RushMove02",
      "abilityOverride": ""
    },
    {
      "abilityID": "NormalAtk_RushMove02",
      "abilityName": "Thoarder_Female_Hatchet_NormalAtk_RushMove01",
      "abilityOverride": ""
    },
    {
      "abilityID": "WeaponOnBack",
      "abilityName": "Thoarder_WeaponOnBack",
      "abilityOverride": ""
    },
    {
      "abilityID": "DrawWeapon",
      "abilityName": "Thoarder_DrawWeapon",
      "abilityOverride": ""
    },
    {
      "abilityID": "SheathWeapon",
      "abilityName": "Thoarder_SheathWeapon",
      "abilityOverride": ""
    },
    {
      "abilityID": "HideWeapon",
      "abilityName": "Thoarder_HideWeapon",
      "abilityOverride": ""
    },
    {
      "abilityID": "UnhideWeapon",
      "abilityName": "Thoarder_UnhideWeapon",
      "abilityOverride": ""
    },
    {
      "abilityID": "ReturnToBorn",
      "abilityName": "Thoarder_ReturnToBorn",
      "abilityOverride": ""
    },
    {
      "abilityID": "SmokeBombInHandR_Start",
      "abilityName": "Thoarder_Die_SmokeBombInHandR_Start",
      "abilityOverride": ""
    },
    {
      "abilityID": "SmokeBombEffect_End",
      "abilityName": "Thoarder_Die_SmokeBombEffect_End",
      "abilityOverride": ""
    },
    {
      "abilityID": "SteerMove",
      "abilityName": "Thoarder_SteerMove",
      "abilityOverride": ""
    }
  ],
  "stateLayers": {
    "defaultLayer": {
      "$type": "ConfigNormalStateLayer",
      "FNPGDAEJAPJ": "",
      "stateIDs": {
        "NormalIdle": {
          "$type": "ConfigMonsterStateIDInfo",
          "animatorStates": {
            "Standby": [],
            "Born": []
          },
          "canDoSkill": true,
          "canSyncMove": true,
          "resetAnimatorTriggerOnExit": ["DoSkill"]
        },
        "NormalMove": {
          "$type": "ConfigMonsterStateIDInfo",
          "animatorStates": {
            "WalkForward": ["Audio_Monster_Thoarder_Hatchet_Walk"],
            "WalkBack": ["Audio_Monster_Thoarder_Hatchet_Walk"],
            "WalkRight": ["Audio_Monster_Thoarder_Hatchet_Walk"],
            "WalkLeft": ["Audio_Monster_Thoarder_Hatchet_Walk"],
            "Run": []
          },
          "canDoSkill": true,
          "canSyncMove": true,
          "resetAnimatorTriggerOnExit": ["DoSkill"],
          "BHEPAJIOBDN": true
        },
        "Turn": {
          "$type": "ConfigMonsterStateIDInfo",
          "animatorStates": {
            "TurnLeft": ["Audio_Monster_Thoarder_Hatchet_Walk"],
            "TurnRight": ["Audio_Monster_Thoarder_Hatchet_Walk"]
          },
          "canDoSkill": true,
          "canSyncMove": true,
          "resetAnimatorTriggerOnExit": ["DoSkill"],
          "BHEPAJIOBDN": true
        },
        "BeHit": {
          "$type": "ConfigMonsterStateIDInfo",
          "animatorStates": {
            "Hit_L": ["Audio_Monster_Thoarder_Hatchet_Hit_L"],
            "Hit_H": ["Audio_Monster_Thoarder_Hatchet_Hit_H"],
            "DHit": []
          },
          "resetAnimatorTriggerOnEnter": ["BeHit"],
          "resetAnimatorTriggerOnExit": ["DoSkill"]
        },
        "BeHitThrow": {
          "$type": "ConfigMonsterStateIDInfo",
          "animatorStates": {
            "HitThrow": ["Audio_Monster_Thoarder_Hatchet_HitThrow"],
            "HitThrowDrop": [],
            "HitThrowToGround": [
              "Audio_Monster_Thoarder_Hatchet_HitThrowToGround"
            ]
          },
          "resetAnimatorTriggerOnEnter": ["BeHit", "HitAir2HitDrop"],
          "resetAnimatorTriggerOnExit": ["DoSkill"]
        },
        "Struggle": {
          "$type": "ConfigMonsterStateIDInfo",
          "animatorStates": {
            "Struggle": []
          },
          "resetAnimatorTriggerOnEnter": ["BeHit", "HitAir2HitDrop"],
          "resetAnimatorTriggerOnExit": ["DoSkill"]
        },
        "Die": {
          "$type": "ConfigMonsterStateIDInfo",
          "animatorStates": {
            "Die1": [
              "Monster_Thoarder_Female_Hatchet_Die",
              "Audio_Monster_Thoarder_Hatchet_Die"
            ],
            "Die2": [
              "Monster_Thoarder_Female_Hatchet_Die",
              "Audio_Monster_Thoarder_Hatchet_Die"
            ],
            "SwimDie": ["Audio_Monster_Thoarder_NoWeapon_SwimDie"],
            "SwimDie_AS": [
              "Monster_Thoarder_Common_SwimDie",
              "Audio_Monster_Thoarder_NoWeapon_SwimDie"
            ]
          }
        },
        "Die_RagDoll": {
          "$type": "ConfigMonsterStateIDInfo",
          "animatorStates": {
            "AirDie": ["Monster_Thoarder_Common_AirDie"]
          },
          "HCCMMNBMCMA": true
        },
        "Life_Alert": {
          "$type": "ConfigMonsterStateIDInfo",
          "animatorStates": {
            "Alert": ["Audio_Monster_Thoarder_Hatchet_Alert"]
          },
          "resetAnimatorTriggerOnExit": ["BeHit", "DoSkill"]
        },
        "Life_Warning": {
          "$type": "ConfigMonsterStateIDInfo",
          "animatorStates": {
            "Warning": [
              "Monster_Undead01_Warning",
              "Monster_Thoarder_DrawWeapon",
              "Audio_Monster_Thoarder_Hatchet_Alert"
            ]
          },
          "resetAnimatorTriggerOnExit": ["BeHit", "DoSkill"]
        },
        "NormalAtk": {
          "$type": "ConfigMonsterStateIDInfo",
          "animatorStates": {
            "NormalAtk": [
              "Monster_Thoarder_Female_Hatchet_NormalAtk",
              "Audio_Monster_Thoarder_Hatchet_NormalAtk"
            ]
          },
          "resetAnimatorTriggerOnExit": ["BeHit", "DoSkill"]
        },
        "TripleAttack": {
          "$type": "ConfigMonsterStateIDInfo",
          "animatorStates": {
            "TripleAttack": [
              "Monster_Thoarder_Female_Hatchet_TripleAttack",
              "Audio_Monster_Thoarder_Hatchet_TripleAttack"
            ]
          },
          "BFDKJHMDDML": 0.6000000238418579,
          "resetAnimatorTriggerOnExit": ["BeHit", "DoSkill"]
        },
        "JumpAttack": {
          "$type": "ConfigMonsterStateIDInfo",
          "animatorStates": {
            "JumpAttack_BS": ["Monster_Thoarder_Female_Hatchet_JumpAttack"],
            "JumpAttack_Halt": ["Monster_Thoarder_Female_Hatchet_JumpAttack"],
            "JumpAttack": ["Monster_Thoarder_Female_Hatchet_JumpAttack"]
          },
          "BFDKJHMDDML": 0.6000000238418579,
          "resetAnimatorTriggerOnExit": ["BeHit", "DoSkill"]
        },
        "Throw": {
          "$type": "ConfigMonsterStateIDInfo",
          "animatorStates": {
            "Throw": [
              "Monster_Thoarder_Female_Hatchet_Throw",
              "Audio_Monster_Thoarder_Hatchet_RangedAtk_Throw"
            ],
            "Pick": [
              "Monster_Thoarder_Female_Hatchet_Pick",
              "Audio_Monster_Thoarder_Hatchet_RangedAtk_Pick"
            ]
          },
          "resetAnimatorTriggerOnExit": ["BeHit", "DoSkill"]
        },
        "Taunt": {
          "$type": "ConfigMonsterStateIDInfo",
          "animatorStates": {
            "Taunt_1": ["Audio_Monster_Thoarder_Hatchet_Taunt1"],
            "Taunt_2": ["Audio_Monster_Thoarder_Hatchet_Taunt2"],
            "Taunt_3": ["Audio_Monster_Thoarder_Hatchet_Taunt3"]
          },
          "resetAnimatorTriggerOnExit": ["BeHit", "DoSkill"]
        },
        "SheathWeapon": {
          "$type": "ConfigMonsterStateIDInfo",
          "animatorStates": {
            "SheathWeapon": [
              "Monster_Thoarder_SheathWeapon",
              "Audio_Monster_Thoarder_Hatchet_SheathWeapon"
            ]
          },
          "resetAnimatorTriggerOnExit": ["SheathWeaponTrigger"]
        }
      }
    }
  },
  "billboard": {
    "$type": "NCBABGPMMPL",
    "EBBHBMFMOGD": "BillboardAttach",
    "offset": {
      "x": -0.05000000074505806
    },
    "BFOMIIKCOGI": "Character",
    "OELDMANLPDM": 0.25,
    "ANGKJBLILKJ": true
  },
  "initialPoses": {
    "Default": {}
  },
  "aibeta": {
    "enable": true,
    "moveSetting": {
      "navMeshAgentName": "Undead01",
      "almostReachedDistanceRun": 1.5
    },
    "sensing": {
      "settings": {
        "DefaultSetting": {
          "feelRange": 8.0
        },
        "HighAlert": {
          "viewRange": 40.0,
          "feelRange": 10.0
        }
      },
      "templates": {
        "DefaultTemplate": {
          "DefaultPoses": "DefaultSetting"
        },
        "HighAlertTemplate": {
          "DefaultPoses": "HighAlert"
        }
      }
    },
    "neurons": {
      "DefaultSetting": ["HIT"]
    },
    "threat": {
      "clearThreatByLostPath": true,
      "clearThreatTimerByDistance": 3.0,
      "viewAttenuation": [
        {
          "x": 10.0,
          "y": 2.0
        },
        {
          "x": 15.0,
          "y": 0.800000011920929
        },
        {
          "x": 20.0,
          "y": 0.5
        },
        {
          "x": 25.0,
          "y": 0.30000001192092896
        },
        {
          "x": 30.0,
          "y": 0.20000000298023224
        }
      ]
    },
    "defendArea": {},
    "profiling": {},
    "skillGroupCDConfigs": [
      {
        "skillGroupCDID": 1,
        "skillGroupCDTime": 5.0
      }
    ],
    "skills": {
      "101": {
        "name": "OnAlert",
        "skillType": "OnAlert",
        "faceTarget": true,
        "publicCDGroup": "",
        "ignoreGCD": true,
        "triggerGCD": false,
        "stateIDs": ["Life_Warning"],
        "skillQueryingTime": 3.0,
        "flagTargetReachable": "10",
        "flagSelfOnTemplateCollider": "01",
        "flagSelfInZone": "10",
        "flagTargetInZone": "11"
      },
      "201": {
        "name": "NormalAtk",
        "combatSkillType": "MeleeAttack",
        "castCondition": {
          "pose": [1001],
          "pickRangeMax": 3.0,
          "castRangeMin": 1.5,
          "castRangeMax": 2.25
        },
        "cd": 3.0,
        "cdUpperRange": 1.0,
        "publicCDGroup": "",
        "skillGroupCDID": 1,
        "stateIDs": ["NormalAtk"],
        "flagTargetReachable": "10",
        "flagSelfOnTemplateCollider": "01",
        "flagSelfInZone": "10",
        "flagTargetInZone": "11"
      },
      "202": {
        "name": "JumpAttack",
        "priority": 2,
        "castCondition": {
          "pose": [1001],
          "pickRangeMin": 2.5,
          "pickRangeMax": 6.0
        },
        "cd": 3.0,
        "cdUpperRange": 5.0,
        "initialCD": 5.0,
        "initialCDUpperRange": 5.0,
        "publicCDGroup": "meleeAttack_long",
        "skillGroupCDID": 1,
        "stateIDs": ["JumpAttack"],
        "flagTargetReachable": "10",
        "flagSelfOnTemplateCollider": "01",
        "flagSelfInZone": "10",
        "flagTargetInZone": "11"
      },
      "203": {
        "name": "TripleAttack",
        "priority": 3,
        "castCondition": {
          "pose": [1001],
          "pickRangeMax": 3.25,
          "castRangeMax": 3.0
        },
        "cd": 3.0,
        "cdUpperRange": 5.0,
        "initialCD": 10.0,
        "initialCDUpperRange": 5.0,
        "publicCDGroup": "meleeAttack_long",
        "ignoreGCD": true,
        "skillGroupCDID": 1,
        "stateIDs": ["TripleAttack"],
        "flagTargetReachable": "10",
        "flagSelfOnTemplateCollider": "01",
        "flagSelfInZone": "10",
        "flagTargetInZone": "11"
      },
      "901": {
        "name": "Taunt",
        "faceTarget": true,
        "castCondition": {
          "pose": [1001],
          "maxTargetAngleY": 45.0,
          "pickRangeMin": 2.0,
          "pickRangeMax": 20.0
        },
        "cd": 3.0,
        "cdUpperRange": 3.0,
        "initialCD": 10.0,
        "publicCDGroup": "RandomAction",
        "ignoreGCD": true,
        "triggerGCD": false,
        "stateIDs": ["Taunt"],
        "flagTargetReachable": "10",
        "flagSelfOnTemplateCollider": "01",
        "flagSelfInZone": "01",
        "flagTargetInZone": "11"
      },
      "902": {
        "name": "Taunt",
        "faceTarget": true,
        "castCondition": {
          "pose": [1001],
          "maxTargetAngleY": 45.0,
          "pickRangeMin": 2.0,
          "pickRangeMax": 20.0
        },
        "cd": 3.0,
        "cdUpperRange": 3.0,
        "initialCD": 10.0,
        "publicCDGroup": "RandomAction",
        "ignoreGCD": true,
        "triggerGCD": false,
        "stateIDs": ["Taunt"],
        "flagTargetReachable": "01",
        "flagSelfOnTemplateCollider": "01",
        "flagSelfInZone": "10",
        "flagTargetInZone": "11"
      },
      "904": {
        "name": "Taunt",
        "faceTarget": true,
        "castCondition": {
          "pose": [1001],
          "maxTargetAngleY": 45.0,
          "pickRangeMin": 8.0,
          "pickRangeMax": 30.0
        },
        "cd": 20.0,
        "cdUpperRange": 5.0,
        "initialCD": 20.0,
        "publicCDGroup": "RandomAction",
        "triggerGCD": false,
        "stateIDs": ["Taunt"],
        "flagTargetReachable": "10",
        "flagSelfOnTemplateCollider": "01",
        "flagSelfInZone": "10",
        "flagTargetInZone": "11"
      }
    },
    "skillGCD": 3.0,
    "returnToBornTactic": {
      "enable": true,
      "defaultSetting": {}
    },
    "wanderTactic": {
      "enable": true,
      "condition": {
        "pose": [1]
      },
      "defaultSetting": {
        "cdMax": 3.0,
        "cdMin": 1.5,
        "distanceFromBorn": 15.0,
        "distanceFromCurrentMin": 3.75,
        "distanceFromCurrentMax": 7.5
      }
    },
    "investigateTactic": {
      "enable": true,
      "condition": {
        "pose": [1]
      }
    },
    "reactActionPointTactic": {
      "enable": true,
      "defaultSetting": {}
    },
    "meleeChargeTactic": {
      "enable": true,
      "condition": {
        "pose": [1001]
      },
      "defaultSetting": {
        "startDistanceMin": 7.0,
        "startDistanceMax": 50.0,
        "stopDistance": 5.0
      }
    },
    "facingMoveTactic": {
      "enable": true,
      "condition": {
        "pose": [1001]
      },
      "defaultSetting": {
        "rangeMax": 5.0,
        "facingMoveWeight": {
          "forward": 0.0,
          "back": 0.0,
          "left": 2.0,
          "right": 2.0
        },
        "PDOKGBAJNEP": "1111",
        "NGLJBMGMGKF": "1111"
      }
    }
  },
  "inputKeys": [
    {
      "keyID": 201,
      "inputKeyCode": 257,
      "abilityName": ""
    },
    {
      "keyID": 202,
      "inputKeyCode": 258,
      "abilityName": ""
    },
    {
      "keyID": 203,
      "inputKeyCode": 259,
      "abilityName": ""
    },
    {
      "keyID": 301,
      "inputKeyCode": 260,
      "abilityName": ""
    },
    {
      "keyID": 901,
      "inputKeyCode": 262,
      "abilityName": ""
    },
    {
      "keyID": 906,
      "inputKeyCode": 261,
      "abilityName": ""
    }
  ],
  "move": {
    "$type": "PLMNMICDOHN",
    "BCBPBHLKCPB": "FourDirection",
    "NGNIGPNNLAI": "StoopType"
  },
  "audio": {
    "NCOGLLMIJGO": "",
    "animAudio": {},
    "disableEvent": {
      "text": ""
    },
    "destroyEvent": {
      "text": ""
    },
    "randomVariantSwitchGroup": {
      "text": ""
    },
    "randomVariantSwitchValues": [
      {
        "text": ""
      }
    ]
  }
}
