{
  "common": {
    "effectAttachShape": {
      "$type": "ConfigEffectAttachSkinnedMesh",
      "mesh": "EffectMesh"
    },
    "mass": 80.0,
    "height": 0.6000000238418579,
    "affectedByWorld": true,
    "checkInSurface": true,
    "useGrassDisplacement": true,
    "clearAnimatorOnSetLightDeactive": true,
    "clearAIOnSetLightDeactive": true,
    "NCCLLKFLJGL": true
  },
  "model": {
    "bornEffect": "",
    "attachEffect": "",
    "canBakeMesh": false
  },
  "dither": {
    "showDitherDuration": 2.0
  },
  "combat": {
    "property": {
      "endureType": "Monster_Slime",
      "weight": 75.0
    },
    "beHit": {
      "hitBloodEffect": ""
    },
    "combatLock": {
      "lockShape": "CircleLockEnemy",
      "lockType": "Avatar&Monster_Lv4"
    },
    "die": {
      "hasAnimatorDie": true,
      "dieEndTime": 0.5,
      "dieForceDisappearTime": 1.5,
      "dieDisappearEffect": "Eff_Death_Common",
      "dieShaderData": "MonsterDie",
      "OCGODEHJPME": true,
      "MFJBKFECLNJ": true,
      "IMEEBMBJPGJ": true,
      "ICHFPLMNCLC": true,
      "MBHMAGEPJFH": true,
      "CFHPDHFKMEP": true
    },
    "animEvents": {
      "MeleeAttackNormal": {
        "attackPattern": {
          "$type": "ConfigAttackCircle",
          "triggerType": "TriggerNoRepeat",
          "born": {
            "$type": "ConfigBornBySelf",
            "offset": {
              "x": 0.0,
              "y": 0.0,
              "z": 0.0
            }
          },
          "height": 1.2999999523162842,
          "fanAngle": 45.0,
          "radius": 2.0
        },
        "attackInfo": {
          "attackTag": "",
          "attenuationTag": "",
          "attenuationGroup": "default",
          "attackProperty": {
            "damagePercentage": 0.30000001192092896,
            "MKLAMNDEDGB": 0.0,
            "bonusCriticalHurt": 100.0,
            "strikeType": "Blunt",
            "enBreak": 60.0,
            "attackType": "Melee"
          },
          "hitPattern": {
            "onHitEffectName": "default",
            "hitImpulseType": "LV2"
          }
        }
      },
      "MeleeAttackDecay": {
        "attackPattern": {
          "$type": "ConfigAttackCircle",
          "triggerType": "TriggerNoRepeat",
          "born": {
            "$type": "ConfigBornBySelf",
            "offset": {
              "x": 0.0,
              "y": 0.0,
              "z": 0.0
            }
          },
          "height": 1.5,
          "fanAngle": 90.0,
          "radius": 2.0
        },
        "attackInfo": {
          "attackTag": "",
          "attenuationTag": "",
          "attenuationGroup": "default",
          "attackProperty": {
            "damagePercentage": 0.6000000238418579,
            "MKLAMNDEDGB": 0.0,
            "bonusCriticalHurt": 100.0,
            "strikeType": "Blunt",
            "enBreak": 150.0,
            "attackType": "Melee"
          },
          "hitPattern": {
            "onHitEffectName": "default",
            "hitImpulseType": "LV3"
          }
        }
      },
      "ChargeAttackNormal": {
        "attackPattern": {
          "$type": "ConfigAttackCircle",
          "triggerType": "TriggerNoRepeat",
          "born": {
            "$type": "ConfigBornBySelf",
            "offset": {
              "x": 0.0,
              "y": 0.0,
              "z": 0.0
            }
          },
          "fanAngle": 90.0,
          "radius": 1.5
        },
        "attackInfo": {
          "attackTag": "",
          "attenuationTag": "Monster_Fungus_Trois_Epsilon_Electric_ChargeNormal",
          "attenuationGroup": "Effigy_Ice_Attenuation_2",
          "attackProperty": {
            "damagePercentage": 0.6000000238418579,
            "MKLAMNDEDGB": 0.0,
            "elementType": "Electric",
            "bonusCriticalHurt": 25.0,
            "strikeType": "Slash",
            "enBreak": 150.0,
            "attackType": "Melee"
          },
          "hitPattern": {
            "onHitEffectName": "default",
            "hitImpulseType": "LV4",
            "retreatType": "ByTangent"
          }
        }
      },
      "ChargeAttackDecay": {
        "attackPattern": {
          "$type": "ConfigAttackCircle",
          "triggerType": "TriggerNoRepeat",
          "born": {
            "$type": "ConfigBornBySelf",
            "offset": {
              "x": 0.0,
              "y": 0.0,
              "z": 0.0
            }
          },
          "fanAngle": 120.0,
          "radius": 1.7000000476837158
        },
        "attackInfo": {
          "attackTag": "",
          "attenuationTag": "Monster_Fungus_Trois_Epsilon_Electric_ChargeDecay",
          "attenuationGroup": "Animal_Boar_03_RushAttack",
          "attackProperty": {
            "damagePercentage": 1.0,
            "MKLAMNDEDGB": 0.0,
            "elementType": "Electric",
            "bonusCriticalHurt": 25.0,
            "strikeType": "Slash",
            "enBreak": 120.0,
            "attackType": "Melee"
          },
          "hitPattern": {
            "onHitEffectName": "default",
            "hitImpulseType": "LV4",
            "retreatType": "ByTangent"
          }
        }
      }
    }
  },
  "abilities": [
    {
      "abilityID": "",
      "abilityName": "Monster_Fungus_Trois_RotateManagerAndReset",
      "abilityOverride": ""
    },
    {
      "abilityID": "",
      "abilityName": "Monster_Fungus_FungusStateManager",
      "abilityOverride": ""
    },
    {
      "abilityID": "",
      "abilityName": "Monster_Fungus_Un_ReturnToBornManager",
      "abilityOverride": ""
    },
    {
      "abilityID": "",
      "abilityName": "Monster_Fungus_Trois_Epsilon_Electric_HitThrowDropToGround",
      "abilityOverride": ""
    },
    {
      "abilityID": "",
      "abilityName": "Monster_Fungus_Trois_Epsilon_Electric_Steer",
      "abilityOverride": ""
    },
    {
      "abilityID": "",
      "abilityName": "Monster_Fungus_Trois_Epsilon_Electric_MeleeAttackNormal",
      "abilityOverride": ""
    },
    {
      "abilityID": "",
      "abilityName": "Monster_Fungus_Trois_Epsilon_Electric_ChargeLoop",
      "abilityOverride": ""
    },
    {
      "abilityID": "",
      "abilityName": "Monster_Fungus_Not_Un_Gamma_Water_Mark",
      "abilityOverride": ""
    }
  ],
  "stateLayers": {
    "defaultLayer": {
      "$type": "ConfigNormalStateLayer",
      "FNPGDAEJAPJ": "",
      "stateIDs": {
        "Born": {
          "$type": "ConfigMonsterStateIDInfo",
          "animatorStates": {
            "Born": []
          },
          "canSyncMove": true,
          "resetAnimatorTriggerOnExit": ["DoSkill"]
        },
        "NormalIdle": {
          "$type": "ConfigMonsterStateIDInfo",
          "animatorStates": {
            "StandbyFree": [],
            "Standby": []
          },
          "canDoSkill": true,
          "canSyncMove": true,
          "resetAnimatorTriggerOnExit": ["DoSkill"],
          "BHEPAJIOBDN": true
        },
        "NormalMove": {
          "$type": "ConfigMonsterStateIDInfo",
          "animatorStates": {
            "WalkForward": [],
            "WalkBack": [],
            "WalkLeft": [],
            "WalkRight": [],
            "Run_Decay": []
          },
          "canDoSkill": true,
          "canSyncMove": true,
          "resetAnimatorTriggerOnExit": ["DoSkill"],
          "BHEPAJIOBDN": true
        },
        "BeHit": {
          "$type": "ConfigMonsterStateIDInfo",
          "animatorStates": {
            "Hit_H": ["Audio_Monster_Fungus_Trois_HitThrow"]
          },
          "canSyncMove": true,
          "resetAnimatorTriggerOnEnter": ["BeHit"],
          "resetAnimatorTriggerOnExit": ["DoSkill"],
          "KHLKKBPCMBA": true
        },
        "BeHitThrow": {
          "$type": "ConfigMonsterStateIDInfo",
          "animatorStates": {
            "HitThrow": ["Audio_Monster_Fungus_Trois_HitThrow"],
            "HitThrowDrop": [],
            "HitThrowToGround": [
              "Monster_Fungus_Trois_Epsilon_Electric_HitThrowToGround",
              "Audio_Monster_Fungus_Trois_HitThrowToGround"
            ]
          },
          "resetAnimatorTriggerOnEnter": ["BeHit", "HitAir2HitDrop"],
          "resetAnimatorTriggerOnExit": ["DoSkill"]
        },
        "Struggle": {
          "$type": "ConfigMonsterStateIDInfo",
          "animatorStates": {
            "Struggle": []
          },
          "resetAnimatorTriggerOnEnter": ["BeHit", "HitAir2HitDrop"],
          "resetAnimatorTriggerOnExit": ["DoSkill"]
        },
        "Die": {
          "$type": "ConfigMonsterStateIDInfo",
          "animatorStates": {
            "Die_BS": ["Audio_Monster_Fungus_Trois_Die"],
            "Die": ["Monster_Fungus_Trois_Die"],
            "AirDie": ["Monster_Fungus_Trois_Die"],
            "SwimDie_BS": [],
            "SwimDie": ["Monster_Fungus_Trois_Die"]
          }
        },
        "Warning": {
          "$type": "ConfigMonsterStateIDInfo",
          "animatorStates": {
            "Warning": ["Audio_Monster_Fungus_Trois_Warning"]
          },
          "resetAnimatorTriggerOnExit": ["BeHit", "DoSkill"],
          "BHEPAJIOBDN": true
        },
        "ChangeState": {
          "$type": "ConfigMonsterStateIDInfo",
          "animatorStates": {
            "ChangeStateToOverdose": ["Audio_Monster_Fungus_Trois_ChangeState"],
            "ChangeStateToDecayed": ["Audio_Monster_Fungus_Trois_ChangeState"]
          },
          "resetAnimatorTriggerOnEnter": ["BeHit"],
          "resetAnimatorTriggerOnExit": ["DoSkill"],
          "KHLKKBPCMBA": true
        },
        "Dance": {
          "$type": "ConfigMonsterStateIDInfo",
          "animatorStates": {
            "Dance": ["Audio_Monster_Fungus_Trois_Dance"]
          },
          "canDoSkill": true,
          "canSyncMove": true,
          "resetAnimatorTriggerOnExit": ["BeHit", "DoSkill"],
          "BHEPAJIOBDN": true
        },
        "Tease": {
          "$type": "ConfigMonsterStateIDInfo",
          "animatorStates": {
            "Tease": ["Audio_Monster_Fungus_Trois_Tease"]
          },
          "canDoSkill": true,
          "canSyncMove": true,
          "resetAnimatorTriggerOnExit": ["BeHit", "DoSkill"],
          "BHEPAJIOBDN": true
        },
        "Absorb": {
          "$type": "ConfigMonsterStateIDInfo",
          "animatorStates": {
            "Absorb": [
              "Monster_Fungus_Trois_Absorb",
              "Audio_Monster_Fungus_Trois_Absorb"
            ]
          },
          "canDoSkill": true,
          "canSyncMove": true,
          "resetAnimatorTriggerOnExit": ["BeHit", "DoSkill"],
          "BHEPAJIOBDN": true
        },
        "MeleeAttackNormal_BS": {
          "$type": "ConfigMonsterStateIDInfo",
          "animatorStates": {
            "MeleeAttackNormal_BS": [
              "Audio_Monster_Fungus_Trois_MeleeAttack_BS"
            ],
            "MeleeAttackNormal_Loop": [
              "Audio_Monster_Fungus_Trois_MeleeAttack_Loop"
            ]
          },
          "resetAnimatorTriggerOnExit": ["BeHit", "DoSkill"],
          "BHEPAJIOBDN": true
        },
        "MeleeAttackOverdose_BS": {
          "$type": "ConfigMonsterStateIDInfo",
          "animatorStates": {
            "MeleeAttackOverdose_BS": [
              "Audio_Monster_Fungus_Trois_MeleeAttack_BS"
            ],
            "MeleeAttackOverdose_Loop": [
              "Audio_Monster_Fungus_Trois_MeleeAttack_Loop"
            ]
          },
          "resetAnimatorTriggerOnExit": ["BeHit", "DoSkill"],
          "BHEPAJIOBDN": true
        },
        "MeleeAttackDecay_BS": {
          "$type": "ConfigMonsterStateIDInfo",
          "animatorStates": {
            "MeleeAttackDecay_BS": [
              "Audio_Monster_Fungus_Trois_MeleeAttack_BS"
            ],
            "MeleeAttackDecay_Loop": [
              "Audio_Monster_Fungus_Trois_MeleeAttack_Loop"
            ]
          },
          "resetAnimatorTriggerOnExit": ["BeHit", "DoSkill"],
          "BHEPAJIOBDN": true
        },
        "MeleeAttack": {
          "$type": "ConfigMonsterStateIDInfo",
          "animatorStates": {
            "MeleeAttackNormal_Attack": [
              "Monster_Fungus_Trois_Epsilon_Electric_MeleeAttackNormal_Attack",
              "Audio_Monster_Fungus_Trois_MeleeAttack_Attack"
            ],
            "MeleeAttackNormal_AS": [],
            "MeleeAttackOverdose_Attack": [
              "Monster_Fungus_Trois_Epsilon_Electric_MeleeAttackNormal_Attack",
              "Audio_Monster_Fungus_Trois_MeleeAttack_Attack"
            ],
            "MeleeAttackOverdose_AS": [],
            "MeleeAttackDecay_Attack": [
              "Monster_Fungus_Trois_Epsilon_Electric_MeleeAttackDecay_Attack",
              "Audio_Monster_Fungus_Trois_MeleeAttack_Attack"
            ],
            "MeleeAttackDecay_AS": []
          },
          "resetAnimatorTriggerOnExit": ["BeHit", "DoSkill"],
          "BHEPAJIOBDN": true
        },
        "ChargeNormal_BS": {
          "$type": "ConfigMonsterStateIDInfo",
          "animatorStates": {
            "ChargeNormal_BS": ["Audio_Monster_Fungus_Trois_Electric_Charge_BS"]
          },
          "resetAnimatorTriggerOnExit": ["BeHit", "DoSkill"],
          "BHEPAJIOBDN": true
        },
        "ChargeNormal_Loop": {
          "$type": "ConfigMonsterStateIDInfo",
          "animatorStates": {
            "ChargeNormal_Loop": [
              "Audio_Monster_Fungus_Trois_Electric_Charge_Loop"
            ]
          },
          "resetAnimatorTriggerOnExit": ["BeHit", "DoSkill"],
          "BHEPAJIOBDN": true
        },
        "ChargeOverdose_BS": {
          "$type": "ConfigMonsterStateIDInfo",
          "animatorStates": {
            "ChargeOverdose_BS01": [
              "Audio_Monster_Fungus_Trois_Electric_Charge_BS"
            ],
            "ChargeOverdose_BS02": [
              "Audio_Monster_Fungus_Trois_Electric_Charge_BS"
            ],
            "ChargeOverdose_BS03": [
              "Audio_Monster_Fungus_Trois_Electric_Charge_BS"
            ]
          },
          "resetAnimatorTriggerOnExit": ["BeHit", "DoSkill"],
          "BHEPAJIOBDN": true
        },
        "ChargeOverdose_Loop": {
          "$type": "ConfigMonsterStateIDInfo",
          "animatorStates": {
            "ChargeOverdose_Loop01": [
              "Audio_Monster_Fungus_Trois_Electric_Charge_Loop"
            ],
            "ChargeOverdose_Loop02": [
              "Audio_Monster_Fungus_Trois_Electric_Charge_Loop"
            ],
            "ChargeOverdose_Loop03": [
              "Audio_Monster_Fungus_Trois_Electric_Charge_Loop"
            ]
          },
          "resetAnimatorTriggerOnExit": ["BeHit", "DoSkill"],
          "BHEPAJIOBDN": true
        },
        "ChargeOverdose_Ready": {
          "$type": "ConfigMonsterStateIDInfo",
          "animatorStates": {
            "ChargeOverdose_Attack02_Ready": [
              "Monster_Fungus_Trois_Epsilon_Electric_ChargeNormal_Attack"
            ],
            "ChargeOverdose_Attack03_Ready": [
              "Monster_Fungus_Trois_Epsilon_Electric_ChargeNormal_Attack"
            ]
          },
          "resetAnimatorTriggerOnExit": ["BeHit", "DoSkill"],
          "BHEPAJIOBDN": true
        },
        "ChargeDecay_BS": {
          "$type": "ConfigMonsterStateIDInfo",
          "animatorStates": {
            "ChargeDecay_BS": ["Audio_Monster_Fungus_Trois_Electric_Charge_BS"]
          },
          "resetAnimatorTriggerOnExit": ["BeHit", "DoSkill"],
          "BHEPAJIOBDN": true
        },
        "ChargeDecay_Loop": {
          "$type": "ConfigMonsterStateIDInfo",
          "animatorStates": {
            "ChargeDecay_Loop": [
              "Audio_Monster_Fungus_Trois_Electric_Charge_Loop"
            ]
          },
          "resetAnimatorTriggerOnExit": ["BeHit", "DoSkill"],
          "BHEPAJIOBDN": true
        },
        "ChargeNormal": {
          "$type": "ConfigMonsterStateIDInfo",
          "animatorStates": {
            "ChargeNormal_Attack": [
              "Monster_Fungus_Trois_Epsilon_Electric_ChargeNormal_Attack"
            ]
          },
          "resetAnimatorTriggerOnExit": ["BeHit", "DoSkill"],
          "BHEPAJIOBDN": true
        },
        "ChargeOverdose": {
          "$type": "ConfigMonsterStateIDInfo",
          "animatorStates": {
            "ChargeOverdose_Attack01": [
              "Monster_Fungus_Trois_Epsilon_Electric_ChargeNormal_Attack"
            ],
            "ChargeOverdose_Attack02": [
              "Monster_Fungus_Trois_Epsilon_Electric_ChargeNormal_Attack"
            ],
            "ChargeOverdose_Attack03": [
              "Monster_Fungus_Trois_Epsilon_Electric_ChargeNormal_Attack"
            ]
          },
          "resetAnimatorTriggerOnExit": ["BeHit", "DoSkill"],
          "BHEPAJIOBDN": true
        },
        "ChargeDecay": {
          "$type": "ConfigMonsterStateIDInfo",
          "animatorStates": {
            "ChargeDecay_Attack": [
              "Monster_Fungus_Trois_Epsilon_Electric_ChargeDecay_Attack"
            ]
          },
          "resetAnimatorTriggerOnExit": ["BeHit", "DoSkill"]
        },
        "Charge_AS": {
          "$type": "ConfigMonsterStateIDInfo",
          "animatorStates": {
            "ChargeNormal_AS": [
              "Audio_Monster_Fungus_Trois_Electric_Charge_AS"
            ],
            "ChargeOverdose_AS01": [
              "Audio_Monster_Fungus_Trois_Electric_Charge_AS"
            ],
            "ChargeOverdose_AS02": [
              "Audio_Monster_Fungus_Trois_Electric_Charge_AS"
            ],
            "ChargeOverdose_AS03": [
              "Audio_Monster_Fungus_Trois_Electric_Charge_AS"
            ],
            "ChargeDecay_AS": ["Audio_Monster_Fungus_Trois_Electric_Charge_AS"]
          },
          "resetAnimatorTriggerOnExit": ["BeHit", "DoSkill"]
        },
        "ReturnToBorn": {
          "$type": "ConfigMonsterStateIDInfo",
          "animatorStates": {
            "ReturnToBorn_BS": [
              "Monster_Fungus_Trois_ReturnToBorn_BS",
              "Audio_Monster_Fungus_Trois_ReturnToBorn_BS"
            ],
            "ReturnToBorn_Loop": [],
            "ReturnToBorn_AS": [
              "Monster_Fungus_Trois_ReturnToBorn_AS",
              "Audio_Monster_Fungus_Trois_ReturnToBorn_AS"
            ]
          },
          "AAEKKGMOKFK": true,
          "resetAnimatorTriggerOnExit": ["BeHit", "DoSkill"]
        }
      }
    }
  },
  "billboard": {
    "$type": "NCBABGPMMPL",
    "EBBHBMFMOGD": "BillboardAttach",
    "offset": {
      "y": 0.5
    },
    "OELDMANLPDM": 1.0,
    "KLIMPNOBGLK": true,
    "ANGKJBLILKJ": true
  },
  "initialPoses": {
    "Default": {
      "initialPoseID": 101
    },
    "Dance": {
      "initialPoseID": 102,
      "initialPoseParams": {
        "boolParams": {
          "Dance": "true"
        }
      }
    },
    "Tease": {
      "initialPoseID": 103,
      "initialPoseParams": {
        "boolParams": {
          "Tease": "true"
        }
      }
    },
    "Absorb": {
      "initialPoseID": 104,
      "initialPoseParams": {
        "boolParams": {
          "Absorb": "true"
        }
      }
    }
  },
  "aibeta": {
    "enable": true,
    "moveSetting": {
      "navMeshAgentName": "Undead01"
    },
    "sensing": {
      "settings": {
        "DefaultSetting": {
          "viewRange": 22.0,
          "feelRange": 8.75
        },
        "Patrol": {
          "viewRange": 0.0,
          "feelRange": 6.0
        },
        "NoSensing": {
          "enableVision": false,
          "hearAttractionRange": 0.0,
          "feelRange": 0.0
        }
      },
      "templates": {
        "DefaultTemplate": {
          "DefaultPoses": "DefaultSetting"
        },
        "Patrol": {
          "DefaultPoses": "Patrol"
        },
        "NoSensing": {
          "DefaultPoses": "NoSensing"
        }
      }
    },
    "neurons": {
      "DefaultSetting": ["HIT"],
      "NeverCombat": []
    },
    "threat": {
      "clearThreatTargetDistance": 30.0,
      "clearThreatEdgeDistance": 5.0,
      "clearThreatByTargetOutOfZone": true,
      "clearThreatTimerByDistance": 2.0,
      "viewAttenuation": [
        {
          "x": 12.0,
          "y": 1.0
        },
        {
          "x": 20.0,
          "y": 0.5
        }
      ]
    },
    "defendArea": {
      "defendRange": 50.0
    },
    "skillSetting": {
      "skillEliteSet": {
        "1": [],
        "2": [112]
      }
    },
    "skills": {
      "100": {
        "name": "OnAlert",
        "skillType": "OnAlert",
        "faceTarget": true,
        "publicCDGroup": "",
        "triggerGCD": false,
        "stateIDs": ["Warning"],
        "skillQueryingTime": 3.0,
        "flagTargetReachable": "10",
        "flagSelfOnTemplateCollider": "01",
        "flagSelfInZone": "10",
        "flagTargetInZone": "11"
      },
      "102": {
        "name": "Dance",
        "skillType": "Free",
        "castCondition": {
          "pose": [102]
        },
        "cd": 15.0,
        "initialCD": 5.0,
        "publicCDGroup": "",
        "triggerGCD": false,
        "stateIDs": ["Dance"],
        "skillQueryingTime": 3.0,
        "flagTargetReachable": "10",
        "flagSelfOnTemplateCollider": "01",
        "flagSelfInZone": "10",
        "flagTargetInZone": "11"
      },
      "112": {
        "name": "Tease2",
        "skillType": "Free",
        "castCondition": {
          "pose": [101, 111, 121]
        },
        "cd": 0.5,
        "initialCD": 0.6000000238418579,
        "publicCDGroup": "",
        "triggerGCD": false,
        "stateIDs": ["Tease"],
        "skillQueryingTime": 3.0,
        "flagTargetReachable": "10",
        "flagSelfOnTemplateCollider": "01",
        "flagSelfInZone": "10",
        "flagTargetInZone": "11"
      },
      "103": {
        "name": "Tease",
        "skillType": "Free",
        "castCondition": {
          "pose": [103]
        },
        "cd": 10.0,
        "cdUpperRange": 10.0,
        "initialCD": 5.0,
        "initialCDUpperRange": 10.0,
        "publicCDGroup": "",
        "triggerGCD": false,
        "stateIDs": ["Tease"],
        "skillQueryingTime": 3.0,
        "flagTargetReachable": "10",
        "flagSelfOnTemplateCollider": "01",
        "flagSelfInZone": "10",
        "flagTargetInZone": "11"
      },
      "104": {
        "name": "Absorb",
        "skillType": "Free",
        "castCondition": {
          "pose": [104]
        },
        "cd": 10.0,
        "cdUpperRange": 10.0,
        "initialCD": 5.0,
        "initialCDUpperRange": 10.0,
        "publicCDGroup": "",
        "triggerGCD": false,
        "stateIDs": ["Absorb"],
        "skillQueryingTime": 3.0,
        "flagTargetReachable": "10",
        "flagSelfOnTemplateCollider": "01",
        "flagSelfInZone": "10",
        "flagTargetInZone": "11"
      },
      "301": {
        "name": "MeleeAttackNormal",
        "combatSkillType": "MeleeAttack",
        "castCondition": {
          "pose": [301],
          "pickRangeMax": 2.0
        },
        "cd": 5.0,
        "initialCD": 5.0,
        "publicCDGroup": "",
        "stateIDs": ["MeleeAttack", "MeleeAttackNormal_BS"],
        "flagTargetReachable": "10",
        "flagSelfOnTemplateCollider": "01",
        "flagSelfInZone": "11",
        "flagTargetInZone": "11"
      },
      "311": {
        "name": "MeleeAttackOverdose",
        "combatSkillType": "MeleeAttack",
        "castCondition": {
          "pose": [311],
          "pickRangeMax": 2.0
        },
        "cd": 5.0,
        "initialCD": 5.0,
        "publicCDGroup": "",
        "stateIDs": ["MeleeAttack", "MeleeAttackOverdose_BS"],
        "flagTargetReachable": "10",
        "flagSelfOnTemplateCollider": "01",
        "flagSelfInZone": "11",
        "flagTargetInZone": "11"
      },
      "321": {
        "name": "MeleeAttackDecayed",
        "combatSkillType": "MeleeAttack",
        "castCondition": {
          "pose": [321],
          "pickRangeMax": 2.0
        },
        "cd": 5.0,
        "publicCDGroup": "",
        "stateIDs": ["MeleeAttack", "MeleeAttackDecay_BS"],
        "flagTargetReachable": "10",
        "flagSelfOnTemplateCollider": "01",
        "flagSelfInZone": "11",
        "flagTargetInZone": "11"
      },
      "501": {
        "name": "ChargeNormal",
        "combatSkillType": "MeleeAttack",
        "castCondition": {
          "pose": [301],
          "needReInitCD": true,
          "pickRangeMax": 12.0
        },
        "cd": 5.0,
        "cdUpperRange": 10.0,
        "initialCD": 1.0,
        "initialCDUpperRange": 5.5,
        "publicCDGroup": "",
        "stateIDs": [
          "ChargeNormal",
          "ChargeNormal_BS",
          "ChargeNormal_Loop",
          "Charge_AS"
        ],
        "flagTargetReachable": "10",
        "flagSelfOnTemplateCollider": "01",
        "flagSelfInZone": "10",
        "flagTargetInZone": "11"
      },
      "511": {
        "name": "ChargeOverdose",
        "combatSkillType": "MeleeAttack",
        "castCondition": {
          "pose": [311],
          "needReInitCD": true,
          "pickRangeMax": 12.0
        },
        "cd": 5.0,
        "cdUpperRange": 3.0,
        "initialCD": 0.5,
        "initialCDUpperRange": 1.5,
        "publicCDGroup": "",
        "stateIDs": [
          "ChargeOverdose",
          "ChargeOverdose_BS",
          "ChargeOverdose_Ready",
          "ChargeOverdose_Loop",
          "Charge_AS"
        ],
        "flagTargetReachable": "10",
        "flagSelfOnTemplateCollider": "01",
        "flagSelfInZone": "10",
        "flagTargetInZone": "11"
      },
      "521": {
        "name": "ChargeDecay",
        "combatSkillType": "MeleeAttack",
        "castCondition": {
          "pose": [321],
          "needReInitCD": true,
          "pickRangeMax": 12.0
        },
        "cd": 6.0,
        "cdUpperRange": 6.0,
        "initialCD": 3.0,
        "initialCDUpperRange": 3.0,
        "publicCDGroup": "",
        "stateIDs": [
          "ChargeDecay",
          "ChargeDecay_BS",
          "ChargeDecay_Loop",
          "Charge_AS"
        ],
        "flagTargetReachable": "10",
        "flagSelfOnTemplateCollider": "01",
        "flagSelfInZone": "10",
        "flagTargetInZone": "11"
      }
    },
    "skillGCD": 3.5,
    "returnToBornTactic": {
      "enable": true,
      "defaultSetting": {
        "spacial": true,
        "KLHLJGGBMEL": 2.319999933242798
      }
    },
    "wanderTactic": {
      "enable": true,
      "condition": {
        "pose": [101, 111, 121]
      },
      "defaultSetting": {
        "cdMax": 3.0,
        "cdMin": 1.5,
        "distanceFromBorn": 15.0,
        "distanceFromCurrentMin": 3.75,
        "distanceFromCurrentMax": 7.5
      }
    },
    "followScriptedPathTactic": {
      "enable": true,
      "defaultSetting": {
        "turnSpeedOverrideWalk": 1.0,
        "turnSpeedOverrideRun": 1.0
      }
    },
    "meleeChargeTactic": {
      "enable": true,
      "condition": {
        "pose": [301, 311, 321]
      },
      "defaultSetting": {
        "speedLevel": 1,
        "startDistanceMin": 10.0,
        "startDistanceMax": 50.0,
        "stopDistance": 9.0,
        "innerDistance": 10.0
      },
      "specification": {
        "321": {
          "startDistanceMin": 10.0,
          "startDistanceMax": 50.0,
          "stopDistance": 3.0,
          "innerDistance": 6.0,
          "speedLevelInner": 2
        }
      }
    },
    "facingMoveTactic": {
      "enable": true,
      "condition": {
        "pose": [301, 311, 321]
      },
      "defaultSetting": {
        "rangeMin": 5.0,
        "rangeMax": 10.0,
        "restTimeMax": 4.0,
        "facingMoveWeight": {
          "stop": 0.20000000298023224,
          "forward": 0.5,
          "back": 0.5,
          "left": 0.5,
          "right": 0.5
        },
        "PDOKGBAJNEP": "1111",
        "NGLJBMGMGKF": "1111"
      },
      "specification": {
        "321": {
          "rangeMin": 5.0,
          "rangeMax": 50.0,
          "facingMoveWeight": {
            "stop": 0.0,
            "back": 0.0,
            "left": 0.0,
            "right": 0.0
          },
          "PDOKGBAJNEP": "1111",
          "NGLJBMGMGKF": "1111"
        }
      }
    },
    "fleeTactic": {
      "condition": {
        "pose": [301]
      },
      "defaultSetting": {
        "turnSpeedOverride": 2.5,
        "cd": 0.0,
        "triggerDistance": 4.0,
        "fleeNumberMin": 2,
        "fleeNumberMax": 3,
        "fleeDistanceMin": 7.5,
        "fleeDistanceMax": 10.0
      }
    }
  },
  "inputKeys": [
    {
      "keyID": 301,
      "inputKeyCode": 257,
      "abilityName": ""
    },
    {
      "keyID": 501,
      "inputKeyCode": 258,
      "abilityName": ""
    },
    {
      "keyID": 311,
      "inputKeyCode": 259,
      "abilityName": ""
    },
    {
      "keyID": 511,
      "inputKeyCode": 260,
      "abilityName": ""
    },
    {
      "keyID": 321,
      "inputKeyCode": 261,
      "abilityName": ""
    },
    {
      "keyID": 521,
      "inputKeyCode": 262,
      "abilityName": ""
    },
    {
      "keyID": 102,
      "inputKeyCode": 263,
      "abilityName": ""
    },
    {
      "keyID": 103,
      "inputKeyCode": 264,
      "abilityName": ""
    },
    {
      "keyID": 104,
      "inputKeyCode": 265,
      "abilityName": ""
    },
    {
      "keyID": 9997,
      "inputKeyCode": 266,
      "abilityName": ""
    },
    {
      "keyID": 9998,
      "inputKeyCode": 267,
      "abilityName": ""
    },
    {
      "keyID": 9999,
      "inputKeyCode": 268,
      "abilityName": ""
    }
  ],
  "move": {
    "$type": "PLMNMICDOHN",
    "BCBPBHLKCPB": "FourDirection",
    "CNPDANKMFNL": "AirBlend3D",
    "NGNIGPNNLAI": "SlimeType"
  },
  "audio": {
    "NCOGLLMIJGO": "",
    "animAudio": {
      "onTransitionIn": [
        {
          "currentStateName": "ChargeNormal_Loop",
          "audioEvent": {
            "text": "Play_sfx_monster_Fungus_Trois_Epsilon_Electric_charge_Attack_Loop"
          }
        }
      ],
      "onTransitionOut": [
        {
          "currentStateName": "ChargeNormal_Loop",
          "audioEvent": {
            "text": "Stop_sfx_monster_Fungus_Trois_Epsilon_Electric_charge_Attack_Loop"
          }
        },
        {
          "currentStateName": "Dance",
          "audioEvent": {
            "text": "Stop_sfx_monster_Fungus_Trois_idle"
          }
        },
        {
          "currentStateName": "Absorb",
          "audioEvent": {
            "text": "Stop_sfx_monster_Fungus_Trois_idle"
          }
        },
        {
          "currentStateName": "Tease",
          "audioEvent": {
            "text": "Stop_sfx_monster_Fungus_Trois_idle"
          }
        },
        {
          "currentStateName": "MeleeAttackNormal_Loop",
          "audioEvent": {
            "text": "Stop_sfx_monster_Fungus_Trois_idle"
          }
        },
        {
          "currentStateName": "MeleeAttackDecay_Loop",
          "audioEvent": {
            "text": "Stop_sfx_monster_Fungus_Trois_idle"
          }
        },
        {
          "currentStateName": "MeleeAttackOverdose_Loop",
          "audioEvent": {
            "text": "Stop_sfx_monster_Fungus_Trois_idle"
          }
        }
      ]
    }
  }
}
