{
  "common": {
    "effectAttachShape": {
      "$type": "ConfigEffectAttachSkinnedMesh",
      "mesh": "EffectMesh"
    },
    "mass": 30.0,
    "height": 1.0,
    "affectedByWorld": true,
    "checkInSurface": true,
    "useGrassDisplacement": true
  },
  "headControl": {
    "$type": "GAAIKCFIJMM"
  },
  "model": {
    "bornEffect": "Eff_Monster_Common_Born",
    "attachEffect": ""
  },
  "combat": {
    "property": {
      "endureType": "Monster_Minion",
      "weight": 75.0
    },
    "beHit": {
      "hitBloodEffect": ""
    },
    "combatLock": {
      "lockShape": "CircleLockEnemy",
      "lockType": "Avatar&Monster_Lv4"
    },
    "die": {
      "hasAnimatorDie": true,
      "dieEndTime": 2.0,
      "dieForceDisappearTime": 4.0,
      "dieDisappearEffect": "Eff_Death_Common",
      "dieShaderData": "MonsterDie",
      "useRagDoll": true,
      "OCGODEHJPME": true,
      "MFJBKFECLNJ": true,
      "IMEEBMBJPGJ": true,
      "ICHFPLMNCLC": true,
      "MBHMAGEPJFH": true,
      "CFHPDHFKMEP": true
    },
    "animEvents": {
      "Shaman_Grass_MeleeAttack": {
        "attackPattern": {
          "$type": "ConfigAttackCircle",
          "triggerType": "TriggerNoRepeat",
          "born": {
            "$type": "ConfigBornBySelf",
            "offset": {
              "x": 0.0,
              "y": 0.0,
              "z": 0.0
            }
          },
          "fanAngle": 150.0,
          "radius": 3.0
        },
        "attackInfo": {
          "attackTag": "",
          "attenuationTag": "",
          "attenuationGroup": "default",
          "attackProperty": {
            "damagePercentage": 1.0,
            "MKLAMNDEDGB": 0.0,
            "bonusCriticalHurt": 100.0,
            "strikeType": "Blunt",
            "enBreak": 100.0,
            "attackType": "Melee"
          },
          "hitPattern": {
            "onHitEffectName": "default",
            "hitImpulseType": "LV5"
          },
          "cameraShake": {
            "shakeType": "HitVector",
            "shakeRange": 0.20000000298023224,
            "shakeTime": 0.15000000596046448,
            "shakeDistance": 25.0,
            "shakeDir": {
              "x": -1.0,
              "y": -0.30000001192092896
            }
          }
        }
      }
    }
  },
  "equipController": {
    "sheathPoint": "",
    "attachPoints": {
      "equip01": "WeaponR"
    }
  },
  "abilities": [
    {
      "abilityID": "Monster_Shaman_Grass_CreateGrassFeild",
      "abilityName": "Monster_Shaman_Grass_CreateGrassFeild",
      "abilityOverride": ""
    },
    {
      "abilityID": "Monster_Shaman_Grass_CreateGrassWall",
      "abilityName": "Monster_Shaman_Grass_CreateGrassWall",
      "abilityOverride": ""
    },
    {
      "abilityID": "Monster_Shaman_Grass_AnimationSteer",
      "abilityName": "Monster_Shaman_Grass_AnimationSteer",
      "abilityOverride": ""
    },
    {
      "abilityID": "Monster_Shaman_Grass_EscapeState",
      "abilityName": "Monster_Shaman_Grass_EscapeState",
      "abilityOverride": ""
    },
    {
      "abilityID": "Monster_Shaman_Grass_DistanceCharge",
      "abilityName": "Monster_Shaman_Grass_DistanceCharge",
      "abilityOverride": ""
    },
    {
      "abilityID": "Monster_Shaman_Grass_WeaponElementEffect",
      "abilityName": "Monster_Shaman_Grass_WeaponElementEffect",
      "abilityOverride": ""
    },
    {
      "abilityID": "Shaman_SpecialsState",
      "abilityName": "Shaman_SpecialsState",
      "abilityOverride": "",
      "KCBHAAMMIGC": true
    },
    {
      "abilityID": "Hili_None_Alert",
      "abilityName": "Hili_None_Alert",
      "abilityOverride": "",
      "KCBHAAMMIGC": true
    }
  ],
  "stateLayers": {
    "defaultLayer": {
      "$type": "ConfigNormalStateLayer",
      "FNPGDAEJAPJ": "",
      "stateIDs": {
        "NormalIdle": {
          "$type": "ConfigMonsterStateIDInfo",
          "animatorStates": {
            "Standby": [],
            "WalkToStandby": [],
            "Born": []
          },
          "canDoSkill": true,
          "canSyncMove": true,
          "resetAnimatorTriggerOnExit": ["DoSkill"]
        },
        "NormalMove": {
          "$type": "ConfigMonsterStateIDInfo",
          "animatorStates": {
            "Walk": ["Audio_Shaman_Water_Walk", "Audio_Shaman_Grass_Walk_Vo"],
            "Run": ["Audio_Shaman_Water_Run", "Audio_Shaman_Grass_Run_Vo"],
            "Escape": ["Audio_Shaman_Water_Run", "Audio_Shaman_Grass_Escape_Vo"]
          },
          "canDoSkill": true,
          "canSyncMove": true,
          "resetAnimatorTriggerOnExit": ["DoSkill"],
          "BHEPAJIOBDN": true
        },
        "Turn": {
          "$type": "ConfigMonsterStateIDInfo",
          "animatorStates": {
            "Turn_Left": ["Audio_Shaman_Water_Turn"],
            "Turn_Right": ["Audio_Shaman_Water_Turn"]
          },
          "canDoSkill": true,
          "canSyncMove": true,
          "resetAnimatorTriggerOnExit": ["DoSkill"],
          "BHEPAJIOBDN": true
        },
        "BeHit": {
          "$type": "ConfigMonsterStateIDInfo",
          "animatorStates": {
            "Hit_L": ["Audio_Shaman_Grass_Hit_L_Vo"],
            "Hit_H": ["Audio_Shaman_Water_Hit_H", "Audio_Shaman_Grass_Hit_H_Vo"]
          },
          "resetAnimatorTriggerOnEnter": ["BeHit"],
          "resetAnimatorTriggerOnExit": ["DoSkill"]
        },
        "BeHitThrow": {
          "$type": "ConfigMonsterStateIDInfo",
          "animatorStates": {
            "HitThrow": [],
            "HitThrowDrop": [],
            "HitThrowToGround": [
              "Audio_Shaman_Water_HitThrowToGround",
              "Audio_Shaman_Grass_Hit_ThrowToGround_Vo"
            ]
          },
          "resetAnimatorTriggerOnEnter": ["BeHit", "HitAir2HitDrop"],
          "resetAnimatorTriggerOnExit": ["DoSkill"]
        },
        "Struggle": {
          "$type": "ConfigMonsterStateIDInfo",
          "animatorStates": {
            "Struggle": []
          },
          "resetAnimatorTriggerOnEnter": ["BeHit", "HitAir2HitDrop"],
          "resetAnimatorTriggerOnExit": ["DoSkill"]
        },
        "Die": {
          "$type": "ConfigMonsterStateIDInfo",
          "animatorStates": {
            "SwimDie": ["Monster_Shaman_Die"],
            "SwimDie_AS": []
          }
        },
        "Die_Ragdoll": {
          "$type": "ConfigMonsterStateIDInfo",
          "animatorStates": {
            "Die": ["Monster_Shaman_Die"],
            "AirDie": ["Monster_Shaman_Die"]
          },
          "HCCMMNBMCMA": true
        },
        "Life_Alert": {
          "$type": "ConfigMonsterStateIDInfo",
          "animatorStates": {
            "Alert": [
              "Monster_Shaman_Alert",
              "Audio_Shaman_Water_Alert",
              "Audio_Shaman_Grass_Alert_Vo"
            ]
          },
          "resetAnimatorTriggerOnExit": ["BeHit", "DoSkill"],
          "BHEPAJIOBDN": true,
          "BKLKHCBEHNL": true
        },
        "Dance": {
          "$type": "ConfigMonsterStateIDInfo",
          "animatorStates": {
            "Dance": []
          },
          "canDoSkill": true,
          "resetAnimatorTriggerOnExit": ["BeHit", "DoSkill"]
        },
        "MeleeAttack": {
          "$type": "ConfigMonsterStateIDInfo",
          "animatorStates": {
            "MeleeAttack": [
              "Monster_Shaman_Grass_MeleeAttack",
              "Audio_Shaman_Water_MeleeAttack",
              "Audio_Shaman_Grass_MeleeAttack_Vo"
            ]
          },
          "BFDKJHMDDML": 0.4000000059604645,
          "resetAnimatorTriggerOnExit": ["BeHit", "DoSkill"]
        },
        "SupportAttack": {
          "$type": "ConfigMonsterStateIDInfo",
          "animatorStates": {
            "SupportAttack": [
              "Audio_Shaman_Water_SupportAttack",
              "Audio_Shaman_Grass_SupportAttack_Vo"
            ],
            "SupportAttack_AS": [
              "Audio_Shaman_Water_SupportAttack_AS",
              "Audio_Shaman_Grass_SupportAttack_AS_Vo"
            ]
          },
          "canDoSkill": true,
          "resetAnimatorTriggerOnEnter": ["SupportAttackExit"],
          "resetAnimatorTriggerOnExit": ["BeHit", "DoSkill"]
        },
        "SupportAttack2": {
          "$type": "ConfigMonsterStateIDInfo",
          "animatorStates": {
            "SupportAttack2": [
              "Audio_Shaman_Water_SupportAttack",
              "Audio_Shaman_Grass_SupportAttack_Vo"
            ],
            "SupportAttack2_AS": [
              "Audio_Shaman_Water_SupportAttack_AS",
              "Audio_Shaman_Grass_SupportAttack_AS_Vo"
            ]
          },
          "resetAnimatorTriggerOnEnter": ["SupportAttackExit2"],
          "resetAnimatorTriggerOnExit": ["BeHit", "DoSkill"]
        },
        "SupportAttack_BS": {
          "$type": "ConfigMonsterStateIDInfo",
          "animatorStates": {
            "SupportAttack_BS": [
              "Audio_Shaman_Grass_SupportAttack_BS",
              "Audio_Shaman_Grass_SupportAttack_BS_Vo"
            ],
            "SupportAttack2_BS": [
              "Audio_Shaman_Grass_SupportAttack_BS",
              "Audio_Shaman_Grass_SupportAttack_BS_Vo"
            ]
          },
          "resetAnimatorTriggerOnExit": ["BeHit", "DoSkill"]
        },
        "NormalAttack_AS": {
          "$type": "ConfigMonsterStateIDInfo",
          "animatorStates": {
            "NormalAttack_AS": ["Audio_Shaman_Grass_NormalAttack_AS_Vo"]
          },
          "resetAnimatorTriggerOnExit": ["BeHit", "DoSkill"]
        },
        "NormalAttack_BS": {
          "$type": "ConfigMonsterStateIDInfo",
          "animatorStates": {
            "NormalAttack_BS": [
              "Audio_Shaman_Grass_NormalAttack_BS",
              "Audio_Shaman_Grass_NormalAttack_BS_Vo"
            ]
          },
          "resetAnimatorTriggerOnExit": ["BeHit", "DoSkill"],
          "BHEPAJIOBDN": true
        }
      }
    }
  },
  "billboard": {
    "$type": "NCBABGPMMPL",
    "EBBHBMFMOGD": "BillboardAttach",
    "offset": {
      "x": -0.10000000149011612,
      "y": -0.10000000149011612
    },
    "BFOMIIKCOGI": "Character",
    "OELDMANLPDM": 0.3199999928474426,
    "ANGKJBLILKJ": true
  },
  "initialPoses": {
    "Default": {},
    "Dance": {
      "initialPoseID": 9012,
      "initialPoseParams": {
        "boolParams": {
          "Dance": "true"
        }
      }
    }
  },
  "aibeta": {
    "enable": true,
    "sensing": {
      "settings": {
        "DefaultSetting": {
          "feelRange": 8.0
        },
        "HighAlert": {
          "viewRange": 40.0,
          "feelRange": 10.0
        },
        "Dance": {
          "viewRange": 10.0
        },
        "NeverCombat": {
          "enableVision": false,
          "hearAttractionRange": 0.0,
          "feelRange": 0.0
        }
      },
      "templates": {
        "DefaultTemplate": {
          "DefaultPoses": "DefaultSetting",
          "9012": "Dance"
        },
        "HighAlertTemplate": {
          "DefaultPoses": "HighAlert",
          "9012": "Dance"
        },
        "NeverCombatTemplate": {
          "DefaultPoses": "NeverCombat",
          "9012": "NeverCombat"
        }
      }
    },
    "neurons": {
      "DefaultSetting": ["HIT"],
      "NeverCombat": []
    },
    "threat": {
      "clearThreatTargetDistance": 30.0,
      "clearThreatEdgeDistance": 0.0,
      "viewAttenuation": [
        {
          "x": 10.0,
          "y": 2.0
        },
        {
          "x": 15.0,
          "y": 0.800000011920929
        },
        {
          "x": 20.0,
          "y": 0.5
        },
        {
          "x": 25.0,
          "y": 0.30000001192092896
        },
        {
          "x": 30.0,
          "y": 0.20000000298023224
        }
      ]
    },
    "defendArea": {},
    "skills": {
      "100": {
        "name": "OnAlert",
        "skillType": "OnAlert",
        "faceTarget": true,
        "publicCDGroup": "",
        "ignoreGCD": true,
        "triggerGCD": false,
        "stateIDs": ["Life_Alert"],
        "skillQueryingTime": 3.0,
        "flagTargetReachable": "10",
        "flagSelfOnTemplateCollider": "01",
        "flagSelfInZone": "10",
        "flagTargetInZone": "11"
      },
      "101": {
        "name": "SupportAttack",
        "enableSkillPrepare": true,
        "skillPrepareTimeout": 2.0,
        "castCondition": {
          "pose": [1000],
          "pickRangeMin": 12.0,
          "pickRangeMax": 30.0,
          "castRangeMin": 12.0,
          "castRangeMax": 25.0
        },
        "cd": 5.0,
        "publicCDGroup": "",
        "triggerGCD": false,
        "stateIDs": ["SupportAttack_BS", "SupportAttack"],
        "flagTargetReachable": "10",
        "flagSelfOnTemplateCollider": "11",
        "flagSelfInZone": "10",
        "flagTargetInZone": "11"
      },
      "102": {
        "name": "SupportAttack2",
        "priority": 2,
        "enableSkillPrepare": true,
        "skillPrepareTimeout": 1.5,
        "castCondition": {
          "pose": [1000],
          "pickRangeMin": 3.5,
          "pickRangeMax": 12.0,
          "castRangeMin": 3.5,
          "castRangeMax": 12.0
        },
        "cd": 5.0,
        "publicCDGroup": "",
        "stateIDs": ["SupportAttack2_BS", "SupportAttack2"],
        "flagTargetReachable": "10",
        "flagSelfOnTemplateCollider": "11",
        "flagSelfInZone": "10",
        "flagTargetInZone": "11"
      },
      "111": {
        "name": "SupportAttack",
        "enableSkillPrepare": true,
        "skillPrepareTimeout": 2.0,
        "castCondition": {
          "pose": [1000],
          "pickRangeMin": 3.5,
          "pickRangeMax": 30.0,
          "castRangeMin": 3.5,
          "castRangeMax": 25.0
        },
        "cd": 5.0,
        "publicCDGroup": "",
        "triggerGCD": false,
        "stateIDs": ["SupportAttack_BS", "SupportAttack"],
        "flagTargetReachable": "01",
        "flagSelfOnTemplateCollider": "01",
        "flagSelfInZone": "10",
        "flagTargetInZone": "11"
      },
      "112": {
        "name": "SupportAttack",
        "enableSkillPrepare": true,
        "skillPrepareTimeout": 2.0,
        "castCondition": {
          "pose": [1000],
          "pickRangeMin": 3.5,
          "pickRangeMax": 30.0,
          "castRangeMin": 3.5,
          "castRangeMax": 25.0
        },
        "cd": 5.0,
        "publicCDGroup": "",
        "triggerGCD": false,
        "stateIDs": ["SupportAttack_BS", "SupportAttack"],
        "flagTargetReachable": "10",
        "flagSelfOnTemplateCollider": "11",
        "flagSelfInZone": "01",
        "flagTargetInZone": "11"
      },
      "113": {
        "name": "SupportAttack",
        "enableSkillPrepare": true,
        "skillPrepareTimeout": 2.0,
        "castCondition": {
          "pose": [1000],
          "pickRangeMin": 3.5,
          "pickRangeMax": 30.0,
          "castRangeMin": 3.5,
          "castRangeMax": 25.0
        },
        "cd": 5.0,
        "publicCDGroup": "",
        "triggerGCD": false,
        "stateIDs": ["SupportAttack_BS", "SupportAttack"],
        "flagTargetReachable": "01",
        "flagSelfOnTemplateCollider": "01",
        "flagSelfInZone": "01",
        "flagTargetInZone": "11"
      },
      "201": {
        "name": "NormalAttack",
        "priority": 1,
        "enableSkillPrepare": true,
        "skillPrepareTimeout": 2.0,
        "castCondition": {
          "pose": [1000],
          "pickRangeMin": 3.5,
          "pickRangeMax": 12.0,
          "castRangeMin": 3.5,
          "castRangeMax": 12.0
        },
        "cd": 8.0,
        "publicCDGroup": "",
        "stateIDs": ["NormalAttack_BS", "NormalAttack_AS"],
        "flagTargetReachable": "10",
        "flagSelfOnTemplateCollider": "11",
        "flagSelfInZone": "10",
        "flagTargetInZone": "11"
      },
      "301": {
        "name": "MeleeAttack",
        "castCondition": {
          "pose": [1000],
          "pickRangeMax": 3.5
        },
        "cd": 3.5,
        "publicCDGroup": "",
        "ignoreGCD": true,
        "stateIDs": ["MeleeAttack"],
        "flagTargetReachable": "10",
        "flagSelfOnTemplateCollider": "01",
        "flagSelfInZone": "10",
        "flagTargetInZone": "11"
      }
    },
    "returnToBornTactic": {
      "enable": true,
      "defaultSetting": {}
    },
    "wanderTactic": {
      "enable": true,
      "defaultSetting": {
        "cdMax": 5.0,
        "cdMin": 3.0,
        "distanceFromBorn": 20.0,
        "distanceFromCurrentMin": 7.5
      }
    },
    "meleeChargeTactic": {
      "enable": true,
      "condition": {
        "pose": [1000, 1001]
      },
      "defaultSetting": {
        "startDistanceMin": 20.0,
        "startDistanceMax": 99.0,
        "stopDistance": 20.0,
        "innerDistance": 0.0
      }
    },
    "fleeTactic": {
      "enable": true,
      "condition": {
        "pose": [1100]
      },
      "defaultSetting": {
        "triggerDistance": 3.5,
        "fleeDistanceMin": 5.0,
        "fleeDistanceMax": 6.0
      }
    }
  },
  "inputKeys": [
    {
      "keyID": 1,
      "inputKeyCode": 256,
      "abilityName": ""
    },
    {
      "keyID": 101,
      "inputKeyCode": 257,
      "abilityName": ""
    },
    {
      "keyID": 201,
      "inputKeyCode": 258,
      "abilityName": ""
    },
    {
      "keyID": 301,
      "inputKeyCode": 259,
      "abilityName": ""
    }
  ],
  "move": {
    "$type": "PLMNMICDOHN",
    "NGNIGPNNLAI": "StoopType"
  },
  "audio": {
    "NCOGLLMIJGO": "",
    "animAudio": {
      "onTransitionIn": [
        {
          "currentStateName": "Dance",
          "audioEvent": {
            "text": "Play_sfx_monster_shaman_grass_dance"
          }
        },
        {
          "currentStateName": "beHit",
          "audioEvent": {
            "text": "Stop_sfx_monster_shaman_grass_dance"
          }
        },
        {
          "currentStateName": "Die",
          "audioEvent": {
            "text": "Stop_sfx_monster_shaman_grass_dance"
          }
        }
      ],
      "onTransitionOut": [
        {
          "currentStateName": "SupportAttack_BS",
          "audioEvent": {
            "text": "Stop_sfx_monster_shaman_water_healRain_cast"
          },
          "otherStateNames": ["SupportAttack"],
          "usage": "Except"
        },
        {
          "currentStateName": "NormalAttack_BS",
          "audioEvent": {
            "text": "Stop_sfx_monster_shaman_water_waterSpout_cast"
          },
          "otherStateNames": ["NormalAttack"],
          "usage": "Except"
        },
        {
          "currentStateName": "MeleeAttack",
          "audioEvent": {
            "text": "Stop_sfx_monster_shaman_water_meleeAttack"
          }
        },
        {
          "currentStateName": "MeleeAttack",
          "audioEvent": {
            "text": "Stop_vo_monster_shaman_meleeAttack"
          }
        },
        {
          "currentStateName": "SupportAttack",
          "audioEvent": {
            "text": "Stop_vo_monster_shaman_grass_supportAttack"
          }
        },
        {
          "currentStateName": "SupportAttack2",
          "audioEvent": {
            "text": "Stop_vo_monster_shaman_grass_supportAttack"
          }
        },
        {
          "currentStateName": "Dance",
          "audioEvent": {
            "text": "Stop_sfx_monster_shaman_grass_dance"
          }
        }
      ]
    },
    "disableEvent": {
      "text": "Stop_sfx_monster_shaman_grass_dance"
    },
    "destroyEvent": {
      "text": "Stop_sfx_monster_shaman_grass_dance"
    }
  }
}
