{
  "common": {
    "effectAttachShape": {
      "$type": "ConfigEffectAttachSkinnedMesh",
      "mesh": "EffectMesh"
    },
    "mass": 80.0,
    "height": 0.6000000238418579,
    "affectedByWorld": true,
    "checkInSurface": true,
    "useGrassDisplacement": true,
    "clearAnimatorOnSetLightDeactive": true,
    "clearAIOnSetLightDeactive": true,
    "NCCLLKFLJGL": true
  },
  "model": {
    "bornEffect": "",
    "attachEffect": "",
    "canBakeMesh": false
  },
  "dither": {
    "showDitherDuration": 2.0
  },
  "combat": {
    "property": {
      "endureType": "Monster_Slime",
      "weight": 75.0
    },
    "beHit": {
      "hitBloodEffect": ""
    },
    "combatLock": {
      "lockShape": "CircleLockEnemy",
      "lockType": "Avatar&Monster_Lv4"
    },
    "die": {
      "hasAnimatorDie": true,
      "dieEndTime": 0.5,
      "dieForceDisappearTime": 1.5,
      "dieDisappearEffect": "Eff_Death_Common",
      "dieShaderData": "MonsterDie",
      "OCGODEHJPME": true,
      "MFJBKFECLNJ": true,
      "IMEEBMBJPGJ": true,
      "ICHFPLMNCLC": true,
      "MBHMAGEPJFH": true,
      "CFHPDHFKMEP": true
    },
    "animEvents": {
      "MeleeAttackNormal": {
        "attackPattern": {
          "$type": "ConfigAttackCircle",
          "triggerType": "TriggerNoRepeat",
          "born": {
            "$type": "ConfigBornBySelf",
            "offset": {
              "x": 0.0,
              "y": 0.0,
              "z": 0.0
            }
          },
          "height": 1.7999999523162842,
          "radius": 2.5
        },
        "attackInfo": {
          "attackTag": "",
          "attenuationTag": "",
          "attenuationGroup": "default",
          "attackProperty": {
            "damagePercentage": 0.30000001192092896,
            "MKLAMNDEDGB": 0.0,
            "bonusCriticalHurt": 100.0,
            "strikeType": "Blunt",
            "enBreak": 80.0,
            "attackType": "Melee"
          },
          "hitPattern": {
            "onHitEffectName": "default",
            "hitImpulseType": "LV3"
          }
        }
      },
      "MeleeAttackDecay": {
        "attackPattern": {
          "$type": "ConfigAttackCircle",
          "triggerType": "TriggerNoRepeat",
          "born": {
            "$type": "ConfigBornBySelf",
            "offset": {
              "x": 0.0,
              "y": 0.0,
              "z": 0.0
            }
          },
          "height": 2.0,
          "radius": 3.5
        },
        "attackInfo": {
          "attackTag": "",
          "attenuationTag": "",
          "attenuationGroup": "default",
          "attackProperty": {
            "damagePercentage": 0.6000000238418579,
            "MKLAMNDEDGB": 0.0,
            "bonusCriticalHurt": 100.0,
            "strikeType": "Blunt",
            "enBreak": 150.0,
            "attackType": "Melee"
          },
          "hitPattern": {
            "onHitEffectName": "default",
            "hitImpulseType": "LV4"
          }
        }
      },
      "FlyingAttackNormal": {
        "attackPattern": {
          "$type": "ConfigAttackCircle",
          "triggerType": "TriggerNoRepeat",
          "born": {
            "$type": "ConfigBornBySelf",
            "offset": {
              "x": 0.0,
              "y": 0.0,
              "z": 0.0
            }
          },
          "fanAngle": 150.0,
          "radius": 1.5
        },
        "attackInfo": {
          "attackTag": "",
          "attenuationTag": "",
          "attenuationGroup": "default",
          "attackProperty": {
            "damagePercentage": 0.6000000238418579,
            "MKLAMNDEDGB": 0.0,
            "bonusCriticalHurt": 100.0,
            "strikeType": "Blunt",
            "enBreak": 150.0,
            "attackType": "Melee"
          },
          "hitPattern": {
            "onHitEffectName": "default",
            "hitImpulseType": "LV3"
          }
        }
      },
      "FlyingAttackDecay": {
        "attackPattern": {
          "$type": "ConfigAttackCircle",
          "triggerType": "TriggerNoRepeat",
          "born": {
            "$type": "ConfigBornBySelf",
            "offset": {
              "x": 0.0,
              "y": 0.0,
              "z": 0.0
            }
          },
          "fanAngle": 150.0,
          "radius": 3.0
        },
        "attackInfo": {
          "attackTag": "",
          "attenuationTag": "",
          "attenuationGroup": "default",
          "attackProperty": {
            "damagePercentage": 1.0,
            "MKLAMNDEDGB": 0.0,
            "bonusCriticalHurt": 100.0,
            "strikeType": "Blunt",
            "enBreak": 200.0,
            "attackType": "Melee"
          },
          "hitPattern": {
            "onHitEffectName": "default",
            "hitImpulseType": "LV4"
          }
        }
      }
    }
  },
  "abilities": [
    {
      "abilityID": "",
      "abilityName": "Monster_Fungus_FungusStateManager",
      "abilityOverride": ""
    },
    {
      "abilityID": "",
      "abilityName": "Monster_Fungus_Un_ReturnToBornManager",
      "abilityOverride": ""
    },
    {
      "abilityID": "",
      "abilityName": "Monster_Fungus_Deux_Alpha_Fire_HitThrowDropToGround",
      "abilityOverride": ""
    },
    {
      "abilityID": "",
      "abilityName": "Monster_Fungus_Deux_Alpha_Fire_Steer",
      "abilityOverride": ""
    },
    {
      "abilityID": "",
      "abilityName": "Monster_Fungus_Deux_Alpha_Fire_MeleeAttackNormal",
      "abilityOverride": ""
    },
    {
      "abilityID": "",
      "abilityName": "Monster_Fungus_Deux_Alpha_Fire_FlyingAttackNormal",
      "abilityOverride": ""
    },
    {
      "abilityID": "",
      "abilityName": "Monster_Fungus_Deux_Alpha_Fire_FlyingAttack_Alert",
      "abilityOverride": ""
    },
    {
      "abilityID": "",
      "abilityName": "Monster_Fungus_Not_Un_Gamma_Water_Mark",
      "abilityOverride": ""
    }
  ],
  "stateLayers": {
    "defaultLayer": {
      "$type": "ConfigNormalStateLayer",
      "FNPGDAEJAPJ": "",
      "stateIDs": {
        "Born": {
          "$type": "ConfigMonsterStateIDInfo",
          "animatorStates": {
            "Born": []
          },
          "canSyncMove": true,
          "resetAnimatorTriggerOnExit": ["DoSkill"]
        },
        "NormalIdle": {
          "$type": "ConfigMonsterStateIDInfo",
          "animatorStates": {
            "StandbyFree": [],
            "Standby": []
          },
          "canDoSkill": true,
          "canSyncMove": true,
          "resetAnimatorTriggerOnExit": ["DoSkill"],
          "BHEPAJIOBDN": true,
          "BKLKHCBEHNL": true
        },
        "NormalMove": {
          "$type": "ConfigMonsterStateIDInfo",
          "animatorStates": {
            "WalkForward_BS": [
              "Monster_Fungus_Deux_WalkForward",
              "Audio_Monster_Fungus_Deux_Walk"
            ],
            "WalkForward_AS": [
              "Monster_Fungus_Deux_WalkForward",
              "Audio_Monster_Fungus_Deux_Walk_AS"
            ],
            "Run_Decay": [
              "Monster_Fungus_Deux_Run_Decay",
              "Audio_Monster_Fungus_Deux_Run"
            ]
          },
          "canDoSkill": true,
          "canSyncMove": true,
          "resetAnimatorTriggerOnExit": ["DoSkill"],
          "BHEPAJIOBDN": true
        },
        "BeHit": {
          "$type": "ConfigMonsterStateIDInfo",
          "animatorStates": {
            "Hit_H": ["Audio_Monster_Fungus_Deux_HitThrow"]
          },
          "canSyncMove": true,
          "resetAnimatorTriggerOnEnter": ["BeHit"],
          "resetAnimatorTriggerOnExit": ["DoSkill"],
          "KHLKKBPCMBA": true
        },
        "BeHitThrow": {
          "$type": "ConfigMonsterStateIDInfo",
          "animatorStates": {
            "HitThrow": ["Audio_Monster_Fungus_Deux_HitThrow"],
            "HitThrowDrop": [],
            "HitThrowToGround": [
              "Monster_Fungus_Deux_Alpha_Fire_HitThrowToGround",
              "Audio_Monster_Fungus_Deux_HitThrowToGround"
            ]
          },
          "resetAnimatorTriggerOnEnter": ["BeHit", "HitAir2HitDrop"],
          "resetAnimatorTriggerOnExit": ["DoSkill"]
        },
        "Struggle": {
          "$type": "ConfigMonsterStateIDInfo",
          "animatorStates": {
            "Struggle": []
          },
          "resetAnimatorTriggerOnEnter": ["BeHit", "HitAir2HitDrop"],
          "resetAnimatorTriggerOnExit": ["DoSkill"]
        },
        "Die": {
          "$type": "ConfigMonsterStateIDInfo",
          "animatorStates": {
            "Die_BS": ["Audio_Monster_Fungus_Deux_Die"],
            "Die": ["Monster_Fungus_Deux_Die"],
            "AirDie": ["Monster_Fungus_Deux_Die"],
            "SwimDie_BS": [],
            "SwimDie": ["Monster_Fungus_Deux_Die"]
          }
        },
        "Warning": {
          "$type": "ConfigMonsterStateIDInfo",
          "animatorStates": {
            "Warning": ["Audio_Monster_Fungus_Deux_Warning"]
          },
          "canSyncMove": true,
          "resetAnimatorTriggerOnExit": ["BeHit", "DoSkill"],
          "BHEPAJIOBDN": true
        },
        "ChangeState": {
          "$type": "ConfigMonsterStateIDInfo",
          "animatorStates": {
            "ChangeStateToOverdose": ["Audio_Monster_Fungus_Deux_ChanceState"],
            "ChangeStateToDecayed": ["Audio_Monster_Fungus_Deux_ChanceState"]
          },
          "canSyncMove": true,
          "resetAnimatorTriggerOnEnter": ["BeHit"],
          "resetAnimatorTriggerOnExit": ["DoSkill"],
          "KHLKKBPCMBA": true
        },
        "Dance": {
          "$type": "ConfigMonsterStateIDInfo",
          "animatorStates": {
            "Dance": ["Audio_Monster_Fungus_Deux_Dance"]
          },
          "canDoSkill": true,
          "canSyncMove": true,
          "resetAnimatorTriggerOnExit": ["BeHit", "DoSkill"],
          "BHEPAJIOBDN": true
        },
        "Tease": {
          "$type": "ConfigMonsterStateIDInfo",
          "animatorStates": {
            "Tease": ["Audio_Monster_Fungus_Deux_Tease"]
          },
          "canDoSkill": true,
          "canSyncMove": true,
          "resetAnimatorTriggerOnExit": ["BeHit", "DoSkill"],
          "BHEPAJIOBDN": true
        },
        "Absorb": {
          "$type": "ConfigMonsterStateIDInfo",
          "animatorStates": {
            "Absorb": [
              "Monster_Fungus_Deux_Absorb",
              "Audio_Monster_Fungus_Deux_Absorb"
            ]
          },
          "canDoSkill": true,
          "canSyncMove": true,
          "resetAnimatorTriggerOnExit": ["BeHit", "DoSkill"],
          "BHEPAJIOBDN": true
        },
        "MeleeAttack": {
          "$type": "ConfigMonsterStateIDInfo",
          "animatorStates": {
            "MeleeAttackNormal_BS": [
              "Audio_Monster_Fungus_Deux_MeleeAttack_BS"
            ],
            "MeleeAttackNormal_Loop": [],
            "MeleeAttackNormal_Attack": [
              "Monster_Fungus_Deux_Alpha_Fire_MeleeAttackNormal_Attack",
              "Audio_Monster_Fungus_Deux_MeleeAttack_Attack"
            ],
            "MeleeAttackNormal_AS": [],
            "MeleeAttackOverdose_BS": [
              "Audio_Monster_Fungus_Deux_MeleeAttack_BS"
            ],
            "MeleeAttackOverdose_Loop": [],
            "MeleeAttackOverdose_Attack": [
              "Monster_Fungus_Deux_Alpha_Fire_MeleeAttackNormal_Attack",
              "Audio_Monster_Fungus_Deux_MeleeAttack_Attack"
            ],
            "MeleeAttackOverdose_AS": [],
            "MeleeAttackDecay_BS": ["Audio_Monster_Fungus_Deux_MeleeAttack_BS"],
            "MeleeAttackDecay_Loop": [],
            "MeleeAttackDecay_Attack": [
              "Monster_Fungus_Deux_Alpha_Fire_MeleeAttackDecay_Attack",
              "Audio_Monster_Fungus_Deux_MeleeAttack_Attack"
            ],
            "MeleeAttackDecay_AS": []
          },
          "canSyncMove": true,
          "resetAnimatorTriggerOnExit": ["BeHit", "DoSkill"],
          "BHEPAJIOBDN": true
        },
        "FlyingAttackNormal_BS": {
          "$type": "ConfigMonsterStateIDInfo",
          "animatorStates": {
            "FlyingAttackNormal_BS01": [
              "Audio_Monster_Fungus_Deux_Fire_FlyingAttack_BS"
            ],
            "FlyingAttackNormal_BS02": [
              "Monster_Fungus_Deux_Alpha_Fire_FlyingAttackNormal_BS02"
            ],
            "FlyingAttackNormal_Loop": []
          },
          "AAEKKGMOKFK": true,
          "resetAnimatorTriggerOnExit": ["BeHit", "DoSkill"],
          "BHEPAJIOBDN": true
        },
        "FlyingAttackOverdose_BS": {
          "$type": "ConfigMonsterStateIDInfo",
          "animatorStates": {
            "FlyingAttackOverdose_BS01": [
              "Audio_Monster_Fungus_Deux_Fire_FlyingAttack_BS"
            ],
            "FlyingAttackOverdose_BS02": [
              "Monster_Fungus_Deux_Alpha_Fire_FlyingAttackNormal_BS02"
            ],
            "FlyingAttackOverdose_Loop": []
          },
          "AAEKKGMOKFK": true,
          "resetAnimatorTriggerOnExit": ["BeHit", "DoSkill"],
          "BHEPAJIOBDN": true
        },
        "FlyingAttackDecay_BS": {
          "$type": "ConfigMonsterStateIDInfo",
          "animatorStates": {
            "FlyingAttackDecay_BS01": [
              "Audio_Monster_Fungus_Deux_Fire_FlyingAttack_Decay_BS"
            ],
            "FlyingAttackDecay_BS02": [
              "Monster_Fungus_Deux_Alpha_Fire_FlyingAttackDecay_BS02"
            ],
            "FlyingAttackDecay_Loop": []
          },
          "AAEKKGMOKFK": true,
          "resetAnimatorTriggerOnExit": ["BeHit", "DoSkill"],
          "BHEPAJIOBDN": true
        },
        "FlyingAttack": {
          "$type": "ConfigMonsterStateIDInfo",
          "animatorStates": {
            "FlyingAttackNormal_Attack": [
              "Monster_Fungus_Deux_Alpha_Fire_FlyingAttackNormal_Attack",
              "Audio_Monster_Fungus_Deux_Fire_FlyingAttack_Attack"
            ],
            "FlyingAttackNormal_AS": [
              "Audio_Monster_Fungus_Deux_Fire_FlyingAttack_AS"
            ],
            "FlyingAttackOverdose_Attack": [
              "Monster_Fungus_Deux_Alpha_Fire_FlyingAttackNormal_Attack",
              "Audio_Monster_Fungus_Deux_Fire_FlyingAttack_Attack"
            ],
            "FlyingAttackOverdose_AS": [
              "Audio_Monster_Fungus_Deux_Fire_FlyingAttack_AS"
            ],
            "FlyingAttackDecay_Attack": [
              "Monster_Fungus_Deux_Alpha_Fire_FlyingAttackDecay_Attack",
              "Audio_Monster_Fungus_Deux_Fire_FlyingAttack_Attack"
            ],
            "FlyingAttackDecay_AS": [
              "Audio_Monster_Fungus_Deux_Fire_FlyingAttack_AS"
            ]
          },
          "AAEKKGMOKFK": true,
          "resetAnimatorTriggerOnExit": ["BeHit", "DoSkill"]
        },
        "ReturnToBorn": {
          "$type": "ConfigMonsterStateIDInfo",
          "animatorStates": {
            "ReturnToBorn_BS": [
              "Monster_Fungus_Deux_ReturnToBorn_BS",
              "Audio_Monster_Fungus_Deux_ReturnToBorn_BS"
            ],
            "ReturnToBorn_Loop": [],
            "ReturnToBorn_AS": [
              "Monster_Fungus_Deux_ReturnToBorn_AS",
              "Audio_Monster_Fungus_Deux_ReturnToBorn_AS"
            ]
          },
          "AAEKKGMOKFK": true,
          "resetAnimatorTriggerOnExit": ["BeHit", "DoSkill"]
        }
      }
    }
  },
  "billboard": {
    "$type": "NCBABGPMMPL",
    "EBBHBMFMOGD": "BillboardAttach",
    "offset": {
      "y": 0.5
    },
    "OELDMANLPDM": 1.0,
    "KLIMPNOBGLK": true,
    "ANGKJBLILKJ": true
  },
  "initialPoses": {
    "Default": {
      "initialPoseID": 101
    },
    "Dance": {
      "initialPoseID": 102,
      "initialPoseParams": {
        "boolParams": {
          "Dance": "true"
        }
      }
    },
    "Tease": {
      "initialPoseID": 103,
      "initialPoseParams": {
        "boolParams": {
          "Tease": "true"
        }
      }
    },
    "Absorb": {
      "initialPoseID": 104,
      "initialPoseParams": {
        "boolParams": {
          "Absorb": "true"
        }
      }
    }
  },
  "aibeta": {
    "enable": true,
    "moveSetting": {
      "navMeshAgentName": "Undead01"
    },
    "sensing": {
      "settings": {
        "DefaultSetting": {
          "viewRange": 22.0,
          "feelRange": 8.75
        },
        "Patrol": {
          "viewRange": 0.0,
          "feelRange": 6.0
        },
        "NoSensing": {
          "enableVision": false,
          "hearAttractionRange": 0.0,
          "feelRange": 0.0
        }
      },
      "templates": {
        "DefaultTemplate": {
          "DefaultPoses": "DefaultSetting"
        },
        "Patrol": {
          "DefaultPoses": "Patrol"
        },
        "NoSensing": {
          "DefaultPoses": "NoSensing"
        }
      }
    },
    "neurons": {
      "DefaultSetting": ["HIT"],
      "NeverCombat": []
    },
    "threat": {
      "clearThreatTargetDistance": 30.0,
      "clearThreatEdgeDistance": 5.0,
      "clearThreatByTargetOutOfZone": true,
      "clearThreatTimerByDistance": 2.0,
      "viewAttenuation": [
        {
          "x": 12.0,
          "y": 1.0
        },
        {
          "x": 20.0,
          "y": 0.5
        }
      ]
    },
    "defendArea": {
      "defendRange": 50.0
    },
    "skillSetting": {
      "skillEliteSet": {
        "1": [],
        "2": [112]
      }
    },
    "skills": {
      "100": {
        "name": "OnAlert",
        "skillType": "OnAlert",
        "faceTarget": true,
        "publicCDGroup": "",
        "triggerGCD": false,
        "stateIDs": ["Warning"],
        "skillQueryingTime": 3.0,
        "flagTargetReachable": "10",
        "flagSelfOnTemplateCollider": "01",
        "flagSelfInZone": "10",
        "flagTargetInZone": "11"
      },
      "102": {
        "name": "Dance",
        "skillType": "Free",
        "castCondition": {
          "pose": [102]
        },
        "cd": 15.0,
        "initialCD": 5.0,
        "publicCDGroup": "",
        "triggerGCD": false,
        "stateIDs": ["Dance"],
        "skillQueryingTime": 3.0,
        "flagTargetReachable": "10",
        "flagSelfOnTemplateCollider": "01",
        "flagSelfInZone": "10",
        "flagTargetInZone": "11"
      },
      "112": {
        "name": "Tease2",
        "skillType": "Free",
        "castCondition": {
          "pose": [101, 111, 121]
        },
        "cd": 0.5,
        "initialCD": 0.6000000238418579,
        "publicCDGroup": "",
        "triggerGCD": false,
        "stateIDs": ["Tease"],
        "skillQueryingTime": 3.0,
        "flagTargetReachable": "10",
        "flagSelfOnTemplateCollider": "01",
        "flagSelfInZone": "10",
        "flagTargetInZone": "11"
      },
      "103": {
        "name": "Tease",
        "skillType": "Free",
        "castCondition": {
          "pose": [103]
        },
        "cd": 10.0,
        "cdUpperRange": 10.0,
        "initialCD": 5.0,
        "initialCDUpperRange": 10.0,
        "publicCDGroup": "",
        "triggerGCD": false,
        "stateIDs": ["Tease"],
        "skillQueryingTime": 3.0,
        "flagTargetReachable": "10",
        "flagSelfOnTemplateCollider": "01",
        "flagSelfInZone": "10",
        "flagTargetInZone": "11"
      },
      "104": {
        "name": "Absorb",
        "skillType": "Free",
        "castCondition": {
          "pose": [104]
        },
        "cd": 10.0,
        "cdUpperRange": 10.0,
        "initialCD": 5.0,
        "initialCDUpperRange": 10.0,
        "publicCDGroup": "",
        "triggerGCD": false,
        "stateIDs": ["Absorb"],
        "skillQueryingTime": 3.0,
        "flagTargetReachable": "10",
        "flagSelfOnTemplateCollider": "01",
        "flagSelfInZone": "10",
        "flagTargetInZone": "11"
      },
      "301": {
        "name": "MeleeAttackNormal",
        "combatSkillType": "MeleeAttack",
        "enableSkillPrepare": true,
        "skillPrepareSpeedLevel": 1,
        "castCondition": {
          "pose": [301],
          "pickRangeMin": 2.5,
          "pickRangeMax": 5.0,
          "castRangeMax": 2.5
        },
        "cd": 5.0,
        "initialCD": 5.0,
        "publicCDGroup": "",
        "stateIDs": ["MeleeAttack"],
        "flagTargetReachable": "10",
        "flagSelfOnTemplateCollider": "01",
        "flagSelfInZone": "10",
        "flagTargetInZone": "11"
      },
      "302": {
        "name": "MeleeAttackNormalClose",
        "combatSkillType": "MeleeAttack",
        "castCondition": {
          "pose": [301],
          "pickRangeMax": 2.700000047683716,
          "castRangeMax": 2.700000047683716
        },
        "cdUpperRange": 2.0,
        "publicCDGroup": "",
        "ignoreGCD": true,
        "stateIDs": ["MeleeAttack"],
        "flagTargetReachable": "10",
        "flagSelfOnTemplateCollider": "01",
        "flagSelfInZone": "11",
        "flagTargetInZone": "11"
      },
      "311": {
        "name": "MeleeAttackOverdose",
        "combatSkillType": "MeleeAttack",
        "enableSkillPrepare": true,
        "skillPrepareSpeedLevel": 1,
        "castCondition": {
          "pose": [311],
          "pickRangeMin": 2.5,
          "pickRangeMax": 5.0,
          "castRangeMax": 2.5
        },
        "cd": 5.0,
        "initialCD": 5.0,
        "publicCDGroup": "",
        "stateIDs": ["MeleeAttack"],
        "flagTargetReachable": "10",
        "flagSelfOnTemplateCollider": "01",
        "flagSelfInZone": "10",
        "flagTargetInZone": "11"
      },
      "312": {
        "name": "MeleeAttackOverdoseClose",
        "combatSkillType": "MeleeAttack",
        "castCondition": {
          "pose": [311],
          "pickRangeMax": 2.700000047683716,
          "castRangeMax": 2.700000047683716
        },
        "cdUpperRange": 1.0,
        "initialCD": 5.0,
        "publicCDGroup": "",
        "ignoreGCD": true,
        "stateIDs": ["MeleeAttack"],
        "flagTargetReachable": "10",
        "flagSelfOnTemplateCollider": "01",
        "flagSelfInZone": "11",
        "flagTargetInZone": "11"
      },
      "321": {
        "name": "MeleeAttackDecayed",
        "combatSkillType": "MeleeAttack",
        "enableSkillPrepare": true,
        "skillPrepareSpeedLevel": 1,
        "castCondition": {
          "pose": [321],
          "pickRangeMin": 2.5,
          "pickRangeMax": 5.0,
          "castRangeMax": 2.5
        },
        "cd": 5.0,
        "publicCDGroup": "",
        "stateIDs": ["MeleeAttack"],
        "flagTargetReachable": "10",
        "flagSelfOnTemplateCollider": "01",
        "flagSelfInZone": "10",
        "flagTargetInZone": "11"
      },
      "322": {
        "name": "MeleeAttackDecayedClose",
        "combatSkillType": "MeleeAttack",
        "enableSkillPrepare": true,
        "skillPrepareTimeout": 4.0,
        "skillPrepareSpeedLevel": 1,
        "castCondition": {
          "pose": [321],
          "pickRangeMax": 2.700000047683716,
          "castRangeMax": 2.700000047683716
        },
        "cdUpperRange": 4.0,
        "publicCDGroup": "",
        "ignoreGCD": true,
        "stateIDs": ["MeleeAttack"],
        "flagTargetReachable": "10",
        "flagSelfOnTemplateCollider": "01",
        "flagSelfInZone": "11",
        "flagTargetInZone": "11"
      },
      "501": {
        "name": "FlyingAttackNormal",
        "combatSkillType": "MeleeAttack",
        "castCondition": {
          "pose": [301],
          "needReInitCD": true,
          "pickRangeMin": 4.5,
          "pickRangeMax": 12.0
        },
        "cd": 5.0,
        "cdUpperRange": 10.0,
        "initialCD": 1.0,
        "initialCDUpperRange": 2.5,
        "publicCDGroup": "",
        "stateIDs": ["FlyingAttack", "FlyingAttackNormal_BS"],
        "flagTargetReachable": "10",
        "flagSelfOnTemplateCollider": "01",
        "flagSelfInZone": "10",
        "flagTargetInZone": "11"
      },
      "511": {
        "name": "FlyingAttackOverdose",
        "combatSkillType": "MeleeAttack",
        "castCondition": {
          "pose": [311],
          "needReInitCD": true,
          "pickRangeMin": 4.5,
          "pickRangeMax": 12.0
        },
        "cd": 5.0,
        "cdUpperRange": 3.0,
        "initialCD": 0.5,
        "initialCDUpperRange": 1.5,
        "publicCDGroup": "",
        "stateIDs": ["FlyingAttack", "FlyingAttackOverdose_BS"],
        "flagTargetReachable": "10",
        "flagSelfOnTemplateCollider": "01",
        "flagSelfInZone": "10",
        "flagTargetInZone": "11"
      },
      "521": {
        "name": "FlyingAttackDecayed",
        "combatSkillType": "MeleeAttack",
        "castCondition": {
          "pose": [321],
          "needReInitCD": true,
          "pickRangeMin": 4.5,
          "pickRangeMax": 16.0
        },
        "cd": 6.0,
        "cdUpperRange": 6.0,
        "initialCD": 3.0,
        "initialCDUpperRange": 3.0,
        "publicCDGroup": "",
        "stateIDs": ["FlyingAttack", "FlyingAttackDecay_BS"],
        "flagTargetReachable": "10",
        "flagSelfOnTemplateCollider": "01",
        "flagSelfInZone": "10",
        "flagTargetInZone": "11"
      }
    },
    "skillGCD": 3.5,
    "returnToBornTactic": {
      "enable": true,
      "defaultSetting": {
        "spacial": true,
        "KLHLJGGBMEL": 3.25
      }
    },
    "wanderTactic": {
      "enable": true,
      "condition": {
        "pose": [101, 111, 121]
      },
      "defaultSetting": {
        "cdMax": 3.0,
        "cdMin": 1.5,
        "distanceFromBorn": 15.0,
        "distanceFromCurrentMin": 3.75,
        "distanceFromCurrentMax": 7.5
      }
    },
    "followScriptedPathTactic": {
      "enable": true,
      "defaultSetting": {
        "turnSpeedOverrideWalk": 1.0,
        "turnSpeedOverrideRun": 1.0
      }
    },
    "APPJMEDOGGE": {
      "enable": true,
      "condition": {
        "pose": [101, 111, 121]
      },
      "defaultSetting": {
        "speedLevel": 1
      },
      "specification": {
        "121": {}
      }
    },
    "meleeChargeTactic": {
      "enable": true,
      "condition": {
        "pose": [301, 311, 321]
      },
      "defaultSetting": {
        "speedLevel": 1,
        "startDistanceMin": 10.0,
        "startDistanceMax": 50.0,
        "stopDistance": 9.0,
        "innerDistance": 0.0
      },
      "specification": {
        "321": {
          "startDistanceMin": 10.0,
          "startDistanceMax": 50.0,
          "stopDistance": 2.5,
          "innerDistance": 6.0,
          "speedLevelInner": 2
        }
      }
    }
  },
  "inputKeys": [
    {
      "keyID": 301,
      "inputKeyCode": 257,
      "abilityName": ""
    },
    {
      "keyID": 501,
      "inputKeyCode": 258,
      "abilityName": ""
    },
    {
      "keyID": 311,
      "inputKeyCode": 259,
      "abilityName": ""
    },
    {
      "keyID": 511,
      "inputKeyCode": 260,
      "abilityName": ""
    },
    {
      "keyID": 321,
      "inputKeyCode": 261,
      "abilityName": ""
    },
    {
      "keyID": 521,
      "inputKeyCode": 262,
      "abilityName": ""
    },
    {
      "keyID": 102,
      "inputKeyCode": 263,
      "abilityName": ""
    },
    {
      "keyID": 103,
      "inputKeyCode": 264,
      "abilityName": ""
    },
    {
      "keyID": 104,
      "inputKeyCode": 265,
      "abilityName": ""
    },
    {
      "keyID": 9997,
      "inputKeyCode": 266,
      "abilityName": ""
    },
    {
      "keyID": 9998,
      "inputKeyCode": 267,
      "abilityName": ""
    },
    {
      "keyID": 9999,
      "inputKeyCode": 268,
      "abilityName": ""
    }
  ],
  "move": {
    "$type": "PLMNMICDOHN",
    "CNPDANKMFNL": "AirBlend3D",
    "NGNIGPNNLAI": "SlimeType"
  },
  "audio": {
    "NCOGLLMIJGO": "",
    "animAudio": {
      "onTransitionIn": [
        {
          "currentStateName": "",
          "audioEvent": {
            "text": ""
          }
        }
      ],
      "onTransitionOut": [
        {
          "currentStateName": "Absorb",
          "audioEvent": {
            "text": "Stop_sfx_monster_Fungus_Deux_absorb"
          }
        },
        {
          "currentStateName": "Dance",
          "audioEvent": {
            "text": "Stop_sfx_monster_Fungus_Deux_dance"
          }
        }
      ]
    }
  }
}
