{
  "common": {
    "effectAttachShape": {
      "$type": "ConfigEffectAttachSkinnedMesh",
      "mesh": "EffectMesh"
    },
    "mass": 500.0,
    "height": 2.0,
    "modelHeight": 1.7000000476837158,
    "viewSize": 1.2999999523162842,
    "affectedByWorld": true,
    "checkInSurface": true,
    "scale": 1.2999999523162842,
    "useGrassDisplacement": true
  },
  "headControl": {
    "$type": "GAAIKCFIJMM",
    "useHeadControl": true,
    "KBBNEKBLPFA": 75.0,
    "FJOGFHEFPHN": 30.0,
    "FCDMCPDGFCL": [
      "NormalIdle/Standby",
      "NormalMove/WalkForward",
      "NormalMove/WalkBack",
      "NormalMove/WalkRight",
      "NormalMove/WalkLeft",
      "NormalMove/Run",
      "Turn/TurnLeft",
      "Turn/TurnRight"
    ]
  },
  "model": {
    "bornEffect": "Eff_Monster_Common_Born",
    "attachEffect": ""
  },
  "dither": {
    "showDitherDuration": 1.0
  },
  "combat": {
    "property": {
      "endureType": "Monster_Grunt_Humanoid",
      "weight": 100.0
    },
    "beHit": {
      "hitBloodEffect": ""
    },
    "combatLock": {
      "lockShape": "CircleLockEnemy",
      "lockType": "Avatar&Monster_Lv4"
    },
    "die": {
      "hasAnimatorDie": true,
      "dieEndTime": 4.0,
      "dieForceDisappearTime": 15.0,
      "dieDisappearEffect": "",
      "useRagDoll": true,
      "ragDollDieEndTimeDelay": 15.0,
      "OCGODEHJPME": true,
      "MFJBKFECLNJ": true,
      "IMEEBMBJPGJ": true,
      "ICHFPLMNCLC": true,
      "MBHMAGEPJFH": true,
      "CFHPDHFKMEP": true
    },
    "animEvents": {
      "NormalAtk": {
        "attackPattern": {
          "$type": "ConfigAttackCircle",
          "triggerType": "TriggerNoRepeat",
          "born": {
            "$type": "ConfigBornBySelf",
            "offset": {
              "x": 0.0,
              "y": 0.0,
              "z": 0.0
            }
          },
          "fanAngle": 90.0,
          "radius": 2.25
        },
        "attackInfo": {
          "attackTag": "",
          "attenuationTag": "",
          "attenuationGroup": "default",
          "attackProperty": {
            "damagePercentage": 1.0,
            "MKLAMNDEDGB": 0.0,
            "bonusCriticalHurt": 100.0,
            "strikeType": "Blunt",
            "enBreak": 200.0,
            "attackType": "Melee"
          },
          "hitPattern": {
            "onHitEffectName": "default",
            "hitImpulseType": "LV4",
            "hitHaltTimeScale": 0.009999999776482582
          }
        }
      },
      "WildAtk01": {
        "attackPattern": {
          "$type": "NAMPOMPBMHC",
          "triggerType": "TriggerNoRepeat",
          "born": {
            "$type": "ConfigBornBySelf",
            "offset": {
              "x": 0.0,
              "y": 0.800000011920929,
              "z": 0.0
            }
          },
          "size": {
            "x": 2.4000000953674316,
            "y": 1.0,
            "z": 2.799999952316284
          }
        },
        "attackInfo": {
          "attackTag": "",
          "attenuationTag": "",
          "attenuationGroup": "default",
          "attackProperty": {
            "damagePercentage": 0.5,
            "MKLAMNDEDGB": 0.0,
            "bonusCriticalHurt": 100.0,
            "strikeType": "Blunt",
            "enBreak": 200.0
          },
          "hitPattern": {
            "onHitEffectName": "default",
            "hitImpulseType": "LV4",
            "retreatType": "ByHitDirection",
            "hitHaltTime": 0.05999999865889549,
            "hitHaltTimeScale": 0.009999999776482582
          },
          "cameraShake": {
            "shakeType": "HitVector",
            "shakeRange": 0.1599999964237213,
            "shakeTime": 0.11999999731779099,
            "shakeDistance": 25.0,
            "shakeDir": {
              "z": 1.0
            }
          }
        }
      },
      "WildAtk02": {
        "attackPattern": {
          "$type": "NAMPOMPBMHC",
          "triggerType": "TriggerNoRepeat",
          "born": {
            "$type": "ConfigBornBySelf",
            "offset": {
              "x": 0.0,
              "y": 0.800000011920929,
              "z": 0.699999988079071
            }
          },
          "size": {
            "x": 3.0,
            "y": 2.0,
            "z": 2.799999952316284
          }
        },
        "attackInfo": {
          "attackTag": "",
          "attenuationTag": "",
          "attenuationGroup": "default",
          "attackProperty": {
            "damagePercentage": 0.5,
            "MKLAMNDEDGB": 0.0,
            "bonusCriticalHurt": 100.0,
            "strikeType": "Blunt",
            "enBreak": 200.0
          },
          "hitPattern": {
            "onHitEffectName": "default",
            "hitImpulseType": "LV4",
            "retreatType": "ByHitDirection",
            "hitHaltTime": 0.05999999865889549,
            "hitHaltTimeScale": 0.009999999776482582
          },
          "cameraShake": {
            "shakeType": "HitVector",
            "shakeRange": 0.1599999964237213,
            "shakeTime": 0.11999999731779099,
            "shakeDistance": 25.0,
            "shakeDir": {
              "z": 1.0
            }
          }
        }
      },
      "WildAtk03": {
        "attackPattern": {
          "$type": "ConfigAttackCircle",
          "triggerType": "TriggerNoRepeat",
          "born": {
            "$type": "ConfigBornBySelf",
            "offset": {
              "x": 0.0,
              "y": 0.0,
              "z": 0.0
            }
          },
          "height": 3.0,
          "fanAngle": 45.0,
          "radius": 3.5
        },
        "attackInfo": {
          "attackTag": "",
          "attenuationTag": "",
          "attenuationGroup": "default",
          "attackProperty": {
            "damagePercentage": 1.0,
            "MKLAMNDEDGB": 0.0,
            "bonusCriticalHurt": 100.0,
            "strikeType": "Blunt",
            "enBreak": 200.0
          },
          "hitPattern": {
            "onHitEffectName": "default",
            "hitImpulseType": "LV6",
            "hitHaltTime": 0.05999999865889549,
            "hitHaltTimeScale": 0.009999999776482582
          },
          "cameraShake": {
            "shakeType": "HitVector",
            "shakeRange": 0.1599999964237213,
            "shakeTime": 0.15000000596046448,
            "shakeDistance": 25.0,
            "shakeDir": {
              "x": 1.0,
              "y": -1.0
            }
          }
        }
      },
      "PowerSlam01": {
        "attackPattern": {
          "$type": "ConfigAttackCircle",
          "triggerType": "TriggerNoRepeat",
          "born": {
            "$type": "ConfigBornBySelf",
            "offset": {
              "x": 0.0,
              "y": 0.0,
              "z": -0.5
            }
          },
          "fanAngle": 75.0,
          "radius": 2.75
        },
        "attackInfo": {
          "attackTag": "",
          "attenuationTag": "",
          "attenuationGroup": "default",
          "attackProperty": {
            "damagePercentage": 1.2000000476837158,
            "MKLAMNDEDGB": 0.0,
            "bonusCriticalHurt": 100.0,
            "strikeType": "Blunt",
            "enBreak": 200.0,
            "attackType": "Melee"
          },
          "hitPattern": {
            "onHitEffectName": "default",
            "hitImpulseType": "LV4"
          },
          "cameraShake": {
            "shakeType": "HitVector",
            "shakeRange": 0.05999999865889549,
            "shakeTime": 0.09000000357627869,
            "shakeDir": {
              "y": -1.0
            }
          }
        }
      }
    }
  },
  "equipController": {
    "sheathPoint": "",
    "attachPoints": {
      "equip01": "WeaponR",
      "equip02": "WeaponL"
    }
  },
  "abilities": [
    {
      "abilityID": "Alert",
      "abilityName": "Thoarder_Alert",
      "abilityOverride": "",
      "KCBHAAMMIGC": true
    },
    {
      "abilityID": "SteerAttack",
      "abilityName": "Thoarder_Male_Shovel_SteerAttack",
      "abilityOverride": ""
    },
    {
      "abilityID": "ShovelAttack_Bullet",
      "abilityName": "Monster_Thoarder_Male_Shovel_ShovelAttack_Bullet",
      "abilityOverride": ""
    },
    {
      "abilityID": "WeaponOnBack",
      "abilityName": "Thoarder_WeaponOnBack",
      "abilityOverride": ""
    },
    {
      "abilityID": "DrawWeapon",
      "abilityName": "Thoarder_DrawWeapon",
      "abilityOverride": ""
    },
    {
      "abilityID": "SheathWeapon",
      "abilityName": "Thoarder_SheathWeapon",
      "abilityOverride": ""
    },
    {
      "abilityID": "HideWeapon",
      "abilityName": "Thoarder_HideWeapon",
      "abilityOverride": ""
    },
    {
      "abilityID": "SpecialsState_Weapon",
      "abilityName": "Thoarder_SpecialsState_Weapon",
      "abilityOverride": "",
      "KCBHAAMMIGC": true
    },
    {
      "abilityID": "ReturnToBorn",
      "abilityName": "Thoarder_ReturnToBorn",
      "abilityOverride": "",
      "KCBHAAMMIGC": true
    },
    {
      "abilityID": "StepShake",
      "abilityName": "Monster_Thoarder_Male_Shovel_StepShake",
      "abilityOverride": "",
      "KCBHAAMMIGC": true
    },
    {
      "abilityID": "SmokeBombInHandR_Start",
      "abilityName": "Thoarder_Die_SmokeBombInHandR_Start",
      "abilityOverride": "",
      "KCBHAAMMIGC": true
    },
    {
      "abilityID": "SmokeBombEffect_End",
      "abilityName": "Thoarder_Die_SmokeBombEffect_End",
      "abilityOverride": "",
      "KCBHAAMMIGC": true
    },
    {
      "abilityID": "Shovel_AuxWeaponTrans",
      "abilityName": "Monster_Thoarder_Male_Shovel_AuxWeaponTrans",
      "abilityOverride": ""
    },
    {
      "abilityID": "SteerMove",
      "abilityName": "Thoarder_Male_Shovel_SteerMove",
      "abilityOverride": ""
    }
  ],
  "stateLayers": {
    "defaultLayer": {
      "$type": "ConfigNormalStateLayer",
      "FNPGDAEJAPJ": "",
      "stateIDs": {
        "NormalIdle": {
          "$type": "ConfigMonsterStateIDInfo",
          "animatorStates": {
            "Standby": [],
            "Born": []
          },
          "canDoSkill": true,
          "canSyncMove": true,
          "resetAnimatorTriggerOnExit": ["DoSkill"]
        },
        "NormalMove": {
          "$type": "ConfigMonsterStateIDInfo",
          "animatorStates": {
            "WalkForward": ["Audio_Monster_Thoarder_Shovel_Walk"],
            "WalkBack": ["Audio_Monster_Thoarder_Shovel_Walk"],
            "WalkRight": ["Audio_Monster_Thoarder_Shovel_Walk"],
            "WalkLeft": ["Audio_Monster_Thoarder_Shovel_Walk"],
            "Run": ["Audio_Monster_Thoarder_Shovel_Run"]
          },
          "canDoSkill": true,
          "canSyncMove": true,
          "resetAnimatorTriggerOnExit": ["DoSkill"],
          "BHEPAJIOBDN": true
        },
        "Turn": {
          "$type": "ConfigMonsterStateIDInfo",
          "animatorStates": {
            "TurnLeft": ["Audio_Monster_Thoarder_Shovel_Walk"],
            "TurnRight": ["Audio_Monster_Thoarder_Shovel_Walk"]
          },
          "canDoSkill": true,
          "canSyncMove": true,
          "resetAnimatorTriggerOnExit": ["DoSkill"],
          "BHEPAJIOBDN": true
        },
        "BeHit": {
          "$type": "ConfigMonsterStateIDInfo",
          "animatorStates": {
            "Hit_L": ["Audio_Monster_Thoarder_Normal_Male_Fat_Shovel_Hit_L"],
            "Hit_H": ["Audio_Monster_Thoarder_Normal_Male_Fat_Shovel_Hit_H"],
            "DHit": []
          },
          "resetAnimatorTriggerOnEnter": ["BeHit"],
          "resetAnimatorTriggerOnExit": ["DoSkill"]
        },
        "BeHitThrow": {
          "$type": "ConfigMonsterStateIDInfo",
          "animatorStates": {
            "HitThrow": [
              "Audio_Monster_Thoarder_Normal_Male_Fat_Shovel_HitThrow"
            ],
            "HitThrowDrop": [],
            "HitThrowToGround": [
              "Audio_Monster_Thoarder_Normal_Male_Fat_Shovel_HitThrowToGround"
            ]
          },
          "resetAnimatorTriggerOnEnter": ["BeHit", "HitAir2HitDrop"],
          "resetAnimatorTriggerOnExit": ["DoSkill"]
        },
        "Struggle": {
          "$type": "ConfigMonsterStateIDInfo",
          "animatorStates": {
            "Struggle": []
          },
          "resetAnimatorTriggerOnEnter": ["BeHit", "HitAir2HitDrop"],
          "resetAnimatorTriggerOnExit": ["DoSkill"]
        },
        "Die": {
          "$type": "ConfigMonsterStateIDInfo",
          "animatorStates": {
            "Die1": [
              "Monster_Thoarder_Male_Shovel_Die",
              "Audio_Monster_Thoarder_Normal_Male_Fat_Shovel_Die"
            ],
            "Die2": [
              "Monster_Thoarder_Male_Shovel_Die",
              "Audio_Monster_Thoarder_Normal_Male_Fat_Shovel_Die"
            ],
            "SwimDie": ["Audio_Monster_Thoarder_NoWeapon_SwimDie"],
            "SwimDie_AS": ["Monster_Thoarder_Common_SwimDie"]
          }
        },
        "Die_RagDoll": {
          "$type": "ConfigMonsterStateIDInfo",
          "animatorStates": {
            "AirDie": [
              "Monster_Thoarder_Common_AirDie",
              "Audio_Monster_Thoarder_Normal_Male_Fat_Shovel_Die"
            ]
          },
          "HCCMMNBMCMA": true
        },
        "Life_Alert": {
          "$type": "ConfigMonsterStateIDInfo",
          "animatorStates": {
            "Alert": ["Audio_Monster_Thoarder_Normal_Male_Fat_Shovel_Alert"]
          },
          "resetAnimatorTriggerOnExit": ["BeHit", "DoSkill"]
        },
        "Life_Warning": {
          "$type": "ConfigMonsterStateIDInfo",
          "animatorStates": {
            "Warning": [
              "Monster_Undead01_Warning",
              "Monster_Thoarder_Alert",
              "Monster_Thoarder_DrawWeapon",
              "Audio_Monster_Thoarder_Normal_Male_Fat_Shovel_Alert"
            ],
            "Alert_Armed": [
              "Monster_Undead01_Warning",
              "Monster_Thoarder_Alert",
              "Monster_Thoarder_DrawWeapon",
              "Audio_Monster_Thoarder_Normal_Male_Fat_Shovel_Alert"
            ]
          },
          "resetAnimatorTriggerOnExit": ["BeHit", "DoSkill"]
        },
        "NormalAtk": {
          "$type": "ConfigMonsterStateIDInfo",
          "animatorStates": {
            "NormalAtk": [
              "Monster_Thoarder_Male_Shovel_NormalAtk",
              "Audio_Monster_Thoarder_Normal_Male_Fat_Shovel_NormalAtk"
            ]
          },
          "resetAnimatorTriggerOnExit": ["BeHit", "DoSkill"]
        },
        "ShovelAttack": {
          "$type": "ConfigMonsterStateIDInfo",
          "animatorStates": {
            "ShovelAttack": [
              "Monster_Thoarder_Male_Shovel_ShovelAttack",
              "Audio_Monster_Thoarder_Normal_Male_Fat_Shovel_ShovelAtk"
            ]
          },
          "resetAnimatorTriggerOnExit": ["BeHit", "DoSkill"]
        },
        "Taunt": {
          "$type": "ConfigMonsterStateIDInfo",
          "animatorStates": {
            "Taunt_1": ["Audio_Monster_Thoarder_Shovel_Taunt1"],
            "Taunt_2": ["Audio_Monster_Thoarder_Shovel_Taunt2"],
            "Taunt_3": ["Audio_Monster_Thoarder_Shovel_Taunt3"]
          },
          "resetAnimatorTriggerOnExit": ["BeHit", "DoSkill"]
        },
        "Armed": {
          "$type": "ConfigMonsterStateIDInfo",
          "animatorStates": {
            "Armed": []
          },
          "canDoSkill": true,
          "resetAnimatorTriggerOnExit": ["BeHit", "DoSkill"]
        },
        "Think": {
          "$type": "ConfigMonsterStateIDInfo",
          "animatorStates": {
            "Think": []
          },
          "canDoSkill": true,
          "resetAnimatorTriggerOnExit": ["BeHit", "DoSkill"]
        },
        "Search": {
          "$type": "ConfigMonsterStateIDInfo",
          "animatorStates": {
            "Search": []
          },
          "canDoSkill": true,
          "resetAnimatorTriggerOnExit": ["BeHit", "DoSkill"]
        },
        "Sleep": {
          "$type": "ConfigMonsterStateIDInfo",
          "animatorStates": {
            "Sleep": []
          },
          "canDoSkill": true,
          "resetAnimatorTriggerOnExit": ["BeHit", "DoSkill"]
        },
        "Chat": {
          "$type": "ConfigMonsterStateIDInfo",
          "animatorStates": {
            "Chat": []
          },
          "canDoSkill": true,
          "resetAnimatorTriggerOnExit": ["BeHit", "DoSkill"]
        },
        "Threat": {
          "$type": "ConfigMonsterStateIDInfo",
          "animatorStates": {
            "Threat": []
          },
          "canDoSkill": true,
          "resetAnimatorTriggerOnExit": ["BeHit", "DoSkill"]
        },
        "ThreatFree01": {
          "$type": "ConfigMonsterStateIDInfo",
          "animatorStates": {
            "ThreatFree01": []
          },
          "canDoSkill": true,
          "resetAnimatorTriggerOnExit": ["BeHit", "DoSkill"]
        },
        "Afraid": {
          "$type": "ConfigMonsterStateIDInfo",
          "animatorStates": {
            "Afraid": []
          },
          "canDoSkill": true,
          "resetAnimatorTriggerOnExit": ["BeHit", "DoSkill"]
        },
        "Laugh": {
          "$type": "ConfigMonsterStateIDInfo",
          "animatorStates": {
            "Laugh": []
          },
          "canDoSkill": true,
          "resetAnimatorTriggerOnExit": ["BeHit", "DoSkill"]
        },
        "LaughFree01": {
          "$type": "ConfigMonsterStateIDInfo",
          "animatorStates": {
            "LaughFree01": []
          },
          "canDoSkill": true,
          "resetAnimatorTriggerOnExit": ["BeHit", "DoSkill"]
        },
        "SheathWeapon": {
          "$type": "ConfigMonsterStateIDInfo",
          "animatorStates": {
            "SheathWeapon": [
              "Monster_Thoarder_SheathWeapon",
              "Audio_Monster_Thoarder_Shovel_SheathWeapon"
            ]
          },
          "resetAnimatorTriggerOnExit": ["SheathWeaponTrigger"]
        }
      }
    }
  },
  "billboard": {
    "$type": "NCBABGPMMPL",
    "EBBHBMFMOGD": "BillboardAttach",
    "offset": {
      "x": -0.05000000074505806
    },
    "BFOMIIKCOGI": "Character",
    "OELDMANLPDM": 0.25,
    "ANGKJBLILKJ": true
  },
  "initialPoses": {
    "Default": {},
    "FixedPos": {
      "initialPoseID": 2,
      "initialPoseParams": {
        "boolParams": {
          "FixedPos": "true"
        }
      }
    },
    "FixedPosArmed": {
      "initialPoseID": 3,
      "initialPoseParams": {
        "boolParams": {
          "FixedPosArmed": "true"
        }
      }
    },
    "Armed": {
      "initialPoseID": 4,
      "initialPoseParams": {
        "boolParams": {
          "Armed": "true"
        }
      }
    },
    "Think": {
      "initialPoseID": 9002,
      "initialPoseParams": {
        "boolParams": {
          "Think": "true"
        }
      }
    },
    "Search": {
      "initialPoseID": 9003,
      "initialPoseParams": {
        "boolParams": {
          "Search": "true"
        }
      }
    },
    "Sleep": {
      "initialPoseID": 9005,
      "initialPoseParams": {
        "boolParams": {
          "Sleep": "true"
        }
      }
    },
    "Chat": {
      "initialPoseID": 9006,
      "initialPoseParams": {
        "boolParams": {
          "Chat": "true"
        }
      }
    },
    "Threat": {
      "initialPoseID": 9007,
      "initialPoseParams": {
        "boolParams": {
          "Threat": "true"
        }
      }
    },
    "Afraid": {
      "initialPoseID": 9008,
      "initialPoseParams": {
        "boolParams": {
          "Afraid": "true"
        }
      }
    },
    "Laugh": {
      "initialPoseID": 9009,
      "initialPoseParams": {
        "boolParams": {
          "Laugh": "true"
        }
      }
    }
  },
  "aibeta": {
    "enable": true,
    "moveSetting": {
      "navMeshAgentName": "Undead01",
      "almostReachedDistanceRun": 1.5
    },
    "sensing": {
      "settings": {
        "DefaultSetting": {
          "feelRange": 8.0
        },
        "HighAlert": {
          "viewRange": 40.0,
          "feelRange": 10.0
        },
        "LowAlert": {
          "viewRange": 10.0
        },
        "Sleep": {
          "viewRange": 0.0,
          "feelRange": 3.0
        }
      },
      "templates": {
        "DefaultTemplate": {
          "DefaultPoses": "DefaultSetting",
          "9002": "LowAlert",
          "9003": "LowAlert",
          "9005": "Sleep",
          "9006": "LowAlert",
          "9007": "LowAlert",
          "9008": "LowAlert",
          "9009": "LowAlert"
        },
        "HighAlertTemplate": {
          "DefaultPoses": "HighAlert",
          "9002": "DefaultSetting",
          "9003": "DefaultSetting",
          "9005": "Sleep",
          "9006": "DefaultSetting",
          "9007": "DefaultSetting",
          "9008": "DefaultSetting",
          "9009": "DefaultSetting"
        }
      }
    },
    "neurons": {
      "DefaultSetting": ["HIT"]
    },
    "threat": {
      "clearThreatByLostPath": true,
      "clearThreatTimerByDistance": 3.0,
      "viewAttenuation": [
        {
          "x": 10.0,
          "y": 2.0
        },
        {
          "x": 15.0,
          "y": 0.800000011920929
        },
        {
          "x": 20.0,
          "y": 0.5
        },
        {
          "x": 25.0,
          "y": 0.30000001192092896
        },
        {
          "x": 30.0,
          "y": 0.20000000298023224
        }
      ]
    },
    "defendArea": {},
    "profiling": {},
    "skills": {
      "101": {
        "name": "OnAlert",
        "skillType": "OnAlert",
        "faceTarget": true,
        "castCondition": {
          "pose": [1, 2, 9002, 9003, 9005, 9006, 9008, 9009]
        },
        "publicCDGroup": "",
        "ignoreGCD": true,
        "triggerGCD": false,
        "stateIDs": ["Life_Warning"],
        "skillQueryingTime": 3.0,
        "flagTargetReachable": "10",
        "flagSelfOnTemplateCollider": "01",
        "flagSelfInZone": "10",
        "flagTargetInZone": "11"
      },
      "103": {
        "name": "OnAlert_Armed",
        "skillType": "OnAlert",
        "faceTarget": true,
        "castCondition": {
          "pose": [3, 4, 9007]
        },
        "publicCDGroup": "",
        "ignoreGCD": true,
        "triggerGCD": false,
        "stateIDs": ["Life_Warning"],
        "skillQueryingTime": 3.0,
        "flagTargetReachable": "10",
        "flagSelfOnTemplateCollider": "01",
        "flagSelfInZone": "10",
        "flagTargetInZone": "11"
      },
      "201": {
        "name": "NormalAtk",
        "combatSkillType": "MeleeAttack",
        "castCondition": {
          "pose": [1001],
          "maxTargetAngleXZ": 60.0,
          "pickRangeMax": 3.0,
          "castRangeMax": 3.0
        },
        "cd": 5.0,
        "publicCDGroup": "",
        "stateIDs": ["NormalAtk"],
        "flagTargetReachable": "10",
        "flagSelfOnTemplateCollider": "01",
        "flagSelfInZone": "10",
        "flagTargetInZone": "11"
      },
      "301": {
        "name": "ShovelAttack",
        "combatSkillType": "RangedAttack",
        "castCondition": {
          "pose": [1001],
          "pickRangeMin": 3.0,
          "pickRangeMax": 15.0
        },
        "cd": 5.0,
        "publicCDGroup": "",
        "stateIDs": ["ShovelAttack"],
        "flagTargetReachable": "10",
        "flagSelfOnTemplateCollider": "01",
        "flagSelfInZone": "10",
        "flagTargetInZone": "11"
      },
      "90071": {
        "name": "ThreatFree01",
        "skillType": "Free",
        "castCondition": {
          "pose": [9007]
        },
        "cd": 8.0,
        "cdUpperRange": 15.0,
        "initialCD": 3.0,
        "initialCDUpperRange": 8.0,
        "publicCDGroup": "",
        "stateIDs": ["ThreatFree01"],
        "flagTargetReachable": "10",
        "flagSelfOnTemplateCollider": "01",
        "flagSelfInZone": "10",
        "flagTargetInZone": "11"
      },
      "90091": {
        "name": "LaughFree01",
        "skillType": "Free",
        "castCondition": {
          "pose": [9009]
        },
        "cd": 3.0,
        "cdUpperRange": 5.0,
        "initialCD": 2.0,
        "initialCDUpperRange": 5.0,
        "publicCDGroup": "",
        "stateIDs": ["LaughFree01"],
        "flagTargetReachable": "10",
        "flagSelfOnTemplateCollider": "01",
        "flagSelfInZone": "10",
        "flagTargetInZone": "11"
      }
    },
    "skillGCD": 3.0,
    "returnToBornTactic": {
      "enable": true,
      "defaultSetting": {}
    },
    "wanderTactic": {
      "enable": true,
      "condition": {
        "pose": [1, 4]
      },
      "defaultSetting": {
        "cdMax": 3.0,
        "cdMin": 1.5,
        "distanceFromBorn": 15.0,
        "distanceFromCurrentMin": 3.75,
        "distanceFromCurrentMax": 7.5
      }
    },
    "investigateTactic": {
      "enable": true,
      "condition": {
        "pose": [1, 4]
      }
    },
    "reactActionPointTactic": {
      "enable": true,
      "defaultSetting": {}
    },
    "meleeChargeTactic": {
      "enable": true,
      "condition": {
        "pose": [1001]
      },
      "defaultSetting": {
        "startDistanceMin": 10.0,
        "startDistanceMax": 50.0,
        "stopDistance": 7.5,
        "innerDistance": 10.0
      }
    },
    "facingMoveTactic": {
      "enable": true,
      "condition": {
        "pose": [1001]
      },
      "defaultSetting": {
        "rangeMin": 4.0,
        "rangeMax": 7.5,
        "facingMoveWeight": {
          "stop": 2.0,
          "forward": 0.0,
          "back": 0.0
        },
        "PDOKGBAJNEP": "1111",
        "NGLJBMGMGKF": "1111"
      }
    }
  },
  "inputKeys": [
    {
      "keyID": 201,
      "inputKeyCode": 257,
      "abilityName": ""
    },
    {
      "keyID": 202,
      "inputKeyCode": 258,
      "abilityName": ""
    },
    {
      "keyID": 203,
      "inputKeyCode": 259,
      "abilityName": ""
    },
    {
      "keyID": 301,
      "inputKeyCode": 260,
      "abilityName": ""
    },
    {
      "keyID": 901,
      "inputKeyCode": 262,
      "abilityName": ""
    }
  ],
  "move": {
    "$type": "PLMNMICDOHN",
    "BCBPBHLKCPB": "FourDirection",
    "NGNIGPNNLAI": "StoopType"
  },
  "audio": {
    "NCOGLLMIJGO": "",
    "animAudio": {},
    "disableEvent": {
      "text": ""
    },
    "destroyEvent": {
      "text": ""
    },
    "randomVariantSwitchGroup": {
      "text": ""
    },
    "randomVariantSwitchValues": [
      {
        "text": ""
      }
    ]
  }
}
