{
  "common": {
    "effectAttachShape": {
      "$type": "ConfigEffectAttachSkinnedMesh",
      "mesh": "EffectMesh"
    },
    "mass": 10000.0,
    "height": 2.0,
    "modelHeight": 2.700000047683716,
    "viewSize": 1.7999999523162842,
    "affectedByWorld": true,
    "checkInSurface": true,
    "scale": 1.100000023841858,
    "shouldPauseAnimatorBeforeReady": true,
    "useGrassDisplacement": true,
    "hasAfterImage": true,
    "clearAnimatorOnSetLightDeactive": true,
    "clearAIOnSetLightDeactive": true
  },
  "headControl": {
    "$type": "GAAIKCFIJMM",
    "useHeadControl": true,
    "KBBNEKBLPFA": 20.0,
    "FJOGFHEFPHN": 5.0,
    "FCDMCPDGFCL": [
      "NormalIdle/Standby",
      "NormalMove/WalkForward",
      "NormalMove/WalkBack",
      "NormalMove/WalkRight",
      "NormalMove/WalkLeft",
      "Turn/TurnLeft",
      "Turn/TurnRight"
    ]
  },
  "model": {
    "bornEffect": "Eff_Monster_Common_Born",
    "attachEffect": ""
  },
  "dither": {
    "showDitherDuration": 2.0
  },
  "combat": {
    "property": {
      "endureType": "Monster_Demiboss_Humanoid",
      "weight": 150.0
    },
    "beHit": {
      "hitBloodEffect": ""
    },
    "combatLock": {
      "lockShape": "CircleLockEnemy",
      "lockType": "Avatar&Monster_Lv4"
    },
    "die": {
      "hasAnimatorDie": true,
      "dieEndTime": 3.200000047683716,
      "dieForceDisappearTime": 3.200000047683716,
      "dieDisappearEffect": "Eff_Death_Avatar_Common",
      "dieShaderData": "AvatarDie",
      "OCGODEHJPME": true,
      "MFJBKFECLNJ": true,
      "IMEEBMBJPGJ": true,
      "MBHMAGEPJFH": true,
      "CFHPDHFKMEP": true
    },
    "animEvents": {
      "MeleeAtk": {
        "attackPattern": {
          "$type": "NAMPOMPBMHC",
          "triggerType": "TriggerNoRepeat",
          "JGCLJPCGHMC": true,
          "born": {
            "$type": "ConfigBornBySelf",
            "offset": {
              "x": 0.0,
              "y": 1.5,
              "z": 0.5
            }
          },
          "size": {
            "x": 2.0,
            "y": 2.5,
            "z": 3.5
          }
        },
        "attackInfo": {
          "attackTag": "",
          "attenuationTag": "",
          "attenuationGroup": "default",
          "attackProperty": {
            "damagePercentage": 0.4659999907016754,
            "MKLAMNDEDGB": 0.0,
            "bonusCriticalHurt": 50.0,
            "strikeType": "Slash",
            "enBreak": 50.0,
            "attackType": "Melee"
          },
          "hitPattern": {
            "onHitEffectName": "default",
            "hitImpulseType": "LV4",
            "canBeDefenceHalt": true
          }
        }
      },
      "MeleeAtkThunder": {
        "attackPattern": {
          "$type": "NAMPOMPBMHC",
          "triggerType": "TriggerNoRepeat",
          "JGCLJPCGHMC": true,
          "born": {
            "$type": "ConfigBornBySelf",
            "offset": {
              "x": 0.0,
              "y": 1.5,
              "z": 0.5
            }
          },
          "size": {
            "x": 2.0,
            "y": 2.5,
            "z": 4.0
          }
        },
        "attackInfo": {
          "attackTag": "Monster_Samurai_Kairagi_ThunderHit",
          "attenuationTag": "",
          "attenuationGroup": "default",
          "attackProperty": {
            "damagePercentage": 0.4659999907016754,
            "MKLAMNDEDGB": 0.0,
            "elementType": "Electric",
            "bonusCriticalHurt": 50.0,
            "strikeType": "Slash",
            "enBreak": 50.0,
            "attackType": "Melee"
          },
          "hitPattern": {
            "onHitEffectName": "default",
            "hitImpulseType": "LV4",
            "canBeDefenceHalt": true
          }
        }
      },
      "RushAtk": {
        "attackPattern": {
          "$type": "NAMPOMPBMHC",
          "triggerType": "TriggerNoRepeat",
          "JGCLJPCGHMC": true,
          "born": {
            "$type": "ConfigBornBySelf",
            "offset": {
              "x": 0.0,
              "y": 1.5,
              "z": -7.5
            }
          },
          "size": {
            "x": 2.0,
            "y": 2.5,
            "z": 15.0
          }
        },
        "attackInfo": {
          "attackTag": "",
          "attenuationTag": "",
          "attenuationGroup": "default",
          "attackProperty": {
            "damagePercentage": 0.6660000085830688,
            "MKLAMNDEDGB": 0.0,
            "bonusCriticalHurt": 50.0,
            "strikeType": "Slash",
            "enBreak": 100.0,
            "attackType": "Melee"
          },
          "hitPattern": {
            "onHitEffectName": "default",
            "hitImpulseType": "LV5",
            "retreatType": "ByHitDirection",
            "canBeDefenceHalt": true
          }
        }
      },
      "RushAtkThunder": {
        "attackPattern": {
          "$type": "NAMPOMPBMHC",
          "triggerType": "TriggerNoRepeat",
          "JGCLJPCGHMC": true,
          "born": {
            "$type": "ConfigBornBySelf",
            "offset": {
              "x": 0.0,
              "y": 1.5,
              "z": -7.5
            }
          },
          "size": {
            "x": 2.0,
            "y": 2.5,
            "z": 15.0
          }
        },
        "attackInfo": {
          "attackTag": "Monster_Samurai_Kairagi_ThunderHit",
          "attenuationTag": "",
          "attenuationGroup": "default",
          "attackProperty": {
            "damagePercentage": 0.6660000085830688,
            "MKLAMNDEDGB": 0.0,
            "elementType": "Electric",
            "bonusCriticalHurt": 50.0,
            "strikeType": "Slash",
            "enBreak": 100.0,
            "attackType": "Melee"
          },
          "hitPattern": {
            "onHitEffectName": "default",
            "hitImpulseType": "LV5",
            "retreatType": "ByHitDirection",
            "canBeDefenceHalt": true
          }
        }
      },
      "JumpAtk": {
        "attackPattern": {
          "$type": "NAMPOMPBMHC",
          "triggerType": "TriggerNoRepeat",
          "JGCLJPCGHMC": true,
          "born": {
            "$type": "ConfigBornBySelf",
            "offset": {
              "x": 0.0,
              "y": 1.5,
              "z": 0.0
            }
          },
          "size": {
            "x": 2.5,
            "y": 3.0,
            "z": 4.0
          }
        },
        "attackInfo": {
          "attackTag": "",
          "attenuationTag": "",
          "attenuationGroup": "default",
          "attackProperty": {
            "damagePercentage": 0.800000011920929,
            "MKLAMNDEDGB": 0.0,
            "bonusCriticalHurt": 50.0,
            "strikeType": "Blunt",
            "enBreak": 100.0,
            "attackType": "Melee"
          },
          "hitPattern": {
            "onHitEffectName": "default",
            "hitImpulseType": "LV5",
            "canBeDefenceHalt": true
          },
          "forceCameraShake": true,
          "cameraShake": {
            "shakeType": "CustomVector",
            "shakeRange": 0.30000001192092896,
            "shakeTime": 0.10000000149011612,
            "shakeDir": {
              "y": 1.0
            }
          }
        }
      },
      "JumpAtkThunder": {
        "attackPattern": {
          "$type": "NAMPOMPBMHC",
          "triggerType": "TriggerNoRepeat",
          "JGCLJPCGHMC": true,
          "born": {
            "$type": "ConfigBornBySelf",
            "offset": {
              "x": 0.0,
              "y": 1.5,
              "z": 0.0
            }
          },
          "size": {
            "x": 4.0,
            "y": 3.0,
            "z": 11.0
          }
        },
        "attackInfo": {
          "attackTag": "Monster_Samurai_Kairagi_ThunderHit",
          "attenuationTag": "",
          "attenuationGroup": "default",
          "attackProperty": {
            "damagePercentage": 0.800000011920929,
            "MKLAMNDEDGB": 0.0,
            "elementType": "Electric",
            "bonusCriticalHurt": 50.0,
            "strikeType": "Blunt",
            "enBreak": 100.0,
            "attackType": "Melee"
          },
          "hitPattern": {
            "onHitEffectName": "default",
            "hitImpulseType": "LV5",
            "canBeDefenceHalt": true
          },
          "forceCameraShake": true,
          "cameraShake": {
            "shakeType": "CustomVector",
            "shakeRange": 0.30000001192092896,
            "shakeTime": 0.10000000149011612,
            "shakeDir": {
              "y": 1.0
            }
          }
        }
      },
      "ChargeAtk": {
        "attackPattern": {
          "$type": "ConfigAttackCircle",
          "triggerType": "TriggerNoRepeat",
          "JGCLJPCGHMC": true,
          "born": {
            "$type": "ConfigBornBySelf",
            "offset": {
              "x": 0.0,
              "y": -0.10000000149011612,
              "z": 0.0
            }
          },
          "height": 2.0,
          "radius": 3.0
        },
        "attackInfo": {
          "attackTag": "",
          "attenuationTag": "",
          "attenuationGroup": "default",
          "attackProperty": {
            "damagePercentage": 0.6660000085830688,
            "MKLAMNDEDGB": 0.0,
            "bonusCriticalHurt": 50.0,
            "strikeType": "Slash",
            "enBreak": 100.0,
            "attackType": "Melee"
          },
          "hitPattern": {
            "onHitEffectName": "default",
            "hitImpulseType": "LV5",
            "retreatType": "ByHitDirection",
            "canBeDefenceHalt": true
          }
        }
      },
      "ChargeAtkThunder": {
        "attackPattern": {
          "$type": "ConfigAttackCircle",
          "triggerType": "TriggerNoRepeat",
          "JGCLJPCGHMC": true,
          "born": {
            "$type": "ConfigBornBySelf",
            "offset": {
              "x": 0.0,
              "y": -0.20000000298023224,
              "z": 0.0
            }
          },
          "height": 2.0,
          "radius": 5.0
        },
        "attackInfo": {
          "attackTag": "Monster_Samurai_Kairagi_ThunderHit",
          "attenuationTag": "",
          "attenuationGroup": "default",
          "attackProperty": {
            "damagePercentage": 0.6660000085830688,
            "MKLAMNDEDGB": 0.0,
            "elementType": "Electric",
            "bonusCriticalHurt": 50.0,
            "strikeType": "Slash",
            "enBreak": 100.0,
            "attackType": "Melee"
          },
          "hitPattern": {
            "onHitEffectName": "default",
            "hitImpulseType": "LV5",
            "retreatType": "ByHitDirection",
            "canBeDefenceHalt": true
          }
        }
      },
      "AddElementAtkThunder": {
        "attackPattern": {
          "$type": "NAMPOMPBMHC",
          "triggerType": "TriggerNoRepeat",
          "JGCLJPCGHMC": true,
          "born": {
            "$type": "ConfigBornBySelf",
            "offset": {
              "x": 0.0,
              "y": 1.5,
              "z": 0.0
            }
          },
          "size": {
            "x": 4.0,
            "y": 3.0,
            "z": 6.0
          }
        },
        "attackInfo": {
          "attackTag": "Monster_Samurai_Kairagi_ThunderHit",
          "attenuationTag": "",
          "attenuationGroup": "default",
          "attackProperty": {
            "damagePercentage": 1.0,
            "MKLAMNDEDGB": 0.0,
            "elementType": "Electric",
            "bonusCriticalHurt": 50.0,
            "strikeType": "Slash",
            "enBreak": 100.0,
            "attackType": "Melee"
          },
          "hitPattern": {
            "onHitEffectName": "default",
            "hitImpulseType": "LV5",
            "canBeDefenceHalt": true
          },
          "forceCameraShake": true,
          "cameraShake": {
            "shakeType": "CustomVector",
            "shakeRange": 0.30000001192092896,
            "shakeTime": 0.10000000149011612,
            "shakeDir": {
              "y": 1.0
            }
          }
        }
      }
    }
  },
  "equipController": {
    "sheathPoint": "",
    "attachPoints": {
      "equip01": "WeaponR",
      "equip02": "WeaponL"
    }
  },
  "abilities": [
    {
      "abilityID": "",
      "abilityName": "Monster_Samurai_Kairagi_01_RushAttack",
      "abilityOverride": ""
    },
    {
      "abilityID": "",
      "abilityName": "Monster_Samurai_Kairagi_01_Die",
      "abilityOverride": ""
    },
    {
      "abilityID": "",
      "abilityName": "Monster_Samurai_Kairagi_01_Steer",
      "abilityOverride": ""
    },
    {
      "abilityID": "",
      "abilityName": "Monster_Samurai_Kairagi_01_AddElement_Electric",
      "abilityOverride": ""
    },
    {
      "abilityID": "",
      "abilityName": "Monster_Samurai_Kairagi_Angry_Thunder",
      "abilityOverride": ""
    },
    {
      "abilityID": "",
      "abilityName": "Monster_Samurai_Kairagi_01_Alert",
      "abilityOverride": ""
    },
    {
      "abilityID": "",
      "abilityName": "Monster_Samurai_Kairagi_Block",
      "abilityOverride": ""
    },
    {
      "abilityID": "",
      "abilityName": "Monster_Samurai_Kairagi_01_OutOfBattle",
      "abilityOverride": ""
    },
    {
      "abilityID": "",
      "abilityName": "Monster_Samurai_EnsureVisible",
      "abilityOverride": ""
    },
    {
      "abilityID": "",
      "abilityName": "Monster_Samurai_Kairagi_ForceDodge",
      "abilityOverride": ""
    },
    {
      "abilityID": "",
      "abilityName": "Monster_Samurai_Kairagi_Thunder_AttackMark",
      "abilityOverride": ""
    },
    {
      "abilityID": "",
      "abilityName": "Monster_Samurai_Kairagi_ChangeToAngryPose",
      "abilityOverride": ""
    },
    {
      "abilityID": "",
      "abilityName": "Monster_Samurai_Kairagi_01_AddElement_ComboCheckDistance",
      "abilityOverride": ""
    },
    {
      "abilityID": "",
      "abilityName": "Monster_Samurai_Kairagi_GhostChallenge_PowerUp",
      "abilityOverride": ""
    },
    {
      "abilityID": "",
      "abilityName": "Monster_Samurai_Kairagi_SevenBlade_Affix",
      "abilityOverride": ""
    }
  ],
  "stateLayers": {
    "defaultLayer": {
      "$type": "ConfigNormalStateLayer",
      "FNPGDAEJAPJ": "",
      "stateIDs": {
        "Born": {
          "$type": "ConfigMonsterStateIDInfo",
          "animatorStates": {
            "Born": ["Audio_Samurai_Kairagi_Born"]
          },
          "canSyncMove": true,
          "resetAnimatorTriggerOnExit": ["DoSkill"]
        },
        "NormalIdle": {
          "$type": "ConfigMonsterStateIDInfo",
          "animatorStates": {
            "Standby": []
          },
          "canDoSkill": true,
          "canSyncMove": true,
          "resetAnimatorTriggerOnExit": ["DoSkill"]
        },
        "NormalMove": {
          "$type": "ConfigMonsterStateIDInfo",
          "animatorStates": {
            "WalkForward": ["Audio_Samurai_Kairagi_Walk"],
            "WalkBack": ["Audio_Samurai_Kairagi_Walk"],
            "WalkRight": ["Audio_Samurai_Kairagi_Walk"],
            "WalkLeft": ["Audio_Samurai_Kairagi_Walk"],
            "WalkFree": ["Audio_Samurai_Kairagi_Walk"]
          },
          "canDoSkill": true,
          "canSyncMove": true,
          "resetAnimatorTriggerOnExit": ["DoSkill"],
          "BHEPAJIOBDN": true
        },
        "Turn": {
          "$type": "ConfigMonsterStateIDInfo",
          "animatorStates": {
            "TurnLeft": ["Audio_Samurai_Kairagi_Walk"],
            "TurnRight": ["Audio_Samurai_Kairagi_Walk"]
          },
          "canDoSkill": true,
          "canSyncMove": true,
          "resetAnimatorTriggerOnExit": ["DoSkill"],
          "BHEPAJIOBDN": true
        },
        "BeHit": {
          "$type": "ConfigMonsterStateIDInfo",
          "animatorStates": {
            "Hit_L": ["Audio_Samurai_Kairagi_Hit_L_VO"],
            "Hit_H": ["Audio_Samurai_Kairagi_Hit_H_VO"]
          },
          "resetAnimatorTriggerOnEnter": ["BeHit"],
          "resetAnimatorTriggerOnExit": ["DoSkill"]
        },
        "Run": {
          "$type": "ConfigMonsterStateIDInfo",
          "animatorStates": {
            "Run": ["Audio_Samurai_Kairagi_Run"]
          },
          "canDoSkill": true,
          "canSyncMove": true,
          "resetAnimatorTriggerOnExit": ["DoSkill"],
          "BHEPAJIOBDN": true
        },
        "RunFree": {
          "$type": "ConfigMonsterStateIDInfo",
          "animatorStates": {
            "RunFree": ["Audio_Samurai_Kairagi_Run"]
          },
          "canDoSkill": true,
          "canSyncMove": true,
          "resetAnimatorTriggerOnExit": ["DoSkill"],
          "BHEPAJIOBDN": true
        },
        "BeHitThrow": {
          "$type": "ConfigMonsterStateIDInfo",
          "animatorStates": {
            "HitThrow": [],
            "HitThrowDrop": [],
            "HitThrowToGround": ["Audio_Samurai_Kairagi_HitThrowToGround"]
          },
          "resetAnimatorTriggerOnEnter": ["BeHit", "HitAir2HitDrop"],
          "resetAnimatorTriggerOnExit": ["DoSkill"]
        },
        "Struggle": {
          "$type": "ConfigMonsterStateIDInfo",
          "animatorStates": {
            "Struggle": []
          },
          "resetAnimatorTriggerOnEnter": ["BeHit", "HitAir2HitDrop"],
          "resetAnimatorTriggerOnExit": ["DoSkill"]
        },
        "Die": {
          "$type": "ConfigMonsterStateIDInfo",
          "animatorStates": {
            "Die": ["Audio_Samurai_Kairagi_Die"],
            "Die2": ["Audio_Samurai_Kairagi_Die"],
            "SwimDie": [],
            "SwimDie_AS": []
          }
        },
        "Die_RagDoll": {
          "$type": "ConfigMonsterStateIDInfo",
          "animatorStates": {
            "AirDie": []
          },
          "HCCMMNBMCMA": true
        },
        "Alert": {
          "$type": "ConfigMonsterStateIDInfo",
          "animatorStates": {
            "Alert": ["Audio_Samurai_Kairagi_Alert"]
          },
          "resetAnimatorTriggerOnExit": ["BeHit", "DoSkill"],
          "BHEPAJIOBDN": true
        },
        "MeleeAtk1": {
          "$type": "ConfigMonsterStateIDInfo",
          "animatorStates": {
            "MeleeAttack1": [
              "Monster_Samurai_Kairagi_MeleeAttack1",
              "Audio_Samurai_Kairagi_MeleeAtk1"
            ],
            "MeleeAttack1_Thunder": [
              "Monster_Samurai_Kairagi_MeleeAttack1_Thunder",
              "Audio_Samurai_Kairagi_MeleeAtk1_Thunder"
            ],
            "ElementCombo_MeleeAttack1_Thunder": [
              "Monster_Samurai_Kairagi_MeleeAttack1_Thunder",
              "Audio_Samurai_Kairagi_MeleeAtk1_Thunder"
            ]
          },
          "resetAnimatorTriggerOnEnter": ["DoSkill"],
          "resetAnimatorTriggerOnExit": ["BeHit", "DoSkill"],
          "BHEPAJIOBDN": true
        },
        "MeleeAtk2": {
          "$type": "ConfigMonsterStateIDInfo",
          "animatorStates": {
            "MeleeAttack2": [
              "Monster_Samurai_Kairagi_MeleeAttack2",
              "Audio_Samurai_Kairagi_MeleeAtk2"
            ],
            "MeleeAttack2_Thunder": [
              "Monster_Samurai_Kairagi_MeleeAttack2_Thunder",
              "Audio_Samurai_Kairagi_MeleeAtk2_Thunder"
            ],
            "ElementCombo_MeleeAttack2_Thunder": [
              "Monster_Samurai_Kairagi_MeleeAttack2_Thunder",
              "Audio_Samurai_Kairagi_MeleeAtk2_Thunder"
            ]
          },
          "resetAnimatorTriggerOnEnter": ["DoSkill"],
          "resetAnimatorTriggerOnExit": ["BeHit", "DoSkill"],
          "BHEPAJIOBDN": true
        },
        "MeleeAtk3": {
          "$type": "ConfigMonsterStateIDInfo",
          "animatorStates": {
            "MeleeAttack3": [
              "Monster_Samurai_Kairagi_MeleeAttack3",
              "Audio_Samurai_Kairagi_MeleeAtk3"
            ],
            "MeleeAttack3_Thunder": [
              "Monster_Samurai_Kairagi_MeleeAttack3_Thunder",
              "Audio_Samurai_Kairagi_MeleeAtk3_Thunder"
            ],
            "ElementCombo_MeleeAttack3_Thunder": [
              "Monster_Samurai_Kairagi_MeleeAttack3_Thunder",
              "Audio_Samurai_Kairagi_MeleeAtk3_Thunder"
            ]
          },
          "resetAnimatorTriggerOnEnter": ["DoSkill"],
          "resetAnimatorTriggerOnExit": ["BeHit", "DoSkill"],
          "BHEPAJIOBDN": true
        },
        "RushAtk": {
          "$type": "ConfigMonsterStateIDInfo",
          "animatorStates": {
            "RushAtk": [
              "Monster_Samurai_Kairagi_RushAtk",
              "Audio_Samurai_Kairagi_RushAtk"
            ],
            "RushAtk_Thunder": [
              "Monster_Samurai_Kairagi_RushAtk_Thunder",
              "Audio_Samurai_Kairagi_RushAtk_Thunder"
            ],
            "DodgeRushAttack": [
              "Monster_Samurai_Kairagi_RushAtk_Thunder",
              "Audio_Samurai_Kairagi_RushAtk_Thunder"
            ],
            "ElementCombo_RushAtk_Thunder": [
              "Monster_Samurai_Kairagi_RushAtk_Thunder",
              "Audio_Samurai_Kairagi_RushAtk_Thunder"
            ]
          },
          "BFDKJHMDDML": 0.0,
          "resetAnimatorTriggerOnExit": ["BeHit", "DoSkill"],
          "BHEPAJIOBDN": true
        },
        "JumpAttack": {
          "$type": "ConfigMonsterStateIDInfo",
          "animatorStates": {
            "JumpAttack": [
              "Monster_Samurai_Kairagi_JumpAttack",
              "Audio_Samurai_Kairagi_JumpAtk"
            ],
            "JumpAttack_Thunder": [
              "Monster_Samurai_Kairagi_JumpAttack_Thunder",
              "Audio_Samurai_Kairagi_JumpAtk_Thunder"
            ],
            "ElementCombo_JumpAttack_Thunder": [
              "Monster_Samurai_Kairagi_JumpAttack_Thunder",
              "Audio_Samurai_Kairagi_JumpAtk_Thunder"
            ]
          },
          "canSyncMove": true,
          "BFDKJHMDDML": 0.0,
          "resetAnimatorTriggerOnExit": ["BeHit", "DoSkill"],
          "BHEPAJIOBDN": true
        },
        "ChargeAttack": {
          "$type": "ConfigMonsterStateIDInfo",
          "animatorStates": {
            "ChargeAttack": [
              "Monster_Samurai_Kairagi_ChargeAttack",
              "Audio_Samurai_Kairagi_DodgeChargeAtk"
            ],
            "ChargeAttack_Thunder": [
              "Monster_Samurai_Kairagi_ChargeAttack_Thunder",
              "Audio_Samurai_Kairagi_DodgeChargeAtk_Thunder"
            ],
            "Combo_ChargeAttack_Thunder": [
              "Monster_Samurai_Kairagi_ChargeAttack_Thunder",
              "Audio_Samurai_Kairagi_DodgeChargeAtk_Thunder"
            ],
            "DodgeChargeAttack": [
              "Monster_Samurai_Kairagi_ChargeAttack_Thunder",
              "Audio_Samurai_Kairagi_DodgeChargeAtk_Thunder"
            ]
          },
          "canSyncMove": true,
          "BFDKJHMDDML": 0.0,
          "resetAnimatorTriggerOnExit": ["BeHit", "DoSkill"],
          "BHEPAJIOBDN": true
        },
        "ElementAttack": {
          "$type": "ConfigMonsterStateIDInfo",
          "animatorStates": {
            "ElementAttack": [
              "Monster_Samurai_Kairagi_ElementAttack_Thunder",
              "Audio_Samurai_Kairagi_ElementAtk_Thunder"
            ]
          },
          "BFDKJHMDDML": 0.0,
          "resetAnimatorTriggerOnExit": ["BeHit", "DoSkill"],
          "BHEPAJIOBDN": true
        },
        "Angry": {
          "$type": "ConfigMonsterStateIDInfo",
          "animatorStates": {
            "Angry": [
              "Monster_Samurai_Kairagi_Angry_Thunder",
              "Audio_Samurai_Kairagi_Angry_01"
            ]
          },
          "BFDKJHMDDML": 0.0,
          "resetAnimatorTriggerOnExit": ["BeHit", "DoSkill"],
          "BHEPAJIOBDN": true
        },
        "Dodge": {
          "$type": "ConfigMonsterStateIDInfo",
          "animatorStates": {
            "Dodge": [
              "Monster_Samurai_Kairagi_Dodge",
              "Audio_Samurai_Kairagi_Dodge"
            ],
            "ForceDodge": [
              "Monster_Samurai_Kairagi_Dodge",
              "Audio_Samurai_Kairagi_Dodge"
            ]
          },
          "BFDKJHMDDML": 0.0,
          "resetAnimatorTriggerOnExit": ["BeHit", "DoSkill"],
          "BHEPAJIOBDN": true
        },
        "Provoke": {
          "$type": "ConfigMonsterStateIDInfo",
          "animatorStates": {
            "Provoke": ["Audio_Samurai_Kairagi_Provoke"]
          },
          "resetAnimatorTriggerOnExit": ["BeHit", "DoSkill"],
          "BHEPAJIOBDN": true
        },
        "DefendBS": {
          "$type": "ConfigMonsterStateIDInfo",
          "animatorStates": {
            "Defend_BS1": ["Audio_Samurai_Kairagi_Defend_BS1"],
            "Defend_BS2": ["Audio_Samurai_Kairagi_Defend_BS2"]
          },
          "resetAnimatorTriggerOnExit": ["BeHit", "DoSkill"],
          "BHEPAJIOBDN": true
        },
        "DefendLoop": {
          "$type": "ConfigMonsterStateIDInfo",
          "animatorStates": {
            "Defend_Loop1": [],
            "Defend_Loop2": []
          },
          "resetAnimatorTriggerOnExit": ["BeHit", "DoSkill"],
          "BHEPAJIOBDN": true
        },
        "DefendHit": {
          "$type": "ConfigMonsterStateIDInfo",
          "animatorStates": {
            "Defend_Hit1": ["Audio_Samurai_Kairagi_Defend_Hit"],
            "Defend_Hit2": ["Audio_Samurai_Kairagi_Defend_Hit"]
          },
          "resetAnimatorTriggerOnExit": ["BeHit", "DoSkill"],
          "BHEPAJIOBDN": true
        },
        "DefendAS": {
          "$type": "ConfigMonsterStateIDInfo",
          "animatorStates": {
            "Defend_AS1": ["Audio_Samurai_Kairagi_Defend_AS1"],
            "Defend_AS2": ["Audio_Samurai_Kairagi_Defend_AS2"]
          },
          "resetAnimatorTriggerOnExit": ["BeHit", "DoSkill"],
          "BHEPAJIOBDN": true
        },
        "DefendBreak": {
          "$type": "ConfigMonsterStateIDInfo",
          "animatorStates": {
            "Defend_Break1": ["Audio_Samurai_Kairagi_Defend_Break1"],
            "Defend_Break2": ["Audio_Samurai_Kairagi_Defend_Break2"]
          },
          "resetAnimatorTriggerOnExit": ["BeHit", "DoSkill"],
          "BHEPAJIOBDN": true
        },
        "OutOfBattle": {
          "$type": "ConfigMonsterStateIDInfo",
          "animatorStates": {
            "OutOfBattle": ["Audio_Samurai_Kairagi_OutOfBattle"]
          },
          "resetAnimatorTriggerOnExit": ["BeHit", "DoSkill"]
        },
        "Command": {
          "$type": "ConfigMonsterStateIDInfo",
          "animatorStates": {
            "Command": []
          },
          "canDoSkill": true,
          "resetAnimatorTriggerOnExit": ["BeHit", "DoSkill"]
        },
        "Practice": {
          "$type": "ConfigMonsterStateIDInfo",
          "animatorStates": {
            "Practice": []
          },
          "canDoSkill": true,
          "resetAnimatorTriggerOnExit": ["BeHit", "DoSkill"]
        }
      }
    }
  },
  "billboard": {
    "$type": "NCBABGPMMPL",
    "EBBHBMFMOGD": "BillboardAttach",
    "BFOMIIKCOGI": "Character",
    "ANGKJBLILKJ": true,
    "HLGCEAGHFGH": 50.0,
    "size": "Big"
  },
  "initialPoses": {
    "Default": {
      "initialPoseID": 1
    },
    "Command": {
      "initialPoseID": 1001,
      "initialPoseParams": {
        "boolParams": {
          "Command": "true"
        }
      }
    },
    "Sit": {
      "initialPoseID": 1002,
      "initialPoseParams": {
        "boolParams": {
          "Sit": "true"
        }
      }
    },
    "Practice": {
      "initialPoseID": 1003,
      "initialPoseParams": {
        "boolParams": {
          "Practice": "true"
        }
      }
    }
  },
  "aibeta": {
    "enable": true,
    "sensing": {
      "settings": {
        "DefaultSetting": {
          "viewRange": 25.0,
          "feelRange": 10.0
        },
        "NeverCombat": {
          "enableVision": false,
          "hearAttractionRange": 0.0,
          "feelRange": 0.0
        },
        "LowAlert": {
          "viewRange": 10.0
        }
      },
      "templates": {
        "DefaultTemplate": {
          "DefaultPoses": "DefaultSetting",
          "1001": "DefaultSetting",
          "1002": "LowAlert",
          "1003": "DefaultSetting"
        },
        "NeverCombatTemplate": {
          "DefaultPoses": "NeverCombat"
        }
      }
    },
    "neurons": {
      "DefaultSetting": ["HIT"],
      "NeverCombat": []
    },
    "threat": {
      "clearThreatByLostPath": true,
      "clearThreatTimerByLostPath": 11.0,
      "viewAttenuation": [
        {
          "x": 10.0,
          "y": 2.0
        },
        {
          "x": 15.0,
          "y": 0.800000011920929
        },
        {
          "x": 20.0,
          "y": 0.5
        },
        {
          "x": 25.0,
          "y": 0.30000001192092896
        },
        {
          "x": 30.0,
          "y": 0.20000000298023224
        }
      ],
      "resistTauntLevel": "Monster_TauntLevel_2"
    },
    "defendArea": {
      "defendRange": 50.0
    },
    "network": {
      "syncSkill": true
    },
    "skillGroupCDConfigs": [
      {
        "skillGroupCDID": 0,
        "skillGroupCDTime": 5.0
      },
      {
        "skillGroupCDID": 1,
        "skillGroupCDTime": 10.0
      },
      {
        "skillGroupCDID": 2,
        "skillGroupCDTime": 15.0
      }
    ],
    "skillSetting": {
      "skillEliteSet": {
        "1": [10001],
        "2": [1001]
      }
    },
    "skills": {
      "1": {
        "name": "OnAlert",
        "skillType": "OnAlert",
        "faceTarget": true,
        "publicCDGroup": "",
        "ignoreGCD": true,
        "triggerGCD": false,
        "stateIDs": ["Alert"],
        "skillQueryingTime": 3.0,
        "flagTargetReachable": "10",
        "flagSelfOnTemplateCollider": "01",
        "flagSelfInZone": "10",
        "flagTargetInZone": "11"
      },
      "2": {
        "name": "Command",
        "skillType": "Free",
        "castCondition": {
          "pose": [1001]
        },
        "cd": 5.0,
        "cdUpperRange": 5.0,
        "initialCD": 1.0,
        "publicCDGroup": "",
        "stateIDs": ["Command"],
        "flagTargetReachable": "10",
        "flagSelfOnTemplateCollider": "01",
        "flagSelfInZone": "10",
        "flagTargetInZone": "11"
      },
      "3": {
        "name": "Practice",
        "skillType": "Free",
        "castCondition": {
          "pose": [1003]
        },
        "cd": 5.0,
        "cdUpperRange": 5.0,
        "initialCD": 1.0,
        "publicCDGroup": "",
        "stateIDs": ["Practice"],
        "flagTargetReachable": "10",
        "flagSelfOnTemplateCollider": "01",
        "flagSelfInZone": "10",
        "flagTargetInZone": "11"
      },
      "101": {
        "name": "MeleeAtk",
        "priority": 3,
        "enableSkillPrepare": true,
        "skillPrepareTimeout": 2.0,
        "skillPrepareSpeedLevel": 1,
        "castCondition": {
          "pose": [101],
          "maxTargetAngleXZ": 90.0,
          "pickRangeMax": 7.0,
          "castRangeMax": 2.0
        },
        "cd": 5.0,
        "cdUpperRange": 2.5,
        "publicCDGroup": "",
        "stateIDs": ["MeleeAtk1", "MeleeAtk2", "MeleeAtk3"],
        "flagTargetReachable": "10",
        "flagSelfOnTemplateCollider": "01",
        "flagSelfInZone": "10",
        "flagTargetInZone": "11"
      },
      "102": {
        "name": "MeleeAtk",
        "priority": 3,
        "enableSkillPrepare": true,
        "skillPrepareTimeout": 2.0,
        "skillPrepareSpeedLevel": 1,
        "castCondition": {
          "pose": [201, 301],
          "maxTargetAngleXZ": 90.0,
          "pickRangeMax": 7.0,
          "castRangeMax": 2.0
        },
        "cd": 2.0,
        "cdUpperRange": 1.0,
        "publicCDGroup": "",
        "stateIDs": ["MeleeAtk1", "MeleeAtk2", "MeleeAtk3", "ChargeAttack"],
        "flagTargetReachable": "10",
        "flagSelfOnTemplateCollider": "01",
        "flagSelfInZone": "10",
        "flagTargetInZone": "11"
      },
      "201": {
        "name": "RushAtk",
        "priority": 4,
        "castCondition": {
          "pose": [101],
          "maxTargetAngleXZ": 90.0,
          "pickRangeMin": 5.0,
          "pickRangeMax": 15.0
        },
        "cd": 7.0,
        "cdUpperRange": 7.0,
        "initialCD": 1.0,
        "publicCDGroup": "",
        "stateIDs": ["RushAtk"],
        "skillQueryingTime": 2.0,
        "flagTargetReachable": "11",
        "flagSelfOnTemplateCollider": "01",
        "flagSelfInZone": "11",
        "flagTargetInZone": "11"
      },
      "202": {
        "name": "RushAtkFire",
        "priority": 1,
        "castCondition": {
          "pose": [201],
          "maxTargetAngleXZ": 90.0,
          "pickRangeMax": 12.0,
          "globalValues": ["_MONSTER_KAIRAGI_FIRE_HIT"],
          "globalValuesLogicAnd": false
        },
        "cd": 1.0,
        "initialCD": 1.0,
        "publicCDGroup": "",
        "ignoreGCD": true,
        "stateIDs": ["RushAtk"],
        "skillQueryingTime": 2.0,
        "flagTargetReachable": "11",
        "flagSelfOnTemplateCollider": "01",
        "flagSelfInZone": "11",
        "flagTargetInZone": "11"
      },
      "203": {
        "name": "RushAtk",
        "priority": 3,
        "castCondition": {
          "pose": [201, 301],
          "maxTargetAngleXZ": 90.0,
          "pickRangeMin": 5.0,
          "pickRangeMax": 15.0
        },
        "cd": 3.0,
        "cdUpperRange": 3.0,
        "initialCD": 1.0,
        "publicCDGroup": "",
        "stateIDs": ["RushAtk"],
        "skillQueryingTime": 2.0,
        "flagTargetReachable": "10",
        "flagSelfOnTemplateCollider": "01",
        "flagSelfInZone": "11",
        "flagTargetInZone": "11"
      },
      "301": {
        "name": "JumpAttack",
        "priority": 3,
        "enableSkillPrepare": true,
        "skillPrepareTimeout": 2.0,
        "castCondition": {
          "pose": [101],
          "maxTargetAngleXZ": 90.0,
          "pickRangeMin": 5.0,
          "pickRangeMax": 10.0,
          "castRangeMax": 3.0
        },
        "cd": 7.0,
        "cdUpperRange": 5.0,
        "initialCD": 1.0,
        "publicCDGroup": "Samurai_Kairagi_PowerAttack",
        "stateIDs": ["JumpAttack"],
        "skillQueryingTime": 2.0,
        "flagTargetReachable": "10",
        "flagSelfOnTemplateCollider": "01",
        "flagSelfInZone": "10",
        "flagTargetInZone": "11"
      },
      "302": {
        "name": "JumpAttack_Thunder",
        "priority": 3,
        "enableSkillPrepare": true,
        "skillPrepareTimeout": 2.0,
        "castCondition": {
          "pose": [201],
          "maxTargetAngleXZ": 90.0,
          "pickRangeMin": 5.0,
          "pickRangeMax": 10.0,
          "castRangeMax": 3.0
        },
        "cd": 7.0,
        "cdUpperRange": 5.0,
        "initialCD": 1.0,
        "publicCDGroup": "Samurai_Kairagi_PowerAttack",
        "stateIDs": ["JumpAttack"],
        "skillQueryingTime": 2.0,
        "flagTargetReachable": "10",
        "flagSelfOnTemplateCollider": "01",
        "flagSelfInZone": "10",
        "flagTargetInZone": "11"
      },
      "303": {
        "name": "JumpAttack_Thunder",
        "priority": 3,
        "castCondition": {
          "pose": [301],
          "maxTargetAngleXZ": 90.0,
          "pickRangeMin": 5.0,
          "pickRangeMax": 10.0
        },
        "cd": 4.0,
        "cdUpperRange": 2.0,
        "initialCD": 1.0,
        "publicCDGroup": "Samurai_Kairagi_PowerAttack",
        "stateIDs": ["JumpAttack"],
        "skillQueryingTime": 2.0,
        "flagTargetReachable": "10",
        "flagSelfOnTemplateCollider": "01",
        "flagSelfInZone": "10",
        "flagTargetInZone": "11"
      },
      "401": {
        "name": "ChargeAttack",
        "priority": 3,
        "castCondition": {
          "pose": [101],
          "pickRangeMax": 7.0
        },
        "cd": 10.0,
        "cdUpperRange": 5.0,
        "initialCD": 1.0,
        "publicCDGroup": "",
        "stateIDs": ["ChargeAttack"],
        "skillQueryingTime": 2.0,
        "flagTargetReachable": "10",
        "flagSelfOnTemplateCollider": "01",
        "flagSelfInZone": "11",
        "flagTargetInZone": "11"
      },
      "402": {
        "name": "ChargeAttack_Thunder",
        "priority": 3,
        "castCondition": {
          "pose": [201],
          "pickRangeMax": 7.0
        },
        "cd": 10.0,
        "cdUpperRange": 5.0,
        "initialCD": 1.0,
        "publicCDGroup": "Samurai_Kairagi_PowerAttack",
        "stateIDs": ["ChargeAttack"],
        "skillQueryingTime": 2.0,
        "flagTargetReachable": "10",
        "flagSelfOnTemplateCollider": "01",
        "flagSelfInZone": "11",
        "flagTargetInZone": "11"
      },
      "403": {
        "name": "ChargeAttack_Thunder",
        "priority": 3,
        "castCondition": {
          "pose": [301],
          "pickRangeMax": 7.0
        },
        "cd": 4.0,
        "cdUpperRange": 2.0,
        "initialCD": 1.0,
        "publicCDGroup": "Samurai_Kairagi_PowerAttack",
        "stateIDs": ["ChargeAttack"],
        "skillQueryingTime": 2.0,
        "flagTargetReachable": "10",
        "flagSelfOnTemplateCollider": "01",
        "flagSelfInZone": "11",
        "flagTargetInZone": "11"
      },
      "501": {
        "name": "ElementAttack",
        "priority": 2,
        "enableSkillPrepare": true,
        "castCondition": {
          "pose": [101, 301],
          "maxTargetAngleXZ": 90.0,
          "pickRangeMax": 20.0,
          "castRangeMax": 3.0
        },
        "cd": 30.0,
        "initialCD": 10.0,
        "publicCDGroup": "",
        "stateIDs": [
          "ElementAttack",
          "RushAtk",
          "JumpAttack",
          "MeleeAtk1",
          "MeleeAtk2",
          "MeleeAtk3"
        ],
        "skillQueryingTime": 2.0,
        "flagTargetReachable": "10",
        "flagSelfOnTemplateCollider": "01",
        "flagSelfInZone": "10",
        "flagTargetInZone": "11"
      },
      "601": {
        "name": "Angry",
        "priority": 1,
        "castCondition": {
          "pose": [301],
          "pickRangeMax": 50.0
        },
        "cd": 99999.0,
        "cdUpperRange": 2.5,
        "initialCD": 1.0,
        "publicCDGroup": "",
        "ignoreGCD": true,
        "triggerGCD": false,
        "stateIDs": ["Angry"],
        "skillQueryingTime": 2.0,
        "flagTargetReachable": "11",
        "flagSelfOnTemplateCollider": "01",
        "flagSelfInZone": "11",
        "flagTargetInZone": "11"
      },
      "1001": {
        "name": "Dodge",
        "priority": 4,
        "castCondition": {
          "pose": [101, 201, 301],
          "pickRangeMax": 4.0
        },
        "cd": 5.0,
        "cdUpperRange": 5.0,
        "publicCDGroup": "",
        "ignoreGCD": true,
        "triggerGCD": false,
        "stateIDs": ["Dodge"],
        "skillQueryingTime": 2.0,
        "flagTargetReachable": "10",
        "flagSelfOnTemplateCollider": "01",
        "flagSelfInZone": "10",
        "flagTargetInZone": "11"
      },
      "10001": {
        "name": "Dodge",
        "priority": 4,
        "castCondition": {
          "pose": [101, 201, 301],
          "pickRangeMax": 4.0
        },
        "cd": 9999999.0,
        "cdUpperRange": 5.0,
        "initialCD": 9999999.0,
        "publicCDGroup": "",
        "ignoreGCD": true,
        "triggerGCD": false,
        "stateIDs": ["Dodge"],
        "skillQueryingTime": 2.0,
        "flagTargetReachable": "10",
        "flagSelfOnTemplateCollider": "01",
        "flagSelfInZone": "10",
        "flagTargetInZone": "11"
      },
      "1002": {
        "name": "Provoke",
        "castCondition": {
          "pose": [101],
          "pickRangeMin": 5.0,
          "pickRangeMax": 10.0
        },
        "cd": 10.0,
        "cdUpperRange": 5.0,
        "publicCDGroup": "",
        "ignoreGCD": true,
        "triggerGCD": false,
        "stateIDs": ["Provoke"],
        "skillQueryingTime": 2.0,
        "flagTargetReachable": "11",
        "flagSelfOnTemplateCollider": "01",
        "flagSelfInZone": "11",
        "flagTargetInZone": "11"
      },
      "1003": {
        "name": "Defend1",
        "priority": 4,
        "castCondition": {
          "pose": [101, 201],
          "pickRangeMax": 10.0
        },
        "initialCD": 1.0,
        "publicCDGroup": "",
        "ignoreGCD": true,
        "triggerGCD": false,
        "skillGroupCDID": 1,
        "stateIDs": [
          "DefendBS",
          "DefendLoop",
          "DefendAS",
          "DefendBreak",
          "DefendHit"
        ],
        "skillQueryingTime": 2.0,
        "flagTargetReachable": "10",
        "flagSelfOnTemplateCollider": "01",
        "flagSelfInZone": "10",
        "flagTargetInZone": "11"
      },
      "1004": {
        "name": "Defend2",
        "priority": 4,
        "castCondition": {
          "pose": [101, 201],
          "pickRangeMax": 10.0
        },
        "initialCD": 1.0,
        "publicCDGroup": "",
        "ignoreGCD": true,
        "triggerGCD": false,
        "skillGroupCDID": 1,
        "stateIDs": [
          "DefendBS",
          "DefendLoop",
          "DefendAS",
          "DefendBreak",
          "DefendHit"
        ],
        "skillQueryingTime": 2.0,
        "flagTargetReachable": "10",
        "flagSelfOnTemplateCollider": "01",
        "flagSelfInZone": "10",
        "flagTargetInZone": "11"
      }
    },
    "skillGCD": 3.0,
    "returnToBornTactic": {
      "enable": true,
      "defaultSetting": {
        "KLHLJGGBMEL": 5.0
      }
    },
    "wanderTactic": {
      "enable": true,
      "condition": {
        "pose": [1]
      },
      "defaultSetting": {
        "turnSpeedOverride": 1.0,
        "cdMax": 5.0,
        "cdMin": 2.5,
        "distanceFromBorn": 15.0,
        "distanceFromCurrentMin": 5.0,
        "distanceFromCurrentMax": 7.5
      }
    },
    "meleeChargeTactic": {
      "enable": true,
      "condition": {
        "pose": [101, 201, 301]
      },
      "defaultSetting": {
        "startDistanceMin": 10.0,
        "startDistanceMax": 99.0,
        "stopDistance": 7.0,
        "innerDistance": 0.0
      }
    },
    "facingMoveTactic": {
      "enable": true,
      "condition": {
        "pose": [101, 201, 301]
      },
      "defaultSetting": {
        "rangeMin": 0.0,
        "rangeMax": 7.0,
        "restTimeMin": 2.0,
        "restTimeMax": 5.0,
        "facingMoveTurnInterval": 1.0,
        "obstacleDetectRange": 1.0,
        "facingMoveWeight": {
          "stop": 0.0,
          "left": 3.0,
          "right": 3.0
        },
        "PDOKGBAJNEP": "1111",
        "NGLJBMGMGKF": "1111"
      }
    }
  },
  "inputKeys": [
    {
      "keyID": 101,
      "inputKeyCode": 257,
      "abilityName": ""
    },
    {
      "keyID": 201,
      "inputKeyCode": 258,
      "abilityName": ""
    },
    {
      "keyID": 301,
      "inputKeyCode": 259,
      "abilityName": ""
    },
    {
      "keyID": 401,
      "inputKeyCode": 260,
      "abilityName": ""
    },
    {
      "keyID": 501,
      "inputKeyCode": 261,
      "abilityName": ""
    },
    {
      "keyID": 601,
      "inputKeyCode": 262,
      "abilityName": ""
    },
    {
      "keyID": 1001,
      "inputKeyCode": 263,
      "abilityName": ""
    },
    {
      "keyID": 1002,
      "inputKeyCode": 264,
      "abilityName": ""
    },
    {
      "keyID": 1003,
      "inputKeyCode": 265,
      "abilityName": ""
    },
    {
      "keyID": 102,
      "inputKeyCode": 266,
      "abilityName": ""
    },
    {
      "keyID": 202,
      "inputKeyCode": 267,
      "abilityName": ""
    },
    {
      "keyID": 302,
      "inputKeyCode": 268,
      "abilityName": ""
    },
    {
      "keyID": 402,
      "inputKeyCode": 269,
      "abilityName": ""
    },
    {
      "keyID": 502,
      "inputKeyCode": 270,
      "abilityName": ""
    },
    {
      "keyID": 1004,
      "inputKeyCode": 271,
      "abilityName": ""
    }
  ],
  "move": {
    "$type": "PLMNMICDOHN",
    "BCBPBHLKCPB": "FourDirection",
    "NGNIGPNNLAI": "StoopType"
  },
  "audio": {
    "NCOGLLMIJGO": "",
    "animAudio": {
      "onTransitionIn": [
        {
          "currentStateName": "Weak_Loop",
          "audioEvent": {
            "text": "Play_sfx_monster_gloves_wind_weak_Loop"
          }
        },
        {
          "currentStateName": "Block_Loop",
          "audioEvent": {
            "text": "Play_sfx_monster_gloves_wind_block_Loop"
          }
        }
      ],
      "onTransitionOut": [
        {
          "currentStateName": "Weak_Loop",
          "audioEvent": {
            "text": "Stop_sfx_monster_gloves_wind_weak_Loop"
          }
        },
        {
          "currentStateName": "Block_Loop",
          "audioEvent": {
            "text": "Stop_sfx_monster_gloves_wind_block_Loop"
          }
        }
      ]
    },
    "disableEvent": {
      "text": ""
    },
    "destroyEvent": {
      "text": ""
    }
  }
}
