{
  "common": {
    "effectAttachShape": {
      "$type": "ConfigEffectAttachSkinnedMesh",
      "mesh": "EffectMesh"
    },
    "mass": 30.0,
    "affectedByWorld": true,
    "checkInSurface": true,
    "scale": 1.100000023841858,
    "useGrassDisplacement": true
  },
  "headControl": {
    "$type": "GAAIKCFIJMM",
    "useHeadControl": true,
    "FCDMCPDGFCL": [
      "NormalIdle/Standby",
      "NormalMove/WalkForward",
      "NormalMove/WalkBack",
      "NormalMove/WalkRight",
      "NormalMove/WalkLeft",
      "NormalMove/Run",
      "Turn/TurnLeft",
      "Turn/TurnRight"
    ]
  },
  "model": {
    "bornEffect": "Eff_Monster_Common_Born",
    "attachEffect": ""
  },
  "combat": {
    "property": {
      "endureType": "Monster_Minion",
      "weight": 75.0
    },
    "beHit": {
      "hitBloodEffect": ""
    },
    "combatLock": {
      "lockShape": "CircleLockEnemy",
      "lockType": "Avatar&Monster_Lv4"
    },
    "die": {
      "hasAnimatorDie": true,
      "dieEndTime": 2.0,
      "dieForceDisappearTime": 4.0,
      "dieDisappearEffect": "Eff_Death_Common",
      "dieShaderData": "MonsterDie",
      "dieModelFadeDelay": 0.5,
      "useRagDoll": true,
      "OCGODEHJPME": true,
      "MFJBKFECLNJ": true,
      "IMEEBMBJPGJ": true,
      "ICHFPLMNCLC": true,
      "MBHMAGEPJFH": true,
      "CFHPDHFKMEP": true
    },
    "animEvents": {
      "AtkL01": {
        "attackPattern": {
          "$type": "ConfigAttackCircle",
          "triggerType": "TriggerNoRepeat",
          "born": {
            "$type": "ConfigBornBySelf",
            "offset": {
              "x": 0.0,
              "y": 0.0,
              "z": -0.5
            }
          },
          "fanAngle": 75.0,
          "radius": 2.0
        },
        "attackInfo": {
          "attackTag": "",
          "attenuationTag": "",
          "attenuationGroup": "default",
          "attackProperty": {
            "damagePercentage": 1.0,
            "MKLAMNDEDGB": 0.0,
            "bonusCriticalHurt": 100.0,
            "strikeType": "Blunt",
            "enBreak": 50.0,
            "attackType": "Melee"
          },
          "hitPattern": {
            "onHitEffectName": "default",
            "hitImpulseType": "LV2"
          }
        }
      },
      "AtkL02": {
        "attackPattern": {
          "$type": "ConfigAttackCircle",
          "triggerType": "TriggerNoRepeat",
          "born": {
            "$type": "ConfigBornBySelf",
            "offset": {
              "x": 0.0,
              "y": 0.0,
              "z": -0.5
            }
          },
          "fanAngle": 75.0,
          "radius": 2.0
        },
        "attackInfo": {
          "attackTag": "",
          "attenuationTag": "",
          "attenuationGroup": "default",
          "attackProperty": {
            "damagePercentage": 1.0,
            "MKLAMNDEDGB": 0.0,
            "bonusCriticalHurt": 100.0,
            "strikeType": "Blunt",
            "enBreak": 50.0,
            "attackType": "Melee"
          },
          "hitPattern": {
            "onHitEffectName": "default",
            "hitImpulseType": "LV2"
          }
        }
      },
      "AtkL03": {
        "attackPattern": {
          "$type": "ConfigAttackCircle",
          "triggerType": "TriggerNoRepeat",
          "born": {
            "$type": "ConfigBornBySelf",
            "offset": {
              "x": 0.0,
              "y": 0.0,
              "z": -0.5
            }
          },
          "fanAngle": 75.0,
          "radius": 2.0
        },
        "attackInfo": {
          "attackTag": "",
          "attenuationTag": "",
          "attenuationGroup": "default",
          "attackProperty": {
            "damagePercentage": 1.25,
            "MKLAMNDEDGB": 0.0,
            "bonusCriticalHurt": 100.0,
            "strikeType": "Blunt",
            "enBreak": 100.0,
            "attackType": "Melee"
          },
          "hitPattern": {
            "onHitEffectName": "default",
            "hitImpulseType": "LV4"
          },
          "cameraShake": {
            "shakeType": "HitVector",
            "shakeRange": 0.03999999910593033,
            "shakeTime": 0.09000000357627869,
            "shakeDir": {
              "y": -1.0
            }
          }
        }
      },
      "AtkH": {
        "attackPattern": {
          "$type": "ConfigAttackCircle",
          "triggerType": "TriggerNoRepeat",
          "born": {
            "$type": "ConfigBornBySelf",
            "offset": {
              "x": 0.0,
              "y": 0.0,
              "z": -0.5
            }
          },
          "fanAngle": 75.0,
          "radius": 1.75
        },
        "attackInfo": {
          "attackTag": "",
          "attenuationTag": "",
          "attenuationGroup": "default",
          "attackProperty": {
            "damagePercentage": 2.0,
            "MKLAMNDEDGB": 0.0,
            "bonusCriticalHurt": 100.0,
            "strikeType": "Blunt",
            "enBreak": 200.0,
            "attackType": "Melee"
          },
          "hitPattern": {
            "onHitEffectName": "default",
            "hitImpulseType": "LV5"
          },
          "cameraShake": {
            "shakeType": "HitVector",
            "shakeRange": 0.05999999865889549,
            "shakeTime": 0.09000000357627869,
            "shakeDir": {
              "y": -1.0
            }
          }
        }
      },
      "AtkNormal": {
        "attackPattern": {
          "$type": "ConfigAttackCircle",
          "triggerType": "TriggerNoRepeat",
          "born": {
            "$type": "ConfigBornBySelf",
            "offset": {
              "x": 0.0,
              "y": 0.0,
              "z": 0.0
            }
          },
          "fanAngle": 60.0,
          "radius": 1.75
        },
        "attackInfo": {
          "attackTag": "",
          "attenuationTag": "",
          "attenuationGroup": "default",
          "attackProperty": {
            "damagePercentage": 1.0,
            "MKLAMNDEDGB": 0.0,
            "bonusCriticalHurt": 100.0,
            "strikeType": "Blunt",
            "enBreak": 80.0,
            "attackType": "Melee"
          },
          "hitPattern": {
            "onHitEffectName": "default",
            "hitImpulseType": "LV3",
            "hitHaltTimeScale": 0.009999999776482582
          }
        }
      },
      "AtkNo": {
        "attackPattern": {
          "$type": "ConfigAttackCircle",
          "triggerType": "TriggerNoRepeat",
          "born": {
            "$type": "ConfigBornBySelf",
            "offset": {
              "x": 0.0,
              "y": 0.0,
              "z": -0.5
            }
          },
          "fanAngle": 60.0,
          "radius": 1.5
        },
        "attackInfo": {
          "attackTag": "",
          "attenuationTag": "",
          "attenuationGroup": "default",
          "attackProperty": {
            "damagePercentage": 0.75,
            "MKLAMNDEDGB": 0.0,
            "bonusCriticalHurt": 100.0,
            "strikeType": "Blunt",
            "enBreak": 60.0,
            "attackType": "Melee"
          },
          "hitPattern": {
            "onHitEffectName": "default",
            "hitImpulseType": "LV3",
            "hitHaltTimeScale": 0.009999999776482582
          }
        }
      },
      "DefendAttack_BS": {
        "attackPattern": {
          "$type": "ConfigAttackCircle",
          "triggerType": "TriggerNoRepeat",
          "born": {
            "$type": "ConfigBornBySelf",
            "offset": {
              "x": 0.0,
              "y": 0.0,
              "z": -0.5
            },
            "HOPPHMEKHLG": {
              "$type": "IOPNFLFHGID",
              "NHGDOBINMBK": {
                "x": 0.0,
                "y": -30.0,
                "z": 0.0
              }
            }
          },
          "fanAngle": 120.0,
          "radius": 1.5
        },
        "attackInfo": {
          "attackTag": "",
          "attenuationTag": "",
          "attenuationGroup": "default",
          "attackProperty": {
            "damagePercentage": 0.0,
            "MKLAMNDEDGB": 0.0,
            "bonusCriticalHurt": 100.0,
            "enBreak": 60.0
          },
          "hitPattern": {
            "onHitEffectName": "default",
            "hitImpulseType": "LV3",
            "hitHaltTime": 0.11999999731779099,
            "hitHaltTimeScale": 0.10000000149011612,
            "muteHitText": true
          }
        }
      },
      "DefendAttack_AS": {
        "attackPattern": {
          "$type": "ConfigAttackCircle",
          "triggerType": "TriggerNoRepeat",
          "born": {
            "$type": "ConfigBornBySelf",
            "offset": {
              "x": 0.0,
              "y": 0.0,
              "z": -0.5
            }
          },
          "fanAngle": 75.0,
          "radius": 2.0
        },
        "attackInfo": {
          "attackTag": "",
          "attenuationTag": "",
          "attenuationGroup": "default",
          "attackProperty": {
            "damagePercentage": 1.0,
            "MKLAMNDEDGB": 0.0,
            "bonusCriticalHurt": 100.0,
            "strikeType": "Blunt",
            "enBreak": 60.0,
            "attackType": "Melee"
          },
          "hitPattern": {
            "onHitEffectName": "default",
            "hitImpulseType": "LV4"
          }
        }
      }
    }
  },
  "equipController": {
    "sheathPoint": "",
    "attachPoints": {
      "equip01": "WeaponR",
      "equip02": "WeaponL"
    }
  },
  "abilities": [
    {
      "abilityID": "Alert",
      "abilityName": "Hili_None_Alert",
      "abilityOverride": "",
      "KCBHAAMMIGC": true
    },
    {
      "abilityID": "AwakeAlert",
      "abilityName": "Hili_None_AwakeAlert",
      "abilityOverride": "",
      "KCBHAAMMIGC": true
    },
    {
      "abilityID": "SteerAttack",
      "abilityName": "Hili_None_SteerAttack",
      "abilityOverride": ""
    },
    {
      "abilityID": "Shoot",
      "abilityName": "Hili_None_ShootArrow_WithRandom",
      "abilityOverride": ""
    },
    {
      "abilityID": "ThrowPebble_Effect",
      "abilityName": "Hili_None_ThrowPebble_Effect",
      "abilityOverride": ""
    },
    {
      "abilityID": "ThrowPebble",
      "abilityName": "Hili_None_ThrowPebble",
      "abilityOverride": ""
    },
    {
      "abilityID": "ThrowPebble_Shield_Effect",
      "abilityName": "Hili_None_ThrowPebble_Shield_Effect",
      "abilityOverride": ""
    },
    {
      "abilityID": "ThrowPebble_Shield",
      "abilityName": "Hili_None_ThrowPebble_Shield",
      "abilityOverride": ""
    },
    {
      "abilityID": "Hili_None_SpecialsState_Weapon",
      "abilityName": "Hili_None_SpecialsState_Weapon",
      "abilityOverride": "",
      "KCBHAAMMIGC": true
    },
    {
      "abilityID": "Hili_None_SpecialsState_HideWeapon",
      "abilityName": "Hili_None_SpecialsState_HideWeapon",
      "abilityOverride": "",
      "KCBHAAMMIGC": true
    },
    {
      "abilityID": "SpecialsState_AIStateInitial",
      "abilityName": "Hili_None_SpecialsState_AIStateInitial",
      "abilityOverride": "",
      "KCBHAAMMIGC": true
    },
    {
      "abilityID": "EquipFlagManager",
      "abilityName": "Hili_None_EquipFlagManager",
      "abilityOverride": ""
    },
    {
      "abilityID": "Hili_ActionPointRegister",
      "abilityName": "Hili_None_ActionPointRegister",
      "abilityOverride": "",
      "KCBHAAMMIGC": true
    },
    {
      "abilityID": "TurnToSleep",
      "abilityName": "Hili_None_TurnToSleep",
      "abilityOverride": "",
      "KCBHAAMMIGC": true
    },
    {
      "abilityID": "OutOfSleep",
      "abilityName": "Hili_None_OutOfSleep",
      "abilityOverride": "",
      "KCBHAAMMIGC": true
    },
    {
      "abilityID": "TurnToSit",
      "abilityName": "Hili_None_TurnToSit",
      "abilityOverride": "",
      "KCBHAAMMIGC": true
    },
    {
      "abilityID": "OutOfSit",
      "abilityName": "Hili_None_OutOfSit",
      "abilityOverride": "",
      "KCBHAAMMIGC": true
    },
    {
      "abilityID": "TurnToPractice",
      "abilityName": "Hili_None_TurnToPractice",
      "abilityOverride": "",
      "KCBHAAMMIGC": true
    },
    {
      "abilityID": "OutOfPractice",
      "abilityName": "Hili_None_OutOfPractice",
      "abilityOverride": "",
      "KCBHAAMMIGC": true
    },
    {
      "abilityID": "TurnToThreat",
      "abilityName": "Hili_None_TurnToThreat",
      "abilityOverride": "",
      "KCBHAAMMIGC": true
    },
    {
      "abilityID": "OutOfThreat",
      "abilityName": "Hili_None_OutOfThreat",
      "abilityOverride": "",
      "KCBHAAMMIGC": true
    },
    {
      "abilityID": "TurnToSurround",
      "abilityName": "Hili_None_TurnToSurround",
      "abilityOverride": "",
      "KCBHAAMMIGC": true
    },
    {
      "abilityID": "OutOfSurround",
      "abilityName": "Hili_None_OutOfSurround",
      "abilityOverride": "",
      "KCBHAAMMIGC": true
    },
    {
      "abilityID": "TurnToBuild",
      "abilityName": "Hili_None_TurnToBuild",
      "abilityOverride": "",
      "KCBHAAMMIGC": true
    },
    {
      "abilityID": "OutOfBuild",
      "abilityName": "Hili_None_OutOfBuild",
      "abilityOverride": "",
      "KCBHAAMMIGC": true
    },
    {
      "abilityID": "Build_Effect",
      "abilityName": "Hili_None_Build_Effect",
      "abilityOverride": "",
      "KCBHAAMMIGC": true
    },
    {
      "abilityID": "TurnToMake",
      "abilityName": "Hili_None_TurnToMake",
      "abilityOverride": "",
      "KCBHAAMMIGC": true
    },
    {
      "abilityID": "OutOfMake",
      "abilityName": "Hili_None_OutOfMake",
      "abilityOverride": "",
      "KCBHAAMMIGC": true
    },
    {
      "abilityID": "Make_Effect",
      "abilityName": "Hili_None_Make_Effect",
      "abilityOverride": "",
      "KCBHAAMMIGC": true
    },
    {
      "abilityID": "TurnToSearch",
      "abilityName": "Hili_None_TurnToSearch",
      "abilityOverride": "",
      "KCBHAAMMIGC": true
    },
    {
      "abilityID": "OutOfSearch",
      "abilityName": "Hili_None_OutOfSearch",
      "abilityOverride": "",
      "KCBHAAMMIGC": true
    },
    {
      "abilityID": "Search_Effect",
      "abilityName": "Hili_None_Search_Effect",
      "abilityOverride": "",
      "KCBHAAMMIGC": true
    },
    {
      "abilityID": "TurnToDance",
      "abilityName": "Hili_None_TurnToDance",
      "abilityOverride": "",
      "KCBHAAMMIGC": true
    },
    {
      "abilityID": "OutOfDance",
      "abilityName": "Hili_None_OutOfDance",
      "abilityOverride": "",
      "KCBHAAMMIGC": true
    },
    {
      "abilityID": "",
      "abilityName": "Hili_None_TurnToMining",
      "abilityOverride": "",
      "KCBHAAMMIGC": true
    },
    {
      "abilityID": "",
      "abilityName": "Hili_None_OutOfMining",
      "abilityOverride": "",
      "KCBHAAMMIGC": true
    }
  ],
  "stateLayers": {
    "defaultLayer": {
      "$type": "ConfigNormalStateLayer",
      "FNPGDAEJAPJ": "",
      "stateIDs": {
        "NormalIdle": {
          "$type": "ConfigMonsterStateIDInfo",
          "animatorStates": {
            "Standby": [],
            "Born": []
          },
          "canDoSkill": true,
          "canSyncMove": true,
          "resetAnimatorTriggerOnExit": ["DoSkill"]
        },
        "NormalMove": {
          "$type": "ConfigMonsterStateIDInfo",
          "animatorStates": {
            "WalkForward": ["Audio_Hili_Walk"],
            "WalkBack": ["Audio_Hili_Walk"],
            "WalkRight": ["Audio_Hili_Walk"],
            "WalkLeft": ["Audio_Hili_Walk"],
            "Run": ["Audio_Hili_Run"]
          },
          "canDoSkill": true,
          "canSyncMove": true,
          "resetAnimatorTriggerOnExit": ["DoSkill"],
          "BHEPAJIOBDN": true
        },
        "Turn": {
          "$type": "ConfigMonsterStateIDInfo",
          "animatorStates": {
            "TurnLeft": ["Audio_Hili_Walk"],
            "TurnRight": ["Audio_Hili_Walk"]
          },
          "canDoSkill": true,
          "canSyncMove": true,
          "resetAnimatorTriggerOnExit": ["DoSkill"],
          "BHEPAJIOBDN": true,
          "BKLKHCBEHNL": true
        },
        "WeaponOnFire": {
          "$type": "ConfigMonsterStateIDInfo",
          "animatorStates": {
            "WeaponOnFire": ["Audio_Hili_WeaponOnFire"]
          },
          "canSyncMove": true,
          "resetAnimatorTriggerOnExit": ["DoSkill"]
        },
        "BeHit": {
          "$type": "ConfigMonsterStateIDInfo",
          "animatorStates": {
            "Hit_L": ["Audio_Hili_Hit_L"],
            "Hit_H": ["Audio_Hili_Hit_H"],
            "DHit": ["Audio_Hili_Hit_L"]
          },
          "resetAnimatorTriggerOnEnter": ["BeHit"],
          "resetAnimatorTriggerOnExit": ["DoSkill"]
        },
        "BeHitThrow": {
          "$type": "ConfigMonsterStateIDInfo",
          "animatorStates": {
            "HitThrow": ["Audio_Hili_Hit_Throw"],
            "HitThrowDrop": [],
            "HitThrowToGround": ["Audio_Hili_Hit_ThrowToGround"]
          },
          "resetAnimatorTriggerOnEnter": ["BeHit", "HitAir2HitDrop"],
          "resetAnimatorTriggerOnExit": ["DoSkill"]
        },
        "Struggle": {
          "$type": "ConfigMonsterStateIDInfo",
          "animatorStates": {
            "Struggle": []
          },
          "resetAnimatorTriggerOnEnter": ["BeHit", "HitAir2HitDrop"],
          "resetAnimatorTriggerOnExit": ["DoSkill"]
        },
        "Die": {
          "$type": "ConfigMonsterStateIDInfo",
          "animatorStates": {
            "SwimDie": ["Monster_Hili_None_Die", "Audio_Hili_SwimDie"],
            "SwimDie_AS": ["Audio_Hili_SwimDie"]
          }
        },
        "Die_RagDoll": {
          "$type": "ConfigMonsterStateIDInfo",
          "animatorStates": {
            "Die1": ["Monster_Hili_None_Die", "Audio_Hili_Die1"],
            "Die2": ["Monster_Hili_None_Die", "Audio_Hili_Die2"],
            "AirDie": ["Monster_Hili_None_Die", "Audio_Hili_Die1"]
          },
          "HCCMMNBMCMA": true
        },
        "Life_Alert": {
          "$type": "ConfigMonsterStateIDInfo",
          "animatorStates": {
            "Alert": []
          },
          "resetAnimatorTriggerOnExit": ["BeHit", "DoSkill"]
        },
        "Life_Warning": {
          "$type": "ConfigMonsterStateIDInfo",
          "animatorStates": {
            "Warning": [
              "Monster_Undead01_Warning",
              "Monster_Hili_None_Alert",
              "Audio_Hili_Warning"
            ]
          },
          "resetAnimatorTriggerOnExit": ["BeHit", "DoSkill"]
        },
        "Life_Talk": {
          "$type": "ConfigMonsterStateIDInfo",
          "animatorStates": {
            "Talk": [],
            "Talk_Sit": []
          },
          "canDoSkill": true,
          "resetAnimatorTriggerOnExit": ["BeHit", "DoSkill"]
        },
        "TurnToSit": {
          "$type": "ConfigMonsterStateIDInfo",
          "animatorStates": {
            "TurnToSit": ["Monster_Hili_None_TurnToSit"]
          },
          "canDoSkill": true,
          "resetAnimatorTriggerOnExit": ["BeHit", "DoSkill"]
        },
        "OutOfSit": {
          "$type": "ConfigMonsterStateIDInfo",
          "animatorStates": {
            "OutOfSit": ["Monster_Hili_None_OutOfSit"]
          },
          "canDoSkill": true,
          "resetAnimatorTriggerOnExit": ["BeHit", "DoSkill"]
        },
        "Sit": {
          "$type": "ConfigMonsterStateIDInfo",
          "animatorStates": {
            "Sit": []
          },
          "canDoSkill": true,
          "canSyncMove": true,
          "resetAnimatorTriggerOnExit": ["DoSkill"]
        },
        "SitFree01": {
          "$type": "ConfigMonsterStateIDInfo",
          "animatorStates": {
            "SitFree01": []
          },
          "canDoSkill": true,
          "resetAnimatorTriggerOnExit": ["BeHit", "DoSkill"]
        },
        "TurnToSleep": {
          "$type": "ConfigMonsterStateIDInfo",
          "animatorStates": {
            "TurnToSleep": ["Monster_Hili_None_TurnToSleep"]
          },
          "canDoSkill": true,
          "resetAnimatorTriggerOnExit": ["BeHit", "DoSkill"]
        },
        "OutOfSleep": {
          "$type": "ConfigMonsterStateIDInfo",
          "animatorStates": {
            "OutOfSleep": ["Monster_Hili_None_OutOfSleep"]
          },
          "canDoSkill": true,
          "resetAnimatorTriggerOnExit": ["BeHit", "DoSkill"]
        },
        "Sleep": {
          "$type": "ConfigMonsterStateIDInfo",
          "animatorStates": {
            "Sleep": ["Audio_Hili_Sleep"]
          },
          "canDoSkill": true,
          "canSyncMove": true,
          "resetAnimatorTriggerOnExit": ["DoSkill"]
        },
        "SleepFree01": {
          "$type": "ConfigMonsterStateIDInfo",
          "animatorStates": {
            "SleepFree01": []
          },
          "canDoSkill": true,
          "resetAnimatorTriggerOnExit": ["BeHit", "DoSkill"]
        },
        "SleepFree02": {
          "$type": "ConfigMonsterStateIDInfo",
          "animatorStates": {
            "SleepFree02": []
          },
          "canDoSkill": true,
          "resetAnimatorTriggerOnExit": ["BeHit", "DoSkill"]
        },
        "SleepFree03": {
          "$type": "ConfigMonsterStateIDInfo",
          "animatorStates": {
            "SleepFree03": []
          },
          "canDoSkill": true,
          "resetAnimatorTriggerOnExit": ["BeHit", "DoSkill"]
        },
        "TurnToPractice": {
          "$type": "ConfigMonsterStateIDInfo",
          "animatorStates": {
            "TurnToPractice": ["Monster_Hili_None_TurnToPractice"]
          },
          "canDoSkill": true,
          "resetAnimatorTriggerOnExit": ["BeHit", "DoSkill"]
        },
        "OutOfPractice": {
          "$type": "ConfigMonsterStateIDInfo",
          "animatorStates": {
            "OutOfPractice": ["Monster_Hili_None_OutOfPractice"]
          },
          "canDoSkill": true,
          "resetAnimatorTriggerOnExit": ["BeHit", "DoSkill"]
        },
        "Practice": {
          "$type": "ConfigMonsterStateIDInfo",
          "animatorStates": {
            "Practice": []
          },
          "canDoSkill": true,
          "canSyncMove": true,
          "resetAnimatorTriggerOnExit": ["DoSkill"]
        },
        "Practice_Action": {
          "$type": "ConfigMonsterStateIDInfo",
          "animatorStates": {
            "Practice_NoWeapon": ["Audio_Hili_Practice_NoWeapon"],
            "Practice_NoWeapon_Back": [],
            "Practice_Sword": ["Audio_Hili_Practice_Sword"],
            "Practice_Sword_Back": [],
            "Practice_Shoot_Aim": [],
            "Practice_Shoot_Attack": []
          },
          "canDoSkill": true,
          "canSyncMove": true,
          "resetAnimatorTriggerOnExit": ["DoSkill"]
        },
        "TurnToThreat": {
          "$type": "ConfigMonsterStateIDInfo",
          "animatorStates": {
            "TurnToThreat": ["Monster_Hili_None_TurnToThreat"]
          },
          "canDoSkill": true,
          "resetAnimatorTriggerOnExit": ["BeHit", "DoSkill"]
        },
        "OutOfThreat": {
          "$type": "ConfigMonsterStateIDInfo",
          "animatorStates": {
            "OutOfThreat": ["Monster_Hili_None_OutOfThreat"]
          },
          "canDoSkill": true,
          "resetAnimatorTriggerOnExit": ["BeHit", "DoSkill"]
        },
        "Threat": {
          "$type": "ConfigMonsterStateIDInfo",
          "animatorStates": {
            "Threat": []
          },
          "canDoSkill": true,
          "resetAnimatorTriggerOnExit": ["BeHit", "DoSkill"]
        },
        "ThreatFree01": {
          "$type": "ConfigMonsterStateIDInfo",
          "animatorStates": {
            "ThreatFree01_NoWeapon": ["Audio_Hili_Taunt"],
            "ThreatFree01_Club": ["Audio_Hili_Taunt"]
          },
          "canDoSkill": true,
          "resetAnimatorTriggerOnExit": ["BeHit", "DoSkill"]
        },
        "ThreatFree02": {
          "$type": "ConfigMonsterStateIDInfo",
          "animatorStates": {
            "ThreatFree02_NoWeapon": ["Audio_Hili_Taunt"],
            "ThreatFree02_Club": ["Audio_Hili_Taunt"]
          },
          "canDoSkill": true,
          "resetAnimatorTriggerOnExit": ["BeHit", "DoSkill"]
        },
        "TurnToSurround": {
          "$type": "ConfigMonsterStateIDInfo",
          "animatorStates": {
            "TurnToSurround": ["Monster_Hili_None_TurnToSurround"]
          },
          "canDoSkill": true,
          "resetAnimatorTriggerOnExit": ["BeHit", "DoSkill"]
        },
        "OutOfSurround": {
          "$type": "ConfigMonsterStateIDInfo",
          "animatorStates": {
            "OutOfSurround": ["Monster_Hili_None_OutOfSurround"]
          },
          "canDoSkill": true,
          "resetAnimatorTriggerOnExit": ["BeHit", "DoSkill"]
        },
        "Surround": {
          "$type": "ConfigMonsterStateIDInfo",
          "animatorStates": {
            "Surround": []
          },
          "canDoSkill": true,
          "resetAnimatorTriggerOnExit": ["BeHit", "DoSkill"]
        },
        "SurroundFree01": {
          "$type": "ConfigMonsterStateIDInfo",
          "animatorStates": {
            "SurroundFree01_NoWeapon": [],
            "SurroundFree01_Club": []
          },
          "canDoSkill": true,
          "resetAnimatorTriggerOnExit": ["BeHit", "DoSkill"]
        },
        "TurnToBuild": {
          "$type": "ConfigMonsterStateIDInfo",
          "animatorStates": {
            "TurnToBuild": ["Monster_Hili_None_TurnToBuild"]
          },
          "canDoSkill": true,
          "resetAnimatorTriggerOnExit": ["BeHit", "DoSkill"]
        },
        "OutOfBuild": {
          "$type": "ConfigMonsterStateIDInfo",
          "animatorStates": {
            "OutOfBuild": ["Monster_Hili_None_OutOfBuild"]
          },
          "canDoSkill": true,
          "resetAnimatorTriggerOnExit": ["BeHit", "DoSkill"]
        },
        "Build": {
          "$type": "ConfigMonsterStateIDInfo",
          "animatorStates": {
            "Build": ["Monster_Hili_None_Build"]
          },
          "canDoSkill": true,
          "resetAnimatorTriggerOnExit": ["BeHit", "DoSkill"]
        },
        "TurnToMake": {
          "$type": "ConfigMonsterStateIDInfo",
          "animatorStates": {
            "TurnToMake": ["Monster_Hili_None_TurnToMake"]
          },
          "canDoSkill": true,
          "resetAnimatorTriggerOnExit": ["BeHit", "DoSkill"]
        },
        "OutOfMake": {
          "$type": "ConfigMonsterStateIDInfo",
          "animatorStates": {
            "OutOfMake": ["Monster_Hili_None_OutOfMake"]
          },
          "canDoSkill": true,
          "resetAnimatorTriggerOnExit": ["BeHit", "DoSkill"]
        },
        "Make": {
          "$type": "ConfigMonsterStateIDInfo",
          "animatorStates": {
            "Make": ["Monster_Hili_None_Make"]
          },
          "canDoSkill": true,
          "resetAnimatorTriggerOnExit": ["BeHit", "DoSkill"]
        },
        "TurnToSearch": {
          "$type": "ConfigMonsterStateIDInfo",
          "animatorStates": {
            "TurnToSearch": ["Monster_Hili_None_TurnToSearch"]
          },
          "canDoSkill": true,
          "resetAnimatorTriggerOnExit": ["BeHit", "DoSkill"]
        },
        "OutOfSearch": {
          "$type": "ConfigMonsterStateIDInfo",
          "animatorStates": {
            "OutOfSearch": ["Monster_Hili_None_OutOfSearch"]
          },
          "canDoSkill": true,
          "resetAnimatorTriggerOnExit": ["BeHit", "DoSkill"]
        },
        "Search": {
          "$type": "ConfigMonsterStateIDInfo",
          "animatorStates": {
            "Search": ["Monster_Hili_None_Search"]
          },
          "canDoSkill": true,
          "resetAnimatorTriggerOnExit": ["BeHit", "DoSkill"]
        },
        "TurnToDance": {
          "$type": "ConfigMonsterStateIDInfo",
          "animatorStates": {
            "TurnToDance": ["Monster_Hili_None_TurnToDance"]
          },
          "canDoSkill": true,
          "resetAnimatorTriggerOnExit": ["BeHit", "DoSkill"]
        },
        "OutOfDance": {
          "$type": "ConfigMonsterStateIDInfo",
          "animatorStates": {
            "OutOfDance": ["Monster_Hili_None_OutOfDance"]
          },
          "canDoSkill": true,
          "resetAnimatorTriggerOnExit": ["BeHit", "DoSkill"]
        },
        "Dance": {
          "$type": "ConfigMonsterStateIDInfo",
          "animatorStates": {
            "Dance": []
          },
          "canDoSkill": true,
          "resetAnimatorTriggerOnExit": ["BeHit", "DoSkill"]
        },
        "TurnToMining": {
          "$type": "ConfigMonsterStateIDInfo",
          "animatorStates": {
            "TurnToMining": ["Monster_Hili_None_TurnToMining"]
          },
          "canDoSkill": true,
          "resetAnimatorTriggerOnExit": ["BeHit", "DoSkill"]
        },
        "OutOfMining": {
          "$type": "ConfigMonsterStateIDInfo",
          "animatorStates": {
            "OutOfMining": ["Monster_Hili_None_OutOfMining"]
          },
          "canDoSkill": true,
          "resetAnimatorTriggerOnExit": ["BeHit", "DoSkill"]
        },
        "Mining": {
          "$type": "ConfigMonsterStateIDInfo",
          "animatorStates": {
            "Mining": []
          },
          "canDoSkill": true,
          "resetAnimatorTriggerOnExit": ["BeHit", "DoSkill"]
        },
        "MiningFree": {
          "$type": "ConfigMonsterStateIDInfo",
          "animatorStates": {
            "Mining_01": [
              "Monster_Hili_None_Mining_Sparkle_Weak",
              "Audio_Hili_Mining_01"
            ],
            "Mining_02": [
              "Monster_Hili_None_Mining_Sparkle_Strong",
              "Audio_Hili_Mining_02"
            ]
          },
          "canDoSkill": true,
          "resetAnimatorTriggerOnExit": ["BeHit", "DoSkill"]
        },
        "Life_AwakeAlertBS": {
          "$type": "ConfigMonsterStateIDInfo",
          "animatorStates": {
            "AwakeAlert_BS": ["Monster_Hili_None_AwakeAlert"]
          },
          "resetAnimatorTriggerOnExit": ["BeHit", "DoSkill", "AwakeAlert"]
        },
        "Life_AwakeAlertAS": {
          "$type": "ConfigMonsterStateIDInfo",
          "animatorStates": {
            "AwakeAlert_AS": []
          },
          "canDoSkill": true,
          "resetAnimatorTriggerOnExit": ["BeHit", "DoSkill"]
        },
        "Sword_TripleAttack": {
          "$type": "ConfigMonsterStateIDInfo",
          "animatorStates": {
            "Sword_TripleAttack_First_BS": [
              "Monster_Undead01_TripleAttack_First"
            ],
            "Sword_TripleAttack_First_Halt": [
              "Monster_Undead01_TripleAttack_First"
            ],
            "Sword_TripleAttack_First": [
              "Monster_Undead01_TripleAttack_First",
              "Audio_Hili_TripleAtk_01",
              "Audio_Hili_TripleAtk"
            ],
            "Sword_TripleAttack_Second_Halt": [
              "Monster_Undead01_TripleAttack_Second"
            ],
            "Sword_TripleAttack_Second": [
              "Monster_Undead01_TripleAttack_Second",
              "Audio_Hili_TripleAtk_01"
            ],
            "Sword_TripleAttack_Thrid_Halt": [
              "Monster_Undead01_TripleAttack_Thrid"
            ],
            "Sword_TripleAttack_Thrid": [
              "Monster_Undead01_TripleAttack_Thrid",
              "Audio_Hili_TripleAtk_02"
            ]
          },
          "resetAnimatorTriggerOnExit": ["BeHit", "DoSkill"]
        },
        "Sword_ThumpAttack": {
          "$type": "ConfigMonsterStateIDInfo",
          "animatorStates": {
            "Sword_ThumpAttack_BS": [
              "Monster_Undead01_ThumpAttack",
              "Audio_Hili_ThumpAtk"
            ],
            "Sword_ThumpAttack_Halt": ["Monster_Undead01_ThumpAttack"],
            "Sword_ThumpAttack": [
              "Monster_Undead01_ThumpAttack",
              "Audio_Hili_Sword_ThumpAttack"
            ]
          },
          "BFDKJHMDDML": 0.6000000238418579,
          "resetAnimatorTriggerOnExit": ["BeHit", "DoSkill"]
        },
        "Sword_NormalAttack": {
          "$type": "ConfigMonsterStateIDInfo",
          "animatorStates": {
            "Sword_NormalAttack": [
              "Monster_Hili_None_NormalAttack",
              "Audio_Hili_Sword_NormalAtk"
            ]
          },
          "resetAnimatorTriggerOnExit": ["BeHit", "DoSkill"]
        },
        "NoWeapon_Attack": {
          "$type": "ConfigMonsterStateIDInfo",
          "animatorStates": {
            "NoWeapon_Attack": [
              "Monster_Hili_None_NoWeaponAttack",
              "Audio_Hili_NormalAtk"
            ]
          },
          "resetAnimatorTriggerOnExit": ["BeHit", "DoSkill"]
        },
        "PickUp": {
          "$type": "ConfigMonsterStateIDInfo",
          "animatorStates": {
            "PickUp": ["Monster_Undead01_PickUp"]
          },
          "resetAnimatorTriggerOnExit": ["BeHit", "DoSkill"]
        },
        "Taunt": {
          "$type": "ConfigMonsterStateIDInfo",
          "animatorStates": {
            "Taunt_1": ["Audio_Hili_Taunt"],
            "Taunt_2": ["Audio_Hili_Taunt"],
            "Taunt_3": ["Audio_Hili_Taunt"]
          },
          "resetAnimatorTriggerOnExit": ["BeHit", "DoSkill"]
        },
        "Taunt_NoWeapon": {
          "$type": "ConfigMonsterStateIDInfo",
          "animatorStates": {
            "Taunt_NoWeapon_1": ["Audio_Hili_Taunt"],
            "Taunt_NoWeapon_2": ["Audio_Hili_Taunt"]
          },
          "resetAnimatorTriggerOnExit": ["BeHit", "DoSkill"]
        },
        "Aim": {
          "$type": "ConfigMonsterStateIDInfo",
          "animatorStates": {
            "Aim": []
          },
          "resetAnimatorTriggerOnExit": ["BeHit", "DoSkill"]
        },
        "Shoot": {
          "$type": "ConfigMonsterStateIDInfo",
          "animatorStates": {
            "Attack": [
              "Monster_Hili_Grass_Shoot_WithRandom",
              "Audio_Hili_Shoot_Atk"
            ]
          },
          "resetAnimatorTriggerOnExit": ["BeHit", "DoSkill"]
        },
        "Dodge": {
          "$type": "ConfigMonsterStateIDInfo",
          "animatorStates": {
            "Dodge": ["Audio_Hili_Crossbow_Dodge"]
          },
          "resetAnimatorTriggerOnExit": ["BeHit", "DoSkill", "DodgeTrigger"]
        },
        "Defend": {
          "$type": "ConfigMonsterStateIDInfo",
          "animatorStates": {
            "Defend": ["Audio_Hili_DefendAtk_Defend"]
          },
          "resetAnimatorTriggerOnEnter": ["DefendTrigger"],
          "resetAnimatorTriggerOnExit": ["BeHit", "DoSkill"]
        },
        "DefendAttack": {
          "$type": "ConfigMonsterStateIDInfo",
          "animatorStates": {
            "DefendAttack_BS": [
              "Monster_Hili_None_DefendAttack_BS",
              "Audio_Hili_DefendAtk_BS"
            ],
            "DefendAttack_AS": [
              "Monster_Hili_None_DefendAttack_AS",
              "Audio_Hili_DefendAtk_AS"
            ]
          },
          "BFDKJHMDDML": 0.6000000238418579,
          "resetAnimatorTriggerOnEnter": ["DefendAttackTrigger"],
          "resetAnimatorTriggerOnExit": ["BeHit", "DoSkill"]
        },
        "ThrowPebble": {
          "$type": "ConfigMonsterStateIDInfo",
          "animatorStates": {
            "ThrowPebble": [
              "Monster_Hili_None_ThrowPebble",
              "Audio_Hili_ThrowPebble"
            ]
          },
          "BDFLEJHPFBG": 100.0,
          "resetAnimatorTriggerOnExit": ["BeHit", "DoSkill"]
        },
        "ThrowPebble_Shield": {
          "$type": "ConfigMonsterStateIDInfo",
          "animatorStates": {
            "ThrowPebble_Shield": [
              "Monster_Hili_None_ThrowPebble_Shield",
              "Audio_Hili_ThrowPebble_Shield"
            ]
          },
          "BDFLEJHPFBG": 100.0,
          "resetAnimatorTriggerOnExit": ["BeHit", "DoSkill"]
        },
        "LearnBox": {
          "$type": "ConfigMonsterStateIDInfo",
          "animatorStates": {
            "LearnBox": []
          },
          "canDoSkill": true,
          "canSyncMove": true,
          "resetAnimatorTriggerOnExit": ["DoSkill"]
        },
        "Life_LearnBox": {
          "$type": "ConfigMonsterStateIDInfo",
          "animatorStates": {
            "Boxing": []
          },
          "canDoSkill": true,
          "resetAnimatorTriggerOnExit": ["BeHit", "DoSkill"]
        }
      }
    }
  },
  "billboard": {
    "$type": "NCBABGPMMPL",
    "EBBHBMFMOGD": "BillboardAttach",
    "offset": {
      "x": -0.05000000074505806
    },
    "BFOMIIKCOGI": "Character",
    "OELDMANLPDM": 0.25,
    "ANGKJBLILKJ": true
  },
  "initialPoses": {
    "Default": {},
    "CrossBow_Fixed": {
      "initialPoseID": 402,
      "initialPoseParams": {
        "boolParams": {
          "CrossBow_Fixed": "true"
        }
      }
    },
    "Sleep": {
      "initialPoseID": 9002,
      "initialPoseParams": {
        "boolParams": {
          "Sleep": "true"
        }
      }
    },
    "Sit": {
      "initialPoseID": 9003,
      "initialPoseParams": {
        "boolParams": {
          "Sit": "true"
        }
      }
    },
    "Threat": {
      "initialPoseID": 9010,
      "initialPoseParams": {
        "boolParams": {
          "Threat": "true"
        }
      }
    },
    "Build": {
      "initialPoseID": 9015,
      "initialPoseParams": {
        "boolParams": {
          "Make": "true"
        }
      }
    },
    "Make": {
      "initialPoseID": 9011,
      "initialPoseParams": {
        "boolParams": {
          "Make": "true"
        }
      }
    },
    "Search": {
      "initialPoseID": 9016,
      "initialPoseParams": {
        "boolParams": {
          "Make": "true"
        }
      }
    },
    "Dance": {
      "initialPoseID": 9012,
      "initialPoseParams": {
        "boolParams": {
          "Dance": "true"
        }
      }
    },
    "Practice": {
      "initialPoseID": 9013,
      "initialPoseParams": {
        "boolParams": {
          "Practice": "true"
        }
      }
    },
    "Surround": {
      "initialPoseID": 9014,
      "initialPoseParams": {
        "boolParams": {
          "Surround": "true"
        }
      }
    },
    "Mining": {
      "initialPoseID": 9017,
      "initialPoseParams": {
        "boolParams": {
          "Mining": "true"
        }
      }
    },
    "LearnBox": {
      "initialPoseID": 9018,
      "initialPoseParams": {
        "boolParams": {
          "LearnBox": "true"
        }
      }
    }
  },
  "aibeta": {
    "enable": true,
    "moveSetting": {
      "navMeshAgentName": "Undead01",
      "almostReachedDistanceRun": 1.5
    },
    "sensing": {
      "settings": {
        "DefaultSetting": {
          "feelRange": 8.0
        },
        "HighAlert": {
          "viewRange": 40.0,
          "feelRange": 10.0
        },
        "Sleep": {
          "viewRange": 0.0,
          "feelRange": 3.0
        },
        "Sit": {
          "viewRange": 10.0
        },
        "Threat": {
          "viewRange": 10.0
        },
        "Make": {
          "viewRange": 10.0
        },
        "Dance": {
          "viewRange": 10.0
        },
        "NeverCombat": {
          "enableVision": false,
          "hearAttractionRange": 0.0,
          "feelRange": 0.0
        },
        "LowAlertForMimiTomo": {
          "viewRange": 5.0,
          "hearAttractionRange": 0.0,
          "feelRange": 2.5
        },
        "HighFeel": {
          "viewRange": 40.0,
          "feelRange": 20.0
        },
        "LearnBox": {
          "viewRange": 10.0
        }
      },
      "templates": {
        "DefaultTemplate": {
          "DefaultPoses": "DefaultSetting",
          "9002": "Sleep",
          "9003": "Sit",
          "9010": "Threat",
          "9011": "Make",
          "9012": "Dance",
          "9017": "Make"
        },
        "HighAlertTemplate": {
          "DefaultPoses": "HighAlert",
          "9002": "Sleep",
          "9003": "Sit",
          "9010": "Threat",
          "9011": "Make",
          "9012": "Dance",
          "9017": "Make"
        },
        "NeverCombatTemplate": {
          "DefaultPoses": "NeverCombat",
          "9002": "NeverCombat",
          "9003": "NeverCombat",
          "9010": "NeverCombat",
          "9011": "NeverCombat",
          "9012": "NeverCombat"
        },
        "LowAlertForMimiTomoTemplate": {
          "DefaultPoses": "LowAlertForMimiTomo",
          "9002": "LowAlertForMimiTomo",
          "9003": "LowAlertForMimiTomo",
          "9010": "LowAlertForMimiTomo",
          "9011": "LowAlertForMimiTomo",
          "9012": "LowAlertForMimiTomo"
        },
        "HighFeelTemplate": {
          "DefaultPoses": "HighFeel",
          "9002": "Sleep",
          "9003": "Sit",
          "9010": "Threat",
          "9011": "Make",
          "9012": "Dance"
        }
      }
    },
    "neurons": {
      "DefaultSetting": ["HIT"],
      "Sleep": ["HIT", "ASLEEP", "AWAKE"],
      "Sit": ["HIT", "SIT"],
      "Threat": ["HIT", "THREAT"],
      "Surround": ["HIT", "SURROUND"],
      "Build": ["HIT", "BUILD"],
      "Make": ["HIT", "MAKE"],
      "Search": ["HIT", "SEARCH"],
      "Practice": ["HIT", "TRAIN"],
      "Dance": ["HIT", "DANCE"],
      "NeverCombat": []
    },
    "threat": {
      "clearThreatByLostPath": true,
      "clearThreatTimerByDistance": 3.0,
      "viewAttenuation": [
        {
          "x": 10.0,
          "y": 2.0
        },
        {
          "x": 15.0,
          "y": 0.800000011920929
        },
        {
          "x": 20.0,
          "y": 0.5
        },
        {
          "x": 25.0,
          "y": 0.30000001192092896
        },
        {
          "x": 30.0,
          "y": 0.20000000298023224
        }
      ]
    },
    "defendArea": {},
    "profiling": {
      "staticPoses": [9002, 9003]
    },
    "skills": {
      "103": {
        "name": "OnAlert",
        "skillType": "OnAlert",
        "faceTarget": true,
        "publicCDGroup": "",
        "ignoreGCD": true,
        "triggerGCD": false,
        "stateIDs": ["Life_Warning"],
        "skillQueryingTime": 3.0,
        "flagTargetReachable": "10",
        "flagSelfOnTemplateCollider": "01",
        "flagSelfInZone": "10",
        "flagTargetInZone": "11"
      },
      "104": {
        "name": "OnAlert",
        "skillType": "OnNerve",
        "faceTarget": true,
        "castCondition": {
          "pose": [
            9002, 9003, 9010, 9011, 9012, 9013, 9014, 9015, 9016, 9017, 9018
          ]
        },
        "publicCDGroup": "",
        "ignoreGCD": true,
        "triggerGCD": false,
        "stateIDs": ["Life_Warning"],
        "skillQueryingTime": 3.0,
        "flagTargetReachable": "10",
        "flagSelfOnTemplateCollider": "01",
        "flagSelfInZone": "10",
        "flagTargetInZone": "11",
        "nerveTrigger": ["HIT"]
      },
      "123": {
        "name": "Talk_Sit",
        "skillType": "Free",
        "castCondition": {
          "pose": [9003]
        },
        "cd": 15.0,
        "cdUpperRange": 25.0,
        "initialCD": 15.0,
        "initialCDUpperRange": 25.0,
        "publicCDGroup": "",
        "stateIDs": ["Life_Talk"],
        "flagTargetReachable": "10",
        "flagSelfOnTemplateCollider": "01",
        "flagSelfInZone": "10",
        "flagTargetInZone": "11"
      },
      "201": {
        "name": "ThumpAttack",
        "priority": 2,
        "castCondition": {
          "pose": [1101],
          "pickRangeMin": 2.75,
          "pickRangeMax": 5.25
        },
        "cd": 20.0,
        "cdUpperRange": 10.0,
        "initialCD": 10.0,
        "initialCDUpperRange": 10.0,
        "publicCDGroup": "meleeAttack_long",
        "stateIDs": ["Sword_ThumpAttack"],
        "flagTargetReachable": "10",
        "flagSelfOnTemplateCollider": "01",
        "flagSelfInZone": "10",
        "flagTargetInZone": "11"
      },
      "211": {
        "name": "NoWeapon_Attack",
        "combatSkillType": "MeleeAttack",
        "enableSkillPrepare": true,
        "castCondition": {
          "pose": [1001],
          "pickRangeMin": 0.25,
          "pickRangeMax": 5.25,
          "castRangeMin": 1.25,
          "castRangeMax": 1.5
        },
        "cd": 3.0,
        "cdUpperRange": 1.0,
        "publicCDGroup": "",
        "stateIDs": ["NoWeapon_Attack"],
        "flagTargetReachable": "10",
        "flagSelfOnTemplateCollider": "01",
        "flagSelfInZone": "10",
        "flagTargetInZone": "11"
      },
      "212": {
        "name": "NoWeapon_Attack",
        "combatSkillType": "MeleeAttack",
        "castCondition": {
          "pose": [1001],
          "pickRangeMax": 1.5
        },
        "cd": 2.5,
        "cdUpperRange": 1.0,
        "publicCDGroup": "",
        "stateIDs": ["NoWeapon_Attack"],
        "flagTargetReachable": "10",
        "flagSelfOnTemplateCollider": "01",
        "flagSelfInZone": "01",
        "flagTargetInZone": "11"
      },
      "221": {
        "name": "SingleAttack",
        "combatSkillType": "MeleeAttack",
        "priority": 4,
        "faceTarget": true,
        "castCondition": {
          "pose": [1101],
          "pickRangeMin": 1.5,
          "pickRangeMax": 3.25
        },
        "cd": 3.0,
        "cdUpperRange": 1.0,
        "publicCDGroup": "",
        "stateIDs": ["Sword_NormalAttack"],
        "flagTargetReachable": "10",
        "flagSelfOnTemplateCollider": "01",
        "flagSelfInZone": "10",
        "flagTargetInZone": "11"
      },
      "222": {
        "name": "SingleAttack",
        "combatSkillType": "MeleeAttack",
        "priority": 4,
        "faceTarget": true,
        "castCondition": {
          "pose": [1301],
          "pickRangeMin": 1.5,
          "pickRangeMax": 3.0
        },
        "cd": 3.5,
        "cdUpperRange": 1.5,
        "publicCDGroup": "",
        "stateIDs": ["Sword_NormalAttack"],
        "flagTargetReachable": "10",
        "flagSelfOnTemplateCollider": "01",
        "flagSelfInZone": "10",
        "flagTargetInZone": "11"
      },
      "223": {
        "name": "SingleAttack",
        "combatSkillType": "MeleeAttack",
        "priority": 4,
        "faceTarget": true,
        "castCondition": {
          "pose": [1101, 1301],
          "pickRangeMax": 2.0
        },
        "cd": 2.5,
        "cdUpperRange": 1.0,
        "publicCDGroup": "",
        "stateIDs": ["Sword_NormalAttack"],
        "flagTargetReachable": "10",
        "flagSelfOnTemplateCollider": "01",
        "flagSelfInZone": "01",
        "flagTargetInZone": "11"
      },
      "231": {
        "name": "TripleAttack",
        "priority": 3,
        "castCondition": {
          "pose": [1101],
          "pickRangeMax": 4.25
        },
        "cd": 10.0,
        "cdUpperRange": 10.0,
        "initialCD": 5.0,
        "initialCDUpperRange": 10.0,
        "publicCDGroup": "meleeAttack_long",
        "stateIDs": ["Sword_TripleAttack"],
        "flagTargetReachable": "10",
        "flagSelfOnTemplateCollider": "01",
        "flagSelfInZone": "10",
        "flagTargetInZone": "11"
      },
      "901": {
        "name": "Taunt",
        "faceTarget": true,
        "castCondition": {
          "pose": [1101, 1301, 9010],
          "maxTargetAngleY": 45.0,
          "pickRangeMin": 2.0,
          "pickRangeMax": 10.0
        },
        "cd": 1.0,
        "cdUpperRange": 3.0,
        "publicCDGroup": "RandomAction",
        "ignoreGCD": true,
        "triggerGCD": false,
        "stateIDs": ["Taunt"],
        "flagTargetReachable": "10",
        "flagSelfOnTemplateCollider": "01",
        "flagSelfInZone": "01",
        "flagTargetInZone": "11"
      },
      "902": {
        "name": "Taunt",
        "faceTarget": true,
        "castCondition": {
          "pose": [1101, 1301, 9010],
          "maxTargetAngleY": 45.0,
          "pickRangeMax": 10.0
        },
        "cd": 1.0,
        "cdUpperRange": 3.0,
        "publicCDGroup": "RandomAction",
        "ignoreGCD": true,
        "triggerGCD": false,
        "stateIDs": ["Taunt"],
        "flagTargetReachable": "01",
        "flagSelfOnTemplateCollider": "01",
        "flagSelfInZone": "10",
        "flagTargetInZone": "11"
      },
      "903": {
        "name": "Taunt",
        "faceTarget": true,
        "castCondition": {
          "pose": [1101, 1301, 9010],
          "maxTargetAngleY": 45.0,
          "pickRangeMax": 10.0
        },
        "cd": 1.0,
        "cdUpperRange": 3.0,
        "publicCDGroup": "RandomAction",
        "ignoreGCD": true,
        "triggerGCD": false,
        "stateIDs": ["Taunt"],
        "flagTargetReachable": "01",
        "flagSelfOnTemplateCollider": "01",
        "flagSelfInZone": "01",
        "flagTargetInZone": "11"
      },
      "904": {
        "name": "Taunt",
        "priority": 2,
        "faceTarget": true,
        "castCondition": {
          "pose": [1101, 9010],
          "maxTargetAngleY": 45.0,
          "pickRangeMin": 6.0,
          "pickRangeMax": 30.0
        },
        "cd": 5.0,
        "cdUpperRange": 10.0,
        "publicCDGroup": "RandomAction",
        "stateIDs": ["Taunt"],
        "flagTargetReachable": "10",
        "flagSelfOnTemplateCollider": "01",
        "flagSelfInZone": "10",
        "flagTargetInZone": "11"
      },
      "905": {
        "name": "Taunt",
        "faceTarget": true,
        "castCondition": {
          "pose": [1101, 9010],
          "maxTargetAngleY": 45.0,
          "pickRangeMin": 3.0,
          "pickRangeMax": 6.0
        },
        "cd": 2.0,
        "cdUpperRange": 5.0,
        "publicCDGroup": "RandomAction",
        "triggerGCD": false,
        "stateIDs": ["Taunt"],
        "flagTargetReachable": "10",
        "flagSelfOnTemplateCollider": "01",
        "flagSelfInZone": "10",
        "flagTargetInZone": "11"
      },
      "906": {
        "name": "Taunt",
        "faceTarget": true,
        "castCondition": {
          "pose": [1301, 9010],
          "maxTargetAngleY": 45.0,
          "pickRangeMin": 3.0,
          "pickRangeMax": 6.0
        },
        "cd": 15.0,
        "cdUpperRange": 15.0,
        "publicCDGroup": "RandomAction",
        "triggerGCD": false,
        "stateIDs": ["Taunt"],
        "flagTargetReachable": "10",
        "flagSelfOnTemplateCollider": "01",
        "flagSelfInZone": "10",
        "flagTargetInZone": "11"
      },
      "911": {
        "name": "Taunt_NoWeapon",
        "faceTarget": true,
        "castCondition": {
          "pose": [1001, 9010],
          "maxTargetAngleY": 45.0,
          "pickRangeMin": 2.0,
          "pickRangeMax": 10.0
        },
        "cd": 1.0,
        "cdUpperRange": 3.0,
        "publicCDGroup": "RandomAction",
        "ignoreGCD": true,
        "triggerGCD": false,
        "stateIDs": ["Taunt_NoWeapon"],
        "flagTargetReachable": "10",
        "flagSelfOnTemplateCollider": "01",
        "flagSelfInZone": "01",
        "flagTargetInZone": "11"
      },
      "912": {
        "name": "Taunt_NoWeapon",
        "faceTarget": true,
        "castCondition": {
          "pose": [1001, 9010],
          "maxTargetAngleY": 45.0,
          "pickRangeMax": 10.0
        },
        "cd": 1.0,
        "cdUpperRange": 3.0,
        "publicCDGroup": "RandomAction",
        "ignoreGCD": true,
        "triggerGCD": false,
        "stateIDs": ["Taunt_NoWeapon"],
        "flagTargetReachable": "01",
        "flagSelfOnTemplateCollider": "01",
        "flagSelfInZone": "10",
        "flagTargetInZone": "11"
      },
      "913": {
        "name": "Taunt_NoWeapon",
        "faceTarget": true,
        "castCondition": {
          "pose": [1001, 9010],
          "maxTargetAngleY": 45.0,
          "pickRangeMax": 10.0
        },
        "cd": 1.0,
        "cdUpperRange": 3.0,
        "publicCDGroup": "RandomAction",
        "ignoreGCD": true,
        "triggerGCD": false,
        "stateIDs": ["Taunt_NoWeapon"],
        "flagTargetReachable": "01",
        "flagSelfOnTemplateCollider": "01",
        "flagSelfInZone": "01",
        "flagTargetInZone": "11"
      },
      "914": {
        "name": "Taunt_NoWeapon",
        "priority": 2,
        "faceTarget": true,
        "castCondition": {
          "pose": [1001, 9010],
          "maxTargetAngleY": 45.0,
          "pickRangeMin": 6.0,
          "pickRangeMax": 30.0
        },
        "cd": 5.0,
        "cdUpperRange": 10.0,
        "publicCDGroup": "RandomAction",
        "stateIDs": ["Taunt_NoWeapon"],
        "flagTargetReachable": "10",
        "flagSelfOnTemplateCollider": "01",
        "flagSelfInZone": "10",
        "flagTargetInZone": "11"
      },
      "915": {
        "name": "Taunt_NoWeapon",
        "faceTarget": true,
        "castCondition": {
          "pose": [1001, 9010],
          "maxTargetAngleY": 45.0,
          "pickRangeMin": 3.0,
          "pickRangeMax": 6.0
        },
        "cd": 2.0,
        "cdUpperRange": 5.0,
        "publicCDGroup": "RandomAction",
        "triggerGCD": false,
        "stateIDs": ["Taunt_NoWeapon"],
        "flagTargetReachable": "10",
        "flagSelfOnTemplateCollider": "01",
        "flagSelfInZone": "10",
        "flagTargetInZone": "11"
      },
      "601": {
        "name": "RangedAttack",
        "combatSkillType": "RangedAttack",
        "faceTarget": true,
        "castCondition": {
          "pose": [1401, 1402],
          "pickRangeMax": 45.0
        },
        "cd": 3.5,
        "publicCDGroup": "",
        "stateIDs": ["Aim", "Shoot"],
        "flagTargetReachable": "11",
        "flagSelfOnTemplateCollider": "11",
        "flagSelfInZone": "11",
        "flagTargetInZone": "11"
      },
      "301": {
        "name": "ThrowPebble",
        "combatSkillType": "RangedAttack",
        "castCondition": {
          "pose": [1001],
          "pickRangeMin": 4.25,
          "pickRangeMax": 15.0
        },
        "cd": 5.0,
        "publicCDGroup": "",
        "stateIDs": ["ThrowPebble"],
        "flagTargetReachable": "10",
        "flagSelfOnTemplateCollider": "11",
        "flagSelfInZone": "10",
        "flagTargetInZone": "11"
      },
      "302": {
        "name": "ThrowPebble",
        "combatSkillType": "RangedAttack",
        "castCondition": {
          "pose": [1001],
          "pickRangeMax": 15.0
        },
        "cd": 5.0,
        "publicCDGroup": "",
        "stateIDs": ["ThrowPebble"],
        "flagTargetReachable": "01",
        "flagSelfOnTemplateCollider": "01",
        "flagSelfInZone": "10",
        "flagTargetInZone": "11"
      },
      "303": {
        "name": "ThrowPebble",
        "combatSkillType": "RangedAttack",
        "castCondition": {
          "pose": [1001],
          "pickRangeMax": 15.0
        },
        "cd": 5.0,
        "publicCDGroup": "",
        "stateIDs": ["ThrowPebble"],
        "flagTargetReachable": "11",
        "flagSelfOnTemplateCollider": "11",
        "flagSelfInZone": "01",
        "flagTargetInZone": "11"
      },
      "311": {
        "name": "ThrowPebble_Shield",
        "combatSkillType": "RangedAttack",
        "castCondition": {
          "pose": [1201],
          "pickRangeMin": 4.25,
          "pickRangeMax": 15.0
        },
        "cd": 5.0,
        "publicCDGroup": "",
        "stateIDs": ["ThrowPebble_Shield"],
        "flagTargetReachable": "10",
        "flagSelfOnTemplateCollider": "11",
        "flagSelfInZone": "10",
        "flagTargetInZone": "11"
      },
      "312": {
        "name": "ThrowPebble_Shield",
        "combatSkillType": "RangedAttack",
        "castCondition": {
          "pose": [1201],
          "pickRangeMax": 15.0
        },
        "cd": 5.0,
        "publicCDGroup": "",
        "stateIDs": ["ThrowPebble_Shield"],
        "flagTargetReachable": "01",
        "flagSelfOnTemplateCollider": "01",
        "flagSelfInZone": "10",
        "flagTargetInZone": "11"
      },
      "313": {
        "name": "ThrowPebble_Shield",
        "combatSkillType": "RangedAttack",
        "castCondition": {
          "pose": [1201],
          "pickRangeMax": 15.0
        },
        "cd": 5.0,
        "publicCDGroup": "",
        "stateIDs": ["ThrowPebble_Shield"],
        "flagTargetReachable": "11",
        "flagSelfOnTemplateCollider": "11",
        "flagSelfInZone": "01",
        "flagTargetInZone": "11"
      },
      "111": {
        "name": "TurnToSleep",
        "skillType": "ActionPoint",
        "castCondition": {
          "pose": [1, 101, 401, 402, 201, 301]
        },
        "publicCDGroup": "",
        "triggerGCD": false,
        "stateIDs": ["TurnToSleep"],
        "skillQueryingTime": 3.0,
        "flagTargetReachable": "10",
        "flagSelfOnTemplateCollider": "01",
        "flagSelfInZone": "10",
        "flagTargetInZone": "11"
      },
      "112": {
        "name": "OutOfSleep",
        "skillType": "OnNerve",
        "castCondition": {
          "pose": [9002]
        },
        "publicCDGroup": "",
        "triggerGCD": false,
        "stateIDs": ["OutOfSleep"],
        "skillQueryingTime": 3.0,
        "flagTargetReachable": "10",
        "flagSelfOnTemplateCollider": "01",
        "flagSelfInZone": "10",
        "flagTargetInZone": "11",
        "nerveTrigger": ["AWAKE"]
      },
      "124": {
        "name": "SleepFree01",
        "skillType": "Free",
        "castCondition": {
          "pose": [9002]
        },
        "cd": 15.0,
        "cdUpperRange": 25.0,
        "initialCD": 15.0,
        "initialCDUpperRange": 25.0,
        "publicCDGroup": "",
        "stateIDs": ["SleepFree01"],
        "flagTargetReachable": "10",
        "flagSelfOnTemplateCollider": "01",
        "flagSelfInZone": "10",
        "flagTargetInZone": "11"
      },
      "125": {
        "name": "SleepFree02",
        "skillType": "Free",
        "castCondition": {
          "pose": [9002]
        },
        "cd": 15.0,
        "cdUpperRange": 25.0,
        "initialCD": 15.0,
        "initialCDUpperRange": 25.0,
        "publicCDGroup": "",
        "stateIDs": ["SleepFree02"],
        "flagTargetReachable": "10",
        "flagSelfOnTemplateCollider": "01",
        "flagSelfInZone": "10",
        "flagTargetInZone": "11"
      },
      "126": {
        "name": "SleepFree03",
        "skillType": "Free",
        "castCondition": {
          "pose": [9002]
        },
        "cd": 15.0,
        "cdUpperRange": 25.0,
        "initialCD": 15.0,
        "initialCDUpperRange": 25.0,
        "publicCDGroup": "",
        "stateIDs": ["SleepFree03"],
        "flagTargetReachable": "10",
        "flagSelfOnTemplateCollider": "01",
        "flagSelfInZone": "10",
        "flagTargetInZone": "11"
      },
      "121": {
        "name": "TurnToSit",
        "skillType": "ActionPoint",
        "castCondition": {
          "pose": [1, 101, 401, 402, 201, 301]
        },
        "publicCDGroup": "",
        "triggerGCD": false,
        "stateIDs": ["TurnToSit"],
        "skillQueryingTime": 3.0,
        "flagTargetReachable": "10",
        "flagSelfOnTemplateCollider": "01",
        "flagSelfInZone": "10",
        "flagTargetInZone": "11"
      },
      "122": {
        "name": "OutOfSit",
        "skillType": "OnNerve",
        "castCondition": {
          "pose": [9003]
        },
        "publicCDGroup": "",
        "triggerGCD": false,
        "stateIDs": ["OutOfSit"],
        "skillQueryingTime": 3.0,
        "flagTargetReachable": "10",
        "flagSelfOnTemplateCollider": "01",
        "flagSelfInZone": "10",
        "flagTargetInZone": "11",
        "nerveTrigger": ["ASLEEP", "WEATHER_BAD"]
      },
      "127": {
        "name": "SitFree01",
        "skillType": "Free",
        "castCondition": {
          "pose": [9003]
        },
        "cd": 15.0,
        "cdUpperRange": 15.0,
        "initialCD": 15.0,
        "initialCDUpperRange": 15.0,
        "publicCDGroup": "",
        "stateIDs": ["SitFree01"],
        "flagTargetReachable": "10",
        "flagSelfOnTemplateCollider": "01",
        "flagSelfInZone": "10",
        "flagTargetInZone": "11"
      },
      "1001": {
        "name": "TurnToPractice",
        "skillType": "ActionPoint",
        "castCondition": {
          "pose": [1, 101, 201, 301]
        },
        "publicCDGroup": "",
        "triggerGCD": false,
        "stateIDs": ["TurnToPractice"],
        "skillQueryingTime": 3.0,
        "flagTargetReachable": "10",
        "flagSelfOnTemplateCollider": "01",
        "flagSelfInZone": "10",
        "flagTargetInZone": "11"
      },
      "1002": {
        "name": "OutOfPractice",
        "skillType": "OnNerve",
        "castCondition": {
          "pose": [9013]
        },
        "publicCDGroup": "",
        "triggerGCD": false,
        "stateIDs": ["OutOfPractice"],
        "skillQueryingTime": 3.0,
        "flagTargetReachable": "10",
        "flagSelfOnTemplateCollider": "01",
        "flagSelfInZone": "10",
        "flagTargetInZone": "11",
        "nerveTrigger": ["ASLEEP", "WEATHER_BAD"]
      },
      "1011": {
        "name": "Practice",
        "skillType": "Free",
        "castCondition": {
          "pose": [9013]
        },
        "cd": 3.0,
        "cdUpperRange": 5.0,
        "initialCD": 3.0,
        "publicCDGroup": "",
        "stateIDs": ["Practice_Action"],
        "flagTargetReachable": "10",
        "flagSelfOnTemplateCollider": "01",
        "flagSelfInZone": "10",
        "flagTargetInZone": "11"
      },
      "1101": {
        "name": "TurnToThreat",
        "skillType": "ActionPoint",
        "castCondition": {
          "pose": [1, 101, 201, 301]
        },
        "publicCDGroup": "",
        "triggerGCD": false,
        "stateIDs": ["TurnToThreat"],
        "skillQueryingTime": 3.0,
        "flagTargetReachable": "10",
        "flagSelfOnTemplateCollider": "01",
        "flagSelfInZone": "10",
        "flagTargetInZone": "11"
      },
      "1102": {
        "name": "OutOfThreat",
        "skillType": "OnNerve",
        "castCondition": {
          "pose": [9010]
        },
        "publicCDGroup": "",
        "triggerGCD": false,
        "stateIDs": ["OutOfThreat"],
        "skillQueryingTime": 3.0,
        "flagTargetReachable": "10",
        "flagSelfOnTemplateCollider": "01",
        "flagSelfInZone": "10",
        "flagTargetInZone": "11",
        "nerveTrigger": ["ASLEEP", "WEATHER_BAD"]
      },
      "1111": {
        "name": "ThreatFree01",
        "skillType": "Free",
        "castCondition": {
          "pose": [9010]
        },
        "cd": 3.0,
        "cdUpperRange": 5.0,
        "initialCD": 3.0,
        "publicCDGroup": "",
        "stateIDs": ["ThreatFree01"],
        "flagTargetReachable": "10",
        "flagSelfOnTemplateCollider": "01",
        "flagSelfInZone": "10",
        "flagTargetInZone": "11"
      },
      "1112": {
        "name": "ThreatFree02",
        "skillType": "Free",
        "castCondition": {
          "pose": [9010]
        },
        "cd": 3.0,
        "cdUpperRange": 5.0,
        "initialCD": 3.0,
        "publicCDGroup": "",
        "stateIDs": ["ThreatFree02"],
        "flagTargetReachable": "10",
        "flagSelfOnTemplateCollider": "01",
        "flagSelfInZone": "10",
        "flagTargetInZone": "11"
      },
      "1201": {
        "name": "TurnToSurround",
        "skillType": "ActionPoint",
        "castCondition": {
          "pose": [1, 101, 201, 301]
        },
        "publicCDGroup": "",
        "triggerGCD": false,
        "stateIDs": ["TurnToSurround"],
        "skillQueryingTime": 3.0,
        "flagTargetReachable": "10",
        "flagSelfOnTemplateCollider": "01",
        "flagSelfInZone": "10",
        "flagTargetInZone": "11"
      },
      "1202": {
        "name": "OutOfSurround",
        "skillType": "OnNerve",
        "castCondition": {
          "pose": [9014]
        },
        "publicCDGroup": "",
        "triggerGCD": false,
        "stateIDs": ["OutOfSurround"],
        "skillQueryingTime": 3.0,
        "flagTargetReachable": "10",
        "flagSelfOnTemplateCollider": "01",
        "flagSelfInZone": "10",
        "flagTargetInZone": "11",
        "nerveTrigger": ["ASLEEP", "WEATHER_BAD"]
      },
      "1211": {
        "name": "SurroundFree01",
        "skillType": "Free",
        "castCondition": {
          "pose": [9014]
        },
        "cd": 3.0,
        "cdUpperRange": 5.0,
        "initialCD": 3.0,
        "publicCDGroup": "",
        "stateIDs": ["SurroundFree01"],
        "flagTargetReachable": "10",
        "flagSelfOnTemplateCollider": "01",
        "flagSelfInZone": "10",
        "flagTargetInZone": "11"
      },
      "1301": {
        "name": "TurnToBuild",
        "skillType": "ActionPoint",
        "castCondition": {
          "pose": [1, 101, 201, 301]
        },
        "publicCDGroup": "",
        "triggerGCD": false,
        "stateIDs": ["TurnToBuild"],
        "skillQueryingTime": 3.0,
        "flagTargetReachable": "10",
        "flagSelfOnTemplateCollider": "01",
        "flagSelfInZone": "10",
        "flagTargetInZone": "11"
      },
      "1302": {
        "name": "OutOfBuild",
        "skillType": "OnNerve",
        "castCondition": {
          "pose": [9015]
        },
        "publicCDGroup": "",
        "triggerGCD": false,
        "stateIDs": ["OutOfBuild"],
        "skillQueryingTime": 3.0,
        "flagTargetReachable": "10",
        "flagSelfOnTemplateCollider": "01",
        "flagSelfInZone": "10",
        "flagTargetInZone": "11",
        "nerveTrigger": ["ASLEEP", "WEATHER_BAD"]
      },
      "1401": {
        "name": "TurnToMake",
        "skillType": "ActionPoint",
        "castCondition": {
          "pose": [1, 101, 201, 301]
        },
        "publicCDGroup": "",
        "triggerGCD": false,
        "stateIDs": ["TurnToMake"],
        "skillQueryingTime": 3.0,
        "flagTargetReachable": "10",
        "flagSelfOnTemplateCollider": "01",
        "flagSelfInZone": "10",
        "flagTargetInZone": "11"
      },
      "1402": {
        "name": "OutOfMake",
        "skillType": "OnNerve",
        "castCondition": {
          "pose": [9011]
        },
        "publicCDGroup": "",
        "triggerGCD": false,
        "stateIDs": ["OutOfMake"],
        "skillQueryingTime": 3.0,
        "flagTargetReachable": "10",
        "flagSelfOnTemplateCollider": "01",
        "flagSelfInZone": "10",
        "flagTargetInZone": "11",
        "nerveTrigger": ["ASLEEP", "WEATHER_BAD"]
      },
      "1501": {
        "name": "TurnToSearch",
        "skillType": "ActionPoint",
        "castCondition": {
          "pose": [1, 101, 201, 301]
        },
        "publicCDGroup": "",
        "triggerGCD": false,
        "stateIDs": ["TurnToSearch"],
        "skillQueryingTime": 3.0,
        "flagTargetReachable": "10",
        "flagSelfOnTemplateCollider": "01",
        "flagSelfInZone": "10",
        "flagTargetInZone": "11"
      },
      "1502": {
        "name": "OutOfSearch",
        "skillType": "OnNerve",
        "castCondition": {
          "pose": [9016]
        },
        "publicCDGroup": "",
        "triggerGCD": false,
        "stateIDs": ["OutOfSearch"],
        "skillQueryingTime": 3.0,
        "flagTargetReachable": "10",
        "flagSelfOnTemplateCollider": "01",
        "flagSelfInZone": "10",
        "flagTargetInZone": "11",
        "nerveTrigger": ["ASLEEP", "WEATHER_BAD"]
      },
      "1601": {
        "name": "TurnToDance",
        "skillType": "ActionPoint",
        "castCondition": {
          "pose": [1, 101, 201, 301]
        },
        "publicCDGroup": "",
        "triggerGCD": false,
        "stateIDs": ["TurnToDance"],
        "skillQueryingTime": 3.0,
        "flagTargetReachable": "10",
        "flagSelfOnTemplateCollider": "01",
        "flagSelfInZone": "10",
        "flagTargetInZone": "11"
      },
      "1602": {
        "name": "OutOfDance",
        "skillType": "OnNerve",
        "castCondition": {
          "pose": [9012]
        },
        "publicCDGroup": "",
        "triggerGCD": false,
        "stateIDs": ["OutOfDance"],
        "skillQueryingTime": 3.0,
        "flagTargetReachable": "10",
        "flagSelfOnTemplateCollider": "01",
        "flagSelfInZone": "10",
        "flagTargetInZone": "11",
        "nerveTrigger": ["ASLEEP", "WEATHER_BAD"]
      },
      "1701": {
        "name": "TurnToMining",
        "skillType": "ActionPoint",
        "castCondition": {
          "pose": [1, 101, 201, 301]
        },
        "publicCDGroup": "",
        "triggerGCD": false,
        "stateIDs": ["TurnToMining"],
        "skillQueryingTime": 3.0,
        "flagTargetReachable": "10",
        "flagSelfOnTemplateCollider": "01",
        "flagSelfInZone": "10",
        "flagTargetInZone": "11"
      },
      "1702": {
        "name": "OutOfMining",
        "skillType": "OnNerve",
        "castCondition": {
          "pose": [9017]
        },
        "publicCDGroup": "",
        "triggerGCD": false,
        "stateIDs": ["OutOfMining"],
        "skillQueryingTime": 3.0,
        "flagTargetReachable": "10",
        "flagSelfOnTemplateCollider": "01",
        "flagSelfInZone": "10",
        "flagTargetInZone": "11",
        "nerveTrigger": ["ASLEEP", "WEATHER_BAD"]
      },
      "1711": {
        "name": "Mining_01",
        "skillType": "Free",
        "castCondition": {
          "pose": [9017]
        },
        "cdUpperRange": 3.0,
        "initialCD": 1.0,
        "publicCDGroup": "",
        "ignoreGCD": true,
        "stateIDs": ["MiningFree"],
        "flagTargetReachable": "10",
        "flagSelfOnTemplateCollider": "01",
        "flagSelfInZone": "10",
        "flagTargetInZone": "11"
      },
      "1712": {
        "name": "Mining_02",
        "skillType": "Free",
        "castCondition": {
          "pose": [9017]
        },
        "cd": 2.0,
        "cdUpperRange": 6.0,
        "initialCD": 5.0,
        "publicCDGroup": "",
        "ignoreGCD": true,
        "stateIDs": ["MiningFree"],
        "flagTargetReachable": "10",
        "flagSelfOnTemplateCollider": "01",
        "flagSelfInZone": "10",
        "flagTargetInZone": "11"
      },
      "1801": {
        "name": "Life_LearnBox",
        "skillType": "Free",
        "castCondition": {
          "pose": [9018]
        },
        "cd": 10.5,
        "cdUpperRange": 7.5,
        "initialCD": 5.0,
        "initialCDUpperRange": 5.0,
        "publicCDGroup": "",
        "stateIDs": ["Life_LearnBox"],
        "flagTargetReachable": "10",
        "flagSelfOnTemplateCollider": "01",
        "flagSelfInZone": "10",
        "flagTargetInZone": "11"
      }
    },
    "skillGCD": 3.0,
    "returnToBornTactic": {
      "enable": true,
      "defaultSetting": {}
    },
    "wanderTactic": {
      "enable": true,
      "condition": {
        "pose": [1, 101, 401, 201, 301]
      },
      "defaultSetting": {
        "cdMax": 3.0,
        "cdMin": 1.5,
        "distanceFromBorn": 15.0,
        "distanceFromCurrentMin": 3.75,
        "distanceFromCurrentMax": 7.5
      }
    },
    "investigateTactic": {
      "enable": true,
      "condition": {
        "pose": [1, 101, 401, 201, 301]
      }
    },
    "reactActionPointTactic": {
      "enable": true,
      "defaultSetting": {
        "reactList": [
          {
            "pointType": "SleepPoint",
            "detectDistance": 15.0,
            "pose": [1, 101, 401, 402, 201, 301],
            "nerveTrigger": ["ASLEEP"],
            "skillID": 111
          },
          {
            "pointType": "SitPoint",
            "detectDistance": 15.0,
            "pose": [1, 101, 401, 402, 201, 301],
            "nerveTrigger": ["SIT"],
            "skillID": 121
          },
          {
            "pointType": "TrainingPoint",
            "detectDistance": 15.0,
            "pose": [1, 101, 401, 402, 201, 301],
            "nerveTrigger": ["TRAIN"],
            "skillID": 1001
          },
          {
            "pointType": "ThreatPoint",
            "detectDistance": 15.0,
            "pose": [1, 101, 401, 402, 201, 301],
            "nerveTrigger": ["THREAT"],
            "skillID": 1101
          },
          {
            "pointType": "SurroundPoint",
            "detectDistance": 15.0,
            "pose": [1, 101, 401, 402, 201, 301],
            "nerveTrigger": ["SURROUND"],
            "skillID": 1201
          },
          {
            "pointType": "BuildingPoint",
            "detectDistance": 15.0,
            "pose": [1, 101, 401, 402, 201, 301],
            "nerveTrigger": ["BUILD"],
            "skillID": 1301
          },
          {
            "pointType": "MakingPoint",
            "detectDistance": 15.0,
            "pose": [1, 101, 401, 402, 201, 301],
            "nerveTrigger": ["MAKE"],
            "skillID": 1401
          },
          {
            "pointType": "SearchPoint",
            "detectDistance": 15.0,
            "pose": [1, 101, 401, 402, 201, 301],
            "nerveTrigger": ["MAKE"],
            "skillID": 1501
          },
          {
            "pointType": "DancingPoint",
            "detectDistance": 15.0,
            "pose": [1, 101, 401, 402, 201, 301],
            "nerveTrigger": ["DANCE"],
            "skillID": 1601
          },
          {
            "pointType": "MiningPoint",
            "detectDistance": 15.0,
            "pose": [1, 101, 401, 402, 201, 301],
            "nerveTrigger": ["MAKE"],
            "skillID": 1701
          }
        ]
      }
    },
    "patrolFollowTactic": {
      "enable": true,
      "condition": {
        "pose": [1, 101, 201, 301]
      },
      "defaultSetting": {}
    },
    "meleeChargeTactic": {
      "enable": true,
      "condition": {
        "pose": [1001, 1101, 1301, 1201]
      },
      "defaultSetting": {
        "startDistanceMin": 6.0,
        "startDistanceMax": 50.0,
        "stopDistance": 4.5,
        "innerDistance": 0.0
      }
    },
    "facingMoveTactic": {
      "enable": true,
      "condition": {
        "pose": [1001, 1101, 1401, 1301, 1201]
      },
      "defaultSetting": {
        "rangeMin": 2.5,
        "rangeMax": 4.5,
        "facingMoveWeight": {
          "forward": 0.0,
          "back": 0.0,
          "left": 2.0,
          "right": 2.0
        },
        "PDOKGBAJNEP": "1111",
        "NGLJBMGMGKF": "1111"
      },
      "specification": {
        "1401": {
          "rangeMin": 5.0,
          "rangeMax": 30.0,
          "facingMoveWeight": {
            "forward": 0.0,
            "back": 0.0,
            "left": 0.0,
            "right": 0.0
          },
          "PDOKGBAJNEP": "1111",
          "NGLJBMGMGKF": "1111"
        },
        "1301": {
          "rangeMax": 3.0,
          "facingMoveWeight": {
            "forward": 0.0,
            "back": 0.0,
            "left": 2.0,
            "right": 2.0
          },
          "PDOKGBAJNEP": "1111",
          "NGLJBMGMGKF": "1111"
        }
      }
    }
  },
  "inputKeys": [
    {
      "keyID": 201,
      "inputKeyCode": 257,
      "abilityName": ""
    },
    {
      "keyID": 231,
      "inputKeyCode": 258,
      "abilityName": ""
    },
    {
      "keyID": 211,
      "inputKeyCode": 259,
      "abilityName": ""
    },
    {
      "keyID": 601,
      "inputKeyCode": 260,
      "abilityName": ""
    },
    {
      "keyID": 221,
      "inputKeyCode": 262,
      "abilityName": ""
    },
    {
      "keyID": 901,
      "inputKeyCode": 261,
      "abilityName": ""
    },
    {
      "keyID": 301,
      "inputKeyCode": 264,
      "abilityName": ""
    },
    {
      "keyID": 311,
      "inputKeyCode": 265,
      "abilityName": ""
    }
  ],
  "move": {
    "$type": "PLMNMICDOHN",
    "BCBPBHLKCPB": "FourDirection",
    "NGNIGPNNLAI": "StoopType"
  },
  "audio": {
    "NCOGLLMIJGO": "",
    "animAudio": {
      "onTransitionIn": [
        {
          "currentStateName": "OutOfBuild",
          "audioEvent": {
            "text": "Stop_sfx_monster_hili_build"
          }
        },
        {
          "currentStateName": "Alert",
          "audioEvent": {
            "text": "Stop_sfx_monster_hili_build"
          }
        },
        {
          "currentStateName": "BeHit",
          "audioEvent": {
            "text": "Stop_sfx_monster_hili_build"
          }
        },
        {
          "currentStateName": "Die",
          "audioEvent": {
            "text": "Stop_sfx_monster_hili_build"
          }
        },
        {
          "currentStateName": "Die1",
          "audioEvent": {
            "text": "Stop_sfx_monster_hili_build"
          }
        },
        {
          "currentStateName": "Die2",
          "audioEvent": {
            "text": "Stop_sfx_monster_hili_build"
          }
        },
        {
          "currentStateName": "OutOfMake",
          "audioEvent": {
            "text": "Stop_sfx_monster_hili_build"
          }
        },
        {
          "currentStateName": "Practice_Sword_Back",
          "audioEvent": {
            "text": "Play_sfx_monster_hili_practice_back"
          }
        },
        {
          "currentStateName": "Practice_NoWeapon_Back",
          "audioEvent": {
            "text": "Play_sfx_monster_hili_practice_back"
          }
        },
        {
          "currentStateName": "Practice_Shoot_Aim",
          "audioEvent": {
            "text": "Play_sfx_monster_hili_practice_shoot_aim"
          }
        },
        {
          "currentStateName": "Dance",
          "audioEvent": {
            "text": "Play_sfx_monster_hili_dance"
          }
        },
        {
          "currentStateName": "OutOfDance",
          "audioEvent": {
            "text": "Stop_sfx_monster_hili_dance"
          }
        },
        {
          "currentStateName": "SurroundFree01_Club",
          "audioEvent": {
            "text": "Play_sfx_monster_hili_dance"
          }
        },
        {
          "currentStateName": "SurroundFree01_NoWeapon",
          "audioEvent": {
            "text": "Play_sfx_monster_hili_dance"
          }
        },
        {
          "currentStateName": "OutOfSurround",
          "audioEvent": {
            "text": "Stop_sfx_monster_hili_dance"
          }
        },
        {
          "currentStateName": "Alert",
          "audioEvent": {
            "text": "Stop_sfx_monster_hili_dance"
          }
        },
        {
          "currentStateName": "BeHit",
          "audioEvent": {
            "text": "Stop_sfx_monster_hili_dance"
          }
        },
        {
          "currentStateName": "Die",
          "audioEvent": {
            "text": "Stop_sfx_monster_hili_dance"
          }
        },
        {
          "currentStateName": "Die1",
          "audioEvent": {
            "text": "Stop_sfx_monster_hili_dance"
          }
        },
        {
          "currentStateName": "Die2",
          "audioEvent": {
            "text": "Stop_sfx_monster_hili_dance"
          }
        },
        {
          "currentStateName": "ThreatFree01_NoWeapon",
          "audioEvent": {
            "text": "Play_sfx_monster_hili_dance"
          }
        },
        {
          "currentStateName": "ThreatFree02_NoWeapon",
          "audioEvent": {
            "text": "Play_sfx_monster_hili_dance"
          }
        },
        {
          "currentStateName": "ThreatFree01_Club",
          "audioEvent": {
            "text": "Play_sfx_monster_hili_dance"
          }
        },
        {
          "currentStateName": "ThreatFree02_Club",
          "audioEvent": {
            "text": "Play_sfx_monster_hili_dance"
          }
        },
        {
          "currentStateName": "OutOfThreat",
          "audioEvent": {
            "text": "Stop_sfx_monster_hili_dance"
          }
        }
      ],
      "onTransitionOut": [
        {
          "currentStateName": "Sword_TripleAttack",
          "audioEvent": {
            "text": "Stop_sfx_monster_hili_club_tripleAttack"
          }
        },
        {
          "currentStateName": "Sword_ThumpAttack",
          "audioEvent": {
            "text": "Stop_sfx_monster_hili_club_attack"
          }
        },
        {
          "currentStateName": "Build",
          "audioEvent": {
            "text": "Stop_sfx_monster_hili_build"
          }
        },
        {
          "currentStateName": "Make",
          "audioEvent": {
            "text": "Stop_sfx_monster_hili_build"
          }
        },
        {
          "currentStateName": "Practice_Sword",
          "audioEvent": {
            "text": "Stop_sfx_monster_hili_practice_sword"
          }
        },
        {
          "currentStateName": "Practice_NoWeapon",
          "audioEvent": {
            "text": "Stop_sfx_monster_hili_practice_sword"
          }
        },
        {
          "currentStateName": "Practice_Sword_Back",
          "audioEvent": {
            "text": "Stop_sfx_monster_hili_practice_back"
          }
        },
        {
          "currentStateName": "Practice_NoWeapon_Back",
          "audioEvent": {
            "text": "Stop_sfx_monster_hili_practice_back"
          }
        },
        {
          "currentStateName": "Practice_Shoot_Aim",
          "audioEvent": {
            "text": "Stop_sfx_monster_hili_practice_shoot_aim"
          },
          "otherStateNames": ["Practice_Shoot_Attack"],
          "usage": "Except"
        },
        {
          "currentStateName": "Practice_Shoot_Attack",
          "audioEvent": {
            "text": "Stop_sfx_monster_hili_practice_shoot_aim"
          }
        },
        {
          "currentStateName": "Dance",
          "audioEvent": {
            "text": "Stop_sfx_monster_hili_dance"
          }
        },
        {
          "currentStateName": "SurroundFree01_Club",
          "audioEvent": {
            "text": "Stop_sfx_monster_hili_dance"
          }
        },
        {
          "currentStateName": "SurroundFree01_NoWeapon",
          "audioEvent": {
            "text": "Stop_sfx_monster_hili_dance"
          }
        },
        {
          "currentStateName": "ThreatFree01_NoWeapon",
          "audioEvent": {
            "text": "Stop_sfx_monster_hili_dance"
          }
        },
        {
          "currentStateName": "ThreatFree02_NoWeapon",
          "audioEvent": {
            "text": "Stop_sfx_monster_hili_dance"
          }
        },
        {
          "currentStateName": "ThreatFree01_Club",
          "audioEvent": {
            "text": "Stop_sfx_monster_hili_dance"
          }
        },
        {
          "currentStateName": "ThreatFree02_Club",
          "audioEvent": {
            "text": "Stop_sfx_monster_hili_dance"
          }
        }
      ]
    },
    "disableEvent": {
      "text": "Stop_sfx_monster_hili_dance"
    },
    "destroyEvent": {
      "text": "Stop_sfx_monster_hili_dance"
    },
    "randomVariantSwitchGroup": {
      "text": ""
    },
    "randomVariantSwitchValues": [
      {
        "text": ""
      }
    ]
  }
}
