{
  "common": {
    "effectAttachShape": {
      "$type": "ConfigEffectAttachSkinnedMesh",
      "mesh": "EffectMesh"
    },
    "mass": 10000.0,
    "height": 1.600000023841858,
    "modelHeight": 1.600000023841858,
    "viewSize": 1.5,
    "affectedByWorld": true,
    "checkInSurface": true,
    "scale": 1.100000023841858,
    "useGrassDisplacement": true,
    "clearAnimatorOnSetLightDeactive": true,
    "clearAIOnSetLightDeactive": true,
    "NCCLLKFLJGL": true
  },
  "headControl": {
    "$type": "GAAIKCFIJMM",
    "useHeadControl": true,
    "KBBNEKBLPFA": 45.0,
    "FCDMCPDGFCL": [
      "NormalIdle/Standby",
      "NormalMove/WalkForward",
      "NormalMove/WalkBack",
      "NormalMove/WalkRight",
      "NormalMove/WalkLeft",
      "NormalMove/Run",
      "Turn/TurnLeft",
      "Turn/TurnRight"
    ]
  },
  "model": {
    "bornEffect": "Eff_Monster_Common_Born",
    "attachEffect": ""
  },
  "dither": {
    "showDitherDuration": 1.0
  },
  "combat": {
    "property": {
      "endureType": "Monster_Grunt_Other",
      "weight": 70.0
    },
    "beHit": {
      "hitBloodEffect": ""
    },
    "combatLock": {
      "lockShape": "CircleLockEnemy",
      "lockType": "Avatar&Monster_Lv4"
    },
    "die": {
      "hasAnimatorDie": true,
      "dieEndTime": 2.0,
      "dieForceDisappearTime": 8.0,
      "dieDisappearEffect": "",
      "dieShaderData": "EremiteSandDie",
      "dieShaderEnableDurationTime": 1.0,
      "OCGODEHJPME": true,
      "MFJBKFECLNJ": true,
      "IMEEBMBJPGJ": true,
      "ICHFPLMNCLC": true,
      "MBHMAGEPJFH": true,
      "CFHPDHFKMEP": true
    },
    "animEvents": {
      "NormalAtk01_01": {
        "attackPattern": {
          "$type": "ConfigAttackCircle",
          "triggerType": "TriggerNoRepeat",
          "born": {
            "$type": "ConfigBornBySelf",
            "offset": {
              "x": 0.0,
              "y": 0.0,
              "z": 0.699999988079071
            }
          },
          "height": 1.5,
          "fanAngle": 160.0,
          "radius": 2.200000047683716
        },
        "attackInfo": {
          "attackTag": "",
          "attenuationTag": "",
          "attenuationGroup": "default",
          "attackProperty": {
            "damagePercentage": 0.4000000059604645,
            "MKLAMNDEDGB": 0.0,
            "elementType": "Water",
            "bonusCriticalHurt": 25.0,
            "strikeType": "Blunt",
            "enBreak": 100.0,
            "attackType": "Melee"
          },
          "hitPattern": {
            "onHitEffectName": "default",
            "hitImpulseType": "LV3",
            "canBeDefenceHalt": true
          }
        }
      },
      "NormalAtk01_02": {
        "attackPattern": {
          "$type": "NAMPOMPBMHC",
          "triggerType": "TriggerNoRepeat",
          "born": {
            "$type": "ConfigBornBySelf",
            "offset": {
              "x": -0.5,
              "y": 1.0,
              "z": 1.0
            }
          },
          "size": {
            "x": 1.0,
            "y": 1.0,
            "z": 2.5
          }
        },
        "attackInfo": {
          "attackTag": "",
          "attenuationTag": "",
          "attenuationGroup": "default",
          "attackProperty": {
            "damagePercentage": 0.5,
            "MKLAMNDEDGB": 0.0,
            "elementType": "Water",
            "bonusCriticalHurt": 25.0,
            "strikeType": "Blunt",
            "enBreak": 100.0,
            "attackType": "Melee"
          },
          "hitPattern": {
            "onHitEffectName": "default",
            "hitImpulseType": "LV3",
            "canBeDefenceHalt": true
          }
        }
      },
      "ImprovedNormalAtk01_01": {
        "attackPattern": {
          "$type": "ConfigAttackCircle",
          "triggerType": "TriggerNoRepeat",
          "born": {
            "$type": "ConfigBornBySelf",
            "offset": {
              "x": 0.0,
              "y": 0.0,
              "z": 0.699999988079071
            }
          },
          "height": 2.200000047683716,
          "fanAngle": 180.0,
          "radius": 3.0
        },
        "attackInfo": {
          "attackTag": "",
          "attenuationTag": "",
          "attenuationGroup": "default",
          "attackProperty": {
            "damagePercentage": 0.6000000238418579,
            "MKLAMNDEDGB": 0.0,
            "elementType": "Water",
            "bonusCriticalHurt": 25.0,
            "strikeType": "Blunt",
            "enBreak": 200.0,
            "attackType": "Melee"
          },
          "hitPattern": {
            "onHitEffectName": "default",
            "hitImpulseType": "LV3",
            "canBeDefenceHalt": true
          }
        }
      },
      "ImprovedNormalAtk01_02": {
        "attackPattern": {
          "$type": "NAMPOMPBMHC",
          "triggerType": "TriggerNoRepeat",
          "born": {
            "$type": "ConfigBornBySelf",
            "offset": {
              "x": -0.5,
              "y": 1.0,
              "z": 1.0
            }
          },
          "size": {
            "x": 1.0,
            "y": 1.5,
            "z": 3.5
          }
        },
        "attackInfo": {
          "attackTag": "",
          "attenuationTag": "",
          "attenuationGroup": "default",
          "attackProperty": {
            "damagePercentage": 0.5,
            "MKLAMNDEDGB": 0.0,
            "elementType": "Water",
            "bonusCriticalHurt": 25.0,
            "strikeType": "Blunt",
            "enBreak": 100.0,
            "attackType": "Melee"
          },
          "hitPattern": {
            "onHitEffectName": "default",
            "hitImpulseType": "LV3",
            "canBeDefenceHalt": true
          }
        }
      },
      "MeleeAttack": {
        "attackPattern": {
          "$type": "NAMPOMPBMHC",
          "triggerType": "TriggerNoRepeat",
          "JGCLJPCGHMC": true,
          "born": {
            "$type": "ConfigBornBySelf",
            "offset": {
              "x": 0.0,
              "y": 0.0,
              "z": 0.0
            }
          },
          "size": {
            "x": 1.0,
            "y": 3.799999952316284,
            "z": 2.5
          },
          "NMDDMGFMMJB": true
        },
        "attackInfo": {
          "attackTag": "",
          "attenuationTag": "",
          "attenuationGroup": "default",
          "attackProperty": {
            "damagePercentage": 0.5,
            "MKLAMNDEDGB": 0.0,
            "elementType": "Water",
            "bonusCriticalHurt": 25.0,
            "strikeType": "Blunt",
            "enBreak": 100.0,
            "attackType": "Melee"
          },
          "hitPattern": {
            "onHitEffectName": "default",
            "hitImpulseType": "LV4",
            "canBeDefenceHalt": true
          }
        }
      },
      "ImprovedMeleeAttack": {
        "attackPattern": {
          "$type": "NAMPOMPBMHC",
          "triggerType": "TriggerNoRepeat",
          "JGCLJPCGHMC": true,
          "born": {
            "$type": "ConfigBornBySelf",
            "offset": {
              "x": 0.0,
              "y": 0.0,
              "z": 0.0
            }
          },
          "size": {
            "x": 1.0,
            "y": 3.799999952316284,
            "z": 2.5
          },
          "NMDDMGFMMJB": true
        },
        "attackInfo": {
          "attackTag": "",
          "attenuationTag": "",
          "attenuationGroup": "default",
          "attackProperty": {
            "damagePercentage": 0.699999988079071,
            "MKLAMNDEDGB": 0.0,
            "elementType": "Water",
            "bonusCriticalHurt": 25.0,
            "strikeType": "Blunt",
            "enBreak": 100.0,
            "attackType": "Melee"
          },
          "hitPattern": {
            "onHitEffectName": "default",
            "hitImpulseType": "LV4",
            "canBeDefenceHalt": true
          }
        }
      },
      "SlamAtk01": {
        "attackPattern": {
          "$type": "ConfigAttackCircle",
          "triggerType": "TriggerNoRepeat",
          "born": {
            "$type": "ConfigBornBySelf",
            "offset": {
              "x": 0.0,
              "y": 0.0,
              "z": 0.699999988079071
            }
          },
          "height": 1.600000023841858,
          "fanAngle": 90.0,
          "radius": 1.5
        },
        "attackInfo": {
          "attackTag": "",
          "attenuationTag": "",
          "attenuationGroup": "default",
          "attackProperty": {
            "damagePercentage": 0.5,
            "MKLAMNDEDGB": 0.0,
            "elementType": "Water",
            "bonusCriticalHurt": 25.0,
            "strikeType": "Slash",
            "enBreak": 200.0,
            "attackType": "Melee"
          },
          "hitPattern": {
            "onHitEffectName": "default",
            "hitImpulseType": "LV4",
            "canBeDefenceHalt": true
          },
          "cameraShake": {
            "shakeType": "CustomVector",
            "shakeRange": 0.10000000149011612,
            "shakeTime": 0.10000000149011612,
            "shakeDistance": 30.0,
            "shakeDir": {
              "y": 1.0,
              "z": 1.0
            }
          }
        }
      },
      "ImproveSlamAtk01": {
        "attackPattern": {
          "$type": "ConfigAttackCircle",
          "triggerType": "TriggerNoRepeat",
          "born": {
            "$type": "ConfigBornBySelf",
            "offset": {
              "x": 0.0,
              "y": 0.0,
              "z": 0.20000000298023224
            }
          },
          "height": 3.0,
          "fanAngle": 180.0,
          "radius": 3.5
        },
        "attackInfo": {
          "attackTag": "",
          "attenuationTag": "",
          "attenuationGroup": "default",
          "attackProperty": {
            "damagePercentage": 0.75,
            "MKLAMNDEDGB": 0.0,
            "elementType": "Water",
            "bonusCriticalHurt": 50.0,
            "strikeType": "Blunt",
            "enBreak": 200.0,
            "attackType": "Melee"
          },
          "hitPattern": {
            "onHitEffectName": "default",
            "hitImpulseType": "LV4",
            "canBeDefenceHalt": true
          },
          "cameraShake": {
            "shakeType": "CustomVector",
            "shakeRange": 0.10000000149011612,
            "shakeTime": 0.10000000149011612,
            "shakeDistance": 30.0,
            "shakeDir": {
              "y": 1.0,
              "z": 1.0
            }
          }
        }
      },
      "ImproveSlamAtk02_01": {
        "attackPattern": {
          "$type": "ConfigAttackCircle",
          "triggerType": "TriggerNoRepeat",
          "born": {
            "$type": "ConfigBornBySelf",
            "offset": {
              "x": 0.0,
              "y": 0.0,
              "z": 0.20000000298023224
            }
          },
          "height": 3.0,
          "fanAngle": 90.0,
          "radius": 2.5
        },
        "attackInfo": {
          "attackTag": "",
          "attenuationTag": "",
          "attenuationGroup": "default",
          "attackProperty": {
            "damagePercentage": 0.5,
            "MKLAMNDEDGB": 0.0,
            "elementType": "Water",
            "bonusCriticalHurt": 25.0,
            "strikeType": "Blunt",
            "enBreak": 200.0,
            "attackType": "Melee"
          },
          "hitPattern": {
            "onHitEffectName": "default",
            "hitImpulseType": "LV4",
            "canBeDefenceHalt": true
          },
          "cameraShake": {
            "shakeType": "CustomVector",
            "shakeRange": 0.10000000149011612,
            "shakeTime": 0.10000000149011612,
            "shakeDistance": 30.0,
            "shakeDir": {
              "y": 1.0,
              "z": 1.0
            }
          }
        }
      },
      "ImproveSlamAtk02_02": {
        "attackPattern": {
          "$type": "ConfigAttackCircle",
          "triggerType": "TriggerNoRepeat",
          "born": {
            "$type": "ConfigBornBySelf",
            "offset": {
              "x": 0.0,
              "y": 0.0,
              "z": 0.20000000298023224
            }
          },
          "height": 1.5,
          "fanAngle": 180.0,
          "radius": 3.0
        },
        "attackInfo": {
          "attackTag": "",
          "attenuationTag": "",
          "attenuationGroup": "default",
          "attackProperty": {
            "damagePercentage": 0.5,
            "MKLAMNDEDGB": 0.0,
            "elementType": "Water",
            "bonusCriticalHurt": 25.0,
            "strikeType": "Blunt",
            "enBreak": 200.0,
            "attackType": "Melee"
          },
          "hitPattern": {
            "onHitEffectName": "default",
            "hitImpulseType": "LV4",
            "canBeDefenceHalt": true
          },
          "cameraShake": {
            "shakeType": "CustomVector",
            "shakeRange": 0.10000000149011612,
            "shakeTime": 0.10000000149011612,
            "shakeDistance": 30.0,
            "shakeDir": {
              "y": 1.0,
              "z": 1.0
            }
          }
        }
      },
      "ImproveSlamAtk02_03": {
        "attackPattern": {
          "$type": "ConfigAttackCircle",
          "triggerType": "TriggerNoRepeat",
          "born": {
            "$type": "ConfigBornBySelf",
            "offset": {
              "x": 0.0,
              "y": 0.0,
              "z": 0.20000000298023224
            }
          },
          "height": 3.0,
          "fanAngle": 180.0,
          "radius": 3.5
        },
        "attackInfo": {
          "attackTag": "",
          "attenuationTag": "",
          "attenuationGroup": "default",
          "attackProperty": {
            "damagePercentage": 0.75,
            "MKLAMNDEDGB": 0.0,
            "elementType": "Water",
            "bonusCriticalHurt": 50.0,
            "strikeType": "Blunt",
            "enBreak": 200.0,
            "attackType": "Melee"
          },
          "hitPattern": {
            "onHitEffectName": "default",
            "hitImpulseType": "LV4",
            "canBeDefenceHalt": true
          },
          "cameraShake": {
            "shakeType": "CustomVector",
            "shakeRange": 0.10000000149011612,
            "shakeTime": 0.10000000149011612,
            "shakeDistance": 30.0,
            "shakeDir": {
              "y": 1.0,
              "z": 1.0
            }
          }
        }
      }
    }
  },
  "equipController": {
    "sheathPoint": "",
    "attachPoints": {
      "equip01": "WeaponR",
      "equip02": "WeaponL"
    }
  },
  "abilities": [
    {
      "abilityID": "FightControl",
      "abilityName": "Monster_Eremite_Female_Slim_PushDagger_Water_FightControl",
      "abilityOverride": ""
    },
    {
      "abilityID": "ReturnToBorn",
      "abilityName": "Monster_Eremite_Female_Slim_PushDagger_Water_ReturnToBorn",
      "abilityOverride": ""
    },
    {
      "abilityID": "Alert",
      "abilityName": "Monster_Eremite_Female_Slim_PushDagger_Water_Alert",
      "abilityOverride": ""
    },
    {
      "abilityID": "Improve",
      "abilityName": "Monster_Eremite_Female_Slim_PushDagger_Water_Improve",
      "abilityOverride": ""
    },
    {
      "abilityID": "Die",
      "abilityName": "Monster_Eremite_Female_Slim_PushDagger_Water_Improve_Die",
      "abilityOverride": ""
    },
    {
      "abilityID": "Weak",
      "abilityName": "Monster_Eremite_Female_Slim_PushDagger_Water_Weak",
      "abilityOverride": ""
    },
    {
      "abilityID": "DrawWeapon",
      "abilityName": "Monster_Eremite_Female_Slim_PushDagger_Water_DrawWeapon",
      "abilityOverride": ""
    },
    {
      "abilityID": "SheathWeapon",
      "abilityName": "Monster_Eremite_Female_Slim_PushDagger_Water_SheathWeapon",
      "abilityOverride": ""
    },
    {
      "abilityID": "HideWeapon",
      "abilityName": "Monster_Eremite_Female_Slim_PushDagger_Water_HideWeapon",
      "abilityOverride": ""
    },
    {
      "abilityID": "UnhideWeapon",
      "abilityName": "Monster_Eremite_Female_Slim_PushDagger_Water_UnhideWeapon",
      "abilityOverride": ""
    },
    {
      "abilityID": "UnhideWeapon",
      "abilityName": "Monster_Eremite_Female_Slim_PushDagger_Water_SteerControl",
      "abilityOverride": ""
    },
    {
      "abilityID": "RushMove",
      "abilityName": "Monster_Eremite_Female_Slim_PushDagger_Water_RushMove",
      "abilityOverride": ""
    },
    {
      "abilityID": "RushMove_Damage",
      "abilityName": "Monster_Eremite_Female_Slim_PushDagger_Water_RushMove_Damage",
      "abilityOverride": ""
    },
    {
      "abilityID": "Improve_Effect",
      "abilityName": "Monster_Eremite_Female_Slim_PushDagger_Water_Improve_Effect",
      "abilityOverride": ""
    },
    {
      "abilityID": "Improve_Effect02",
      "abilityName": "Monster_Eremite_Female_Slim_PushDagger_Water_Improve_Effect02",
      "abilityOverride": ""
    }
  ],
  "stateLayers": {
    "defaultLayer": {
      "$type": "ConfigNormalStateLayer",
      "FNPGDAEJAPJ": "",
      "stateIDs": {
        "NormalIdle": {
          "$type": "ConfigMonsterStateIDInfo",
          "animatorStates": {
            "Standby": [],
            "Born": []
          },
          "canDoSkill": true,
          "canSyncMove": true,
          "resetAnimatorTriggerOnExit": ["DoSkill"]
        },
        "Standby_Weak": {
          "$type": "ConfigMonsterStateIDInfo",
          "animatorStates": {
            "Standby_Weak": []
          },
          "canDoSkill": true,
          "canSyncMove": true,
          "resetAnimatorTriggerOnEnter": ["Recover"],
          "resetAnimatorTriggerOnExit": ["DoSkill"]
        },
        "NormalMove": {
          "$type": "ConfigMonsterStateIDInfo",
          "animatorStates": {
            "WalkForward": [
              "Audio_Monster_Eremite_Female_Slim_PushDagger_01_Walk"
            ],
            "WalkBack": [
              "Audio_Monster_Eremite_Female_Slim_PushDagger_01_Walk"
            ],
            "WalkRight": [
              "Audio_Monster_Eremite_Female_Slim_PushDagger_01_Walk"
            ],
            "WalkLeft": [
              "Audio_Monster_Eremite_Female_Slim_PushDagger_01_Walk"
            ],
            "Run": ["Audio_Monster_Eremite_Female_Slim_PushDagger_01_Run"]
          },
          "canDoSkill": true,
          "canSyncMove": true,
          "resetAnimatorTriggerOnExit": ["DoSkill"],
          "BHEPAJIOBDN": true
        },
        "Turn": {
          "$type": "ConfigMonsterStateIDInfo",
          "animatorStates": {
            "TurnLeft": [
              "Audio_Monster_Eremite_Female_Slim_PushDagger_01_Walk"
            ],
            "TurnRight": [
              "Audio_Monster_Eremite_Female_Slim_PushDagger_01_Walk"
            ]
          },
          "canDoSkill": true,
          "canSyncMove": true,
          "resetAnimatorTriggerOnExit": ["DoSkill"],
          "BHEPAJIOBDN": true
        },
        "BeHit": {
          "$type": "ConfigMonsterStateIDInfo",
          "animatorStates": {
            "Hit_L": [],
            "Hit_H": ["Audio_Monster_Eremite_Female_Slim_PushDagger_01_Hit_H"]
          },
          "resetAnimatorTriggerOnEnter": ["BeHit"],
          "resetAnimatorTriggerOnExit": ["DoSkill"]
        },
        "BeHitThrow": {
          "$type": "ConfigMonsterStateIDInfo",
          "animatorStates": {
            "HitThrow": [
              "Audio_Monster_Eremite_Female_Slim_PushDagger_01_HitThrow"
            ],
            "HitThrowDrop": []
          },
          "resetAnimatorTriggerOnEnter": ["BeHit", "HitAir2HitDrop"],
          "resetAnimatorTriggerOnExit": ["DoSkill", "BeHit"],
          "CIFLOMFPGND": [
            {
              "name": "AirDie"
            }
          ]
        },
        "BeHitThrowToStandby": {
          "$type": "ConfigMonsterStateIDInfo",
          "animatorStates": {
            "HitThrowToGround": [
              "Audio_Monster_Eremite_Female_Slim_PushDagger_01_HitThrowToGround"
            ]
          },
          "resetAnimatorTriggerOnEnter": ["BeHit", "HitAir2HitDrop"],
          "resetAnimatorTriggerOnExit": ["DoSkill", "BeHit"],
          "CIFLOMFPGND": [
            {
              "name": "AirDie",
              "normalizeEnd": 0.6200000047683716
            }
          ]
        },
        "HitThrowToGround_Weak": {
          "$type": "ConfigMonsterStateIDInfo",
          "animatorStates": {
            "HitThrowToGround_Weak": []
          },
          "resetAnimatorTriggerOnEnter": ["BeHit", "HitAir2HitDrop"],
          "resetAnimatorTriggerOnExit": ["DoSkill"]
        },
        "Struggle": {
          "$type": "ConfigMonsterStateIDInfo",
          "animatorStates": {
            "Struggle": []
          },
          "resetAnimatorTriggerOnEnter": ["BeHit", "HitAir2HitDrop"],
          "resetAnimatorTriggerOnExit": ["DoSkill"]
        },
        "Die": {
          "$type": "ConfigMonsterStateIDInfo",
          "animatorStates": {
            "Die1": [
              "Monster_Eremite_Female_Slim_PushDagger_Water_Die",
              "Audio_Monster_Eremite_Female_Slim_PushDagger_01_Die1"
            ],
            "Die2": [
              "Monster_Eremite_Female_Slim_PushDagger_Water_Die",
              "Audio_Monster_Eremite_Female_Slim_PushDagger_01_Die1"
            ],
            "SwimDie_BS": [],
            "SwimDie": ["Monster_Eremite_SwimDie"],
            "SwimDie_AS": []
          }
        },
        "Die_RagDoll": {
          "$type": "ConfigMonsterStateIDInfo",
          "animatorStates": {
            "AirDie": ["Monster_Eremite_AirDie"]
          }
        },
        "Sit_Loop": {
          "$type": "ConfigMonsterStateIDInfo",
          "animatorStates": {
            "Sit_Loop": []
          },
          "canDoSkill": true,
          "BFDKJHMDDML": 0.0,
          "resetAnimatorTriggerOnExit": ["BeHit", "DoSkill"]
        },
        "Clear": {
          "$type": "ConfigMonsterStateIDInfo",
          "animatorStates": {
            "Clear": [
              "Monster_Eremite_Female_Slim_PushDagger_Water_SandClear",
              "Audio_Monster_Eremite_Female_Slim_PushDagger_01_Clear"
            ]
          },
          "canDoSkill": true,
          "BFDKJHMDDML": 0.0,
          "resetAnimatorTriggerOnExit": ["BeHit", "DoSkill"],
          "BKLKHCBEHNL": true
        },
        "Dance": {
          "$type": "ConfigMonsterStateIDInfo",
          "animatorStates": {
            "Dance": ["Audio_Monster_Eremite_Female_Slim_PushDagger_01_Dance"]
          },
          "canDoSkill": true,
          "BFDKJHMDDML": 0.0,
          "resetAnimatorTriggerOnExit": ["BeHit", "DoSkill"]
        },
        "Squat": {
          "$type": "ConfigMonsterStateIDInfo",
          "animatorStates": {
            "Squat": []
          },
          "canDoSkill": true,
          "BFDKJHMDDML": 0.0,
          "resetAnimatorTriggerOnExit": ["BeHit", "DoSkill"]
        },
        "Lie": {
          "$type": "ConfigMonsterStateIDInfo",
          "animatorStates": {
            "Lie": []
          },
          "canDoSkill": true,
          "BFDKJHMDDML": 0.0,
          "resetAnimatorTriggerOnExit": ["BeHit", "DoSkill"]
        },
        "Alert": {
          "$type": "ConfigMonsterStateIDInfo",
          "animatorStates": {
            "Alert": [
              "Monster_Eremite_Female_Slim_PushDagger_Water_Alert",
              "Audio_Monster_Eremite_Female_Slim_PushDagger_01_Alert"
            ]
          },
          "BFDKJHMDDML": 0.0,
          "BDFLEJHPFBG": 20.0,
          "resetAnimatorTriggerOnExit": ["BeHit", "DoSkill"],
          "BKLKHCBEHNL": true
        },
        "Sit_Alert": {
          "$type": "ConfigMonsterStateIDInfo",
          "animatorStates": {
            "Sit_Alert": [
              "Monster_Eremite_Female_Slim_PushDagger_Water_Alert",
              "Audio_Monster_Eremite_Female_Slim_PushDagger_01_Sit_Alert"
            ]
          },
          "BFDKJHMDDML": 0.0,
          "BDFLEJHPFBG": 20.0,
          "resetAnimatorTriggerOnExit": ["BeHit", "DoSkill"],
          "BKLKHCBEHNL": true
        },
        "Squat_Alert": {
          "$type": "ConfigMonsterStateIDInfo",
          "animatorStates": {
            "Squat_Alert": [
              "Monster_Eremite_Female_Slim_PushDagger_Water_Alert",
              "Audio_Monster_Eremite_Female_Slim_PushDagger_01_Sit_Alert"
            ]
          },
          "BFDKJHMDDML": 0.0,
          "BDFLEJHPFBG": 20.0,
          "resetAnimatorTriggerOnExit": ["BeHit", "DoSkill"],
          "BKLKHCBEHNL": true
        },
        "SheathWeapon": {
          "$type": "ConfigMonsterStateIDInfo",
          "animatorStates": {
            "SheathWeapon": [
              "Monster_Eremite_Female_Slim_PushDagger_Water_SheathWeapon",
              "Audio_Monster_Eremite_Female_Slim_PushDagger_01_SheathWeapon"
            ]
          },
          "BFDKJHMDDML": 0.0,
          "BDFLEJHPFBG": 20.0,
          "resetAnimatorTriggerOnEnter": ["SheathWeaponTrigger"],
          "resetAnimatorTriggerOnExit": ["BeHit", "DoSkill", "SheathWeaponTrigger"]
        },
        "Improve": {
          "$type": "ConfigMonsterStateIDInfo",
          "animatorStates": {
            "Improve": [
              "Monster_Eremite_Female_Slim_PushDagger_Water_Improve",
              "Audio_Monster_Eremite_Female_Slim_PushDagger_01_Improve"
            ]
          },
          "BFDKJHMDDML": 0.0,
          "BDFLEJHPFBG": 20.0,
          "resetAnimatorTriggerOnEnter": ["ForceImprove"],
          "resetAnimatorTriggerOnExit": ["BeHit", "DoSkill", "ForceImprove"]
        },
        "Weak": {
          "$type": "ConfigMonsterStateIDInfo",
          "animatorStates": {
            "Weak_BS": [
              "Audio_Monster_Eremite_Female_Slim_PushDagger_01_Weak_BS"
            ],
            "Weak_AS": [
              "Audio_Monster_Eremite_Female_Slim_PushDagger_01_Weak_AS"
            ]
          },
          "resetAnimatorTriggerOnEnter": ["Weak"],
          "resetAnimatorTriggerOnExit": ["DoSkill", "Recover"]
        },
        "NormalAtk01": {
          "$type": "ConfigMonsterStateIDInfo",
          "animatorStates": {
            "NormalAtk01": [
              "Monster_Eremite_Female_Slim_PushDagger_Water_NormalAtk01",
              "Audio_Monster_Eremite_Female_Slim_PushDagger_01_NormalAtk"
            ]
          },
          "BFDKJHMDDML": 0.0,
          "BDFLEJHPFBG": 20.0,
          "resetAnimatorTriggerOnExit": ["BeHit", "DoSkill"],
          "BHEPAJIOBDN": true
        },
        "MeleeAttackBS": {
          "$type": "ConfigMonsterStateIDInfo",
          "animatorStates": {
            "MeleeAttackBS": [
              "Audio_Monster_Eremite_Female_Slim_PushDagger_01_MeleeAttack_BS"
            ]
          },
          "BFDKJHMDDML": 0.0,
          "BDFLEJHPFBG": 20.0,
          "resetAnimatorTriggerOnExit": ["BeHit", "DoSkill"],
          "BHEPAJIOBDN": true
        },
        "MeleeAtkBS02": {
          "$type": "ConfigMonsterStateIDInfo",
          "animatorStates": {
            "MeleeAtkBS02": [
              "Audio_Monster_Eremite_Female_Slim_PushDagger_01_Run"
            ]
          },
          "BFDKJHMDDML": 0.0,
          "BDFLEJHPFBG": 20.0,
          "resetAnimatorTriggerOnExit": ["BeHit", "DoSkill"],
          "BHEPAJIOBDN": true
        },
        "ImproveMeleeAtkBS02": {
          "$type": "ConfigMonsterStateIDInfo",
          "animatorStates": {
            "ImproveMeleeAtkBS02": [
              "Audio_Monster_Eremite_Female_Slim_PushDagger_01_Run"
            ]
          },
          "resetAnimatorTriggerOnExit": ["BeHit", "DoSkill", "Weak"],
          "BHEPAJIOBDN": true
        },
        "MeleeRush": {
          "$type": "ConfigMonsterStateIDInfo",
          "animatorStates": {
            "MeleeRush": [
              "Audio_Monster_Eremite_Female_Slim_PushDagger_01_MeleeRush"
            ]
          },
          "canSyncMove": true,
          "BFDKJHMDDML": 0.0,
          "resetAnimatorTriggerOnExit": ["BeHit", "DoSkill", "NearTarget"],
          "BHEPAJIOBDN": true
        },
        "MeleeAttack": {
          "$type": "ConfigMonsterStateIDInfo",
          "animatorStates": {
            "MeleeAttack": [
              "Monster_Eremite_Female_Slim_PushDagger_Water_MeleeAttack",
              "Audio_Monster_Eremite_Female_Slim_PushDagger_01_MeleeAttack"
            ]
          },
          "BFDKJHMDDML": 0.0,
          "BDFLEJHPFBG": 20.0,
          "resetAnimatorTriggerOnEnter": ["NearTarget"],
          "resetAnimatorTriggerOnExit": ["BeHit", "DoSkill"]
        },
        "MeleeAttackAS": {
          "$type": "ConfigMonsterStateIDInfo",
          "animatorStates": {
            "MeleeAttackAS": [
              "Audio_Monster_Eremite_Female_Slim_PushDagger_01_MeleeAttack_AS"
            ]
          },
          "BFDKJHMDDML": 0.0,
          "BDFLEJHPFBG": 20.0,
          "resetAnimatorTriggerOnEnter": ["NearTarget"],
          "resetAnimatorTriggerOnExit": ["BeHit", "DoSkill"],
          "BHEPAJIOBDN": true
        },
        "SlamAtk01": {
          "$type": "ConfigMonsterStateIDInfo",
          "animatorStates": {
            "SlamAtk01": [
              "Monster_Eremite_Female_Slim_PushDagger_Water_SlamAtk01",
              "Audio_Monster_Eremite_Female_Slim_PushDagger_01_SlamAtk"
            ]
          },
          "BFDKJHMDDML": 0.0,
          "BDFLEJHPFBG": 20.0,
          "resetAnimatorTriggerOnExit": ["BeHit", "DoSkill"],
          "BHEPAJIOBDN": true
        },
        "ImproveNormalAtk01": {
          "$type": "ConfigMonsterStateIDInfo",
          "animatorStates": {
            "ImproveNormalAtk01": [
              "Monster_Eremite_Female_Slim_PushDagger_Water_ImprovreNormalAtk01",
              "Audio_Monster_Eremite_Female_Slim_PushDagger_01_ImproveNormalAtk01"
            ]
          },
          "resetAnimatorTriggerOnExit": ["BeHit", "DoSkill", "Weak"],
          "BHEPAJIOBDN": true
        },
        "ImproveMeleeAttackBS": {
          "$type": "ConfigMonsterStateIDInfo",
          "animatorStates": {
            "ImproveMeleeAttackBS": [
              "Audio_Monster_Eremite_Female_Slim_PushDagger_01_MeleeAttack_BS"
            ]
          },
          "resetAnimatorTriggerOnExit": ["BeHit", "DoSkill", "Weak"],
          "BHEPAJIOBDN": true
        },
        "ImproveMeleeRush": {
          "$type": "ConfigMonsterStateIDInfo",
          "animatorStates": {
            "ImproveMeleeRush": [
              "Audio_Monster_Eremite_Female_Slim_PushDagger_01_MeleeRush"
            ]
          },
          "canSyncMove": true,
          "resetAnimatorTriggerOnExit": ["BeHit", "DoSkill", "Weak", "NearTarget"],
          "BHEPAJIOBDN": true
        },
        "ImproveMeleeAttack": {
          "$type": "ConfigMonsterStateIDInfo",
          "animatorStates": {
            "ImproveMeleeAttack": [
              "Monster_Eremite_Female_Slim_PushDagger_Water_ImprovedMeleeAttack",
              "Audio_Monster_Eremite_Female_Slim_PushDagger_01_ImproveMeleeAttack"
            ]
          },
          "resetAnimatorTriggerOnEnter": ["NearTarget"],
          "resetAnimatorTriggerOnExit": ["BeHit", "DoSkill", "Weak"]
        },
        "ImproveSlamAtk01": {
          "$type": "ConfigMonsterStateIDInfo",
          "animatorStates": {
            "ImproveSlamAtk01": [
              "Monster_Eremite_Female_Slim_PushDagger_Water_ImproveSlamAtk01",
              "Audio_Monster_Eremite_Female_Slim_PushDagger_01_ImproveSlamAtk01"
            ]
          },
          "resetAnimatorTriggerOnExit": ["BeHit", "DoSkill", "Weak"],
          "BHEPAJIOBDN": true
        },
        "ImproveSlamAtk02": {
          "$type": "ConfigMonsterStateIDInfo",
          "animatorStates": {
            "ImproveSlamAtk02": [
              "Monster_Eremite_Female_Slim_PushDagger_Water_ImproveSlamAtk02",
              "Audio_Monster_Eremite_Female_Slim_PushDagger_01_ImproveslamAtk02"
            ]
          },
          "resetAnimatorTriggerOnExit": ["BeHit", "DoSkill", "Weak"],
          "BHEPAJIOBDN": true
        }
      }
    }
  },
  "billboard": {
    "$type": "NCBABGPMMPL",
    "EBBHBMFMOGD": "BillboardAttach",
    "offset": {
      "x": -0.3499999940395355
    },
    "BFOMIIKCOGI": "Character",
    "ANGKJBLILKJ": true,
    "size": "Big"
  },
  "initialPoses": {
    "Default": {
      "initialPoseID": 1
    },
    "Sit": {
      "initialPoseID": 9001,
      "initialPoseParams": {
        "intParams": {
          "FreePoseMark": "9001"
        }
      }
    },
    "Dance": {
      "initialPoseID": 9003,
      "initialPoseParams": {
        "intParams": {
          "FreePoseMark": "9003"
        }
      }
    },
    "Squat": {
      "initialPoseID": 9004,
      "initialPoseParams": {
        "intParams": {
          "FreePoseMark": "9004"
        }
      }
    },
    "Lie": {
      "initialPoseID": 9005,
      "initialPoseParams": {
        "intParams": {
          "FreePoseMark": "9005"
        }
      }
    }
  },
  "aibeta": {
    "enable": true,
    "moveSetting": {
      "navMeshAgentName": "Undead01",
      "almostReachedDistanceRun": 1.5
    },
    "aiCombat": {
      "combatRole": "FIGHTER"
    },
    "sensing": {
      "settings": {
        "DefaultSetting": {
          "feelRange": 8.0
        },
        "HighAlert": {
          "viewRange": 40.0,
          "feelRange": 10.0
        },
        "LowAlert": {
          "viewRange": 15.0,
          "feelRange": 6.0
        },
        "NeverCombat": {
          "enableVision": false,
          "hearAttractionRange": 0.0,
          "feelRange": 0.0
        },
        "UltraLowSensing": {
          "viewRange": 10.0,
          "hearAttractionRange": 0.0,
          "feelRange": 4.0
        }
      },
      "templates": {
        "DefaultTemplate": {
          "DefaultPoses": "DefaultSetting"
        },
        "HighAlert": {
          "DefaultPoses": "HighAlert"
        },
        "LowAlert": {
          "DefaultPoses": "LowAlert"
        },
        "NeverCombat": {
          "DefaultPoses": "NeverCombat"
        },
        "UltraLowSensing": {
          "DefaultPoses": "UltraLowSensing"
        }
      }
    },
    "neurons": {
      "DefaultSetting": ["HIT"],
      "NeverCombat": []
    },
    "threat": {
      "clearThreatByLostPath": true,
      "clearThreatTimerByDistance": 3.0,
      "viewAttenuation": [
        {
          "x": 10.0,
          "y": 2.0
        },
        {
          "x": 15.0,
          "y": 0.800000011920929
        },
        {
          "x": 20.0,
          "y": 0.5
        },
        {
          "x": 25.0,
          "y": 0.30000001192092896
        },
        {
          "x": 30.0,
          "y": 0.20000000298023224
        }
      ],
      "resistTauntLevel": "Monster_TauntLevel_2"
    },
    "defendArea": {
      "defendRange": 50.0
    },
    "profiling": {},
    "network": {
      "syncSkill": true
    },
    "skillGroupCDConfigs": [
      {
        "skillGroupCDID": 1,
        "skillGroupCDTime": 1.0
      },
      {
        "skillGroupCDID": 2,
        "skillGroupCDTime": 2.0
      },
      {
        "skillGroupCDID": 3,
        "skillGroupCDTime": 3.0
      }
    ],
    "skills": {
      "101": {
        "name": "OnAlert",
        "skillType": "OnAlert",
        "castCondition": {
          "pose": [1, 9003]
        },
        "publicCDGroup": "",
        "ignoreGCD": true,
        "triggerGCD": false,
        "stateIDs": ["Alert"],
        "skillQueryingTime": 3.0,
        "flagTargetReachable": "10",
        "flagSelfOnTemplateCollider": "01",
        "flagSelfInZone": "10",
        "flagTargetInZone": "11"
      },
      "102": {
        "name": "OnAlert",
        "skillType": "OnNerve",
        "castCondition": {
          "pose": [1, 9003]
        },
        "publicCDGroup": "",
        "ignoreGCD": true,
        "triggerGCD": false,
        "stateIDs": ["Alert"],
        "skillQueryingTime": 3.0,
        "flagTargetReachable": "10",
        "flagSelfOnTemplateCollider": "01",
        "flagSelfInZone": "10",
        "flagTargetInZone": "11",
        "nerveTrigger": ["HIT"]
      },
      "111": {
        "name": "OnAlert_Crossleg",
        "skillType": "OnAlert",
        "castCondition": {
          "pose": [9001, 9005]
        },
        "publicCDGroup": "",
        "ignoreGCD": true,
        "stateIDs": ["Sit_Alert"],
        "skillQueryingTime": 3.0,
        "flagTargetReachable": "10",
        "flagSelfOnTemplateCollider": "01",
        "flagSelfInZone": "10",
        "flagTargetInZone": "11"
      },
      "112": {
        "name": "OnAlert_Crossleg",
        "skillType": "OnNerve",
        "castCondition": {
          "pose": [9001, 9005]
        },
        "publicCDGroup": "",
        "ignoreGCD": true,
        "stateIDs": ["Sit_Alert"],
        "skillQueryingTime": 3.0,
        "flagTargetReachable": "10",
        "flagSelfOnTemplateCollider": "01",
        "flagSelfInZone": "10",
        "flagTargetInZone": "11",
        "nerveTrigger": ["HIT"]
      },
      "121": {
        "name": "OnAlert_Crossleg",
        "skillType": "OnAlert",
        "castCondition": {
          "pose": [9004]
        },
        "publicCDGroup": "",
        "ignoreGCD": true,
        "stateIDs": ["Squat_Alert"],
        "skillQueryingTime": 3.0,
        "flagTargetReachable": "10",
        "flagSelfOnTemplateCollider": "01",
        "flagSelfInZone": "10",
        "flagTargetInZone": "11"
      },
      "122": {
        "name": "OnAlert_Crossleg",
        "skillType": "OnNerve",
        "castCondition": {
          "pose": [9004]
        },
        "publicCDGroup": "",
        "ignoreGCD": true,
        "stateIDs": ["Squat_Alert"],
        "skillQueryingTime": 3.0,
        "flagTargetReachable": "10",
        "flagSelfOnTemplateCollider": "01",
        "flagSelfInZone": "10",
        "flagTargetInZone": "11",
        "nerveTrigger": ["HIT"]
      },
      "201": {
        "name": "NormalAtk01",
        "castCondition": {
          "pose": [101, 102],
          "pickRangeMax": 4.0
        },
        "cd": 3.0,
        "cdUpperRange": 2.0,
        "publicCDGroup": "",
        "skillGroupCDID": 3,
        "stateIDs": ["NormalAtk01"],
        "flagTargetReachable": "10",
        "flagSelfOnTemplateCollider": "01",
        "flagSelfInZone": "11",
        "flagTargetInZone": "11"
      },
      "211": {
        "name": "MeleeAttack",
        "priority": 3,
        "castCondition": {
          "pose": [101, 102],
          "pickRangeMin": 5.0,
          "pickRangeMax": 25.0
        },
        "cd": 10.0,
        "cdUpperRange": 2.5,
        "initialCD": 5.0,
        "initialCDUpperRange": 2.0,
        "publicCDGroup": "",
        "stateIDs": [
          "MeleeAttackBS",
          "MeleeAtkBS02",
          "MeleeRush",
          "MeleeAttack",
          "MeleeAttackAS"
        ],
        "flagTargetReachable": "10",
        "flagSelfOnTemplateCollider": "01",
        "flagSelfInZone": "10",
        "flagTargetInZone": "11"
      },
      "221": {
        "name": "SlamAtk01",
        "castCondition": {
          "pose": [101, 102],
          "pickRangeMax": 4.0
        },
        "cd": 6.0,
        "cdUpperRange": 2.0,
        "initialCD": 7.0,
        "initialCDUpperRange": 4.0,
        "publicCDGroup": "",
        "skillGroupCDID": 3,
        "stateIDs": ["SlamAtk01"],
        "flagTargetReachable": "10",
        "flagSelfOnTemplateCollider": "01",
        "flagSelfInZone": "10",
        "flagTargetInZone": "11"
      },
      "301": {
        "name": "ImproveNormalAtk01",
        "castCondition": {
          "pose": [201],
          "pickRangeMax": 5.0
        },
        "cd": 3.5,
        "cdUpperRange": 2.0,
        "publicCDGroup": "",
        "skillGroupCDID": 1,
        "stateIDs": ["ImproveNormalAtk01", "ImproveSlamAtk01"],
        "flagTargetReachable": "10",
        "flagSelfOnTemplateCollider": "01",
        "flagSelfInZone": "10",
        "flagTargetInZone": "11"
      },
      "311": {
        "name": "Improve_MeleeAttk02",
        "castCondition": {
          "pose": [201],
          "pickRangeMin": 5.0,
          "pickRangeMax": 25.0
        },
        "cd": 8.0,
        "cdUpperRange": 3.0,
        "initialCD": 3.0,
        "publicCDGroup": "",
        "triggerCDOnStart": true,
        "stateIDs": [
          "ImproveMeleeAttackBS",
          "ImproveMeleeAtkBS02",
          "ImproveMeleeRush",
          "ImproveMeleeAttack",
          "ImproveSlamAtk01"
        ],
        "flagTargetReachable": "10",
        "flagSelfOnTemplateCollider": "01",
        "flagSelfInZone": "10",
        "flagTargetInZone": "11"
      },
      "331": {
        "name": "Improve_SlamAtk02",
        "castCondition": {
          "pose": [201],
          "pickRangeMax": 5.0
        },
        "cd": 10.0,
        "cdUpperRange": 2.0,
        "publicCDGroup": "",
        "stateIDs": ["ImproveSlamAtk02"],
        "flagTargetReachable": "10",
        "flagSelfOnTemplateCollider": "01",
        "flagSelfInZone": "11",
        "flagTargetInZone": "11"
      },
      "401": {
        "name": "Improve_First",
        "priority": 2,
        "castCondition": {
          "pose": [111]
        },
        "cd": 10.0,
        "publicCDGroup": "",
        "DDLBHDNIIMM": false,
        "stateIDs": ["Improve"],
        "skillQueryingTime": 3.0,
        "flagTargetReachable": "11",
        "flagSelfOnTemplateCollider": "11",
        "flagSelfInZone": "11",
        "flagTargetInZone": "11"
      },
      "402": {
        "name": "Improve_NotFirst",
        "priority": 2,
        "castCondition": {
          "pose": [102]
        },
        "cd": 30.0,
        "initialCD": 30.0,
        "publicCDGroup": "",
        "ignoreGCD": true,
        "triggerGCD": false,
        "DDLBHDNIIMM": false,
        "stateIDs": ["Improve"],
        "skillQueryingTime": 3.0,
        "flagTargetReachable": "11",
        "flagSelfOnTemplateCollider": "11",
        "flagSelfInZone": "11",
        "flagTargetInZone": "11"
      },
      "9001": {
        "name": "Clear_PlayShow",
        "skillType": "Free",
        "castCondition": {
          "pose": [2, 1]
        },
        "cd": 50.0,
        "cdUpperRange": 15.0,
        "initialCD": 15.0,
        "publicCDGroup": "",
        "ignoreGCD": true,
        "triggerGCD": false,
        "stateIDs": ["Clear"],
        "skillQueryingTime": 3.0,
        "flagTargetReachable": "10",
        "flagSelfOnTemplateCollider": "01",
        "flagSelfInZone": "10",
        "flagTargetInZone": "11"
      }
    },
    "skillGCD": 2.0,
    "returnToBornTactic": {
      "enable": true,
      "defaultSetting": {}
    },
    "wanderTactic": {
      "enable": true,
      "condition": {
        "pose": [1]
      },
      "defaultSetting": {
        "turnSpeedOverride": 1.0,
        "cdMax": 5.0,
        "cdMin": 2.5,
        "distanceFromBorn": 15.0,
        "distanceFromCurrentMin": 4.0,
        "distanceFromCurrentMax": 6.0
      }
    },
    "investigateTactic": {
      "enable": true,
      "condition": {
        "pose": [1]
      }
    },
    "meleeChargeTactic": {
      "enable": true,
      "condition": {
        "pose": [101, 102, 201]
      },
      "defaultSetting": {
        "speedLevel": 1,
        "turnSpeedOverride": 0.800000011920929,
        "startDistanceMin": 8.0,
        "startDistanceMax": 99.0,
        "stopDistance": 3.0,
        "useMeleeSlot": false
      }
    },
    "facingMoveTactic": {
      "enable": true,
      "condition": {
        "pose": [101, 102, 201]
      },
      "defaultSetting": {
        "rangeMin": 2.5,
        "rangeMax": 6.0,
        "facingMoveTurnInterval": 1.5,
        "obstacleDetectRange": 1.0,
        "facingMoveWeight": {
          "stop": 0.5,
          "back": 0.5
        },
        "PDOKGBAJNEP": "1111",
        "NGLJBMGMGKF": "1111"
      }
    },
    "DNAHDMGDMCH": {
      "enable": true,
      "defaultSetting": {
        "speedLevel": 1,
        "triggerDistance": 4.0,
        "fleeAngle": 75.0,
        "fleeDistanceMin": 3.0,
        "fleeDistanceMax": 5.0,
        "PPIBDEEBFPN": 0.5
      }
    }
  },
  "inputKeys": [
    {
      "keyID": 201,
      "inputKeyCode": 258,
      "abilityName": ""
    },
    {
      "keyID": 211,
      "inputKeyCode": 259,
      "abilityName": ""
    },
    {
      "keyID": 221,
      "inputKeyCode": 260,
      "abilityName": ""
    },
    {
      "keyID": 301,
      "inputKeyCode": 261,
      "abilityName": ""
    },
    {
      "keyID": 311,
      "inputKeyCode": 262,
      "abilityName": ""
    },
    {
      "keyID": 321,
      "inputKeyCode": 263,
      "abilityName": ""
    },
    {
      "keyID": 331,
      "inputKeyCode": 264,
      "abilityName": ""
    },
    {
      "keyID": 401,
      "inputKeyCode": 265,
      "abilityName": ""
    }
  ],
  "move": {
    "$type": "PLMNMICDOHN",
    "BCBPBHLKCPB": "FourDirection",
    "NGNIGPNNLAI": "StoopType",
    "MGFACNKNOFC": true
  },
  "audio": {
    "NCOGLLMIJGO": "",
    "animAudio": {
      "onTransitionIn": [
        {
          "currentStateName": "",
          "audioEvent": {
            "text": ""
          }
        }
      ],
      "onTransitionOut": [
        {
          "currentStateName": "Dance",
          "audioEvent": {
            "text": "Stop_sfx_monster_Eremite_Female_Slim_PushDagger_dance"
          }
        }
      ]
    }
  }
}
