[
  {
    "Default": {
      "$type": "ConfigAbility",
      "abilityName": "SceneObj_Area_Xm_Property_Ani_Prop_XuMiVisualizationplant_01_Ability",
      "abilityMixins": [
        {
          "$type": "AttachModifierToSelfGlobalValueNoInitMixin",
          "globalValueKey": "GrassState",
          "valueSteps": [-10.0, 10.0, 210.0, 310.0],
          "modifierNameSteps": ["NormalState", "ExcitedState", "DestoryState"]
        }
      ],
      "modifiers": {
        "NormalState": {
          "modifierName": "",
          "bonusCriticalHurt": 100.0,
          "onAdded": [
            {
              "$type": "SetAnimatorInt",
              "intID": "gadgetState",
              "ratio": 0.0
            },
            {
              "$type": "AttachEffect",
              "healLimitedByCasterMaxHPRatio": "Eff_SceneObj_XuMiVisualizationplant_01",
              "effectTempleteID": -1.0
            }
          ],
          "onRemoved": [
            {
              "$type": "FireEffect",
              "healLimitedByCasterMaxHPRatio": "Eff_SceneObj_XuMiVisualizationplant_01_Disappear",
              "effectTempleteID": -1.0
            }
          ]
        },
        "ExcitedState": {
          "modifierName": "",
          "bonusCriticalHurt": 100.0,
          "onAdded": [
            {
              "$type": "AttachEffect",
              "healLimitedByCasterMaxHPRatio": "Eff_SceneObj_XuMiVisualizationplant_02",
              "effectTempleteID": -1.0
            },
            {
              "$type": "SetAnimatorInt",
              "intID": "gadgetState",
              "ratio": 200.0
            }
          ]
        },
        "DestoryState": {
          "modifierName": "",
          "bonusCriticalHurt": 100.0,
          "onAdded": [
            {
              "$type": "SetAnimatorInt",
              "intID": "gadgetState",
              "ratio": 300.0
            }
          ]
        }
      },
      "onAdded": [
        {
          "$type": "SetGlobalValue",
          "ratio": 5.0,
          "key": "GV_ExcitedDuration",
          "maxValue": 0.0,
          "minValue": 0.0
        },
        {
          "$type": "SetGlobalValue",
          "ratio": 3.0,
          "key": "WisdomImpactLevel",
          "maxValue": 0.0,
          "minValue": 0.0
        }
      ]
    }
  },
  {
    "Default": {
      "$type": "ConfigAbility",
      "abilityName": "SceneObj_Area_Xm_Property_Ani_Prop_XuMiBombmushroom_01_Ability",
      "abilityMixins": [
        {
          "$type": "AttachModifierToSelfGlobalValueNoInitMixin",
          "globalValueKey": "GrassState",
          "valueSteps": [-10.0, 10.0, 210.0, 310.0],
          "modifierNameSteps": ["NormalState", "ExcitedState", "DestoryState"]
        },
        {
          "$type": "AttachModifierToSelfGlobalValueNoInitMixin",
          "globalValueKey": "GasCD",
          "valueSteps": [-0.5, 0.5, 1.5],
          "modifierNameSteps": ["TryTrigger", "CDTimer"],
          "removeAppliedModifier": false
        },
        {
          "$type": "FieldEntityCountChangeMixin",
          "campTargetType": "All",
          "targetPredicates": [
            {
              "$type": "ByEntityTypes",
              "entityTypes": ["Avatar"]
            }
          ],
          "FIDNIDJEPFD": "AvatarCount",
          "AIPILJKBJLI": 0.0,
          "PADAIOIPHKO": 0.0
        },
        {
          "$type": "AttachToStateIDMixin",
          "stateIDs": ["Excited"],
          "modifierName": "PoisonGasLoop"
        }
      ],
      "modifiers": {
        "CDTimer": {
          "modifierName": "",
          "duration": 2.9000000953674316,
          "bonusCriticalHurt": 100.0,
          "onRemoved": [
            {
              "$type": "SetGlobalValue",
              "ratio": 0.0,
              "key": "GasCD",
              "maxValue": 0.0,
              "minValue": 0.0
            }
          ]
        },
        "TryTrigger": {
          "modifierName": "",
          "duration": 0.10000000149011612,
          "bonusCriticalHurt": 100.0,
          "onRemoved": [
            {
              "$type": "Predicated",
              "targetPredicates": [
                {
                  "$type": "ByTargetGlobalValue",
                  "key": "AvatarCount",
                  "ratio": 1.0,
                  "compareType": "MoreThanAndEqual"
                },
                {
                  "$type": "ByTargetGlobalValue",
                  "key": "GrassState",
                  "ratio": 0.0
                }
              ],
              "successActions": [
                {
                  "$type": "SetAnimatorTrigger",
                  "triggerID": "Attack",
                  "MPTriggerOnRemote": true
                },
                {
                  "$type": "SetGlobalValue",
                  "ratio": 1.0,
                  "key": "GasCD",
                  "maxValue": 0.0,
                  "minValue": 0.0
                }
              ]
            }
          ]
        },
        "NormalState": {
          "modifierName": "",
          "bonusCriticalHurt": 100.0,
          "modifierMixins": [
            {
              "$type": "AttachModifierToSelfGlobalValueNoInitMixin",
              "globalValueKey": "AvatarCount",
              "valueSteps": [-0.5, 0.5, 4.5],
              "modifierNameSteps": ["NoAvatar", "HasAvatar"]
            }
          ],
          "onAdded": [
            {
              "$type": "SetAnimatorInt",
              "intID": "GrassState",
              "ratio": 0.0
            }
          ]
        },
        "NoAvatar": {
          "modifierName": "",
          "bonusCriticalHurt": 100.0,
          "onAdded": [
            {
              "$type": "SetAnimatorInt",
              "intID": "FieldEnter",
              "ratio": 0.0
            },
            {
              "$type": "ResetAnimatorTrigger",
              "triggerID": "Attack"
            }
          ]
        },
        "HasAvatar": {
          "modifierName": "",
          "bonusCriticalHurt": 100.0,
          "onAdded": [
            {
              "$type": "SetAnimatorInt",
              "intID": "FieldEnter",
              "ratio": 1.0
            },
            {
              "$type": "Predicated",
              "targetPredicates": [
                {
                  "$type": "ByTargetGlobalValue",
                  "key": "GasCD",
                  "ratio": 0.0
                }
              ],
              "successActions": [
                {
                  "$type": "SetAnimatorTrigger",
                  "triggerID": "Attack",
                  "MPTriggerOnRemote": true
                },
                {
                  "$type": "SetGlobalValue",
                  "ratio": 1.0,
                  "key": "GasCD",
                  "maxValue": 0.0,
                  "minValue": 0.0
                }
              ]
            }
          ]
        },
        "ExcitedState": {
          "modifierName": "",
          "bonusCriticalHurt": 100.0,
          "onAdded": [
            {
              "$type": "SetAnimatorInt",
              "intID": "GrassState",
              "ratio": 200.0
            }
          ]
        },
        "DestoryState": {
          "modifierName": "",
          "bonusCriticalHurt": 100.0,
          "onAdded": [
            {
              "$type": "SetAnimatorInt",
              "intID": "GrassState",
              "ratio": 300.0
            },
            {
              "$type": "ResetAnimatorTrigger",
              "triggerID": "Attack"
            }
          ]
        },
        "PoisonGasLoop": {
          "modifierName": "",
          "bonusCriticalHurt": 100.0,
          "modifierMixins": [
            {
              "$type": "ThinkIntervalMixin",
              "thinkInterval": 0.5,
              "onThinkInterval": [
                {
                  "$type": "TriggerAbility",
                  "abilityName": "SceneObj_Area_Xm_Property_Ani_Prop_XuMiBombmushroom_01_Attack02"
                }
              ]
            }
          ],
          "onAdded": [
            {
              "$type": "DebugLog",
              "content": "TD_Test: Attach PoisonGasLoop!!!!!!!!!!!"
            },
            {
              "$type": "FireEffect",
              "healLimitedByCasterMaxHPRatio": "Eff_SceneObj_XuMiBombmushroom_02",
              "born": {
                "$type": "ConfigBornByAttachPoint",
                "attachPointName": "RootNode"
              },
              "effectTempleteID": -1.0
            },
            {
              "$type": "AttachEffect",
              "healLimitedByCasterMaxHPRatio": "Eff_SceneObj_XuMiBombmushroom_02_Loop",
              "born": {
                "$type": "ConfigBornByAttachPoint",
                "attachPointName": "RootNode"
              },
              "effectTempleteID": -1.0
            },
            {
              "$type": "TriggerAbility",
              "abilityName": "SceneObj_Area_Xm_Property_Ani_Prop_XuMiBombmushroom_01_Attack02"
            }
          ]
        }
      },
      "onAdded": [
        {
          "$type": "SetGlobalValue",
          "ratio": 6.0,
          "key": "GV_ExcitedDuration",
          "maxValue": 0.0,
          "minValue": 0.0
        },
        {
          "$type": "SetGlobalValue",
          "ratio": 2.0,
          "key": "WisdomImpactLevel",
          "maxValue": 0.0,
          "minValue": 0.0
        },
        {
          "$type": "SetGlobalValue",
          "ratio": 1.0,
          "key": "GasCD",
          "maxValue": 0.0,
          "minValue": 0.0
        }
      ]
    }
  },
  {
    "Default": {
      "$type": "ConfigAbility",
      "abilityName": "SceneObj_Area_Xm_Property_Ani_Prop_XuMiBombmushroom_01_Attack01",
      "abilitySpecials": {
        "AvatarDamageValue": 1.5,
        "MonsterDamageValue": 1.5,
        "DamageSystemValue": 1.0
      },
      "modifiers": {
        "PoisonGas01": {
          "stacking": "MultipleRefresh",
          "stackingOption": {
            "abilitySpecialName": "",
            "maxModifierNumForMultipleType": 1.0
          },
          "modifierName": "",
          "bonusCriticalHurt": 100.0,
          "onAdded": [
            {
              "$type": "FireEffect",
              "healLimitedByCasterMaxHPRatio": "Eff_SceneObj_XuMiBombmushroom_01",
              "born": {
                "$type": "ConfigBornByAttachPoint",
                "attachPointName": "ShootPoint"
              },
              "effectTempleteID": -1.0
            }
          ]
        },
        "DelayAttack": {
          "modifierName": "",
          "duration": 0.5,
          "bonusCriticalHurt": 100.0,
          "onRemoved": [
            {
              "$type": "TriggerAttackEvent",
              "attackEvent": {
                "attackPattern": {
                  "$type": "ConfigAttackSphere",
                  "triggerType": "TriggerNoRepeat",
                  "radius": 4.0
                },
                "attackInfo": {
                  "attackTag": "",
                  "attenuationTag": "",
                  "attenuationGroup": "default",
                  "attackProperty": {
                    "damagePercentageRatio": 0.0,
                    "elementType": "Grass",
                    "bonusCriticalHurt": 25.0,
                    "ignoreAttackerProperty": true,
                    "strikeType": "Default",
                    "enBreak": 0.0,
                    "attackType": "Range",
                    "damageExtra": [
                      "AvatarDamageValue",
                      "DamageSystemValue",
                      "MUL"
                    ],
                    "trueDamage": true
                  },
                  "hitPattern": {
                    "onHitEffectName": "default",
                    "hitImpulseType": "LV1"
                  }
                }
              },
              "targetType": "Enemy",
              "entityTypes": ["Avatar"]
            },
            {
              "$type": "TriggerAttackEvent",
              "attackEvent": {
                "attackPattern": {
                  "$type": "ConfigAttackSphere",
                  "triggerType": "TriggerNoRepeat",
                  "radius": 4.0
                },
                "attackInfo": {
                  "attackTag": "",
                  "attenuationTag": "",
                  "attenuationGroup": "default",
                  "attackProperty": {
                    "damagePercentageRatio": 0.0,
                    "elementType": "Grass",
                    "bonusCriticalHurt": 25.0,
                    "ignoreAttackerProperty": true,
                    "strikeType": "Default",
                    "enBreak": 20.0,
                    "attackType": "Range",
                    "damageExtra": [
                      "MonsterDamageValue",
                      "DamageSystemValue",
                      "MUL"
                    ],
                    "trueDamage": true
                  },
                  "hitPattern": {
                    "onHitEffectName": "default",
                    "hitImpulseType": "LV2"
                  }
                }
              },
              "targetType": "Enemy",
              "entityTypes": ["Monster"]
            }
          ]
        }
      },
      "onAdded": [
        {
          "$type": "SetSystemValueToOverrideMap",
          "key": "DamageSystemValue",
          "type": "ElementLevelCo"
        }
      ],
      "onAbilityStart": [
        {
          "$type": "ApplyModifier",
          "modifierName": "PoisonGas01"
        },
        {
          "$type": "ApplyModifier",
          "modifierName": "DelayAttack"
        }
      ]
    }
  },
  {
    "Default": {
      "$type": "ConfigAbility",
      "abilityName": "SceneObj_Area_Xm_Property_Ani_Prop_XuMiBombmushroom_01_Attack02",
      "abilitySpecials": {
        "AvatarDamageValue": 0.4000000059604645,
        "MonsterDamageValue": 0.4000000059604645,
        "DamageSystemValue": 1.0
      },
      "modifiers": {
        "PoisonGas02": {
          "stacking": "MultipleRefresh",
          "stackingOption": {
            "abilitySpecialName": "",
            "maxModifierNumForMultipleType": 1.0
          },
          "modifierName": "",
          "bonusCriticalHurt": 100.0,
          "onAdded": [
            {
              "$type": "TriggerAttackEvent",
              "attackEvent": {
                "attackPattern": {
                  "$type": "ConfigAttackSphere",
                  "triggerType": "TriggerNoRepeat",
                  "radius": 4.0
                },
                "attackInfo": {
                  "attackTag": "",
                  "attenuationTag": "",
                  "attenuationGroup": "default",
                  "attackProperty": {
                    "damagePercentageRatio": 0.0,
                    "elementType": "Grass",
                    "bonusCriticalHurt": 25.0,
                    "ignoreAttackerProperty": true,
                    "strikeType": "Default",
                    "enBreak": 0.0,
                    "attackType": "Range",
                    "damageExtra": [
                      "AvatarDamageValue",
                      "DamageSystemValue",
                      "MUL"
                    ],
                    "trueDamage": true
                  },
                  "hitPattern": {
                    "onHitEffectName": "default",
                    "hitImpulseType": "LV1"
                  }
                }
              },
              "targetType": "Enemy",
              "entityTypes": ["Avatar"]
            },
            {
              "$type": "TriggerAttackEvent",
              "attackEvent": {
                "attackPattern": {
                  "$type": "ConfigAttackSphere",
                  "triggerType": "TriggerNoRepeat",
                  "radius": 4.0
                },
                "attackInfo": {
                  "attackTag": "",
                  "attenuationTag": "",
                  "attenuationGroup": "default",
                  "attackProperty": {
                    "damagePercentageRatio": 0.0,
                    "elementType": "Grass",
                    "bonusCriticalHurt": 25.0,
                    "ignoreAttackerProperty": true,
                    "strikeType": "Default",
                    "enBreak": 20.0,
                    "attackType": "Range",
                    "damageExtra": [
                      "MonsterDamageValue",
                      "DamageSystemValue",
                      "MUL"
                    ],
                    "trueDamage": true
                  },
                  "hitPattern": {
                    "onHitEffectName": "default",
                    "hitImpulseType": "LV2"
                  }
                }
              },
              "targetType": "Enemy",
              "entityTypes": ["Monster"]
            }
          ]
        }
      },
      "onAdded": [
        {
          "$type": "SetSystemValueToOverrideMap",
          "key": "DamageSystemValue",
          "type": "ElementLevelCo"
        }
      ],
      "onAbilityStart": [
        {
          "$type": "ApplyModifier",
          "modifierName": "PoisonGas02"
        }
      ]
    }
  },
  {
    "Default": {
      "$type": "ConfigAbility",
      "abilityName": "SceneObj_Area_Xm_Property_Ani_Prop_XuMiLifeMushroom_01_Ability",
      "abilityMixins": [
        {
          "$type": "AttachModifierToSelfGlobalValueNoInitMixin",
          "globalValueKey": "GrassState",
          "valueSteps": [10.0, 210.0],
          "modifierNameSteps": ["ExcitedState"]
        }
      ],
      "modifiers": {
        "ExcitedState": {
          "modifierName": "",
          "bonusCriticalHurt": 100.0,
          "onAdded": [
            {
              "$type": "AttachEffect",
              "healLimitedByCasterMaxHPRatio": "Eff_SceneObj_XuMiLifeMushroom_01",
              "effectTempleteID": -1.0
            }
          ]
        }
      },
      "onAdded": [
        {
          "$type": "SetGlobalValue",
          "ratio": 10.0,
          "key": "GV_ExcitedDuration",
          "maxValue": 0.0,
          "minValue": 0.0
        },
        {
          "$type": "SetGlobalValue",
          "ratio": 1.0,
          "key": "WisdomImpactLevel",
          "maxValue": 0.0,
          "minValue": 0.0
        }
      ]
    }
  },
  {
    "Default": {
      "$type": "ConfigAbility",
      "abilityName": "SceneObj_Area_Xm_Property_Ani_Prop_XuMiRisingShitou_01_Ability",
      "abilityMixins": [
        {
          "$type": "AttachModifierToSelfGlobalValueNoInitMixin",
          "globalValueKey": "GrassState",
          "valueSteps": [-10.0, 10.0, 210.0, 310.0],
          "modifierNameSteps": ["NormalState", "ExcitedState", "DestoryState"]
        },
        {
          "$type": "AttachToStateIDMixin",
          "stateIDs": ["HasHitBox"],
          "modifierName": "State_HasHitBox"
        },
        {
          "$type": "AttachToStateIDMixin",
          "stateIDs": ["NoHitBox"],
          "modifierName": "State_NoHitBox"
        },
        {
          "$type": "AttachToNormalizedTimeMixin",
          "stateID": "NtoW",
          "modifierName": "HitAll",
          "normalizeStart": 0.5,
          "normalizeEnd": 0.75
        }
      ],
      "abilitySpecials": {
        "ElementLevelCo": 1.0,
        "DamageRatio": 1.0
      },
      "modifiers": {
        "HitAll": {
          "modifierName": "",
          "duration": 0.30000001192092896,
          "bonusCriticalHurt": 100.0,
          "onAdded": [
            {
              "$type": "TriggerAttackEvent",
              "attackEvent": {
                "attackPattern": {
                  "$type": "ConfigAttackSphere",
                  "triggerType": "TriggerNoRepeat",
                  "born": {
                    "$type": "ConfigBornBySelf",
                    "offset": {
                      "x": 0.0,
                      "y": 1.0,
                      "z": 0.0
                    }
                  },
                  "radius": 2.5
                },
                "attackInfo": {
                  "attackTag": "",
                  "attenuationTag": "",
                  "attenuationGroup": "default",
                  "attackProperty": {
                    "damagePercentage": 0.0,
                    "damagePercentageRatio": 0.0,
                    "bonusCriticalHurt": 100.0,
                    "strikeType": "Pierce",
                    "enBreak": 200.0,
                    "attackType": "Range",
                    "ignoreLevelDiff": true
                  },
                  "hitPattern": {
                    "onHitEffectName": "default",
                    "hitImpulseType": "LV4",
                    "hitHaltTimeScale": 0.05000000074505806
                  }
                }
              },
              "targetType": "AllExceptSelf"
            }
          ]
        },
        "NormalState": {
          "modifierName": "",
          "bonusCriticalHurt": 100.0,
          "onAdded": [
            {
              "$type": "SetAnimatorInt",
              "intID": "gadgetState",
              "ratio": 0.0
            },
            {
              "$type": "EnableSceneTransformByName",
              "transformNames": ["Collider0"]
            },
            {
              "$type": "EnableSceneTransformByName",
              "transformNames": ["Collider200"]
            },
            {
              "$type": "EnableSceneTransformByName",
              "transformNames": ["Collider300"]
            }
          ]
        },
        "ExcitedState": {
          "modifierName": "",
          "bonusCriticalHurt": 100.0,
          "onAdded": [
            {
              "$type": "SetAnimatorInt",
              "intID": "gadgetState",
              "ratio": 200.0
            },
            {
              "$type": "EnableSceneTransformByName",
              "transformNames": ["Collider0"]
            },
            {
              "$type": "EnableSceneTransformByName",
              "transformNames": ["Collider200"]
            },
            {
              "$type": "EnableSceneTransformByName",
              "transformNames": ["Collider300"]
            }
          ]
        },
        "DestoryState": {
          "modifierName": "",
          "bonusCriticalHurt": 100.0,
          "onAdded": [
            {
              "$type": "SetAnimatorInt",
              "intID": "gadgetState",
              "ratio": 300.0
            },
            {
              "$type": "EnableSceneTransformByName",
              "transformNames": ["Collider0"]
            },
            {
              "$type": "EnableSceneTransformByName",
              "transformNames": ["Collider200"]
            },
            {
              "$type": "EnableSceneTransformByName",
              "transformNames": ["Collider300"]
            }
          ]
        },
        "State_HasHitBox": {
          "modifierName": "",
          "bonusCriticalHurt": 100.0,
          "onAdded": [
            {
              "$type": "EnableSceneTransformByName",
              "predicates": [
                {
                  "$type": "ByTargetGlobalValue",
                  "key": "GrassState",
                  "ratio": 0.0
                }
              ],
              "transformNames": ["Collider0"],
              "setEnable": true
            },
            {
              "$type": "EnableSceneTransformByName",
              "predicates": [
                {
                  "$type": "ByTargetGlobalValue",
                  "key": "GrassState",
                  "ratio": 200.0
                }
              ],
              "transformNames": ["Collider200"],
              "setEnable": true
            },
            {
              "$type": "EnableSceneTransformByName",
              "predicates": [
                {
                  "$type": "ByTargetGlobalValue",
                  "key": "GrassState",
                  "ratio": 300.0,
                  "compareType": "MoreThanAndEqual"
                }
              ],
              "transformNames": ["Collider300"],
              "setEnable": true
            },
            {
              "$type": "EnableHitBoxByName",
              "predicates": [
                {
                  "$type": "ByTargetGlobalValue",
                  "key": "GrassState",
                  "ratio": 0.0
                }
              ],
              "hitBoxNames": ["HitBox0"],
              "setEnable": true
            },
            {
              "$type": "EnableHitBoxByName",
              "predicates": [
                {
                  "$type": "ByTargetGlobalValue",
                  "key": "GrassState",
                  "ratio": 200.0
                }
              ],
              "hitBoxNames": ["HitBox200"],
              "setEnable": true
            },
            {
              "$type": "EnableHitBoxByName",
              "predicates": [
                {
                  "$type": "ByTargetGlobalValue",
                  "key": "GrassState",
                  "ratio": 300.0,
                  "compareType": "MoreThanAndEqual"
                }
              ],
              "hitBoxNames": ["HitBox300"],
              "setEnable": true
            }
          ]
        },
        "State_NoHitBox": {
          "modifierName": "",
          "bonusCriticalHurt": 100.0,
          "modifierMixins": [
            {
              "$type": "ChangeColliderTagMixin",
              "transName": "Collider0",
              "tag": "Airwall"
            },
            {
              "$type": "ChangeColliderTagMixin",
              "transName": "Collider200",
              "tag": "Airwall"
            },
            {
              "$type": "ChangeColliderTagMixin",
              "transName": "Collider300",
              "tag": "Airwall"
            }
          ],
          "onAdded": [
            {
              "$type": "EnableHitBoxByName",
              "hitBoxNames": ["HitBox0"]
            },
            {
              "$type": "EnableHitBoxByName",
              "hitBoxNames": ["HitBox200"]
            },
            {
              "$type": "EnableHitBoxByName",
              "hitBoxNames": ["HitBox300"]
            }
          ]
        }
      },
      "onAdded": [
        {
          "$type": "SetGlobalValue",
          "ratio": 10.0,
          "key": "GV_ExcitedDuration",
          "maxValue": 0.0,
          "minValue": 0.0
        },
        {
          "$type": "SetGlobalValue",
          "ratio": 3.0,
          "key": "WisdomImpactLevel",
          "maxValue": 0.0,
          "minValue": 0.0
        },
        {
          "$type": "ApplyModifier",
          "predicates": [
            {
              "$type": "ByAny",
              "predicates": [
                {
                  "$type": "MCODPFDFBAF",
                  "target": "Self",
                  "gadgetState": 202
                },
                {
                  "$type": "MCODPFDFBAF",
                  "target": "Self",
                  "gadgetState": 300
                },
                {
                  "$type": "MCODPFDFBAF",
                  "target": "Self",
                  "gadgetState": 301
                }
              ]
            }
          ],
          "modifierName": "HitAll"
        }
      ]
    }
  },
  {
    "Default": {
      "$type": "ConfigAbility",
      "abilityName": "SceneObj_Area_Xm_Property_Ani_Prop_LotusLeaf_01_Ability",
      "abilityMixins": [
        {
          "$type": "AttachModifierToSelfGlobalValueNoInitMixin",
          "globalValueKey": "GrassState",
          "valueSteps": [-10.0, 10.0, 210.0, 310.0],
          "modifierNameSteps": ["NormalState", "ExcitedState", "DestoryState"]
        },
        {
          "$type": "DoActionOnGlobalValueChangeMixin",
          "globalValueKey": "GrassState",
          "actions": [
            {
              "$type": "FireEffect",
              "healLimitedByCasterMaxHPRatio": "Eff_Monster_Slime_Grass_JumpPrepared",
              "effectTempleteID": -1.0
            }
          ]
        }
      ],
      "modifiers": {
        "NormalState": {
          "modifierName": "",
          "bonusCriticalHurt": 100.0,
          "onAdded": [
            {
              "$type": "SetAnimatorInt",
              "intID": "gadgetState",
              "ratio": 0.0
            },
            {
              "$type": "SetAnimatorInt",
              "intID": "platformState",
              "ratio": 0.0
            },
            {
              "$type": "SetMaterialParamFloatByTransform",
              "canBeHandledOnRecover": true,
              "matName": "Conversion",
              "patternName": "_ConversionSpread",
              "ratio": 0.0,
              "HLDHDOKLCHI": true,
              "FBGLLFJHKJJ": 1.0
            }
          ]
        },
        "ExcitedState": {
          "modifierName": "",
          "bonusCriticalHurt": 100.0,
          "onAdded": [
            {
              "$type": "SetAnimatorInt",
              "intID": "gadgetState",
              "ratio": 200.0
            },
            {
              "$type": "SetAnimatorInt",
              "intID": "platformState",
              "ratio": 1.0
            },
            {
              "$type": "SetMaterialParamFloatByTransform",
              "canBeHandledOnRecover": true,
              "matName": "Conversion",
              "patternName": "_ConversionSpread",
              "ratio": 2.0,
              "HLDHDOKLCHI": true,
              "FBGLLFJHKJJ": 1.0
            }
          ]
        },
        "DestoryState": {
          "modifierName": "",
          "bonusCriticalHurt": 100.0,
          "onAdded": [
            {
              "$type": "SetAnimatorInt",
              "intID": "gadgetState",
              "ratio": 300.0
            },
            {
              "$type": "SetAnimatorInt",
              "intID": "platformState",
              "ratio": 0.0
            },
            {
              "$type": "SetMaterialParamFloatByTransform",
              "canBeHandledOnRecover": true,
              "matName": "Conversion",
              "patternName": "_ConversionSpread",
              "ratio": -2.0,
              "HLDHDOKLCHI": true,
              "FBGLLFJHKJJ": 1.0
            }
          ]
        }
      },
      "onAdded": [
        {
          "$type": "SetGlobalValue",
          "ratio": 10.0,
          "key": "GV_ExcitedDuration",
          "maxValue": 0.0,
          "minValue": 0.0
        },
        {
          "$type": "SetGlobalValue",
          "ratio": 2.0,
          "key": "WisdomImpactLevel",
          "maxValue": 0.0,
          "minValue": 0.0
        }
      ]
    }
  },
  {
    "Default": {
      "$type": "ConfigAbility",
      "abilityName": "SceneObj_Area_Xm_Property_Ani_Prop_JumpMushroom_01_Ability",
      "abilityMixins": [
        {
          "$type": "AttachModifierToSelfGlobalValueNoInitMixin",
          "globalValueKey": "GrassState",
          "valueSteps": [-10.0, 10.0, 210.0, 310.0],
          "modifierNameSteps": ["NormalState", "ExcitedState", "DestoryState"]
        }
      ],
      "modifiers": {
        "NormalState": {
          "modifierName": "",
          "bonusCriticalHurt": 100.0,
          "modifierMixins": [
            {
              "$type": "SetTrampolineAbilityMixin",
              "abilityName": "Avatar_Trampoline_Jump_Controller",
              "EHKENKGOAMH": false,
              "BJBODKLJKED": ""
            }
          ],
          "onAdded": [
            {
              "$type": "SetAnimatorInt",
              "intID": "gadgetState",
              "ratio": 0.0
            }
          ]
        },
        "ExcitedState": {
          "modifierName": "",
          "bonusCriticalHurt": 100.0,
          "modifierMixins": [
            {
              "$type": "SetTrampolineAbilityMixin",
              "abilityName": "Avatar_Trampoline_Jump_Controller",
              "BJBODKLJKED": ""
            }
          ],
          "onAdded": [
            {
              "$type": "SetAnimatorInt",
              "intID": "gadgetState",
              "ratio": 200.0
            }
          ]
        },
        "DestoryState": {
          "modifierName": "",
          "bonusCriticalHurt": 100.0,
          "modifierMixins": [
            {
              "$type": "DisableTrampolineMixin"
            }
          ],
          "onAdded": [
            {
              "$type": "SetAnimatorInt",
              "intID": "gadgetState",
              "ratio": 300.0
            }
          ]
        }
      },
      "onAdded": [
        {
          "$type": "SetGlobalValue",
          "ratio": 10.0,
          "key": "GV_ExcitedDuration",
          "maxValue": 0.0,
          "minValue": 0.0
        },
        {
          "$type": "SetGlobalValue",
          "ratio": 2.0,
          "key": "WisdomImpactLevel",
          "maxValue": 0.0,
          "minValue": 0.0
        }
      ]
    }
  },
  {
    "Default": {
      "$type": "ConfigAbility",
      "abilityName": "SceneObj_Area_Xm_Property_Ani_Prop_Lens_01_Ability",
      "abilityMixins": [
        {
          "$type": "AttachModifierToSelfGlobalValueNoInitMixin",
          "globalValueKey": "GrassState",
          "valueSteps": [-10.0, 10.0, 210.0, 310.0],
          "modifierNameSteps": ["NormalState", "ExcitedState", "DestoryState"]
        }
      ],
      "modifiers": {
        "AttachLensEffect": {
          "modifierName": "",
          "bonusCriticalHurt": 100.0,
          "onAdded": [
            {
              "$type": "AttachEffect",
              "healLimitedByCasterMaxHPRatio": "Eff_SceneObj_Lens_01",
              "born": {
                "$type": "ConfigBornByAttachPoint",
                "attachPointName": "LensPoint"
              },
              "effectTempleteID": -1.0
            }
          ]
        },
        "NormalState": {
          "modifierName": "",
          "bonusCriticalHurt": 100.0,
          "onAdded": [
            {
              "$type": "EnableGadgetInteeMp",
              "enable": true
            },
            {
              "$type": "SendEffectTrigger",
              "parameter": "GadgetState",
              "EBBHBMFMOGD": "",
              "type": "Int",
              "healLimitedByCasterMaxHPRatio": "Eff_SceneObj_Lens_01"
            },
            {
              "$type": "AttachModifier",
              "modifierName": "UNIQUE_LensInteract_Smoke"
            },
            {
              "$type": "SetMaterialParamFloatByTransform",
              "matName": "Mat_Lens",
              "patternName": "_ConversionStateChange",
              "ratio": 0.0,
              "HLDHDOKLCHI": true,
              "NKFPDCCIPCN": 1,
              "FBGLLFJHKJJ": 1.0
            }
          ]
        },
        "ExcitedState": {
          "modifierName": "",
          "bonusCriticalHurt": 100.0,
          "onAdded": [
            {
              "$type": "EnableGadgetInteeMp",
              "enable": true
            },
            {
              "$type": "SendEffectTrigger",
              "parameter": "GadgetState",
              "EBBHBMFMOGD": "",
              "type": "Int",
              "value": 201,
              "healLimitedByCasterMaxHPRatio": "Eff_SceneObj_Lens_01"
            },
            {
              "$type": "AttachEffect",
              "healLimitedByCasterMaxHPRatio": "Eff_SceneObj_Lens_03",
              "born": {
                "$type": "ConfigBornByAttachPoint",
                "attachPointName": "LensPoint"
              },
              "effectTempleteID": -1.0
            },
            {
              "$type": "SetMaterialParamFloatByTransform",
              "matName": "Mat_Lens",
              "patternName": "_ConversionStateChange",
              "ratio": 2.0,
              "HLDHDOKLCHI": true,
              "NKFPDCCIPCN": 1,
              "FBGLLFJHKJJ": 1.0
            },
            {
              "$type": "AttachModifier",
              "modifierName": "UNIQUE_LensInteract_Aranara"
            }
          ],
          "onRemoved": [
            {
              "$type": "FireEffect",
              "predicates": [
                {
                  "$type": "ByTargetGlobalValue",
                  "key": "GrassState",
                  "ratio": 0.0
                },
                {
                  "$type": "ByTargetGlobalValue",
                  "key": "GV_Lens_Open_Excited",
                  "ratio": 0.0
                }
              ],
              "healLimitedByCasterMaxHPRatio": "Eff_SceneObj_Lens_04",
              "born": {
                "$type": "ConfigBornByAttachPoint",
                "attachPointName": "LensPoint"
              },
              "effectTempleteID": -1.0
            }
          ]
        },
        "DestoryState": {
          "modifierName": "",
          "bonusCriticalHurt": 100.0,
          "onAdded": [
            {
              "$type": "EnableGadgetInteeMp"
            },
            {
              "$type": "SendEffectTrigger",
              "parameter": "GadgetState",
              "EBBHBMFMOGD": "",
              "type": "Int",
              "value": 301,
              "healLimitedByCasterMaxHPRatio": "Eff_SceneObj_Lens_01"
            },
            {
              "$type": "AttachEffect",
              "healLimitedByCasterMaxHPRatio": "Eff_SceneObj_Lens_05",
              "born": {
                "$type": "ConfigBornByAttachPoint",
                "attachPointName": "LensPoint"
              },
              "effectTempleteID": -1.0
            },
            {
              "$type": "SetMaterialParamFloatByTransform",
              "matName": "Mat_Lens",
              "patternName": "_ConversionStateChange",
              "ratio": -1.0,
              "HLDHDOKLCHI": true,
              "NKFPDCCIPCN": 1,
              "FBGLLFJHKJJ": 1.0
            }
          ],
          "onRemoved": [
            {
              "$type": "FireEffect",
              "healLimitedByCasterMaxHPRatio": "Eff_SceneObj_Lens_02",
              "born": {
                "$type": "ConfigBornByAttachPoint",
                "attachPointName": "LensPoint"
              },
              "effectTempleteID": -1.0
            }
          ]
        },
        "UNIQUE_LensInteract_Smoke": {
          "stacking": "Unique",
          "modifierName": "",
          "isUnique": true,
          "bonusCriticalHurt": 100.0,
          "modifierMixins": [
            {
              "$type": "UIInteractMixin",
              "PCLPONGKABC": "OpenPage",
              "actionList": [
                {
                  "$type": "DebugLog",
                  "content": "#DeathZoneLens# open page-smoke"
                }
              ]
            },
            {
              "$type": "UIInteractMixin",
              "PCLPONGKABC": "ClosePage",
              "actionList": [
                {
                  "$type": "ExecuteGadgetLua",
                  "otherTargets": {
                    "$type": "IDODCGJLHAE",
                    "operation": "AND"
                  },
                  "predicatesForeach": [
                    {
                      "$type": "MCODPFDFBAF",
                      "gadgetState": 201
                    }
                  ]
                },
                {
                  "$type": "Predicated",
                  "targetPredicates": [
                    {
                      "$type": "ByTargetGlobalValue",
                      "key": "GV_Lens_Open_Excited",
                      "ratio": 1.0
                    }
                  ],
                  "successActions": [
                    {
                      "$type": "ServerLuaCall",
                      "luaCallType": "FromGroup",
                      "funcName": "SLC_Lens_Closed_Excited",
                      "MPPMFEDKGHC": 0.0,
                      "BOKNHLDBKKK": 0.0,
                      "CHOIIMHDNHK": 0.0
                    },
                    {
                      "$type": "SetGlobalValue",
                      "ratio": 0.0,
                      "key": "GV_Lens_Open_Excited",
                      "maxValue": 0.0,
                      "minValue": 0.0
                    }
                  ]
                }
              ]
            }
          ]
        },
        "UNIQUE_LensInteract_Aranara": {
          "stacking": "Unique",
          "modifierName": "",
          "isUnique": true,
          "bonusCriticalHurt": 100.0,
          "modifierMixins": [
            {
              "$type": "UIInteractMixin",
              "PCLPONGKABC": "OpenPage",
              "actionList": [
                {
                  "$type": "SetGlobalValue",
                  "ratio": 1.0,
                  "key": "GV_Lens_Open_Excited",
                  "maxValue": 0.0,
                  "minValue": 0.0
                },
                {
                  "$type": "ExecuteGadgetLua",
                  "otherTargets": {
                    "$type": "IDODCGJLHAE",
                    "operation": "AND"
                  },
                  "predicatesForeach": [
                    {
                      "$type": "MCODPFDFBAF"
                    }
                  ],
                  "param1": 201
                },
                {
                  "$type": "DebugLog",
                  "content": "#DeathZoneLens# open page-anarana"
                }
              ]
            },
            {
              "$type": "UIInteractMixin",
              "PCLPONGKABC": "ClosePage",
              "actionList": [
                {
                  "$type": "ExecuteGadgetLua",
                  "otherTargets": {
                    "$type": "IDODCGJLHAE",
                    "operation": "AND"
                  },
                  "predicatesForeach": [
                    {
                      "$type": "MCODPFDFBAF",
                      "gadgetState": 201
                    }
                  ]
                },
                {
                  "$type": "Predicated",
                  "targetPredicates": [
                    {
                      "$type": "ByTargetGlobalValue",
                      "key": "GV_Lens_Open_Excited",
                      "ratio": 1.0
                    }
                  ],
                  "successActions": [
                    {
                      "$type": "ServerLuaCall",
                      "luaCallType": "FromGroup",
                      "funcName": "SLC_Lens_Closed_Excited",
                      "MPPMFEDKGHC": 0.0,
                      "BOKNHLDBKKK": 0.0,
                      "CHOIIMHDNHK": 0.0
                    },
                    {
                      "$type": "SetGlobalValue",
                      "ratio": 0.0,
                      "key": "GV_Lens_Open_Excited",
                      "maxValue": 0.0,
                      "minValue": 0.0
                    }
                  ]
                },
                {
                  "$type": "DebugLog",
                  "content": "#DeathZoneLens# close page-anarana"
                }
              ]
            }
          ]
        },
        "UNIQUE_FindSmokeInGroup": {
          "stacking": "Unique",
          "modifierName": "",
          "isUnique": true,
          "duration": 1.0,
          "bonusCriticalHurt": 100.0,
          "onAdded": [
            {
              "$type": "ExecuteGadgetLua",
              "otherTargets": {
                "$type": "IDODCGJLHAE",
                "operation": "AND",
                "value": 1
              },
              "predicatesForeach": [
                {
                  "$type": "MCODPFDFBAF"
                }
              ],
              "param1": 901
            }
          ]
        }
      },
      "onAdded": [
        {
          "$type": "SetGlobalValue",
          "ratio": 10.0,
          "key": "GV_ExcitedDuration",
          "maxValue": 0.0,
          "minValue": 0.0
        },
        {
          "$type": "SetGlobalValue",
          "ratio": 1.0,
          "key": "WisdomImpactLevel",
          "maxValue": 0.0,
          "minValue": 0.0
        },
        {
          "$type": "SetGlobalValue",
          "ratio": 0.0,
          "key": "GV_Lens_Open_Excited",
          "maxValue": 0.0,
          "minValue": 0.0
        }
      ],
      "onFieldEnter": [
        {
          "$type": "Predicated",
          "target": "Target",
          "targetPredicates": [
            {
              "$type": "IFCLFFFHCPN",
              "ONBJPLCDDGP": true
            }
          ],
          "successActions": [
            {
              "$type": "ServerLuaCall",
              "target": "Caster",
              "luaCallType": "FromGroup",
              "funcName": "SLC_Player_Approach_Self",
              "MPPMFEDKGHC": 0.0,
              "BOKNHLDBKKK": 0.0,
              "CHOIIMHDNHK": 0.0
            }
          ]
        }
      ]
    }
  }
]
