[
  {
    "Default": {
      "$type": "ConfigAbility",
      "abilityName": "Vehicle_Skiff_Normal_01",
      "abilityMixins": [
        {
          "$type": "AttachToStateIDMixin",
          "stateIDs": ["Sprint"],
          "modifierName": "UNIQUE_Skiff_Sprint_Handler"
        },
        {
          "$type": "AttachModifierToSelfGlobalValueMixin",
          "globalValueKey": "_ABILITY_Skiff_POStProcessEffect_Mark",
          "defaultGlobalValueOnCreate": 0.0,
          "valueSteps": [-0.5, 0.5, 5.5],
          "modifierNameSteps": [
            "Blank",
            "UNIQUE_Skiff_Sprint_PostProcessEffect"
          ]
        }
      ],
      "modifiers": {
        "UNIQUE_Skiff_Sprint_Handler": {
          "stacking": "Unique",
          "modifierName": "",
          "isUnique": true,
          "bonusCriticalHurt": 100.0,
          "onAdded": [
            {
              "$type": "CreateGadget",
              "lifeByOwnerIsAlive": true,
              "born": {
                "$type": "ConfigBornBySelf"
              },
              "gadgetID": 70350276,
              "campID": 1001,
              "campTargetType": "Enemy"
            },
            {
              "$type": "ActCameraRadialBlur",
              "cameraRadialBlur": {
                "power": 0.6000000238418579,
                "blurTime": 0.20000000298023224,
                "fadeTime": 0.20000000298023224
              }
            },
            {
              "$type": "AttachEffect",
              "healLimitedByCasterMaxHPRatio": "Eff_Skiff_Normal_Sprint_Loop_01",
              "effectTempleteID": -1.0
            },
            {
              "$type": "AttachEffect",
              "healLimitedByCasterMaxHPRatio": "Eff_Skiff_Normal_Sprint_Loop_02",
              "effectTempleteID": -1.0
            },
            {
              "$type": "AddGlobalValue",
              "ratio": 1.0,
              "key": "_ABILITY_Skiff_POStProcessEffect_Mark",
              "useLimitRange": true,
              "maxValue": 5.0,
              "minValue": 0.0
            }
          ],
          "onRemoved": [
            {
              "$type": "KillGadget",
              "gadgetInfo": {
                "configID": 70350276
              }
            },
            {
              "$type": "AddGlobalValue",
              "ratio": -1.0,
              "key": "_ABILITY_Skiff_POStProcessEffect_Mark",
              "useLimitRange": true,
              "maxValue": 5.0,
              "minValue": 0.0
            }
          ],
          "onKill": [
            {
              "$type": "KillGadget",
              "RotationDampTime": true,
              "gadgetInfo": {
                "configID": 70350276
              }
            }
          ]
        },
        "UNIQUE_Skiff_Sprint_PostProcessEffect": {
          "stacking": "Unique",
          "modifierName": "",
          "isUnique": true,
          "bonusCriticalHurt": 100.0,
          "modifierMixins": [
            {
              "$type": "TriggerPostProcessEffectMixin",
              "postEffectAssetName": "PostEffect_Skiff_Sprint",
              "duration": 0.0
            }
          ]
        },
        "UNIQUE_Skiff_MuteIce": {
          "stacking": "Unique",
          "modifierName": "",
          "isUnique": true,
          "bonusCriticalHurt": 100.0,
          "thinkInterval": 0.5,
          "onThinkInterval": [
            {
              "$type": "TriggerAttackEvent",
              "attackEvent": {
                "attackPattern": {
                  "$type": "ConfigAttackBox",
                  "triggerType": "TriggerNoRepeat",
                  "MJLCPIAKNCP": "OnlyHitMassiveEntity",
                  "born": {
                    "$type": "ConfigBornBySelf",
                    "offset": {
                      "x": 0.0,
                      "y": 0.0,
                      "z": -3.299999952316284
                    }
                  },
                  "size": {
                    "x": 5.0,
                    "y": 4.0,
                    "z": 8.0
                  }
                },
                "attackInfo": {
                  "attackTag": "",
                  "attenuationTag": "",
                  "attenuationGroup": "default",
                  "attackProperty": {
                    "damagePercentage": 0.0,
                    "damagePercentageRatio": 0.0,
                    "elementType": "VehicleMuteIce",
                    "bonusCriticalHurt": 10.0,
                    "enBreak": 0.0
                  },
                  "hitPattern": {
                    "onHitEffectName": "none",
                    "hitImpulseType": "LV0",
                    "retreatType": "ByHitDirection",
                    "muteHitText": true
                  }
                }
              },
              "targetType": "Enemy"
            }
          ]
        },
        "Blank": {
          "modifierName": "",
          "bonusCriticalHurt": 100.0
        }
      },
      "onAdded": [
        {
          "$type": "FireEffect",
          "healLimitedByCasterMaxHPRatio": "Eff_Skiff_Normal_Born",
          "effectTempleteID": -1.0
        },
        {
          "$type": "AttachAbilityStateResistance",
          "resistanceListID": 15001
        },
        {
          "$type": "AttachAbilityStateResistance",
          "resistanceListID": 15002
        },
        {
          "$type": "AttachModifier",
          "modifierName": "UNIQUE_Skiff_MuteIce"
        },
        {
          "$type": "AttachEffect",
          "healLimitedByCasterMaxHPRatio": "Eff_Skiff_Normal_EnergyHalo_01",
          "effectTempleteID": -1.0
        },
        {
          "$type": "AttachEffect",
          "healLimitedByCasterMaxHPRatio": "Eff_Skiff_Normal_EnergyHalo_02",
          "effectTempleteID": -1.0
        },
        {
          "$type": "SetGlobalValue",
          "ratio": 0.0,
          "key": "_ABILITY_Skiff_SprintMark",
          "maxValue": 0.0,
          "minValue": 0.0
        }
      ]
    }
  },
  {
    "Default": {
      "$type": "ConfigAbility",
      "abilityName": "Vehicle_Skiff_AutoHeal",
      "abilityMixins": [
        {
          "$type": "AttachModifierToSelfGlobalValueMixin",
          "globalValueKey": "_ABILITY_Skiff_AutoHeal_Count",
          "defaultGlobalValueOnCreate": 0.0,
          "valueSteps": [0.5, 4.5, 5.5],
          "modifierNameSteps": ["Blank", "UNIQUE_Skiff_AutoHeal_Interval"]
        }
      ],
      "modifiers": {
        "UNIQUE_Skiff_AutoHeal_Handler": {
          "stacking": "Unique",
          "modifierName": "",
          "isUnique": true,
          "bonusCriticalHurt": 100.0,
          "thinkInterval": 1.0,
          "modifierMixins": [
            {
              "$type": "DoActionByEventMixin",
              "type": "Current",
              "onEvent": "HPDown",
              "actions": [
                {
                  "$type": "SetGlobalValue",
                  "ratio": 0.0,
                  "key": "_ABILITY_Skiff_AutoHeal_Count",
                  "maxValue": 0.0,
                  "minValue": 0.0
                },
                {
                  "$type": "SetAnimatorTrigger",
                  "triggerID": "Shake_Heavy"
                },
                {
                  "$type": "DebugLog",
                  "content": "!!!!!!!!!!!HPDown!!!!!!!!!!"
                }
              ],
              "FHIACPHKPOP": ""
            }
          ],
          "onBeingHit": [
            {
              "$type": "Predicated",
              "target": "Other",
              "targetPredicates": [
                {
                  "$type": "BKKNINKONEL",
                  "BOJCAKJDAKM": 0.0
                }
              ],
              "successActions": [
                {
                  "$type": "SetGlobalValue",
                  "ratio": 0.0,
                  "key": "_ABILITY_Skiff_AutoHeal_Count",
                  "maxValue": 0.0,
                  "minValue": 0.0
                },
                {
                  "$type": "SetAnimatorTrigger",
                  "triggerID": "Shake_Heavy"
                }
              ]
            }
          ],
          "onThinkInterval": [
            {
              "$type": "AddGlobalValue",
              "ratio": 1.0,
              "key": "_ABILITY_Skiff_AutoHeal_Count",
              "useLimitRange": true,
              "maxValue": 5.0,
              "minValue": 0.0
            }
          ]
        },
        "UNIQUE_Skiff_AutoHeal_Interval": {
          "stacking": "Unique",
          "modifierName": "",
          "isUnique": true,
          "bonusCriticalHurt": 100.0,
          "thinkInterval": 2.0,
          "onAdded": [
            {
              "$type": "HealHP",
              "predicates": [
                {
                  "$type": "GMGEIHHLMCO",
                  "logic": "Lesser",
                  "KONBGFMBNDO": 1.0
                },
                {
                  "$type": "ByTargetGlobalValue",
                  "key": "_ABILITY_Skiff_AvatarIn_Mark",
                  "ratio": 1.0
                }
              ],
              "amountByCasterMaxHPRatio": 0.05000000074505806
            },
            {
              "$type": "HealHP",
              "predicates": [
                {
                  "$type": "GMGEIHHLMCO",
                  "logic": "Lesser",
                  "KONBGFMBNDO": 1.0
                },
                {
                  "$type": "ByTargetGlobalValue",
                  "key": "_ABILITY_Skiff_AvatarIn_Mark",
                  "ratio": 0.0,
                  "compareType": "NoneOrEqual"
                }
              ],
              "amountByCasterMaxHPRatio": 0.006500000134110451
            },
            {
              "$type": "FireEffect",
              "predicates": [
                {
                  "$type": "GMGEIHHLMCO",
                  "logic": "Lesser",
                  "KONBGFMBNDO": 1.0
                }
              ],
              "healLimitedByCasterMaxHPRatio": "Eff_Skiff_Normal_Heal",
              "effectTempleteID": -1.0
            }
          ],
          "onThinkInterval": [
            {
              "$type": "HealHP",
              "predicates": [
                {
                  "$type": "GMGEIHHLMCO",
                  "logic": "Lesser",
                  "KONBGFMBNDO": 1.0
                },
                {
                  "$type": "ByTargetGlobalValue",
                  "key": "_ABILITY_Skiff_AvatarIn_Mark",
                  "ratio": 1.0
                }
              ],
              "amountByCasterMaxHPRatio": 0.05000000074505806
            },
            {
              "$type": "HealHP",
              "predicates": [
                {
                  "$type": "GMGEIHHLMCO",
                  "logic": "Lesser",
                  "KONBGFMBNDO": 1.0
                },
                {
                  "$type": "ByTargetGlobalValue",
                  "key": "_ABILITY_Skiff_AvatarIn_Mark",
                  "ratio": 0.0,
                  "compareType": "NoneOrEqual"
                }
              ],
              "amountByCasterMaxHPRatio": 0.006500000134110451
            },
            {
              "$type": "FireEffect",
              "predicates": [
                {
                  "$type": "GMGEIHHLMCO",
                  "logic": "Lesser",
                  "KONBGFMBNDO": 1.0
                }
              ],
              "healLimitedByCasterMaxHPRatio": "Eff_Skiff_Normal_Heal",
              "effectTempleteID": -1.0
            }
          ]
        },
        "Blank": {
          "modifierName": "",
          "bonusCriticalHurt": 100.0
        }
      },
      "onAdded": [
        {
          "$type": "SetGlobalValue",
          "ratio": 0.0,
          "key": "_ABILITY_Skiff_AutoHeal_Count",
          "maxValue": 0.0,
          "minValue": 0.0
        },
        {
          "$type": "AttachModifier",
          "modifierName": "UNIQUE_Skiff_AutoHeal_Handler"
        }
      ]
    }
  },
  {
    "Default": {
      "$type": "ConfigAbility",
      "abilityName": "Vehicle_Skiff_TestAbility",
      "modifiers": {
        "UNIQUE_Skiff_Test_Invincible": {
          "stacking": "Unique",
          "modifierName": "",
          "isUnique": true,
          "bonusCriticalHurt": 100.0,
          "state": "Invincible"
        }
      },
      "onAbilityStart": [
        {
          "$type": "AttachModifier",
          "modifierName": "UNIQUE_Skiff_Test_Invincible"
        }
      ]
    }
  },
  {
    "Default": {
      "$type": "ConfigAbility",
      "abilityName": "SkiffStatue_WithOutAvatar",
      "modifiers": {
        "UNIQUE_SkiffStatue_WithOutAvatar_DenyLockOn": {
          "stacking": "Unique",
          "modifierName": "",
          "isUnique": true,
          "bonusCriticalHurt": 100.0,
          "state": "DenyLockOn"
        },
        "UNIQUE_SkiffStatue_WithOutAvatar_IsGhostToEnemy": {
          "stacking": "Unique",
          "modifierName": "",
          "isUnique": true,
          "bonusCriticalHurt": 100.0,
          "state": "IsGhostToEnemy"
        }
      },
      "onAdded": [
        {
          "$type": "TriggerAbility",
          "abilityName": "SkiffStatue_WithOutAvatar"
        }
      ],
      "onAbilityStart": [
        {
          "$type": "AttachModifier",
          "modifierName": "UNIQUE_SkiffStatue_WithOutAvatar_DenyLockOn"
        },
        {
          "$type": "AttachModifier",
          "modifierName": "UNIQUE_SkiffStatue_WithOutAvatar_IsGhostToEnemy"
        },
        {
          "$type": "RemoveUniqueModifier",
          "modifierName": "UNIQUE_Skiff_LightOn_Handler"
        }
      ]
    }
  },
  {
    "Default": {
      "$type": "ConfigAbility",
      "abilityName": "SkiffStatue_WithAvatar",
      "modifiers": {
        "UNIQUE_Skiff_LightOn_Handler": {
          "stacking": "Unique",
          "modifierName": "",
          "isUnique": true,
          "bonusCriticalHurt": 100.0,
          "modifierMixins": [
            {
              "$type": "AttachToDayNightMixin",
              "time": "Night",
              "modifierName": "Skiff_LightOn_WithAvatar_InNight"
            }
          ]
        },
        "Skiff_LightOn_WithAvatar_InNight": {
          "stacking": "Unique",
          "modifierName": "",
          "bonusCriticalHurt": 100.0,
          "onAdded": [
            {
              "$type": "SetAnimatorInt",
              "canBeHandledOnRecover": true,
              "intID": "Light",
              "ratio": 1.0
            }
          ],
          "onRemoved": [
            {
              "$type": "SetAnimatorInt",
              "intID": "Light",
              "ratio": 0.0
            }
          ]
        }
      },
      "onAbilityStart": [
        {
          "$type": "RemoveUniqueModifier",
          "modifierName": "UNIQUE_SkiffStatue_WithOutAvatar_DenyLockOn"
        },
        {
          "$type": "RemoveUniqueModifier",
          "modifierName": "UNIQUE_SkiffStatue_WithOutAvatar_IsGhostToEnemy"
        },
        {
          "$type": "AttachModifier",
          "modifierName": "UNIQUE_Skiff_LightOn_Handler"
        }
      ]
    }
  },
  {
    "Default": {
      "$type": "ConfigAbility",
      "abilityName": "Vehicle_Skiff_FireCannon_Small",
      "onAbilityStart": [
        {
          "$type": "Predicated",
          "otherTargets": {
            "$type": "SelectTargetsByShape",
            "topLimit": 1,
            "sortType": "Nearest",
            "shapeName": "CircleLockEnemyR25H30HC",
            "campTargetType": "Enemy",
            "OBHNBNDMPFN": 1.0
          },
          "predicates": [
            {
              "$type": "ByTargetGlobalValue",
              "key": "_ABILITY_Skiff_CannonTargetLockLevel",
              "ratio": 1.0
            }
          ],
          "successActions": [
            {
              "$type": "SetSelfAttackTarget",
              "target": "Target"
            }
          ]
        },
        {
          "$type": "Predicated",
          "otherTargets": {
            "$type": "SelectTargetsByShape",
            "topLimit": 1,
            "sortType": "Nearest",
            "shapeName": "CircleLockEnemyR25H30HC",
            "campTargetType": "Enemy",
            "OBHNBNDMPFN": 1.0
          },
          "predicates": [
            {
              "$type": "ByTargetGlobalValue",
              "key": "_ABILITY_Skiff_CannonTargetLockLevel",
              "ratio": 2.0
            }
          ],
          "successActions": [
            {
              "$type": "SetSelfAttackTarget",
              "target": "Target"
            }
          ]
        },
        {
          "$type": "Predicated",
          "otherTargets": {
            "$type": "SelectTargetsByShape",
            "topLimit": 1,
            "sortType": "Nearest",
            "shapeName": "CircleLockEnemyR25H30HC",
            "campTargetType": "Enemy",
            "OBHNBNDMPFN": 1.0
          },
          "predicates": [
            {
              "$type": "ByTargetGlobalValue",
              "key": "_ABILITY_Skiff_CannonTargetLockLevel",
              "ratio": 3.0
            }
          ],
          "successActions": [
            {
              "$type": "SetSelfAttackTarget",
              "target": "Target"
            }
          ]
        },
        {
          "$type": "Predicated",
          "otherTargets": {
            "$type": "SelectTargetsByShape",
            "topLimit": 1,
            "sortType": "Nearest",
            "shapeName": "CircleLockEnemyR25H30HC",
            "campTargetType": "Enemy",
            "OBHNBNDMPFN": 1.0
          },
          "predicates": [
            {
              "$type": "ByTargetGlobalValue",
              "key": "_ABILITY_Skiff_CannonTargetLockLevel",
              "ratio": 4.0
            }
          ],
          "successActions": [
            {
              "$type": "SetSelfAttackTarget",
              "target": "Target"
            }
          ]
        },
        {
          "$type": "TriggerBullet",
          "bulletID": 70350259,
          "born": {
            "$type": "ConfigBornByAttachPoint",
            "direction": {
              "$type": "HFKFLHCBMLB"
            },
            "attachPointName": "CannonFire"
          }
        },
        {
          "$type": "SetAnimatorTrigger",
          "triggerID": "Shake_Light"
        }
      ]
    }
  },
  {
    "Default": {
      "$type": "ConfigAbility",
      "abilityName": "Vehicle_Skiff_FireCannon_Big",
      "modifiers": {
        "Vehicle_Skiff_FireCannon_Big_Delay": {
          "stacking": "Multiple",
          "modifierName": "",
          "duration": 0.4000000059604645,
          "bonusCriticalHurt": 100.0,
          "thinkInterval": 0.30000001192092896,
          "onAdded": [
            {
              "$type": "FireEffect",
              "healLimitedByCasterMaxHPRatio": "Eff_Skiff_Normal_Cannon_Pre",
              "effectTempleteID": -1.0
            },
            {
              "$type": "SetGlobalValue",
              "ratio": 0.0,
              "key": "_ABILITY_Skiff_CannonMark",
              "maxValue": 0.0,
              "minValue": 0.0
            }
          ],
          "onThinkInterval": [
            {
              "$type": "ApplyModifier",
              "predicates": [
                {
                  "$type": "ByTargetGlobalValue",
                  "key": "_ABILITY_Skiff_CannonMark",
                  "ratio": 0.0,
                  "compareType": "NoneOrEqual"
                }
              ],
              "modifierName": "Vehicle_Skiff_FireCannon_Big"
            },
            {
              "$type": "SetGlobalValue",
              "ratio": 1.0,
              "key": "_ABILITY_Skiff_CannonMark",
              "maxValue": 0.0,
              "minValue": 0.0
            }
          ]
        },
        "Vehicle_Skiff_FireCannon_Big": {
          "stacking": "Multiple",
          "modifierName": "",
          "duration": 0.4000000059604645,
          "bonusCriticalHurt": 100.0,
          "onAdded": [
            {
              "$type": "Predicated",
              "otherTargets": {
                "$type": "SelectTargetsByShape",
                "topLimit": 1,
                "sortType": "Nearest",
                "shapeName": "CircleLockEnemyR25H30HC",
                "campTargetType": "Enemy",
                "OBHNBNDMPFN": 1.0
              },
              "predicates": [
                {
                  "$type": "ByTargetGlobalValue",
                  "key": "_ABILITY_Skiff_CannonTargetLockLevel",
                  "ratio": 1.0
                }
              ],
              "successActions": [
                {
                  "$type": "SetSelfAttackTarget",
                  "target": "Target"
                }
              ]
            },
            {
              "$type": "Predicated",
              "otherTargets": {
                "$type": "SelectTargetsByShape",
                "topLimit": 1,
                "sortType": "Nearest",
                "shapeName": "CircleLockEnemyR25H30HC",
                "campTargetType": "Enemy",
                "OBHNBNDMPFN": 1.0
              },
              "predicates": [
                {
                  "$type": "ByTargetGlobalValue",
                  "key": "_ABILITY_Skiff_CannonTargetLockLevel",
                  "ratio": 2.0
                }
              ],
              "successActions": [
                {
                  "$type": "SetSelfAttackTarget",
                  "target": "Target"
                }
              ]
            },
            {
              "$type": "Predicated",
              "otherTargets": {
                "$type": "SelectTargetsByShape",
                "topLimit": 1,
                "sortType": "Nearest",
                "shapeName": "CircleLockEnemyR25H30HC",
                "campTargetType": "Enemy",
                "OBHNBNDMPFN": 1.0
              },
              "predicates": [
                {
                  "$type": "ByTargetGlobalValue",
                  "key": "_ABILITY_Skiff_CannonTargetLockLevel",
                  "ratio": 3.0
                }
              ],
              "successActions": [
                {
                  "$type": "SetSelfAttackTarget",
                  "target": "Target"
                }
              ]
            },
            {
              "$type": "Predicated",
              "otherTargets": {
                "$type": "SelectTargetsByShape",
                "topLimit": 1,
                "sortType": "Nearest",
                "shapeName": "CircleLockEnemyR25H30HC",
                "campTargetType": "Enemy",
                "OBHNBNDMPFN": 1.0
              },
              "predicates": [
                {
                  "$type": "ByTargetGlobalValue",
                  "key": "_ABILITY_Skiff_CannonTargetLockLevel",
                  "ratio": 4.0
                }
              ],
              "successActions": [
                {
                  "$type": "SetSelfAttackTarget",
                  "target": "Target"
                }
              ]
            },
            {
              "$type": "TriggerBullet",
              "bulletID": 70350260,
              "born": {
                "$type": "ConfigBornByAttachPoint",
                "direction": {
                  "$type": "HFKFLHCBMLB"
                },
                "attachPointName": "CannonFire"
              }
            },
            {
              "$type": "ActCameraShake",
              "cameraShake": {
                "shakeType": "CustomVector",
                "shakeRange": 0.7200000286102295,
                "shakeTime": 0.23999999463558197,
                "shakeDistance": 30.0,
                "shakeDir": {
                  "z": -1.0
                },
                "extension": {
                  "baseOnCamera": true,
                  "baseCycle": 0.47999998927116394,
                  "rangeAttenuation": 0.30000001192092896
                }
              }
            },
            {
              "$type": "SetAnimatorTrigger",
              "triggerID": "Shake_Heavy"
            }
          ]
        }
      },
      "onAbilityStart": [
        {
          "$type": "AttachModifier",
          "modifierName": "Vehicle_Skiff_FireCannon_Big_Delay"
        }
      ]
    }
  },
  {
    "Default": {
      "$type": "ConfigAbility",
      "abilityName": "Vehicle_Skiff_CannonTargetLock_LV1",
      "onAdded": [
        {
          "$type": "SetGlobalValue",
          "ratio": 1.0,
          "key": "_ABILITY_Skiff_CannonTargetLockLevel",
          "maxValue": 0.0,
          "minValue": 0.0
        }
      ]
    }
  },
  {
    "Default": {
      "$type": "ConfigAbility",
      "abilityName": "Vehicle_Skiff_CannonTargetLock_LV2",
      "onAdded": [
        {
          "$type": "SetGlobalValue",
          "ratio": 2.0,
          "key": "_ABILITY_Skiff_CannonTargetLockLevel",
          "maxValue": 0.0,
          "minValue": 0.0
        }
      ]
    }
  },
  {
    "Default": {
      "$type": "ConfigAbility",
      "abilityName": "Vehicle_Skiff_CannonTargetLock_LV3",
      "onAdded": [
        {
          "$type": "SetGlobalValue",
          "ratio": 3.0,
          "key": "_ABILITY_Skiff_CannonTargetLockLevel",
          "maxValue": 0.0,
          "minValue": 0.0
        }
      ]
    }
  },
  {
    "Default": {
      "$type": "ConfigAbility",
      "abilityName": "Vehicle_Skiff_CannonTargetLock_LV4",
      "onAdded": [
        {
          "$type": "SetGlobalValue",
          "ratio": 4.0,
          "key": "_ABILITY_Skiff_CannonTargetLockLevel",
          "maxValue": 0.0,
          "minValue": 0.0
        }
      ]
    }
  },
  {
    "Default": {
      "$type": "ConfigAbility",
      "abilityName": "Bullet_Skiff_Cannon_Small",
      "onAdded": [
        {
          "$type": "FireEffect",
          "healLimitedByCasterMaxHPRatio": "Eff_Skiff_Normal_Cannon_01",
          "effectTempleteID": -1.0
        },
        {
          "$type": "AttachEffect",
          "healLimitedByCasterMaxHPRatio": "Eff_Skiff_Normal_Cannon_01_Trail",
          "effectTempleteID": -1.0
        }
      ],
      "onAbilityStart": [
        {
          "$type": "TriggerAttackEvent",
          "attackEvent": {
            "attackPattern": {
              "$type": "ConfigAttackSphere",
              "triggerType": "TriggerNoRepeat",
              "born": {
                "$type": "ConfigBornByCollisionPoint"
              },
              "radius": 1.5
            },
            "attackInfo": {
              "attackTag": "Skiff_Cannon_Small",
              "attenuationTag": "",
              "attenuationGroup": "default",
              "attackProperty": {
                "damagePercentage": 1.0,
                "damagePercentageRatio": 0.0,
                "bonusCriticalHurt": 25.0,
                "strikeType": "Blunt",
                "enBreak": 25.0
              },
              "hitPattern": {
                "onHitEffectName": "Eff_Skiff_Normal_Cannon_Explode_01",
                "hitImpulseType": "LV3",
                "hitHaltTimeScale": 0.05000000074505806
              },
              "forceCameraShake": true,
              "cameraShake": {
                "shakeType": "CustomVector",
                "shakeRange": 0.11999999731779099,
                "shakeTime": 0.11999999731779099,
                "shakeDistance": 30.0,
                "shakeDir": {
                  "z": 1.0
                }
              },
              "canBeModifiedBy": "OriginOwner"
            }
          },
          "targetType": "Enemy"
        },
        {
          "$type": "FireHitEffect",
          "hitEntity": "",
          "hitScene": {
            "defaultEffect": "Eff_Skiff_Normal_Cannon_Explode_01",
            "surfaceEffect": {
              "Water": "Eff_Arrow_Fire_Hit_Water"
            }
          }
        },
        {
          "$type": "KillSelf"
        }
      ]
    }
  },
  {
    "Default": {
      "$type": "ConfigAbility",
      "abilityName": "Bullet_Skiff_Cannon_Big",
      "onAdded": [
        {
          "$type": "FireEffect",
          "healLimitedByCasterMaxHPRatio": "Eff_Skiff_Normal_Cannon_02",
          "effectTempleteID": -1.0
        },
        {
          "$type": "AttachEffect",
          "healLimitedByCasterMaxHPRatio": "Eff_Skiff_Normal_Cannon_02_Trail",
          "effectTempleteID": -1.0
        }
      ],
      "onAbilityStart": [
        {
          "$type": "TriggerAttackEvent",
          "attackEvent": {
            "attackPattern": {
              "$type": "ConfigAttackSphere",
              "triggerType": "TriggerNoRepeat",
              "born": {
                "$type": "ConfigBornByCollisionPoint"
              },
              "radius": 3.5
            },
            "attackInfo": {
              "attackTag": "Skiff_Cannon_Big",
              "attenuationTag": "",
              "attenuationGroup": "default",
              "attackProperty": {
                "damagePercentage": 2.0,
                "damagePercentageRatio": 0.0,
                "bonusCriticalHurt": 25.0,
                "strikeType": "Blunt",
                "enBreak": 50.0
              },
              "hitPattern": {
                "onHitEffectName": "Eff_Skiff_Normal_Cannon_Explode_02",
                "hitImpulseType": "LV3",
                "hitHaltTimeScale": 0.05000000074505806
              },
              "forceCameraShake": true,
              "cameraShake": {
                "shakeType": "CustomVector",
                "shakeRange": 0.11999999731779099,
                "shakeTime": 0.11999999731779099,
                "shakeDistance": 30.0,
                "shakeDir": {
                  "z": 1.0
                }
              },
              "canBeModifiedBy": "OriginOwner"
            }
          },
          "targetType": "Enemy"
        },
        {
          "$type": "FireHitEffect",
          "hitEntity": "",
          "hitScene": {
            "defaultEffect": "Eff_Skiff_Normal_Cannon_Explode_02",
            "surfaceEffect": {
              "Water": "Eff_Arrow_Fire_Hit_Water"
            }
          }
        },
        {
          "$type": "KillSelf"
        }
      ]
    }
  },
  {
    "Default": {
      "$type": "ConfigAbility",
      "abilityName": "SkillObj_Skiff_SprintTrigger",
      "modifiers": {
        "UNIQUE_Skiff_SprintDamage": {
          "stacking": "Unique",
          "modifierName": "",
          "isUnique": true,
          "duration": 1.0,
          "bonusCriticalHurt": 100.0,
          "onAdded": [
            {
              "$type": "TriggerAttackEvent",
              "target": "Owner",
              "attackEvent": {
                "attackPattern": {
                  "$type": "ConfigAttackSphere",
                  "triggerType": "TriggerNoRepeat",
                  "LHECOGDLBCO": true,
                  "born": {
                    "$type": "ConfigBornByCollisionPoint",
                    "offset": {
                      "x": 0.0,
                      "y": 0.0,
                      "z": 0.0
                    },
                    "direction": {
                      "$type": "IOPNFLFHGID",
                      "angleOffset": {
                        "x": 0.0,
                        "y": 0.0,
                        "z": 0.0
                      }
                    }
                  },
                  "radius": 2.0
                },
                "attackInfo": {
                  "attackTag": "Skiff_Sprint",
                  "attenuationTag": "",
                  "attenuationGroup": "default",
                  "attackProperty": {
                    "damagePercentage": 1.0,
                    "damagePercentageRatio": 0.0,
                    "bonusCriticalHurt": 25.0,
                    "strikeType": "Default",
                    "enBreak": 25.0,
                    "attackType": "Melee"
                  },
                  "hitPattern": {
                    "onHitEffectName": "default",
                    "hitImpulseType": "LV2",
                    "hitHaltTimeScale": 0.019999999552965164
                  }
                }
              },
              "targetType": "Enemy"
            },
            {
              "$type": "ApplyModifier",
              "target": "Owner",
              "modifierName": "Skiff_SprintShake"
            }
          ]
        },
        "Skiff_SprintShake": {
          "stacking": "Multiple",
          "modifierName": "",
          "duration": 1.0,
          "bonusCriticalHurt": 100.0,
          "onAdded": [
            {
              "$type": "ActCameraShake",
              "cameraShake": {
                "shakeType": "CustomVector",
                "shakeRange": 0.5400000214576721,
                "shakeTime": 0.23999999463558197,
                "shakeDistance": 30.0,
                "shakeDir": {
                  "z": -1.0
                },
                "extension": {
                  "baseOnCamera": true,
                  "baseCycle": 0.47999998927116394,
                  "rangeAttenuation": 0.30000001192092896
                }
              }
            },
            {
              "$type": "SetAnimatorTrigger",
              "triggerID": "Shake_Heavy"
            }
          ]
        }
      },
      "onAbilityStart": [
        {
          "$type": "Predicated",
          "target": "Target",
          "targetPredicates": [
            {
              "$type": "ByEntityTypes",
              "entityTypes": [
                "Monster",
                "MonsterEquip",
                "Gadget",
                "Bullet",
                "Field",
                "Gear"
              ]
            }
          ],
          "successActions": [
            {
              "$type": "ApplyModifier",
              "modifierName": "UNIQUE_Skiff_SprintDamage"
            }
          ]
        }
      ]
    }
  },
  {
    "Default": {
      "$type": "ConfigAbility",
      "abilityName": "Vehicle_Skiff_Normal_ServerBuff_Handler",
      "modifiers": {
        "SERVER_Skiff_Normal_AvatarStatue_Handler": {
          "stacking": "Multiple",
          "modifierName": "",
          "bonusCriticalHurt": 100.0,
          "thinkInterval": 1.0,
          "onAdded": [
            {
              "$type": "AttachModifier",
              "RotationDampTime": true,
              "modifierName": "UNIQUE_Skiff_Normal_AvatarStatue_DenyLockOn"
            },
            {
              "$type": "AttachModifier",
              "RotationDampTime": true,
              "modifierName": "UNIQUE_Skiff_Normal_AvatarStatue_Invincible"
            },
            {
              "$type": "AttachModifier",
              "RotationDampTime": true,
              "modifierName": "UNIQUE_Skiff_Normal_AvatarStatue_IsGhostToEnemy"
            },
            {
              "$type": "AttachModifier",
              "RotationDampTime": true,
              "modifierName": "UNIQUE_Skiff_Normal_AvatarStatue_LockHP"
            },
            {
              "$type": "AttachModifier",
              "RotationDampTime": true,
              "modifierName": "UNIQUE_Skiff_Normal_OutofCombat_Handler"
            },
            {
              "$type": "AttachAbilityStateResistance",
              "RotationDampTime": true,
              "resistanceListID": 15001
            },
            {
              "$type": "AttachAbilityStateResistance",
              "RotationDampTime": true,
              "resistanceListID": 15002
            },
            {
              "$type": "ApplyModifier",
              "target": "Vehicle",
              "modifierName": "UNIQUE_Skiff_Normal_AvatarStatue_GrandHandler"
            },
            {
              "$type": "SetGlobalValue",
              "RotationDampTime": true,
              "ratio": 1.0,
              "key": "_ABILITY_Avatar_InSkiff_Mark",
              "maxValue": 0.0,
              "minValue": 0.0
            }
          ],
          "onRemoved": [
            {
              "$type": "TriggerAbility",
              "target": "Vehicle",
              "abilityName": "SkiffStatue_WithOutAvatar"
            },
            {
              "$type": "SetGlobalValue",
              "target": "Vehicle",
              "RotationDampTime": true,
              "ratio": 0.0,
              "key": "_ABILITY_Skiff_AvatarIn_Mark",
              "maxValue": 0.0,
              "minValue": 0.0
            },
            {
              "$type": "SetGlobalValue",
              "RotationDampTime": true,
              "ratio": 0.0,
              "key": "_ABILITY_Avatar_InSkiff_Mark",
              "maxValue": 0.0,
              "minValue": 0.0
            }
          ],
          "onThinkInterval": [
            {
              "$type": "ApplyModifier",
              "target": "Vehicle",
              "modifierName": "UNIQUE_Skiff_Normal_AvatarStatue_GrandHandler"
            }
          ],
          "HOJBAPLHKIJ": [
            {
              "$type": "ApplyModifier",
              "target": "Vehicle",
              "modifierName": "UNIQUE_Skiff_Normal_AvatarStatue_GrandHandler"
            },
            {
              "$type": "SetGlobalValue",
              "RotationDampTime": true,
              "ratio": 1.0,
              "key": "_ABILITY_Avatar_InSkiff_Mark",
              "maxValue": 0.0,
              "minValue": 0.0
            }
          ]
        },
        "UNIQUE_Skiff_Normal_AvatarStatue_GrandHandler": {
          "stacking": "RefreshUniqueDurability",
          "modifierName": "",
          "isUnique": true,
          "duration": 1.5,
          "bonusCriticalHurt": 100.0,
          "onAdded": [
            {
              "$type": "TriggerAbility",
              "abilityName": "SkiffStatue_WithAvatar"
            },
            {
              "$type": "SetGlobalValue",
              "ratio": 1.0,
              "key": "_ABILITY_Skiff_AvatarIn_Mark",
              "maxValue": 0.0,
              "minValue": 0.0
            }
          ],
          "onRemoved": [
            {
              "$type": "TriggerAbility",
              "abilityName": "SkiffStatue_WithOutAvatar"
            },
            {
              "$type": "SetGlobalValue",
              "ratio": 0.0,
              "key": "_ABILITY_Skiff_AvatarIn_Mark",
              "maxValue": 0.0,
              "minValue": 0.0
            },
            {
              "$type": "KillGadget",
              "gadgetInfo": {
                "configID": 70350276
              }
            }
          ]
        },
        "UNIQUE_Skiff_Normal_AvatarStatue_DenyLockOn": {
          "stacking": "Unique",
          "modifierName": "",
          "isUnique": true,
          "bonusCriticalHurt": 100.0,
          "state": "DenyLockOn"
        },
        "UNIQUE_Skiff_Normal_AvatarStatue_Invincible": {
          "stacking": "Unique",
          "modifierName": "",
          "isUnique": true,
          "bonusCriticalHurt": 100.0,
          "state": "Invincible"
        },
        "UNIQUE_Skiff_Normal_AvatarStatue_IsGhostToEnemy": {
          "stacking": "Unique",
          "modifierName": "",
          "isUnique": true,
          "bonusCriticalHurt": 100.0,
          "state": "IsGhostToEnemy"
        },
        "UNIQUE_Skiff_Normal_AvatarStatue_LockHP": {
          "stacking": "Unique",
          "modifierName": "",
          "isUnique": true,
          "bonusCriticalHurt": 100.0,
          "state": "LockHP"
        },
        "UNIQUE_Skiff_Normal_OutofCombat_Handler": {
          "stacking": "Unique",
          "modifierName": "",
          "isUnique": true,
          "bonusCriticalHurt": 100.0,
          "thinkInterval": 1.0,
          "onThinkInterval": [
            {
              "$type": "SetGlobalValue",
              "target": "Vehicle",
              "predicates": [
                {
                  "$type": "KADAJLJMIII",
                  "target": "Self"
                },
                {
                  "$type": "KLHDCNCGDGM",
                  "target": "Self"
                }
              ],
              "ratio": 0.0,
              "key": "_ABILITY_Skiff_AutoHeal_Count",
              "maxValue": 0.0,
              "minValue": 0.0
            }
          ]
        },
        "SERVER_Skiff_Normal_HealFromItem_Handler": {
          "stacking": "Multiple",
          "modifierName": "",
          "bonusCriticalHurt": 100.0,
          "onAdded": [
            {
              "$type": "AttachModifier",
              "target": "Vehicle",
              "modifierName": "UNIQUE_Skiff_Normal_HealFromItem"
            }
          ]
        },
        "UNIQUE_Skiff_Normal_HealFromItem": {
          "stacking": "Unique",
          "modifierName": "",
          "isUnique": true,
          "duration": 1.0,
          "bonusCriticalHurt": 100.0,
          "onAdded": [
            {
              "$type": "HealHP",
              "amountByCasterMaxHPRatio": 0.5
            },
            {
              "$type": "FireEffect",
              "healLimitedByCasterMaxHPRatio": "Eff_Skiff_Normal_Heal",
              "effectTempleteID": -1.0
            }
          ]
        }
      },
      "isDynamicAbility": true
    }
  },
  {
    "Default": {
      "$type": "ConfigAbility",
      "abilityName": "Vehicle_Skiff_Normal_BurstSprint",
      "abilitySpecials": {
        "Skiff_SprintValue": 0.0
      },
      "modifiers": {
        "Skiff_SprintCD": {
          "stacking": "Unique",
          "modifierName": "",
          "duration": 1.0,
          "bonusCriticalHurt": 100.0,
          "onAdded": [
            {
              "$type": "SetGlobalValue",
              "ratio": 1.0,
              "key": "_ABILITY_Skiff_SprintCD",
              "maxValue": 0.0,
              "minValue": 0.0
            }
          ],
          "onRemoved": [
            {
              "$type": "SetGlobalValue",
              "ratio": 0.0,
              "key": "_ABILITY_Skiff_SprintCD",
              "maxValue": 0.0,
              "minValue": 0.0
            }
          ]
        },
        "Skiff_SprintMark": {
          "modifierName": "",
          "duration": 1.5,
          "bonusCriticalHurt": 100.0,
          "onAdded": [
            {
              "$type": "SetGlobalValue",
              "ratio": 1.0,
              "key": "_ABILITY_Skiff_SprintMark",
              "maxValue": 0.0,
              "minValue": 0.0
            },
            {
              "$type": "SetGlobalValue",
              "ratio": 1.0,
              "key": "_ABILITY_Skiff_BurstSprintMark",
              "maxValue": 0.0,
              "minValue": 0.0
            },
            {
              "$type": "AddGlobalValue",
              "ratio": 1.0,
              "key": "_ABILITY_Skiff_POStProcessEffect_Mark",
              "useLimitRange": true,
              "maxValue": 5.0,
              "minValue": 0.0
            },
            {
              "$type": "ApplyModifier",
              "otherTargets": {
                "$type": "SelectTargetsByShape",
                "shapeName": "RectW13L8SkiffRace",
                "campTargetType": "AllExceptSelf",
                "OBHNBNDMPFN": 1.0
              },
              "predicates": [
                {
                  "$type": "ByEntityTypes",
                  "entityTypes": ["Gadget", "Bullet", "Field"]
                },
                {
                  "$type": "ByTargetGlobalValue",
                  "key": "_IS_BoatRace_Breakable",
                  "ratio": 1.0
                }
              ],
              "modifierName": "BoatRace_BreakableItem_KillSelf"
            }
          ],
          "onRemoved": [
            {
              "$type": "SetGlobalValue",
              "ratio": 0.0,
              "key": "_ABILITY_Skiff_SprintMark",
              "maxValue": 0.0,
              "minValue": 0.0
            },
            {
              "$type": "SetGlobalValue",
              "ratio": 0.0,
              "key": "_ABILITY_Skiff_BurstSprintMark",
              "maxValue": 0.0,
              "minValue": 0.0
            },
            {
              "$type": "AddGlobalValue",
              "ratio": -1.0,
              "key": "_ABILITY_Skiff_POStProcessEffect_Mark",
              "useLimitRange": true,
              "maxValue": 5.0,
              "minValue": 0.0
            }
          ]
        },
        "BoatRace_BreakableItem_KillSelf": {
          "modifierName": "",
          "bonusCriticalHurt": 100.0,
          "onAdded": [
            {
              "$type": "SetGlobalValue",
              "ratio": 1.0,
              "key": "_IS_BoatRace_Breakable_KillSelf",
              "maxValue": 0.0,
              "minValue": 0.0
            }
          ]
        }
      },
      "onAbilityStart": [
        {
          "$type": "Predicated",
          "targetPredicates": [
            {
              "$type": "ByTargetGlobalValue",
              "key": "_ABILITY_Skiff_SprintValue",
              "ratio": 10.0,
              "compareType": "MoreThanAndEqual"
            },
            {
              "$type": "ByTargetGlobalValue",
              "key": "_ABILITY_Skiff_SprintCD",
              "ratio": 0.0,
              "compareType": "NoneOrEqual"
            }
          ],
          "successActions": [
            {
              "$type": "ApplyModifier",
              "modifierName": "Skiff_SprintCD"
            },
            {
              "$type": "ModifySkiffPhysicsParam",
              "LCCGBIMADJG": 12.0
            },
            {
              "$type": "ApplyModifier",
              "modifierName": "Skiff_SprintMark"
            },
            {
              "$type": "CreateGadget",
              "born": {
                "$type": "ConfigBornByAttachPoint",
                "offset": {
                  "x": 0.0,
                  "y": 0.0,
                  "z": 1.0
                },
                "attachPointName": "RenderRoot"
              },
              "gadgetID": 70350431,
              "campID": 1001,
              "campTargetType": "Alliance"
            },
            {
              "$type": "FireEffect",
              "healLimitedByCasterMaxHPRatio": "Eff_Skiff_Normal_BurstSprint",
              "effectTempleteID": -1.0
            },
            {
              "$type": "FireEffect",
              "healLimitedByCasterMaxHPRatio": "Eff_Skiff_Normal_BurstHalo_01",
              "effectTempleteID": -1.0
            },
            {
              "$type": "FireEffect",
              "healLimitedByCasterMaxHPRatio": "Eff_Skiff_Normal_BurstHalo_02",
              "effectTempleteID": -1.0
            },
            {
              "$type": "ActCameraRadialBlur",
              "cameraRadialBlur": {
                "power": 0.6000000238418579,
                "blurTime": 0.20000000298023224,
                "fadeTime": 0.20000000298023224
              }
            },
            {
              "$type": "AddGlobalValue",
              "ratio": -10.0,
              "key": "_ABILITY_Skiff_SprintValue",
              "useLimitRange": true,
              "maxValue": 30.0,
              "minValue": 0.0
            },
            {
              "$type": "SetGlobalValueToOverrideMap",
              "globalValueKey": "_ABILITY_Skiff_SprintValue",
              "overrideMapKey": "Skiff_SprintValue"
            },
            {
              "$type": "ServerLuaCall",
              "luaCallType": "CurGalleryControlGroup",
              "funcName": "SLC_BoatRace_LuaMark",
              "IAJKJLGNLLE": 3,
              "MPPMFEDKGHC": 2.0,
              "BOKNHLDBKKK": -10.0,
              "CHOIIMHDNHK": "Skiff_SprintValue"
            },
            {
              "$type": "ServerLuaCall",
              "luaCallType": "CurGalleryControlGroup",
              "funcName": "SLC_BoatRaceV2_Counter",
              "IAJKJLGNLLE": 1,
              "MPPMFEDKGHC": 5.0,
              "BOKNHLDBKKK": 0.0,
              "CHOIIMHDNHK": 0.0
            }
          ]
        }
      ],
      "isDynamicAbility": true
    }
  },
  {
    "Default": {
      "$type": "ConfigAbility",
      "abilityName": "Vehicle_Skiff_Normal_WindHole",
      "abilitySpecials": {
        "Skiff_SprintValue": 0.0
      },
      "modifiers": {
        "UNIQUE_Vehicle_Skiff_Normal_WindHole_GrabOrb_Handler": {
          "modifierName": "",
          "isUnique": true,
          "duration": 0.20000000298023224,
          "bonusCriticalHurt": 100.0,
          "onAdded": [
            {
              "$type": "SetGlobalValue",
              "ratio": -1.0,
              "key": "_ABILITY_Skiff_OrbMark",
              "maxValue": 0.0,
              "minValue": 0.0
            },
            {
              "$type": "ApplyModifier",
              "target": "Applier",
              "modifierName": "Vehicle_Skiff_Normal_WindHole_GrabOrb"
            },
            {
              "$type": "FireEffect",
              "healLimitedByCasterMaxHPRatio": "Eff_SceneObj_BoatRaceEnergy_01_Disappear",
              "effectTempleteID": -1.0
            },
            {
              "$type": "CreateGadget",
              "born": {
                "$type": "ConfigBornBySelf",
                "offset": {
                  "x": 0.0,
                  "y": 0.0,
                  "z": 0.0
                }
              },
              "gadgetID": 70220127,
              "campID": 1001,
              "campTargetType": "All"
            },
            {
              "$type": "KillSelf"
            }
          ]
        },
        "Vehicle_Skiff_Normal_WindHole_GrabOrb": {
          "stacking": "Multiple",
          "modifierName": "",
          "duration": 0.5,
          "bonusCriticalHurt": 100.0,
          "onAdded": [
            {
              "$type": "AddGlobalValue",
              "ratio": 2.0,
              "key": "_ABILITY_Skiff_SprintValue",
              "useLimitRange": true,
              "maxValue": 30.0,
              "minValue": 0.0
            },
            {
              "$type": "SetGlobalValueToOverrideMap",
              "globalValueKey": "_ABILITY_Skiff_SprintValue",
              "overrideMapKey": "Skiff_SprintValue"
            },
            {
              "$type": "ServerLuaCall",
              "luaCallType": "CurGalleryControlGroup",
              "funcName": "SLC_BoatRace_LuaMark",
              "IAJKJLGNLLE": 3,
              "MPPMFEDKGHC": 1.0,
              "BOKNHLDBKKK": 2.0,
              "CHOIIMHDNHK": "Skiff_SprintValue"
            },
            {
              "$type": "ReviveStamina",
              "ratio": 7.0
            }
          ]
        }
      },
      "onAbilityStart": [
        {
          "$type": "FireEffect",
          "healLimitedByCasterMaxHPRatio": "Eff_Skiff_Normal_WindHole",
          "effectTempleteID": -1.0
        },
        {
          "$type": "ServerLuaCall",
          "predicates": [
            {
              "$type": "ByTargetGlobalValue",
              "key": "_ABILITY_Skiff_BurstSprintMark",
              "ratio": 1.0
            }
          ],
          "luaCallType": "CurGalleryControlGroup",
          "funcName": "SLC_BoatRaceV2_Counter",
          "IAJKJLGNLLE": 1,
          "MPPMFEDKGHC": 4.0,
          "BOKNHLDBKKK": 0.0,
          "CHOIIMHDNHK": 0.0
        },
        {
          "$type": "ServerLuaCall",
          "luaCallType": "CurGalleryControlGroup",
          "funcName": "SLC_BoatRaceV2_Counter",
          "IAJKJLGNLLE": 1,
          "MPPMFEDKGHC": 6.0,
          "BOKNHLDBKKK": 0.0,
          "CHOIIMHDNHK": 0.0
        },
        {
          "$type": "ApplyModifier",
          "otherTargets": {
            "$type": "SelectTargetsByShape",
            "shapeName": "CircleR30",
            "campTargetType": "Enemy",
            "OBHNBNDMPFN": 1.0
          },
          "predicates": [
            {
              "$type": "ByTargetGlobalValue",
              "key": "_ABILITY_Skiff_OrbMark",
              "ratio": 1.0
            },
            {
              "$type": "ByEntityTypes",
              "entityTypes": ["Gadget", "Bullet", "Field", "Gear"]
            }
          ],
          "modifierName": "UNIQUE_Vehicle_Skiff_Normal_WindHole_GrabOrb_Handler"
        }
      ],
      "isDynamicAbility": true
    }
  },
  {
    "Default": {
      "$type": "ConfigAbility",
      "abilityName": "SkillObj_Skiff_SprintTrigger_LanV3",
      "onAbilityStart": [
        {
          "$type": "TriggerAttackEvent",
          "target": "Owner",
          "attackEvent": {
            "attackPattern": {
              "$type": "ConfigAttackSphere",
              "triggerType": "TriggerNoRepeat",
              "LHECOGDLBCO": true,
              "born": {
                "$type": "ConfigBornByCollisionPoint",
                "offset": {
                  "x": 0.0,
                  "y": 0.0,
                  "z": 0.0
                },
                "direction": {
                  "$type": "IOPNFLFHGID",
                  "angleOffset": {
                    "x": 0.0,
                    "y": 0.0,
                    "z": 0.0
                  }
                },
                "IABNJPGBAOH": true
              },
              "radius": 2.0
            },
            "attackInfo": {
              "attackTag": "Skiff_Sprint",
              "attenuationTag": "",
              "attenuationGroup": "default",
              "attackProperty": {
                "damagePercentage": 0.0,
                "damagePercentageRatio": 0.0,
                "bonusCriticalHurt": 25.0,
                "strikeType": "Default",
                "enBreak": 25.0,
                "attackType": "Melee"
              },
              "hitPattern": {
                "onHitEffectName": "default",
                "hitImpulseType": "LV2",
                "hitHaltTimeScale": 0.019999999552965164
              }
            }
          },
          "targetType": "Enemy"
        }
      ]
    }
  },
  {
    "Default": {
      "$type": "ConfigAbility",
      "abilityName": "Vehicle_Skiff_LanV3BoatGame_Mire_Shoot",
      "onAbilityStart": [
        {
          "$type": "TriggerBullet",
          "bulletID": 420000026,
          "born": {
            "$type": "ConfigBornByAttachPoint",
            "direction": {
              "$type": "DOCDLGLJKND",
              "angleOffset": {
                "x": 0.0,
                "y": 0.0,
                "z": 0.0
              },
              "attachPointName": ""
            },
            "IABNJPGBAOH": true,
            "attachPointName": "CannonFire"
          }
        },
        {
          "$type": "SetGlobalValue",
          "target": "Team",
          "ratio": 0.0,
          "key": "_ABILITY_BoatV3_SkillIndex_Team",
          "maxValue": 0.0,
          "minValue": 0.0
        }
      ],
      "isDynamicAbility": true
    }
  },
  {
    "Default": {
      "$type": "ConfigAbility",
      "abilityName": "Vehicle_Skiff_LanV3BoatGame_Mire_Bullet",
      "modifiers": {
        "Life_Timer_And_Eff": {
          "modifierName": "",
          "duration": 2.0,
          "bonusCriticalHurt": 100.0,
          "onAdded": [
            {
              "$type": "AttachEffect",
              "healLimitedByCasterMaxHPRatio": "Eff_Avatar_Loli_Bow_Diona_ElementalArt_Bullet_Trail",
              "effectTempleteID": -1.0
            }
          ],
          "onRemoved": [
            {
              "$type": "KillSelf"
            }
          ]
        }
      },
      "onAdded": [
        {
          "$type": "AttachModifier",
          "modifierName": "Life_Timer_And_Eff"
        }
      ],
      "onAbilityStart": [
        {
          "$type": "CreateGadget",
          "born": {
            "$type": "ConfigBornBySelf",
            "offset": {
              "x": 0.0,
              "y": 0.0,
              "z": 0.0
            },
            "DAPKLNIFPID": true,
            "HKNFOKFIKAG": 3.0,
            "IABNJPGBAOH": true
          },
          "gadgetID": 420000027,
          "campID": 1001,
          "campTargetType": "AllExceptSelf"
        }
      ]
    }
  },
  {
    "Default": {
      "$type": "ConfigAbility",
      "abilityName": "Vehicle_Skiff_LanV3BoatGame_Coin_Absorb",
      "modifiers": {
        "ServerLuaCallModifier": {
          "modifierName": "",
          "duration": 0.10000000149011612,
          "bonusCriticalHurt": 100.0,
          "onAdded": [
            {
              "$type": "ServerLuaCall",
              "luaCallType": "CurGalleryControlGroup",
              "funcName": "SLC_PlayerUseItem",
              "MPPMFEDKGHC": 0.0,
              "BOKNHLDBKKK": 0.0,
              "CHOIIMHDNHK": 0.0
            }
          ]
        },
        "UNIQUE_LanV3BoatGame_Coin_Absorb": {
          "modifierName": "",
          "isUnique": true,
          "duration": 10.0,
          "bonusCriticalHurt": 100.0,
          "thinkInterval": 0.5,
          "onAdded": [
            {
              "$type": "AttachEffect",
              "target": "Vehicle",
              "healLimitedByCasterMaxHPRatio": "Eff_Activity_LanV3BoatGame_Absorb",
              "effectTempleteID": -1.0
            },
            {
              "$type": "Predicated",
              "otherTargets": {
                "$type": "SelectTargetsByShape",
                "shapeName": "CircleR12",
                "centerBasedOn": "Vehicle",
                "campTargetType": "AllExceptSelf",
                "campBasedOn": "Vehicle",
                "OBHNBNDMPFN": 1.0
              },
              "targetPredicates": [
                {
                  "$type": "ByTargetGlobalValue",
                  "key": "ShipPVPCoin",
                  "ratio": 6.0
                },
                {
                  "$type": "ByTargetGlobalValue",
                  "target": "Team",
                  "key": "SGV_BoatV3_Ghost",
                  "ratio": 0.0,
                  "compareType": "NoneOrEqual"
                }
              ],
              "successActions": [
                {
                  "$type": "DebugLog",
                  "content": "SLC: Find Target SHipPVPCoin = 6"
                },
                {
                  "$type": "ServerLuaCall",
                  "target": "Other",
                  "luaCallType": "FromGroup",
                  "isTarget": true,
                  "funcName": "SLC_PlayerGetCoin",
                  "IAJKJLGNLLE": 1,
                  "MPPMFEDKGHC": 6.0,
                  "BOKNHLDBKKK": 0.0,
                  "CHOIIMHDNHK": 0.0
                }
              ]
            },
            {
              "$type": "Predicated",
              "otherTargets": {
                "$type": "SelectTargetsByShape",
                "shapeName": "CircleR12",
                "centerBasedOn": "Vehicle",
                "campTargetType": "AllExceptSelf",
                "campBasedOn": "Vehicle",
                "OBHNBNDMPFN": 1.0
              },
              "targetPredicates": [
                {
                  "$type": "ByTargetGlobalValue",
                  "key": "ShipPVPCoin",
                  "ratio": 5.0
                },
                {
                  "$type": "ByTargetGlobalValue",
                  "target": "Team",
                  "key": "SGV_BoatV3_Ghost",
                  "ratio": 0.0,
                  "compareType": "NoneOrEqual"
                }
              ],
              "successActions": [
                {
                  "$type": "DebugLog",
                  "content": "SLC: Find Target SHipPVPCoin = 5"
                },
                {
                  "$type": "ServerLuaCall",
                  "target": "Other",
                  "luaCallType": "FromGroup",
                  "isTarget": true,
                  "funcName": "SLC_PlayerGetCoin",
                  "IAJKJLGNLLE": 1,
                  "MPPMFEDKGHC": 5.0,
                  "BOKNHLDBKKK": 0.0,
                  "CHOIIMHDNHK": 0.0
                }
              ]
            },
            {
              "$type": "Predicated",
              "otherTargets": {
                "$type": "SelectTargetsByShape",
                "shapeName": "CircleR12",
                "centerBasedOn": "Vehicle",
                "campTargetType": "AllExceptSelf",
                "campBasedOn": "Vehicle",
                "OBHNBNDMPFN": 1.0
              },
              "targetPredicates": [
                {
                  "$type": "ByTargetGlobalValue",
                  "key": "ShipPVPCoin",
                  "ratio": 4.0
                },
                {
                  "$type": "ByTargetGlobalValue",
                  "target": "Team",
                  "key": "SGV_BoatV3_Ghost",
                  "ratio": 0.0,
                  "compareType": "NoneOrEqual"
                }
              ],
              "successActions": [
                {
                  "$type": "DebugLog",
                  "content": "SLC: Find Target SHipPVPCoin = 4"
                },
                {
                  "$type": "ServerLuaCall",
                  "target": "Other",
                  "luaCallType": "FromGroup",
                  "isTarget": true,
                  "funcName": "SLC_PlayerGetCoin",
                  "IAJKJLGNLLE": 1,
                  "MPPMFEDKGHC": 4.0,
                  "BOKNHLDBKKK": 0.0,
                  "CHOIIMHDNHK": 0.0
                }
              ]
            },
            {
              "$type": "Predicated",
              "otherTargets": {
                "$type": "SelectTargetsByShape",
                "shapeName": "CircleR12",
                "centerBasedOn": "Vehicle",
                "campTargetType": "Enemy",
                "campBasedOn": "Vehicle",
                "OBHNBNDMPFN": 1.0
              },
              "targetPredicates": [
                {
                  "$type": "ByTargetGlobalValue",
                  "key": "ShipPVPCoin",
                  "ratio": 3.0
                }
              ],
              "successActions": [
                {
                  "$type": "DebugLog",
                  "content": "SLC: Find Target SHipPVPCoin = 3"
                },
                {
                  "$type": "ServerLuaCall",
                  "target": "Other",
                  "luaCallType": "FromGroup",
                  "isTarget": true,
                  "funcName": "SLC_PlayerGetCoin",
                  "IAJKJLGNLLE": 1,
                  "MPPMFEDKGHC": 3.0,
                  "BOKNHLDBKKK": 0.0,
                  "CHOIIMHDNHK": 0.0
                }
              ]
            },
            {
              "$type": "Predicated",
              "otherTargets": {
                "$type": "SelectTargetsByShape",
                "shapeName": "CircleR12",
                "centerBasedOn": "Vehicle",
                "campTargetType": "Enemy",
                "campBasedOn": "Vehicle",
                "OBHNBNDMPFN": 1.0
              },
              "targetPredicates": [
                {
                  "$type": "ByTargetGlobalValue",
                  "key": "ShipPVPCoin",
                  "ratio": 2.0
                }
              ],
              "successActions": [
                {
                  "$type": "DebugLog",
                  "content": "SLC: Find Target SHipPVPCoin = 2"
                },
                {
                  "$type": "ServerLuaCall",
                  "target": "Other",
                  "luaCallType": "FromGroup",
                  "isTarget": true,
                  "funcName": "SLC_PlayerGetCoin",
                  "IAJKJLGNLLE": 1,
                  "MPPMFEDKGHC": 2.0,
                  "BOKNHLDBKKK": 0.0,
                  "CHOIIMHDNHK": 0.0
                }
              ]
            },
            {
              "$type": "Predicated",
              "otherTargets": {
                "$type": "SelectTargetsByShape",
                "shapeName": "CircleR12",
                "centerBasedOn": "Vehicle",
                "campTargetType": "Enemy",
                "campBasedOn": "Vehicle",
                "OBHNBNDMPFN": 1.0
              },
              "targetPredicates": [
                {
                  "$type": "ByTargetGlobalValue",
                  "key": "ShipPVPCoin",
                  "ratio": 1.0
                }
              ],
              "successActions": [
                {
                  "$type": "DebugLog",
                  "content": "SLC: Find Target SHipPVPCoin = 1"
                },
                {
                  "$type": "ServerLuaCall",
                  "target": "Other",
                  "luaCallType": "FromGroup",
                  "isTarget": true,
                  "funcName": "SLC_PlayerGetCoin",
                  "IAJKJLGNLLE": 1,
                  "MPPMFEDKGHC": 1.0,
                  "BOKNHLDBKKK": 0.0,
                  "CHOIIMHDNHK": 0.0
                }
              ]
            }
          ],
          "onThinkInterval": [
            {
              "$type": "Predicated",
              "otherTargets": {
                "$type": "SelectTargetsByShape",
                "shapeName": "CircleR12",
                "centerBasedOn": "Vehicle",
                "campTargetType": "AllExceptSelf",
                "campBasedOn": "Vehicle",
                "OBHNBNDMPFN": 1.0
              },
              "targetPredicates": [
                {
                  "$type": "ByTargetGlobalValue",
                  "key": "ShipPVPCoin",
                  "ratio": 6.0
                },
                {
                  "$type": "ByTargetGlobalValue",
                  "target": "Team",
                  "key": "SGV_BoatV3_Ghost",
                  "ratio": 0.0,
                  "compareType": "NoneOrEqual"
                }
              ],
              "successActions": [
                {
                  "$type": "DebugLog",
                  "content": "SLC: Find Target SHipPVPCoin = 6"
                },
                {
                  "$type": "ServerLuaCall",
                  "target": "Other",
                  "luaCallType": "FromGroup",
                  "isTarget": true,
                  "funcName": "SLC_PlayerGetCoin",
                  "IAJKJLGNLLE": 1,
                  "MPPMFEDKGHC": 6.0,
                  "BOKNHLDBKKK": 0.0,
                  "CHOIIMHDNHK": 0.0
                }
              ]
            },
            {
              "$type": "Predicated",
              "otherTargets": {
                "$type": "SelectTargetsByShape",
                "shapeName": "CircleR12",
                "centerBasedOn": "Vehicle",
                "campTargetType": "AllExceptSelf",
                "campBasedOn": "Vehicle",
                "OBHNBNDMPFN": 1.0
              },
              "targetPredicates": [
                {
                  "$type": "ByTargetGlobalValue",
                  "key": "ShipPVPCoin",
                  "ratio": 5.0
                },
                {
                  "$type": "ByTargetGlobalValue",
                  "target": "Team",
                  "key": "SGV_BoatV3_Ghost",
                  "ratio": 0.0,
                  "compareType": "NoneOrEqual"
                }
              ],
              "successActions": [
                {
                  "$type": "DebugLog",
                  "content": "SLC: Find Target SHipPVPCoin = 5"
                },
                {
                  "$type": "ServerLuaCall",
                  "target": "Other",
                  "luaCallType": "FromGroup",
                  "isTarget": true,
                  "funcName": "SLC_PlayerGetCoin",
                  "IAJKJLGNLLE": 1,
                  "MPPMFEDKGHC": 5.0,
                  "BOKNHLDBKKK": 0.0,
                  "CHOIIMHDNHK": 0.0
                }
              ]
            },
            {
              "$type": "Predicated",
              "otherTargets": {
                "$type": "SelectTargetsByShape",
                "shapeName": "CircleR12",
                "centerBasedOn": "Vehicle",
                "campTargetType": "AllExceptSelf",
                "campBasedOn": "Vehicle",
                "OBHNBNDMPFN": 1.0
              },
              "targetPredicates": [
                {
                  "$type": "ByTargetGlobalValue",
                  "key": "ShipPVPCoin",
                  "ratio": 4.0
                },
                {
                  "$type": "ByTargetGlobalValue",
                  "target": "Team",
                  "key": "SGV_BoatV3_Ghost",
                  "ratio": 0.0,
                  "compareType": "NoneOrEqual"
                }
              ],
              "successActions": [
                {
                  "$type": "DebugLog",
                  "content": "SLC: Find Target SHipPVPCoin = 4"
                },
                {
                  "$type": "ServerLuaCall",
                  "target": "Other",
                  "luaCallType": "FromGroup",
                  "isTarget": true,
                  "funcName": "SLC_PlayerGetCoin",
                  "IAJKJLGNLLE": 1,
                  "MPPMFEDKGHC": 4.0,
                  "BOKNHLDBKKK": 0.0,
                  "CHOIIMHDNHK": 0.0
                }
              ]
            },
            {
              "$type": "Predicated",
              "otherTargets": {
                "$type": "SelectTargetsByShape",
                "shapeName": "CircleR12",
                "centerBasedOn": "Vehicle",
                "campTargetType": "Enemy",
                "campBasedOn": "Vehicle",
                "OBHNBNDMPFN": 1.0
              },
              "targetPredicates": [
                {
                  "$type": "ByTargetGlobalValue",
                  "key": "ShipPVPCoin",
                  "ratio": 3.0
                }
              ],
              "successActions": [
                {
                  "$type": "DebugLog",
                  "content": "SLC: Find Target SHipPVPCoin = 3"
                },
                {
                  "$type": "ServerLuaCall",
                  "target": "Other",
                  "luaCallType": "FromGroup",
                  "isTarget": true,
                  "funcName": "SLC_PlayerGetCoin",
                  "IAJKJLGNLLE": 1,
                  "MPPMFEDKGHC": 3.0,
                  "BOKNHLDBKKK": 0.0,
                  "CHOIIMHDNHK": 0.0
                }
              ]
            },
            {
              "$type": "Predicated",
              "otherTargets": {
                "$type": "SelectTargetsByShape",
                "shapeName": "CircleR12",
                "centerBasedOn": "Vehicle",
                "campTargetType": "Enemy",
                "campBasedOn": "Vehicle",
                "OBHNBNDMPFN": 1.0
              },
              "targetPredicates": [
                {
                  "$type": "ByTargetGlobalValue",
                  "key": "ShipPVPCoin",
                  "ratio": 2.0
                }
              ],
              "successActions": [
                {
                  "$type": "DebugLog",
                  "content": "SLC: Find Target SHipPVPCoin = 2"
                },
                {
                  "$type": "ServerLuaCall",
                  "target": "Other",
                  "luaCallType": "FromGroup",
                  "isTarget": true,
                  "funcName": "SLC_PlayerGetCoin",
                  "IAJKJLGNLLE": 1,
                  "MPPMFEDKGHC": 2.0,
                  "BOKNHLDBKKK": 0.0,
                  "CHOIIMHDNHK": 0.0
                }
              ]
            },
            {
              "$type": "Predicated",
              "otherTargets": {
                "$type": "SelectTargetsByShape",
                "shapeName": "CircleR12",
                "centerBasedOn": "Vehicle",
                "campTargetType": "Enemy",
                "campBasedOn": "Vehicle",
                "OBHNBNDMPFN": 1.0
              },
              "targetPredicates": [
                {
                  "$type": "ByTargetGlobalValue",
                  "key": "ShipPVPCoin",
                  "ratio": 1.0
                }
              ],
              "successActions": [
                {
                  "$type": "DebugLog",
                  "content": "SLC: Find Target SHipPVPCoin = 1"
                },
                {
                  "$type": "ServerLuaCall",
                  "target": "Other",
                  "luaCallType": "FromGroup",
                  "isTarget": true,
                  "funcName": "SLC_PlayerGetCoin",
                  "IAJKJLGNLLE": 1,
                  "MPPMFEDKGHC": 1.0,
                  "BOKNHLDBKKK": 0.0,
                  "CHOIIMHDNHK": 0.0
                }
              ]
            }
          ]
        }
      },
      "onAbilityStart": [
        {
          "$type": "ApplyModifier",
          "modifierName": "UNIQUE_LanV3BoatGame_Coin_Absorb"
        },
        {
          "$type": "SetGlobalValue",
          "target": "Team",
          "ratio": 0.0,
          "key": "_ABILITY_BoatV3_SkillIndex_Team",
          "maxValue": 0.0,
          "minValue": 0.0
        },
        {
          "$type": "ApplyModifier",
          "target": "CurLocalAvatar",
          "modifierName": "ServerLuaCallModifier"
        }
      ],
      "isDynamicAbility": true
    }
  },
  {
    "Default": {
      "$type": "ConfigAbility",
      "abilityName": "Vehicle_Skiff_LanV3BoatGame_Shield",
      "modifiers": {
        "ServerLuaCallModifier": {
          "modifierName": "",
          "duration": 0.10000000149011612,
          "bonusCriticalHurt": 100.0,
          "onAdded": [
            {
              "$type": "ServerLuaCall",
              "luaCallType": "CurGalleryControlGroup",
              "funcName": "SLC_PlayerUseItem",
              "MPPMFEDKGHC": 0.0,
              "BOKNHLDBKKK": 0.0,
              "CHOIIMHDNHK": 0.0
            }
          ]
        },
        "UNIQUE_LanV3BoatGame_Shield": {
          "modifierName": "",
          "isUnique": true,
          "duration": 10.0,
          "bonusCriticalHurt": 100.0,
          "thinkInterval": 6.800000190734863,
          "onAdded": [
            {
              "$type": "SetGlobalValue",
              "ratio": 1.0,
              "key": "_ABILITY_BoatV3_In_Shield_State",
              "maxValue": 0.0,
              "minValue": 0.0
            },
            {
              "$type": "AttachModifier",
              "target": "Vehicle",
              "modifierName": "Boat_Shield_Normal"
            }
          ],
          "onRemoved": [
            {
              "$type": "SetGlobalValue",
              "ratio": 0.0,
              "key": "_ABILITY_BoatV3_In_Shield_State",
              "maxValue": 0.0,
              "minValue": 0.0
            },
            {
              "$type": "FireEffect",
              "target": "Vehicle",
              "healLimitedByCasterMaxHPRatio": "Eff_Skiff_Normal_Shield_AS",
              "effectTempleteID": -1.0
            }
          ],
          "onThinkInterval": [
            {
              "$type": "RemoveModifier",
              "target": "Vehicle",
              "modifierName": "Boat_Shield_Normal"
            },
            {
              "$type": "AttachModifier",
              "target": "Vehicle",
              "modifierName": "Boat_Shield_Over"
            }
          ]
        },
        "Boat_Shield_Normal": {
          "modifierName": "",
          "duration": 7.0,
          "bonusCriticalHurt": 100.0,
          "onAdded": [
            {
              "$type": "AttachEffect",
              "target": "Vehicle",
              "healLimitedByCasterMaxHPRatio": "Eff_Skiff_Normal_Shield",
              "effectTempleteID": -1.0
            }
          ]
        },
        "Boat_Shield_Over": {
          "modifierName": "",
          "bonusCriticalHurt": 100.0,
          "onAdded": [
            {
              "$type": "AttachEffect",
              "target": "Vehicle",
              "healLimitedByCasterMaxHPRatio": "Eff_Skiff_Normal_Shield_Blink",
              "effectTempleteID": -1.0
            }
          ]
        }
      },
      "onAbilityStart": [
        {
          "$type": "RemoveUniqueModifier",
          "modifierName": "UNIQUE_LanV3BoatGame_Shield"
        },
        {
          "$type": "ApplyModifier",
          "modifierName": "UNIQUE_LanV3BoatGame_Shield"
        },
        {
          "$type": "SetGlobalValue",
          "target": "Team",
          "ratio": 0.0,
          "key": "_ABILITY_BoatV3_SkillIndex_Team",
          "maxValue": 0.0,
          "minValue": 0.0
        },
        {
          "$type": "ApplyModifier",
          "target": "CurLocalAvatar",
          "modifierName": "ServerLuaCallModifier"
        }
      ],
      "isDynamicAbility": true
    }
  },
  {
    "Default": {
      "$type": "ConfigAbility",
      "abilityName": "Vehicle_Skiff_LanV3BoatGame_Vortex",
      "modifiers": {
        "ServerLuaCallModifier": {
          "modifierName": "",
          "duration": 0.10000000149011612,
          "bonusCriticalHurt": 100.0,
          "onAdded": [
            {
              "$type": "ServerLuaCall",
              "luaCallType": "CurGalleryControlGroup",
              "funcName": "SLC_PlayerUseItem",
              "MPPMFEDKGHC": 0.0,
              "BOKNHLDBKKK": 0.0,
              "CHOIIMHDNHK": 0.0
            }
          ]
        }
      },
      "onAbilityStart": [
        {
          "$type": "CreateGadget",
          "born": {
            "$type": "ConfigBornBySelf",
            "offset": {
              "x": 0.0,
              "y": 0.0,
              "z": -1.0
            },
            "DAPKLNIFPID": true,
            "HKNFOKFIKAG": 3.0,
            "IABNJPGBAOH": true
          },
          "gadgetID": 420000026,
          "campID": 1001,
          "campTargetType": "Enemy"
        },
        {
          "$type": "SetGlobalValue",
          "target": "Team",
          "ratio": 0.0,
          "key": "_ABILITY_BoatV3_SkillIndex_Team",
          "maxValue": 0.0,
          "minValue": 0.0
        },
        {
          "$type": "ApplyModifier",
          "target": "CurLocalAvatar",
          "modifierName": "ServerLuaCallModifier"
        }
      ],
      "isDynamicAbility": true
    }
  },
  {
    "Default": {
      "$type": "ConfigAbility",
      "abilityName": "Vehicle_Skiff_LanV3BoatGame_SkillObj_Vortex",
      "modifiers": {
        "Start_Delay": {
          "modifierName": "",
          "duration": 1.5,
          "bonusCriticalHurt": 100.0,
          "onRemoved": [
            {
              "$type": "ApplyModifier",
              "modifierName": "SphereOne"
            },
            {
              "$type": "ApplyModifier",
              "modifierName": "SphereTwo"
            },
            {
              "$type": "ApplyModifier",
              "modifierName": "SphereThree"
            }
          ]
        },
        "SphereOne": {
          "modifierName": "",
          "bonusCriticalHurt": 100.0,
          "thinkInterval": 0.5,
          "modifierMixins": [
            {
              "$type": "WindZoneMixin",
              "shapeName": "CircleR3",
              "born": {
                "$type": "ConfigBornBySelf",
                "IABNJPGBAOH": true
              },
              "PLJPAAFMNAD": 220.0,
              "LNPFPGALPJH": 1.0,
              "innerRadius": 1.0,
              "targetType": "All",
              "predicates": [
                {
                  "$type": "ByEntityTypes",
                  "entityTypes": ["Vehicle", "Avatar"]
                }
              ],
              "modifierName": ""
            }
          ],
          "onThinkInterval": [
            {
              "$type": "TriggerAttackEvent",
              "attackEvent": {
                "attackPattern": {
                  "$type": "ConfigAttackSphere",
                  "triggerType": "TriggerNoRepeat",
                  "born": {
                    "$type": "ConfigBornBySelf",
                    "offset": {
                      "x": 0.0,
                      "y": 0.0,
                      "z": 0.0
                    },
                    "IABNJPGBAOH": true
                  },
                  "radius": 3.0
                },
                "attackInfo": {
                  "attackTag": "BoatRaceGear",
                  "attenuationTag": "",
                  "attenuationGroup": "default",
                  "attackProperty": {
                    "damagePercentageRatio": 0.0,
                    "bonusCriticalHurt": 0.0,
                    "enBreak": 0.0,
                    "attackType": "None",
                    "damageExtra": 10.0
                  },
                  "hitPattern": {
                    "onHitEffectName": "default",
                    "hitImpulseType": "LV1",
                    "muteHitText": true
                  }
                }
              },
              "targetType": "All",
              "entityTypes": ["Vehicle"]
            }
          ]
        },
        "SphereTwo": {
          "modifierName": "",
          "bonusCriticalHurt": 100.0,
          "modifierMixins": [
            {
              "$type": "WindZoneMixin",
              "shapeName": "CircleR5",
              "born": {
                "$type": "ConfigBornBySelf",
                "IABNJPGBAOH": true
              },
              "PLJPAAFMNAD": 180.0,
              "LNPFPGALPJH": 1.0,
              "innerRadius": 1.0,
              "targetType": "All",
              "predicates": [
                {
                  "$type": "ByEntityTypes",
                  "entityTypes": ["Vehicle", "Avatar"]
                }
              ],
              "modifierName": ""
            }
          ]
        },
        "SphereThree": {
          "modifierName": "",
          "bonusCriticalHurt": 100.0,
          "modifierMixins": [
            {
              "$type": "WindZoneMixin",
              "shapeName": "CircleR8",
              "born": {
                "$type": "ConfigBornBySelf",
                "IABNJPGBAOH": true
              },
              "PLJPAAFMNAD": 120.0,
              "LNPFPGALPJH": 0.0,
              "innerRadius": 1.0,
              "targetType": "All",
              "predicates": [
                {
                  "$type": "ByEntityTypes",
                  "entityTypes": ["Vehicle", "Avatar"]
                }
              ],
              "modifierName": ""
            }
          ]
        }
      },
      "onAdded": [
        {
          "$type": "ApplyModifier",
          "modifierName": "Start_Delay"
        }
      ]
    }
  },
  {
    "Default": {
      "$type": "ConfigAbility",
      "abilityName": "Vehicle_Skiff_LanV3BoatGame_Stamina_Recover",
      "modifiers": {
        "ServerLuaCallModifier": {
          "modifierName": "",
          "duration": 0.10000000149011612,
          "bonusCriticalHurt": 100.0,
          "onAdded": [
            {
              "$type": "ServerLuaCall",
              "luaCallType": "CurGalleryControlGroup",
              "funcName": "SLC_PlayerUseItem",
              "MPPMFEDKGHC": 0.0,
              "BOKNHLDBKKK": 0.0,
              "CHOIIMHDNHK": 0.0
            }
          ]
        },
        "UNIQUE_LanV3BoatGame_Stamina_Recover": {
          "modifierName": "",
          "isUnique": true,
          "duration": 10.0,
          "bonusCriticalHurt": 100.0,
          "thinkInterval": 0.5,
          "onAdded": [
            {
              "$type": "ReviveStamina",
              "ratio": 240.0
            },
            {
              "$type": "FireEffect",
              "target": "Vehicle",
              "healLimitedByCasterMaxHPRatio": "Eff_Activity_LanV3BoatGame_Stamina_Recover",
              "effectTempleteID": -1.0
            },
            {
              "$type": "AttachEffect",
              "target": "Vehicle",
              "healLimitedByCasterMaxHPRatio": "Eff_Activity_LanV3BoatGame_Stamina_No_Consume",
              "effectTempleteID": -1.0
            }
          ],
          "onThinkInterval": [
            {
              "$type": "ReviveStamina",
              "ratio": 240.0
            }
          ]
        }
      },
      "onAbilityStart": [
        {
          "$type": "AttachModifier",
          "modifierName": "UNIQUE_LanV3BoatGame_Stamina_Recover"
        },
        {
          "$type": "SetGlobalValue",
          "target": "Team",
          "ratio": 0.0,
          "key": "_ABILITY_BoatV3_SkillIndex_Team",
          "maxValue": 0.0,
          "minValue": 0.0
        },
        {
          "$type": "ApplyModifier",
          "target": "CurLocalAvatar",
          "modifierName": "ServerLuaCallModifier"
        }
      ],
      "isDynamicAbility": true
    }
  },
  {
    "Default": {
      "$type": "ConfigAbility",
      "abilityName": "Vehicle_Skiff_LanV3BoatGame_RushMove",
      "modifiers": {
        "ServerLuaCallModifier": {
          "modifierName": "",
          "duration": 0.10000000149011612,
          "bonusCriticalHurt": 100.0,
          "onAdded": [
            {
              "$type": "ServerLuaCall",
              "luaCallType": "CurGalleryControlGroup",
              "funcName": "SLC_PlayerUseItem",
              "MPPMFEDKGHC": 0.0,
              "BOKNHLDBKKK": 0.0,
              "CHOIIMHDNHK": 0.0
            }
          ]
        },
        "LanV3BoatGame_RushMove": {
          "modifierName": "",
          "duration": 1.2000000476837158,
          "bonusCriticalHurt": 100.0,
          "modifierMixins": [
            {
              "$type": "VelocityForceMixin",
              "excludeForces": ["WindZoneType"]
            }
          ],
          "onAdded": [
            {
              "$type": "CreateGadget",
              "born": {
                "$type": "ConfigBornByAttachPoint",
                "offset": {
                  "x": 0.0,
                  "y": 0.0,
                  "z": 1.0
                },
                "IABNJPGBAOH": true,
                "attachPointName": "RenderRoot"
              },
              "gadgetID": 70350431,
              "campID": 1001,
              "campTargetType": "Alliance"
            },
            {
              "$type": "ModifySkiffPhysicsParam",
              "LCCGBIMADJG": 12.0
            },
            {
              "$type": "ActCameraRadialBlur",
              "cameraRadialBlur": {
                "power": 0.6000000238418579,
                "blurTime": 0.20000000298023224,
                "fadeTime": 0.20000000298023224
              }
            },
            {
              "$type": "FireEffect",
              "healLimitedByCasterMaxHPRatio": "Eff_Skiff_Normal_BurstSprint",
              "effectTempleteID": -1.0
            },
            {
              "$type": "FireEffect",
              "healLimitedByCasterMaxHPRatio": "Eff_Skiff_Normal_BurstHalo_01",
              "effectTempleteID": -1.0
            },
            {
              "$type": "FireEffect",
              "healLimitedByCasterMaxHPRatio": "Eff_Skiff_Normal_BurstHalo_02",
              "effectTempleteID": -1.0
            },
            {
              "$type": "CreateGadget",
              "born": {
                "$type": "ConfigBornBySelf",
                "offset": {
                  "x": 0.0,
                  "y": 0.0,
                  "z": 1.0
                },
                "IABNJPGBAOH": true
              },
              "gadgetID": 420000030,
              "campID": 1001,
              "campTargetType": "Enemy"
            }
          ]
        }
      },
      "onAbilityStart": [
        {
          "$type": "AttachModifier",
          "modifierName": "LanV3BoatGame_RushMove"
        },
        {
          "$type": "SetGlobalValue",
          "target": "Team",
          "ratio": 0.0,
          "key": "_ABILITY_BoatV3_SkillIndex_Team",
          "maxValue": 0.0,
          "minValue": 0.0
        },
        {
          "$type": "ApplyModifier",
          "target": "CurLocalAvatar",
          "modifierName": "ServerLuaCallModifier"
        }
      ],
      "isDynamicAbility": true
    }
  },
  {
    "Default": {
      "$type": "ConfigAbility",
      "abilityName": "Vehicle_Skiff_LanV3BoatGame_Fog",
      "modifiers": {
        "ServerLuaCallModifier": {
          "modifierName": "",
          "duration": 0.10000000149011612,
          "bonusCriticalHurt": 100.0,
          "onAdded": [
            {
              "$type": "ServerLuaCall",
              "luaCallType": "CurGalleryControlGroup",
              "funcName": "SLC_PlayerUseItem",
              "MPPMFEDKGHC": 0.0,
              "BOKNHLDBKKK": 0.0,
              "CHOIIMHDNHK": 0.0
            }
          ]
        }
      },
      "onAbilityStart": [
        {
          "$type": "CreateGadget",
          "born": {
            "$type": "ConfigBornBySelf",
            "offset": {
              "x": 0.0,
              "y": 0.0,
              "z": -2.0
            },
            "DAPKLNIFPID": true,
            "HKNFOKFIKAG": 3.0,
            "IABNJPGBAOH": true
          },
          "gadgetID": 420000027,
          "campID": 1001,
          "campTargetType": "Enemy"
        },
        {
          "$type": "SetGlobalValue",
          "target": "Team",
          "ratio": 0.0,
          "key": "_ABILITY_BoatV3_SkillIndex_Team",
          "maxValue": 0.0,
          "minValue": 0.0
        },
        {
          "$type": "ApplyModifier",
          "target": "CurLocalAvatar",
          "modifierName": "ServerLuaCallModifier"
        }
      ],
      "isDynamicAbility": true
    }
  },
  {
    "Default": {
      "$type": "ConfigAbility",
      "abilityName": "Vehicle_Skiff_LanV3BoatGame_Mire",
      "modifiers": {
        "Life_Timer_And_Eff": {
          "modifierName": "",
          "duration": 15.0,
          "bonusCriticalHurt": 100.0,
          "onAdded": [
            {
              "$type": "AttachEffect",
              "healLimitedByCasterMaxHPRatio": "Eff_Activity_LanV3BoatGame_Mire",
              "effectTempleteID": -1.0
            }
          ],
          "onRemoved": [
            {
              "$type": "KillSelf"
            }
          ]
        },
        "Drive_Delay": {
          "modifierName": "",
          "duration": 1.0,
          "bonusCriticalHurt": 100.0,
          "onRemoved": [
            {
              "$type": "ApplyModifier",
              "modifierName": "Mire_Eff_Handler"
            }
          ]
        },
        "Mire_Eff_Handler": {
          "modifierName": "",
          "bonusCriticalHurt": 100.0,
          "thinkInterval": 0.5,
          "onThinkInterval": [
            {
              "$type": "ApplyModifier",
              "otherTargets": {
                "$type": "SelectTargetsByShape",
                "shapeName": "CircleR10",
                "campTargetType": "AllExceptSelf",
                "OBHNBNDMPFN": 1.0
              },
              "predicates": [
                {
                  "$type": "ByEntityTypes",
                  "entityTypes": ["Vehicle"]
                }
              ],
              "modifierName": "UNIQUE_LanV3Boat_CantSee_Vehicle"
            }
          ]
        },
        "UNIQUE_LanV3Boat_CantSee_Vehicle": {
          "stacking": "RefreshUniqueDurability",
          "modifierName": "",
          "isUnique": true,
          "duration": 1.5,
          "bonusCriticalHurt": 100.0,
          "onAdded": [
            {
              "$type": "DungeonFogEffects",
              "muteRemoteAction": true,
              "enable": true,
              "cameraFogEffectName": "Eff_Activity_HideSeek_Bait_MuddyBullet",
              "playerFogEffectName": ""
            }
          ]
        }
      },
      "onAdded": [
        {
          "$type": "AttachModifier",
          "modifierName": "Life_Timer_And_Eff"
        },
        {
          "$type": "ApplyModifier",
          "modifierName": "Drive_Delay"
        }
      ]
    }
  }
]
