[
  {
    "Default": {
      "$type": "ConfigAbility",
      "abilityName": "SceneObj_Area_Xm_Property_Ani_Unique_Marana_01_Ability",
      "abilityMixins": [
        {
          "$type": "AttachToGadgetStateMutexMixin",
          "gadgetStates": [0, 201, 202, 203, 204, 701, 702, 703, 901, 902],
          "modifierNames": [
            ["HideState"],
            ["BattleState"],
            ["WeakState"],
            ["WeakSpecialState"],
            ["DeathState"],
            ["WaveAtkTest"],
            ["BubbleAtkTest"],
            ["LaserRainTest"],
            ["BornState"],
            ["WaitHitState"]
          ]
        },
        {
          "$type": "AttachToAnimatorStateIDMixin",
          "stateIDs": ["Idle"],
          "modifierName": "IdleState"
        },
        {
          "$type": "AttachToAnimatorStateIDMixin",
          "stateIDs": [
            "Idle",
            "WaveAtk_BS",
            "WaveAtk_FirstAtk",
            "WaveAtk_Loop",
            "WaveAtk_AS",
            "Struggle",
            "Struggle_End"
          ],
          "modifierName": "Proctected_HitEffect"
        },
        {
          "$type": "AttachModifierToSelfGlobalValueMixin",
          "globalValueKey": "_IS_WeakMode",
          "defaultGlobalValueOnCreate": 0.0,
          "valueSteps": [-0.5, 0.5],
          "modifierNameSteps": ["LockHP"]
        },
        {
          "$type": "AttachModifierToSelfGlobalValueMixin",
          "globalValueKey": "_Marana_HitBox",
          "defaultGlobalValueOnCreate": 0.0,
          "valueSteps": [-0.5, 0.5, 1.5],
          "modifierNameSteps": ["HitBox_OFF", "HitBox_ON"]
        },
        {
          "$type": "AttachModifierToSelfGlobalValueMixin",
          "globalValueKey": "_Marana_LockMode",
          "defaultGlobalValueOnCreate": 0.0,
          "valueSteps": [0.5, 1.5, 2.5],
          "modifierNameSteps": ["PhaseLock", "LastLock"]
        },
        {
          "$type": "AttachToStateIDMixin",
          "stateIDs": ["BattleMode"],
          "modifierName": "BattleMode"
        },
        {
          "$type": "AttachToAnimatorStateIDMixin",
          "stateIDs": ["BubbleAtk_Loop"],
          "modifierName": "BubbleAttacking"
        },
        {
          "$type": "AttachToAnimatorStateIDMixin",
          "stateIDs": ["Weak"],
          "modifierName": "WeakStartEffect"
        },
        {
          "$type": "AttachToAnimatorStateIDMixin",
          "stateIDs": ["Struggle"],
          "modifierName": "StruggleStartEffect"
        },
        {
          "$type": "AttachToAnimatorStateIDMixin",
          "stateIDs": ["Struggle_End"],
          "modifierName": "StruggleEndEffect"
        },
        {
          "$type": "AttachToStateIDMixin",
          "stateIDs": ["WeakMode"],
          "modifierName": "WeakMode"
        }
      ],
      "modifiers": {
        "IdleState": {
          "modifierName": "",
          "bonusCriticalHurt": 100.0,
          "onAdded": [
            {
              "$type": "AttachEffect",
              "healLimitedByCasterMaxHPRatio": "Eff_SceneObj_DeathZero_Idle",
              "effectTempleteID": -1.0
            }
          ]
        },
        "Proctected_HitEffect": {
          "modifierName": "",
          "bonusCriticalHurt": 100.0,
          "onAdded": [
            {
              "$type": "EnableHitBoxByName",
              "hitBoxNames": ["SpecialHitBox"],
              "setEnable": true
            },
            {
              "$type": "SetGlobalValue",
              "ratio": 0.0,
              "key": "_WeakReminder_Tag",
              "maxValue": 0.0,
              "minValue": 0.0
            }
          ],
          "onRemoved": [
            {
              "$type": "EnableHitBoxByName",
              "hitBoxNames": ["SpecialHitBox"]
            }
          ],
          "onBeingHit": [
            {
              "$type": "FireEffect",
              "healLimitedByCasterMaxHPRatio": "Eff_SceneObj_DeathZero_ProtectedHit",
              "born": {
                "$type": "FLIPADNBJJF",
                "offset": {
                  "x": 0.0,
                  "y": 2.0,
                  "z": 0.0
                },
                "direction": {
                  "$type": "NFGKOJBHMLL"
                }
              },
              "effectTempleteID": -1.0
            }
          ]
        },
        "LockHP": {
          "modifierName": "",
          "bonusCriticalHurt": 100.0,
          "state": "LockHP"
        },
        "WeakMode": {
          "modifierName": "",
          "bonusCriticalHurt": 100.0,
          "onAdded": [
            {
              "$type": "AttachEffect",
              "healLimitedByCasterMaxHPRatio": "Eff_SceneObj_DeathZero_WeakLoop",
              "effectTempleteID": -1.0
            },
            {
              "$type": "SetGlobalValue",
              "ratio": 1.0,
              "key": "_IS_WeakMode",
              "maxValue": 0.0,
              "minValue": 0.0
            }
          ],
          "onRemoved": [
            {
              "$type": "SetGlobalValue",
              "ratio": 0.0,
              "key": "_IS_WeakMode",
              "maxValue": 0.0,
              "minValue": 0.0
            }
          ]
        },
        "WeakStartEffect": {
          "modifierName": "",
          "bonusCriticalHurt": 100.0,
          "onAdded": [
            {
              "$type": "FireEffect",
              "healLimitedByCasterMaxHPRatio": "Eff_SceneObj_DeathZero_WeakStart_Ground",
              "effectTempleteID": -1.0
            }
          ]
        },
        "StruggleStartEffect": {
          "modifierName": "",
          "bonusCriticalHurt": 100.0,
          "onAdded": [
            {
              "$type": "AttachEffect",
              "healLimitedByCasterMaxHPRatio": "Eff_SceneObj_DeathZero_Struggle",
              "effectTempleteID": -1.0
            }
          ]
        },
        "StruggleEndEffect": {
          "modifierName": "",
          "bonusCriticalHurt": 100.0,
          "onAdded": [
            {
              "$type": "AttachEffect",
              "healLimitedByCasterMaxHPRatio": "Eff_SceneObj_DeathZero_StruggleEnd",
              "effectTempleteID": -1.0
            }
          ],
          "onRemoved": [
            {
              "$type": "EnablePushColliderName",
              "pushColliderNames": ["PushCollider"]
            }
          ]
        },
        "BattleMode": {
          "modifierName": "",
          "bonusCriticalHurt": 100.0,
          "onAdded": [
            {
              "$type": "FireEffect",
              "healLimitedByCasterMaxHPRatio": "Eff_SceneObj_DeathZero_BubbleAtk_Bs",
              "effectTempleteID": -1.0
            }
          ],
          "onRemoved": [
            {
              "$type": "FireEffect",
              "predicates": [
                {
                  "$type": "CGKNNFNIILK",
                  "parameter": "Weak"
                }
              ],
              "healLimitedByCasterMaxHPRatio": "Eff_SceneObj_DeathZero_BubbleAtk_As",
              "effectTempleteID": -1.0
            }
          ]
        },
        "BubbleAttacking": {
          "modifierName": "",
          "bonusCriticalHurt": 100.0,
          "thinkInterval": 12.0,
          "onAdded": [
            {
              "$type": "AttachEffect",
              "healLimitedByCasterMaxHPRatio": "Eff_SceneObj_DeathZero_BubbleAtk_Loop",
              "effectTempleteID": -1.0
            },
            {
              "$type": "TriggerAbility",
              "abilityName": "SceneObj_Area_Xm_Property_Ani_Unique_Marana_01_BubbleAtk"
            }
          ],
          "onThinkInterval": [
            {
              "$type": "TriggerAbility",
              "abilityName": "SceneObj_Area_Xm_Property_Ani_Unique_Marana_01_BubbleAtk"
            }
          ],
          "OOBNPLAILMC": true
        },
        "PhaseLock": {
          "modifierName": "",
          "bonusCriticalHurt": 100.0,
          "modifierMixins": [
            {
              "$type": "AttachModifierToHPPercentMixin",
              "valueSteps": [
                0.7009999752044678, 0.4009999930858612, 0.10100000351667404
              ],
              "modifierNameSteps": [
                "UNIQUE_Marana_HpPhase01",
                "UNIQUE_Marana_HpPhase02",
                "UNIQUE_Marana_HpPhase03",
                "UNIQUE_Marana_HpPhase04"
              ]
            }
          ]
        },
        "LastLock": {
          "modifierName": "",
          "bonusCriticalHurt": 100.0,
          "modifierMixins": [
            {
              "$type": "AttachModifierToHPPercentMixin",
              "valueSteps": [0.05999999865889549],
              "modifierNameSteps": [
                "UNIQUE_Marana_LastPhase",
                "UNIQUE_Marana_LastPhase02"
              ]
            }
          ],
          "onAdded": [
            {
              "$type": "HealHP",
              "amountByCasterMaxHPRatio": 0.5,
              "muteHealEffect": true
            },
            {
              "$type": "ApplyModifier",
              "modifierName": "LastLock_HOT"
            }
          ]
        },
        "LastLock_HOT": {
          "modifierName": "",
          "duration": 2.799999952316284,
          "bonusCriticalHurt": 100.0,
          "thinkInterval": 0.5,
          "onThinkInterval": [
            {
              "$type": "HealHP",
              "amountByCasterMaxHPRatio": 0.10000000149011612,
              "muteHealEffect": true
            }
          ],
          "OOBNPLAILMC": true
        },
        "HideState": {
          "modifierName": "",
          "bonusCriticalHurt": 100.0
        },
        "WaveAtkTest": {
          "modifierName": "",
          "bonusCriticalHurt": 100.0,
          "onAdded": [
            {
              "$type": "SetAnimatorInt",
              "intID": "CurSkill",
              "ratio": 1.0
            },
            {
              "$type": "SetAnimatorTrigger",
              "triggerID": "CurSkillTest01"
            }
          ]
        },
        "BubbleAtkTest": {
          "modifierName": "",
          "bonusCriticalHurt": 100.0,
          "onAdded": [
            {
              "$type": "SetAnimatorInt",
              "intID": "CurSkill",
              "ratio": 2.0
            },
            {
              "$type": "SetAnimatorTrigger",
              "triggerID": "CurSkillTest02"
            }
          ]
        },
        "LaserRainTest": {
          "modifierName": "",
          "bonusCriticalHurt": 100.0,
          "onAdded": [
            {
              "$type": "SetAnimatorInt",
              "intID": "CurSkill",
              "ratio": 3.0
            },
            {
              "$type": "SetAnimatorTrigger",
              "triggerID": "CurSkillTest03"
            }
          ]
        },
        "BornState": {
          "modifierName": "",
          "bonusCriticalHurt": 100.0,
          "onAdded": [
            {
              "$type": "SetAnimatorBool",
              "boolID": "Born",
              "ratio": true
            }
          ]
        },
        "WaitHitState": {
          "modifierName": "",
          "duration": 3.0,
          "bonusCriticalHurt": 100.0,
          "onAdded": [
            {
              "$type": "SetAnimatorTrigger",
              "triggerID": "TestBorn"
            }
          ],
          "onRemoved": [
            {
              "$type": "ServerLuaTriggerEvent",
              "luaCallType": "FromGroup",
              "LCMLAHJEBKC": "TryAttackBoss",
              "MPPMFEDKGHC": 0.0,
              "BOKNHLDBKKK": 0.0,
              "CHOIIMHDNHK": 0.0
            }
          ]
        },
        "BattleState": {
          "modifierName": "",
          "bonusCriticalHurt": 100.0,
          "onAdded": [
            {
              "$type": "EnableGadgetSpecialCamera",
              "enable": true
            }
          ]
        },
        "WeakState": {
          "modifierName": "",
          "bonusCriticalHurt": 100.0,
          "modifierMixins": [
            {
              "$type": "AttachToAnimatorStateIDMixin",
              "stateIDs": ["Weak_Loop"],
              "modifierName": "Weak_Hit"
            }
          ],
          "onAdded": [
            {
              "$type": "SetGlobalValue",
              "ratio": 1.0,
              "key": "_Marana_HitBox",
              "maxValue": 0.0,
              "minValue": 0.0
            },
            {
              "$type": "SetGlobalValue",
              "ratio": 1.0,
              "key": "_Marana_LockMode",
              "maxValue": 0.0,
              "minValue": 0.0
            },
            {
              "$type": "SetAnimatorBool",
              "boolID": "Weak",
              "ratio": true
            },
            {
              "$type": "EnableGadgetSpecialCamera"
            },
            {
              "$type": "ResetAnimatorTrigger",
              "triggerID": "BeHit"
            },
            {
              "$type": "SetGlobalValue",
              "otherTargets": {
                "$type": "CDFGNCHMNMA",
                "topLimit": 1,
                "sortType": "Nearest",
                "tag": "AranaraPlatform"
              },
              "ratio": 0.0,
              "key": "ShowBall",
              "maxValue": 0.0,
              "minValue": 0.0
            }
          ],
          "onRemoved": [
            {
              "$type": "SetAnimatorBool",
              "boolID": "Weak"
            },
            {
              "$type": "RemoveModifier",
              "modifierName": "WeakReminder_Timer"
            },
            {
              "$type": "RemoveModifier",
              "modifierName": "WeakReminder"
            }
          ],
          "onBeingHit": [
            {
              "$type": "ApplyModifier",
              "modifierName": "WeakReminder_Timer"
            }
          ]
        },
        "WeakReminder_Timer": {
          "modifierName": "",
          "duration": 25.0,
          "bonusCriticalHurt": 100.0,
          "thinkInterval": 20.0,
          "onAdded": [
            {
              "$type": "RemoveModifier",
              "modifierName": "WeakReminder"
            }
          ],
          "onThinkInterval": [
            {
              "$type": "ApplyModifier",
              "modifierName": "WeakReminder"
            }
          ]
        },
        "WeakReminder": {
          "modifierName": "",
          "bonusCriticalHurt": 100.0,
          "thinkInterval": 20.0,
          "onAdded": [
            {
              "$type": "ShowReminder",
              "id": 33010226
            }
          ],
          "onThinkInterval": [
            {
              "$type": "ShowReminder",
              "id": 33010226
            }
          ]
        },
        "WeakSpecialState": {
          "modifierName": "",
          "bonusCriticalHurt": 100.0,
          "modifierMixins": [
            {
              "$type": "AttachToAnimatorStateIDMixin",
              "stateIDs": ["WeakS_Loop"],
              "modifierName": "Weak_Hit"
            },
            {
              "$type": "ThinkIntervalMixin",
              "thinkInterval": 2.0,
              "onThinkInterval": [
                {
                  "$type": "ServerLuaTriggerEvent",
                  "luaCallType": "FromGroup",
                  "LCMLAHJEBKC": "NoticeLastBattle",
                  "MPPMFEDKGHC": 0.0,
                  "BOKNHLDBKKK": 0.0,
                  "CHOIIMHDNHK": 0.0
                }
              ]
            }
          ],
          "onAdded": [
            {
              "$type": "SetAnimatorTrigger",
              "RotationDampTime": true,
              "triggerID": "WeakS"
            },
            {
              "$type": "EnableGadgetSpecialCamera",
              "RotationDampTime": true
            },
            {
              "$type": "ResetAnimatorTrigger",
              "RotationDampTime": true,
              "triggerID": "BeHit"
            },
            {
              "$type": "SetGlobalValue",
              "otherTargets": {
                "$type": "CDFGNCHMNMA",
                "topLimit": 1,
                "sortType": "Nearest",
                "tag": "AranaraPlatform"
              },
              "RotationDampTime": true,
              "ratio": 0.0,
              "key": "ShowBall",
              "maxValue": 0.0,
              "minValue": 0.0
            }
          ]
        },
        "Weak_Hit": {
          "modifierName": "",
          "bonusCriticalHurt": 100.0,
          "onBeingHit": [
            {
              "$type": "SetAnimatorTrigger",
              "triggerID": "BeHit"
            },
            {
              "$type": "FireEffect",
              "predicates": [
                {
                  "$type": "MCODPFDFBAF",
                  "target": "Caster",
                  "gadgetState": 203
                }
              ],
              "healLimitedByCasterMaxHPRatio": "Eff_SceneObj_DeathZero_WeakHit",
              "effectTempleteID": -1.0
            }
          ]
        },
        "DeathState": {
          "modifierName": "",
          "bonusCriticalHurt": 100.0
        },
        "UNIQUE_Marana_HpPhase01": {
          "modifierName": "",
          "isUnique": true,
          "bonusCriticalHurt": 100.0,
          "properties": {
            "Actor_HpThresholdRatio": 0.699999988079071
          },
          "state": "Limbo",
          "onAdded": [
            {
              "$type": "SetGlobalValue",
              "ratio": 0.0,
              "key": "_Marana_HitBox",
              "maxValue": 0.0,
              "minValue": 0.0
            }
          ],
          "onRemoved": [
            {
              "$type": "ServerLuaTriggerEvent",
              "luaCallType": "FromGroup",
              "LCMLAHJEBKC": "HpPhase01",
              "MPPMFEDKGHC": 0.0,
              "BOKNHLDBKKK": 0.0,
              "CHOIIMHDNHK": 0.0
            }
          ]
        },
        "UNIQUE_Marana_HpPhase02": {
          "modifierName": "",
          "isUnique": true,
          "bonusCriticalHurt": 100.0,
          "thinkInterval": 1.0,
          "properties": {
            "Actor_HpThresholdRatio": 0.4000000059604645
          },
          "state": "Limbo",
          "onAdded": [
            {
              "$type": "SetGlobalValue",
              "ratio": 0.0,
              "key": "_Marana_HitBox",
              "maxValue": 0.0,
              "minValue": 0.0
            }
          ],
          "onRemoved": [
            {
              "$type": "ServerLuaTriggerEvent",
              "luaCallType": "FromGroup",
              "LCMLAHJEBKC": "HpPhase02",
              "MPPMFEDKGHC": 0.0,
              "BOKNHLDBKKK": 0.0,
              "CHOIIMHDNHK": 0.0
            }
          ],
          "onThinkInterval": [
            {
              "$type": "ServerLuaTriggerEvent",
              "luaCallType": "FromGroup",
              "LCMLAHJEBKC": "HpPhase01",
              "MPPMFEDKGHC": 0.0,
              "BOKNHLDBKKK": 0.0,
              "CHOIIMHDNHK": 0.0
            }
          ]
        },
        "UNIQUE_Marana_HpPhase03": {
          "modifierName": "",
          "isUnique": true,
          "bonusCriticalHurt": 100.0,
          "thinkInterval": 1.0,
          "properties": {
            "Actor_HpThresholdRatio": 0.10000000149011612
          },
          "state": "Limbo",
          "onAdded": [
            {
              "$type": "SetGlobalValue",
              "ratio": 0.0,
              "key": "_Marana_HitBox",
              "maxValue": 0.0,
              "minValue": 0.0
            }
          ],
          "onRemoved": [
            {
              "$type": "AddRegionalPlayVarValue",
              "target": "CurLocalAvatar",
              "RotationDampTime": true,
              "BLAELADNAEG": "DeathZoneExtraErosion",
              "KHBMAHHMOOI": -50.0
            },
            {
              "$type": "ServerLuaTriggerEvent",
              "luaCallType": "FromGroup",
              "LCMLAHJEBKC": "HpPhase03",
              "MPPMFEDKGHC": 0.0,
              "BOKNHLDBKKK": 0.0,
              "CHOIIMHDNHK": 0.0
            }
          ],
          "onThinkInterval": [
            {
              "$type": "ServerLuaTriggerEvent",
              "luaCallType": "FromGroup",
              "LCMLAHJEBKC": "HpPhase02",
              "MPPMFEDKGHC": 0.0,
              "BOKNHLDBKKK": 0.0,
              "CHOIIMHDNHK": 0.0
            }
          ]
        },
        "UNIQUE_Marana_HpPhase04": {
          "modifierName": "",
          "isUnique": true,
          "bonusCriticalHurt": 100.0,
          "thinkInterval": 1.0,
          "properties": {
            "Actor_HpThresholdRatio": 0.009999999776482582
          },
          "state": "Limbo",
          "onAdded": [
            {
              "$type": "SetGlobalValue",
              "ratio": 0.0,
              "key": "_Marana_HitBox",
              "maxValue": 0.0,
              "minValue": 0.0
            }
          ],
          "onThinkInterval": [
            {
              "$type": "AddRegionalPlayVarValue",
              "target": "CurLocalAvatar",
              "RotationDampTime": true,
              "BLAELADNAEG": "DeathZoneExtraErosion",
              "KHBMAHHMOOI": -50.0
            },
            {
              "$type": "ServerLuaTriggerEvent",
              "luaCallType": "FromGroup",
              "LCMLAHJEBKC": "HpPhase03",
              "MPPMFEDKGHC": 0.0,
              "BOKNHLDBKKK": 0.0,
              "CHOIIMHDNHK": 0.0
            }
          ]
        },
        "UNIQUE_Marana_LastPhase": {
          "modifierName": "",
          "isUnique": true,
          "bonusCriticalHurt": 100.0,
          "properties": {
            "Actor_HpThresholdRatio": 0.019999999552965164
          },
          "state": "Limbo",
          "onRemoved": [
            {
              "$type": "ServerLuaTriggerEvent",
              "luaCallType": "FromGroup",
              "LCMLAHJEBKC": "BossDie",
              "MPPMFEDKGHC": 0.0,
              "BOKNHLDBKKK": 0.0,
              "CHOIIMHDNHK": 0.0
            }
          ]
        },
        "UNIQUE_Marana_LastPhase02": {
          "modifierName": "",
          "isUnique": true,
          "bonusCriticalHurt": 100.0,
          "thinkInterval": 1.0,
          "properties": {
            "Actor_HpThresholdRatio": 0.009999999776482582
          },
          "state": "Limbo",
          "onThinkInterval": [
            {
              "$type": "ServerLuaTriggerEvent",
              "luaCallType": "FromGroup",
              "LCMLAHJEBKC": "BossDie",
              "MPPMFEDKGHC": 0.0,
              "BOKNHLDBKKK": 0.0,
              "CHOIIMHDNHK": 0.0
            }
          ]
        },
        "HitBox_ON": {
          "modifierName": "",
          "bonusCriticalHurt": 100.0,
          "modifierMixins": [
            {
              "$type": "ChangeLockTypeMixin",
              "lockType": "Boss_Lv5"
            }
          ],
          "onAdded": [
            {
              "$type": "EnableHitBoxByName",
              "RotationDampTime": true,
              "hitBoxNames": ["HitBox"],
              "setEnable": true
            },
            {
              "$type": "EnablePushColliderName",
              "RotationDampTime": true,
              "pushColliderNames": ["PushCollider"],
              "setEnable": true
            }
          ]
        },
        "HitBox_OFF": {
          "modifierName": "",
          "bonusCriticalHurt": 100.0,
          "onAdded": [
            {
              "$type": "EnableHitBoxByName",
              "RotationDampTime": true,
              "hitBoxNames": ["HitBox"]
            }
          ]
        }
      },
      "onAdded": [
        {
          "$type": "SetGlobalValue",
          "ratio": 1.0,
          "key": "_Marana_LockMode",
          "maxValue": 0.0,
          "minValue": 0.0
        },
        {
          "$type": "SetGlobalValue",
          "ratio": 1.0,
          "key": "_NextSkill_04",
          "maxValue": 0.0,
          "minValue": 0.0
        },
        {
          "$type": "EnableGadgetSpecialCamera",
          "enable": true
        }
      ]
    }
  },
  {
    "Default": {
      "$type": "ConfigAbility",
      "abilityName": "SceneObj_Area_Xm_Property_Ani_Unique_Marana_01_StateControl",
      "abilityMixins": [
        {
          "$type": "AttachModifierToSelfGlobalValueNoInitMixin",
          "globalValueKey": "SGV_BattleState",
          "valueSteps": [0.5, 1.5, 2.5, 3.5, 4.5, 5.5, 6.5],
          "modifierNameSteps": [
            "BattleState01",
            "BattleState02",
            "BattleState03",
            "BattleState04",
            "BattleState05",
            "BattleState06"
          ]
        }
      ],
      "abilitySpecials": {
        "cd_timer": 10.0
      },
      "modifiers": {
        "BattleState01": {
          "modifierName": "",
          "bonusCriticalHurt": 100.0,
          "modifierMixins": [
            {
              "$type": "ThinkIntervalMixin",
              "thinkInterval": 0.5,
              "onThinkInterval": [
                {
                  "$type": "SetAnimatorInt",
                  "intID": "BattleState",
                  "ratio": 1.0
                }
              ]
            }
          ]
        },
        "BattleState02": {
          "modifierName": "",
          "bonusCriticalHurt": 100.0,
          "onAdded": [
            {
              "$type": "SetAnimatorInt",
              "intID": "BattleState",
              "ratio": 2.0
            }
          ]
        },
        "BattleState03": {
          "modifierName": "",
          "bonusCriticalHurt": 100.0,
          "modifierMixins": [
            {
              "$type": "AttachModifierToSelfGlobalValueMixin",
              "globalValueKey": "_SCENEOBJ_LaserRain_ReadyTag",
              "defaultGlobalValueOnCreate": 1.0,
              "valueSteps": [-0.5, 0.5, 1.5],
              "modifierNameSteps": [
                "UNIQUE_LaserRain_CD",
                "UNIQUE_LaserRain_TriggerOnce"
              ]
            }
          ],
          "onAdded": [
            {
              "$type": "SetAnimatorInt",
              "intID": "BattleState",
              "ratio": 3.0
            },
            {
              "$type": "SetOverrideMapValue",
              "ratio": 120.0,
              "overrideMapKey": "cd_timer"
            }
          ]
        },
        "BattleState04": {
          "modifierName": "",
          "bonusCriticalHurt": 100.0,
          "modifierMixins": [
            {
              "$type": "AttachModifierToSelfGlobalValueMixin",
              "globalValueKey": "_SCENEOBJ_LaserRain_ReadyTag",
              "defaultGlobalValueOnCreate": 1.0,
              "valueSteps": [-0.5, 0.5, 1.5],
              "modifierNameSteps": [
                "UNIQUE_LaserRain_CD",
                "UNIQUE_LaserRain_TriggerOnce"
              ]
            }
          ],
          "onAdded": [
            {
              "$type": "SetAnimatorInt",
              "intID": "BattleState",
              "ratio": 4.0
            },
            {
              "$type": "SetOverrideMapValue",
              "ratio": 30.0,
              "overrideMapKey": "cd_timer"
            }
          ]
        },
        "BattleState05": {
          "modifierName": "",
          "bonusCriticalHurt": 100.0,
          "modifierMixins": [
            {
              "$type": "AttachModifierToSelfGlobalValueMixin",
              "globalValueKey": "_SCENEOBJ_LaserRain_ReadyTag",
              "defaultGlobalValueOnCreate": 1.0,
              "valueSteps": [-0.5, 0.5, 1.5],
              "modifierNameSteps": [
                "UNIQUE_LaserRain_CD",
                "UNIQUE_LaserRain_TriggerOnce"
              ]
            }
          ],
          "onAdded": [
            {
              "$type": "SetAnimatorInt",
              "intID": "BattleState",
              "ratio": 5.0
            },
            {
              "$type": "SetOverrideMapValue",
              "ratio": 15.0,
              "overrideMapKey": "cd_timer"
            }
          ]
        },
        "BattleState06": {
          "modifierName": "",
          "bonusCriticalHurt": 100.0,
          "modifierMixins": [
            {
              "$type": "ThinkIntervalMixin",
              "thinkInterval": 0.5,
              "onThinkInterval": [
                {
                  "$type": "SetAnimatorInt",
                  "intID": "BattleState",
                  "ratio": 6.0
                }
              ]
            }
          ],
          "onAdded": [
            {
              "$type": "AttachModifier",
              "RotationDampTime": true,
              "modifierName": "SpecialBubbleAttacking"
            },
            {
              "$type": "SetGlobalValue",
              "RotationDampTime": true,
              "ratio": 1.0,
              "key": "_Marana_HitBox",
              "maxValue": 0.0,
              "minValue": 0.0
            },
            {
              "$type": "SetGlobalValue",
              "RotationDampTime": true,
              "ratio": 2.0,
              "key": "_Marana_LockMode",
              "maxValue": 0.0,
              "minValue": 0.0
            }
          ]
        },
        "SpecialBubbleAttacking": {
          "modifierName": "",
          "bonusCriticalHurt": 100.0,
          "thinkInterval": 8.0,
          "onAdded": [
            {
              "$type": "TriggerAbility",
              "abilityName": "SceneObj_Area_Xm_Property_Ani_Unique_Marana_01_BubbleAtk"
            }
          ],
          "onThinkInterval": [
            {
              "$type": "TriggerAbility",
              "abilityName": "SceneObj_Area_Xm_Property_Ani_Unique_Marana_01_BubbleAtk"
            }
          ],
          "OOBNPLAILMC": true
        },
        "UNIQUE_LaserRain_TriggerOnce": {
          "stacking": "Unique",
          "modifierName": "",
          "isUnique": true,
          "bonusCriticalHurt": 100.0,
          "onAdded": [
            {
              "$type": "SetAnimatorBool",
              "boolID": "LaserRainReady",
              "ratio": true
            }
          ]
        },
        "UNIQUE_LaserRain_CD": {
          "stacking": "Unique",
          "modifierName": "",
          "isUnique": true,
          "duration": ["cd_timer", 1.0, "ADD"],
          "bonusCriticalHurt": 100.0,
          "thinkInterval": "cd_timer",
          "onAdded": [
            {
              "$type": "SetAnimatorBool",
              "boolID": "LaserRainReady"
            }
          ],
          "onThinkInterval": [
            {
              "$type": "SetGlobalValue",
              "ratio": 1.0,
              "key": "_SCENEOBJ_LaserRain_ReadyTag",
              "maxValue": 0.0,
              "minValue": 0.0
            }
          ]
        }
      }
    }
  },
  {
    "Default": {
      "$type": "ConfigAbility",
      "abilityName": "SceneObj_Area_Xm_Property_Ani_Unique_Marana_01_EnergyDrop",
      "abilityMixins": [
        {
          "$type": "AttachModifierToSelfGlobalValueMixin",
          "globalValueKey": "_Marana_LockMode",
          "defaultGlobalValueOnCreate": 0.0,
          "valueSteps": [0.5, 1.5, 2.5],
          "modifierNameSteps": ["EnergyDrop_Phase1", "EnergyDrop_Phase2"]
        }
      ],
      "modifiers": {
        "EnergyDrop_Phase1": {
          "modifierName": "",
          "bonusCriticalHurt": 100.0,
          "modifierMixins": [
            {
              "$type": "AttachModifierToHPPercentMixin",
              "valueSteps": [0.75, 0.44999998807907104, 0.15000000596046448],
              "modifierNameSteps": [
                "Blank",
                "SceneObj_Marana_EnergyDrop_Stage1",
                "SceneObj_Marana_EnergyDrop_Stage2",
                "SceneObj_Marana_EnergyDrop_Stage3"
              ]
            }
          ]
        },
        "Blank": {
          "modifierName": "",
          "bonusCriticalHurt": 100.0
        },
        "SceneObj_Marana_EnergyDrop_Stage1": {
          "modifierName": "",
          "bonusCriticalHurt": 100.0,
          "onAdded": [
            {
              "$type": "GenerateElemBall",
              "configID": 2008,
              "born": {
                "$type": "ConfigBornBySelf",
                "offset": {
                  "x": 0.0,
                  "y": 0.0,
                  "z": 0.0
                },
                "IGAGDFFFGAO": {
                  "$type": "FHDJJGOONEI",
                  "OKDPGGJGGCJ": 1.0,
                  "CPOKKADJBFH": 3.0
                },
                "DAPKLNIFPID": true,
                "HKNFOKFIKAG": 5.0
              },
              "value": 1.0,
              "baseEnergy": 6.0
            }
          ]
        },
        "SceneObj_Marana_EnergyDrop_Stage2": {
          "modifierName": "",
          "bonusCriticalHurt": 100.0,
          "onAdded": [
            {
              "$type": "GenerateElemBall",
              "configID": 2008,
              "born": {
                "$type": "ConfigBornBySelf",
                "offset": {
                  "x": 0.0,
                  "y": 0.0,
                  "z": 0.0
                },
                "IGAGDFFFGAO": {
                  "$type": "FHDJJGOONEI",
                  "OKDPGGJGGCJ": 1.0,
                  "CPOKKADJBFH": 3.0
                },
                "DAPKLNIFPID": true,
                "HKNFOKFIKAG": 5.0
              },
              "value": 1.0,
              "baseEnergy": 6.0
            }
          ]
        },
        "SceneObj_Marana_EnergyDrop_Stage3": {
          "modifierName": "",
          "bonusCriticalHurt": 100.0,
          "onAdded": [
            {
              "$type": "GenerateElemBall",
              "configID": 2008,
              "born": {
                "$type": "ConfigBornBySelf",
                "offset": {
                  "x": 0.0,
                  "y": 0.0,
                  "z": 0.0
                },
                "IGAGDFFFGAO": {
                  "$type": "FHDJJGOONEI",
                  "OKDPGGJGGCJ": 1.0,
                  "CPOKKADJBFH": 3.0
                },
                "DAPKLNIFPID": true,
                "HKNFOKFIKAG": 5.0
              },
              "value": 1.0,
              "baseEnergy": 6.0
            }
          ]
        },
        "EnergyDrop_Phase2": {
          "modifierName": "",
          "bonusCriticalHurt": 100.0
        }
      }
    }
  },
  {
    "Default": {
      "$type": "ConfigAbility",
      "abilityName": "SceneObj_Area_Xm_Property_Ani_Unique_Marana_01_WaveAtk",
      "abilityMixins": [
        {
          "$type": "AttachToAnimatorStateIDMixin",
          "stateIDs": ["WaveAtk_Alert", "WaveAtk_FirstAtk", "WaveAtk_Loop"],
          "modifierName": "WaveAttacking_AlertEffect"
        },
        {
          "$type": "AttachToAnimatorStateIDMixin",
          "stateIDs": ["WaveAtk_FirstAtk", "WaveAtk_Loop"],
          "modifierName": "WaveAttacking"
        }
      ],
      "modifiers": {
        "WaveAttacking_AlertEffect": {
          "modifierName": "",
          "bonusCriticalHurt": 100.0,
          "onAdded": [
            {
              "$type": "AttachEffect",
              "healLimitedByCasterMaxHPRatio": "Eff_SceneObj_DeathZero_WaveAtk_FieldLoop",
              "effectTempleteID": -1.0
            }
          ]
        },
        "WaveAttacking": {
          "modifierName": "",
          "bonusCriticalHurt": 100.0,
          "thinkInterval": 3.0,
          "onAdded": [
            {
              "$type": "AttachEffect",
              "healLimitedByCasterMaxHPRatio": "Eff_SceneObj_DeathZero_WaveAtk_Loop",
              "effectTempleteID": -1.0
            },
            {
              "$type": "ApplyModifier",
              "modifierName": "SingleWave"
            }
          ],
          "onThinkInterval": [
            {
              "$type": "ApplyModifier",
              "modifierName": "SingleWave"
            }
          ],
          "OOBNPLAILMC": true
        },
        "SingleWave": {
          "modifierName": "",
          "duration": 2.0,
          "bonusCriticalHurt": 100.0,
          "onAdded": [
            {
              "$type": "FireEffect",
              "healLimitedByCasterMaxHPRatio": "Eff_SceneObj_DeathZero_WaveAtk_FieldOnce",
              "effectTempleteID": -1.0
            },
            {
              "$type": "ApplyModifier",
              "modifierName": "WaveAtk1"
            },
            {
              "$type": "ApplyModifier",
              "modifierName": "WaveAtk2"
            },
            {
              "$type": "ApplyModifier",
              "modifierName": "WaveAtk3"
            }
          ],
          "onAttackLanded": [
            {
              "$type": "FireEffect",
              "target": "Target",
              "predicates": [
                {
                  "$type": "ByEntityTypes",
                  "entityTypes": ["Avatar"]
                }
              ],
              "healLimitedByCasterMaxHPRatio": "Eff_Hit_None_Default_Small",
              "born": {
                "$type": "ConfigBornByTarget",
                "offset": {
                  "x": 0.0,
                  "y": 0.33000001311302185,
                  "z": 0.0
                },
                "direction": {
                  "$type": "NFGKOJBHMLL"
                }
              },
              "effectTempleteID": -1.0
            }
          ]
        },
        "WaveAtk1": {
          "modifierName": "",
          "duration": 0.20000000298023224,
          "bonusCriticalHurt": 100.0,
          "onRemoved": [
            {
              "$type": "TriggerAttackEvent",
              "attackEvent": {
                "attackPattern": {
                  "$type": "ConfigAttackCircle",
                  "triggerType": "TriggerNoRepeat",
                  "born": {
                    "$type": "ConfigBornBySelf"
                  },
                  "height": 5.0,
                  "radius": 6.300000190734863,
                  "innerRadius": 0.0
                },
                "attackInfo": {
                  "attackTag": "",
                  "attenuationTag": "",
                  "attenuationGroup": "default",
                  "attackProperty": {
                    "damagePercentage": 0.10000000149011612,
                    "damagePercentageRatio": 0.0,
                    "bonusCriticalHurt": 25.0,
                    "strikeType": "Default",
                    "enBreak": 100.0
                  },
                  "hitPattern": {
                    "onHitEffectName": "none",
                    "hitImpulseType": "LV3"
                  },
                  "canBeModifiedBy": "OriginOwner"
                }
              },
              "targetType": "Enemy",
              "entityTypes": ["Avatar"]
            }
          ]
        },
        "WaveAtk2": {
          "modifierName": "",
          "duration": 0.4000000059604645,
          "bonusCriticalHurt": 100.0,
          "onRemoved": [
            {
              "$type": "TriggerAttackEvent",
              "attackEvent": {
                "attackPattern": {
                  "$type": "ConfigAttackCircle",
                  "triggerType": "TriggerNoRepeat",
                  "born": {
                    "$type": "ConfigBornBySelf"
                  },
                  "height": 5.0,
                  "radius": 13.5,
                  "innerRadius": 6.300000190734863
                },
                "attackInfo": {
                  "attackTag": "",
                  "attenuationTag": "",
                  "attenuationGroup": "default",
                  "attackProperty": {
                    "damagePercentage": 0.10000000149011612,
                    "damagePercentageRatio": 0.0,
                    "bonusCriticalHurt": 25.0,
                    "strikeType": "Default",
                    "enBreak": 100.0
                  },
                  "hitPattern": {
                    "onHitEffectName": "none",
                    "hitImpulseType": "LV3"
                  },
                  "canBeModifiedBy": "OriginOwner"
                }
              },
              "targetType": "Enemy",
              "entityTypes": ["Avatar"]
            }
          ]
        },
        "WaveAtk3": {
          "modifierName": "",
          "duration": 0.699999988079071,
          "bonusCriticalHurt": 100.0,
          "onRemoved": [
            {
              "$type": "TriggerAttackEvent",
              "attackEvent": {
                "attackPattern": {
                  "$type": "ConfigAttackCircle",
                  "triggerType": "TriggerNoRepeat",
                  "born": {
                    "$type": "ConfigBornBySelf"
                  },
                  "height": 5.0,
                  "radius": 25.0,
                  "innerRadius": 13.5
                },
                "attackInfo": {
                  "attackTag": "",
                  "attenuationTag": "",
                  "attenuationGroup": "default",
                  "attackProperty": {
                    "damagePercentage": 0.10000000149011612,
                    "damagePercentageRatio": 0.0,
                    "bonusCriticalHurt": 25.0,
                    "strikeType": "Default",
                    "enBreak": 100.0
                  },
                  "hitPattern": {
                    "onHitEffectName": "none",
                    "hitImpulseType": "LV3"
                  },
                  "canBeModifiedBy": "OriginOwner"
                }
              },
              "targetType": "Enemy",
              "entityTypes": ["Avatar"]
            }
          ]
        }
      }
    }
  },
  {
    "Default": {
      "$type": "ConfigAbility",
      "abilityName": "SceneObj_Area_Xm_Property_Ani_Unique_Marana_01_BubbleAtk",
      "modifiers": {
        "BubleSummon_ThinkInterval": {
          "modifierName": "",
          "duration": 4.0,
          "bonusCriticalHurt": 100.0,
          "onAdded": [
            {
              "$type": "ApplyModifier",
              "modifierName": "BubleSummon_LockAttack_Round1"
            },
            {
              "$type": "ApplyModifier",
              "modifierName": "BubleSummon_LockAttack_Round2"
            },
            {
              "$type": "ApplyModifier",
              "modifierName": "BubleSummon_LockAttack_Round3"
            },
            {
              "$type": "SetAnimatorBool",
              "boolID": "SkillCasting",
              "ratio": true
            }
          ],
          "onRemoved": [
            {
              "$type": "SetAnimatorBool",
              "boolID": "SkillCasting"
            }
          ]
        },
        "BubleSummon_LockAttack_Round1": {
          "modifierName": "",
          "duration": 0.5,
          "bonusCriticalHurt": 100.0,
          "onRemoved": [
            {
              "$type": "SetGlobalPos",
              "target": "CurLocalAvatar",
              "key": "_Marana_Lock_Pos",
              "born": {
                "$type": "PPIKALLAEKG",
                "offset": {
                  "x": 0.0,
                  "y": 1.0,
                  "z": 4.0
                },
                "IGAGDFFFGAO": {
                  "$type": "FHDJJGOONEI",
                  "OKDPGGJGGCJ": 2.0,
                  "CPOKKADJBFH": 4.0
                },
                "DAPKLNIFPID": true,
                "KGKDFLMGEOL": 0.75
              },
              "setTarget": false
            },
            {
              "$type": "TriggerBullet",
              "bulletID": 72000022,
              "born": {
                "$type": "ConfigBornByGlobalValue",
                "offset": {
                  "x": 0.0,
                  "y": 20.0,
                  "z": 0.0
                },
                "direction": {
                  "$type": "IOPNFLFHGID",
                  "angleOffset": {
                    "x": 90.0,
                    "y": 0.0,
                    "z": 0.0
                  }
                },
                "positionKey": "_Marana_Lock_Pos",
                "directionKey": ""
              }
            }
          ]
        },
        "BubleSummon_LockAttack_Round2": {
          "modifierName": "",
          "duration": 1.5,
          "bonusCriticalHurt": 100.0,
          "onRemoved": [
            {
              "$type": "SetGlobalPos",
              "target": "CurLocalAvatar",
              "key": "_Marana_Lock_Pos",
              "born": {
                "$type": "PPIKALLAEKG",
                "offset": {
                  "x": -3.4600000381469727,
                  "y": 1.0,
                  "z": -2.0
                },
                "IGAGDFFFGAO": {
                  "$type": "FHDJJGOONEI",
                  "OKDPGGJGGCJ": 2.0,
                  "CPOKKADJBFH": 4.0
                },
                "DAPKLNIFPID": true,
                "KGKDFLMGEOL": 0.75
              },
              "setTarget": false
            },
            {
              "$type": "TriggerBullet",
              "bulletID": 72000022,
              "born": {
                "$type": "ConfigBornByGlobalValue",
                "offset": {
                  "x": 0.0,
                  "y": 20.0,
                  "z": 0.0
                },
                "direction": {
                  "$type": "IOPNFLFHGID",
                  "angleOffset": {
                    "x": 90.0,
                    "y": 0.0,
                    "z": 0.0
                  }
                },
                "positionKey": "_Marana_Lock_Pos",
                "directionKey": ""
              }
            }
          ]
        },
        "BubleSummon_LockAttack_Round3": {
          "modifierName": "",
          "duration": 2.5,
          "bonusCriticalHurt": 100.0,
          "onRemoved": [
            {
              "$type": "SetGlobalPos",
              "target": "CurLocalAvatar",
              "key": "_Marana_Lock_Pos",
              "born": {
                "$type": "PPIKALLAEKG",
                "offset": {
                  "x": -3.4600000381469727,
                  "y": 1.0,
                  "z": -2.0
                },
                "IGAGDFFFGAO": {
                  "$type": "FHDJJGOONEI",
                  "OKDPGGJGGCJ": 2.0,
                  "CPOKKADJBFH": 4.0
                },
                "DAPKLNIFPID": true,
                "KGKDFLMGEOL": 0.75
              },
              "setTarget": false
            },
            {
              "$type": "TriggerBullet",
              "bulletID": 72000022,
              "born": {
                "$type": "ConfigBornByGlobalValue",
                "offset": {
                  "x": 0.0,
                  "y": 20.0,
                  "z": 0.0
                },
                "direction": {
                  "$type": "IOPNFLFHGID",
                  "angleOffset": {
                    "x": 90.0,
                    "y": 0.0,
                    "z": 0.0
                  }
                },
                "positionKey": "_Marana_Lock_Pos",
                "directionKey": ""
              }
            }
          ]
        }
      },
      "onAbilityStart": [
        {
          "$type": "ApplyModifier",
          "modifierName": "BubleSummon_ThinkInterval"
        }
      ]
    }
  },
  {
    "Default": {
      "$type": "ConfigAbility",
      "abilityName": "SceneObj_Area_Xm_Property_Ani_Unique_MaranaSkill_02_Ability",
      "modifiers": {
        "BulletEffect": {
          "modifierName": "",
          "bonusCriticalHurt": 100.0,
          "onAdded": [
            {
              "$type": "EnableBulletCollisionPluginTrigger",
              "setEnable": true
            },
            {
              "$type": "AttachEffect",
              "healLimitedByCasterMaxHPRatio": "Eff_SceneObj_DeathZero_BubbleAtk_Bullet_01",
              "effectTempleteID": -1.0
            },
            {
              "$type": "FireEffect",
              "healLimitedByCasterMaxHPRatio": "Eff_SceneObj_DeathZero_BubbleAtk_Warning",
              "born": {
                "$type": "ConfigBornBySelf",
                "offset": {
                  "x": 0.0,
                  "y": 0.0,
                  "z": 20.0
                },
                "DAPKLNIFPID": true,
                "direction": {
                  "$type": "AKNHOGLMAAH",
                  "angleOffset": {
                    "x": 0.0,
                    "y": 1.0,
                    "z": 0.0
                  }
                },
                "BJCIHELGKLP": true,
                "IABNJPGBAOH": true
              },
              "effectTempleteID": -1.0
            }
          ]
        }
      },
      "onAdded": [
        {
          "$type": "SetGlobalPos",
          "key": "_BubbleDrop_Position",
          "born": {
            "$type": "ConfigBornBySelf"
          }
        },
        {
          "$type": "EnableBulletCollisionPluginTrigger"
        },
        {
          "$type": "AttachModifier",
          "predicates": [
            {
              "$type": "AKJKDLEAAOE",
              "target": "Self",
              "logic": "GreaterOrEqual",
              "EDFIPMFDGNF": "_DropRock_Position",
              "KHJOPCAGLCN": 20.0
            }
          ],
          "modifierName": "BulletEffect"
        }
      ],
      "onAbilityStart": [
        {
          "$type": "Predicated",
          "target": "Target",
          "targetPredicates": [
            {
              "$type": "ByEntityTypes",
              "entityTypes": ["Level"]
            }
          ],
          "successActions": [
            {
              "$type": "FireEffect",
              "healLimitedByCasterMaxHPRatio": "Eff_SceneObj_DeathZero_BubbleHit_Ground",
              "born": {
                "$type": "ConfigBornBySelf",
                "offset": {
                  "x": 0.0,
                  "y": 0.0,
                  "z": 0.0
                },
                "DAPKLNIFPID": true,
                "direction": {
                  "$type": "IOPNFLFHGID",
                  "angleOffset": {
                    "x": 90.0,
                    "y": 0.0,
                    "z": 0.0
                  }
                },
                "BJCIHELGKLP": true,
                "IABNJPGBAOH": true
              },
              "effectTempleteID": -1.0
            },
            {
              "$type": "TriggerAttackEvent",
              "attackEvent": {
                "attackPattern": {
                  "$type": "ConfigAttackSphere",
                  "triggerType": "TriggerNoRepeat",
                  "born": {
                    "$type": "ConfigBornByCollisionPoint"
                  },
                  "radius": 3.0
                },
                "attackInfo": {
                  "attackTag": "",
                  "attenuationTag": "",
                  "attenuationGroup": "default",
                  "attackProperty": {
                    "damagePercentage": 0.30000001192092896,
                    "damagePercentageRatio": 0.0,
                    "bonusCriticalHurt": 100.0,
                    "strikeType": "Pierce",
                    "enBreak": 25.0,
                    "attackType": "Melee"
                  },
                  "hitPattern": {
                    "onHitEffectName": "none",
                    "hitImpulseType": "LV1"
                  },
                  "canBeModifiedBy": "OriginOwner"
                }
              },
              "targetType": "Enemy",
              "entityTypes": ["Avatar"]
            }
          ]
        }
      ]
    }
  },
  {
    "Default": {
      "$type": "ConfigAbility",
      "abilityName": "SceneObj_Area_Xm_Property_Ani_Unique_Marana_01_LaserRainAtk",
      "abilityMixins": [
        {
          "$type": "AttachToAnimatorStateIDMixin",
          "stateIDs": ["LaserRainAtk_Loop"],
          "modifierName": "LaserRainAttacking"
        }
      ],
      "modifiers": {
        "LaserRainAttacking": {
          "modifierName": "",
          "bonusCriticalHurt": 100.0,
          "onAdded": [
            {
              "$type": "ApplyModifier",
              "modifierName": "LaserRainAtk_Bs"
            }
          ]
        },
        "LaserRainAtk_Bs": {
          "modifierName": "",
          "duration": 1.5,
          "bonusCriticalHurt": 100.0,
          "onAdded": [
            {
              "$type": "SetGlobalValue",
              "otherTargets": {
                "$type": "CDFGNCHMNMA",
                "topLimit": 1,
                "sortType": "Nearest",
                "tag": "AranaraPlatform"
              },
              "ratio": 1.0,
              "key": "ShowBall",
              "maxValue": 0.0,
              "minValue": 0.0
            },
            {
              "$type": "ShowReminder",
              "id": 33010217
            }
          ],
          "onRemoved": [
            {
              "$type": "ApplyModifier",
              "modifierName": "LaserRainAtk_Attack"
            }
          ]
        },
        "LaserRainAtk_Attack": {
          "modifierName": "",
          "duration": 5.0,
          "bonusCriticalHurt": 100.0,
          "modifierMixins": [
            {
              "$type": "TriggerWeatherMixin",
              "type": "Skill",
              "weatherPattern": "Weather_Marana_LaserRain",
              "transDuration": 0.800000011920929,
              "duration": 5.0
            }
          ],
          "onAdded": [
            {
              "$type": "AttachEffect",
              "healLimitedByCasterMaxHPRatio": "Eff_SceneObj_DeathZero_LaserRain_Bs",
              "effectTempleteID": -1.0
            },
            {
              "$type": "AttachEffect",
              "healLimitedByCasterMaxHPRatio": "Eff_SceneObj_DeathZero_LaserRain_Bs_Body",
              "effectTempleteID": -1.0
            },
            {
              "$type": "CreateGadget",
              "predicates": [
                {
                  "$type": "ByTargetGlobalValue",
                  "key": "SGV_BattleState",
                  "ratio": 3.0
                }
              ],
              "born": {
                "$type": "MIAJPKDCOPA",
                "offset": {
                  "x": 0.0,
                  "y": 0.0,
                  "z": 0.0
                },
                "DAPKLNIFPID": true,
                "HKNFOKFIKAG": 5.0,
                "actionPointType": "StandbyPoint",
                "GIAHMPPLHHF": {
                  "$type": "JIIIIFKFCAM",
                  "actionPointID": 330100001
                }
              },
              "GKJDJDACPMC": true,
              "gadgetID": 72000027,
              "campID": 4001
            },
            {
              "$type": "CreateGadget",
              "predicates": [
                {
                  "$type": "ByTargetGlobalValue",
                  "key": "SGV_BattleState",
                  "ratio": 4.0
                }
              ],
              "born": {
                "$type": "MIAJPKDCOPA",
                "offset": {
                  "x": 0.0,
                  "y": 0.0,
                  "z": 0.0
                },
                "DAPKLNIFPID": true,
                "HKNFOKFIKAG": 5.0,
                "actionPointType": "StandbyPoint",
                "GIAHMPPLHHF": {
                  "$type": "JIIIIFKFCAM",
                  "actionPointID": 330100002
                }
              },
              "GKJDJDACPMC": true,
              "gadgetID": 72000027,
              "campID": 4001
            },
            {
              "$type": "CreateGadget",
              "predicates": [
                {
                  "$type": "ByTargetGlobalValue",
                  "key": "SGV_BattleState",
                  "ratio": 5.0
                }
              ],
              "born": {
                "$type": "MIAJPKDCOPA",
                "offset": {
                  "x": 0.0,
                  "y": 0.0,
                  "z": 0.0
                },
                "DAPKLNIFPID": true,
                "HKNFOKFIKAG": 5.0,
                "actionPointType": "StandbyPoint",
                "GIAHMPPLHHF": {
                  "$type": "JIIIIFKFCAM",
                  "actionPointID": 330100003
                }
              },
              "GKJDJDACPMC": true,
              "gadgetID": 72000027,
              "campID": 4001
            }
          ],
          "onRemoved": [
            {
              "$type": "SetAnimatorBool",
              "boolID": "SkillCasting"
            },
            {
              "$type": "SetAnimatorBool",
              "boolID": "LaserRainReady"
            },
            {
              "$type": "SetGlobalValue",
              "ratio": 0.0,
              "key": "_SCENEOBJ_LaserRain_ReadyTag",
              "maxValue": 0.0,
              "minValue": 0.0
            },
            {
              "$type": "KillGadget",
              "gadgetInfo": {
                "sortType": "Reversed",
                "configID": 72000027
              }
            },
            {
              "$type": "SetGlobalValue",
              "otherTargets": {
                "$type": "CDFGNCHMNMA",
                "topLimit": 1,
                "sortType": "Nearest",
                "tag": "AranaraPlatform"
              },
              "ratio": 0.0,
              "key": "ShowBall",
              "maxValue": 0.0,
              "minValue": 0.0
            }
          ]
        }
      }
    }
  },
  {
    "Default": {
      "$type": "ConfigAbility",
      "abilityName": "SceneObj_Area_Xm_Property_Ani_Unique_MaranaSkill_03_Manager",
      "modifiers": {
        "LaserSetting_Island01": {
          "modifierName": "",
          "bonusCriticalHurt": 100.0,
          "onAdded": [
            {
              "$type": "SetGlobalPos",
              "key": "_Marana_LaserAlert_Pos1",
              "born": {
                "$type": "MIAJPKDCOPA",
                "offset": {
                  "x": 0.0,
                  "y": 0.0,
                  "z": 10.0
                },
                "DAPKLNIFPID": true,
                "HKNFOKFIKAG": 5.0,
                "actionPointType": "StandbyPoint",
                "GIAHMPPLHHF": {
                  "$type": "JIIIIFKFCAM",
                  "actionPointID": 330100001
                }
              }
            },
            {
              "$type": "SetGlobalPos",
              "key": "_Marana_LaserAlert_Pos2",
              "born": {
                "$type": "MIAJPKDCOPA",
                "offset": {
                  "x": 8.65999984741211,
                  "y": 0.0,
                  "z": 5.0
                },
                "DAPKLNIFPID": true,
                "HKNFOKFIKAG": 5.0,
                "actionPointType": "StandbyPoint",
                "GIAHMPPLHHF": {
                  "$type": "JIIIIFKFCAM",
                  "actionPointID": 330100001
                }
              }
            },
            {
              "$type": "SetGlobalPos",
              "key": "_Marana_LaserAlert_Pos3",
              "born": {
                "$type": "MIAJPKDCOPA",
                "offset": {
                  "x": 8.65999984741211,
                  "y": 0.0,
                  "z": -5.0
                },
                "DAPKLNIFPID": true,
                "HKNFOKFIKAG": 5.0,
                "actionPointType": "StandbyPoint",
                "GIAHMPPLHHF": {
                  "$type": "JIIIIFKFCAM",
                  "actionPointID": 330100001
                }
              }
            },
            {
              "$type": "SetGlobalPos",
              "key": "_Marana_LaserAlert_Pos4",
              "born": {
                "$type": "MIAJPKDCOPA",
                "offset": {
                  "x": 0.0,
                  "y": 0.0,
                  "z": -10.0
                },
                "DAPKLNIFPID": true,
                "HKNFOKFIKAG": 5.0,
                "actionPointType": "StandbyPoint",
                "GIAHMPPLHHF": {
                  "$type": "JIIIIFKFCAM",
                  "actionPointID": 330100001
                }
              }
            },
            {
              "$type": "SetGlobalPos",
              "key": "_Marana_LaserAlert_Pos5",
              "born": {
                "$type": "MIAJPKDCOPA",
                "offset": {
                  "x": -8.65999984741211,
                  "y": 0.0,
                  "z": -5.0
                },
                "DAPKLNIFPID": true,
                "HKNFOKFIKAG": 5.0,
                "actionPointType": "StandbyPoint",
                "GIAHMPPLHHF": {
                  "$type": "JIIIIFKFCAM",
                  "actionPointID": 330100001
                }
              }
            },
            {
              "$type": "SetGlobalPos",
              "key": "_Marana_LaserAlert_Pos6",
              "born": {
                "$type": "MIAJPKDCOPA",
                "offset": {
                  "x": -8.65999984741211,
                  "y": 0.0,
                  "z": 5.0
                },
                "DAPKLNIFPID": true,
                "HKNFOKFIKAG": 5.0,
                "actionPointType": "StandbyPoint",
                "GIAHMPPLHHF": {
                  "$type": "JIIIIFKFCAM",
                  "actionPointID": 330100001
                }
              }
            }
          ]
        },
        "LaserSetting_Island02": {
          "modifierName": "",
          "bonusCriticalHurt": 100.0,
          "onAdded": [
            {
              "$type": "SetGlobalPos",
              "key": "_Marana_LaserAlert_Pos1",
              "born": {
                "$type": "MIAJPKDCOPA",
                "offset": {
                  "x": 0.0,
                  "y": 0.0,
                  "z": 10.0
                },
                "DAPKLNIFPID": true,
                "HKNFOKFIKAG": 5.0,
                "actionPointType": "StandbyPoint",
                "GIAHMPPLHHF": {
                  "$type": "JIIIIFKFCAM",
                  "actionPointID": 330100002
                }
              }
            },
            {
              "$type": "SetGlobalPos",
              "key": "_Marana_LaserAlert_Pos2",
              "born": {
                "$type": "MIAJPKDCOPA",
                "offset": {
                  "x": 8.65999984741211,
                  "y": 0.0,
                  "z": 5.0
                },
                "DAPKLNIFPID": true,
                "HKNFOKFIKAG": 5.0,
                "actionPointType": "StandbyPoint",
                "GIAHMPPLHHF": {
                  "$type": "JIIIIFKFCAM",
                  "actionPointID": 330100002
                }
              }
            },
            {
              "$type": "SetGlobalPos",
              "key": "_Marana_LaserAlert_Pos3",
              "born": {
                "$type": "MIAJPKDCOPA",
                "offset": {
                  "x": 8.65999984741211,
                  "y": 0.0,
                  "z": 5.0
                },
                "DAPKLNIFPID": true,
                "HKNFOKFIKAG": 5.0,
                "actionPointType": "StandbyPoint",
                "GIAHMPPLHHF": {
                  "$type": "JIIIIFKFCAM",
                  "actionPointID": 330100002
                }
              }
            },
            {
              "$type": "SetGlobalPos",
              "key": "_Marana_LaserAlert_Pos4",
              "born": {
                "$type": "MIAJPKDCOPA",
                "offset": {
                  "x": 0.0,
                  "y": 0.0,
                  "z": -10.0
                },
                "DAPKLNIFPID": true,
                "HKNFOKFIKAG": 5.0,
                "actionPointType": "StandbyPoint",
                "GIAHMPPLHHF": {
                  "$type": "JIIIIFKFCAM",
                  "actionPointID": 330100002
                }
              }
            },
            {
              "$type": "SetGlobalPos",
              "key": "_Marana_LaserAlert_Pos5",
              "born": {
                "$type": "MIAJPKDCOPA",
                "offset": {
                  "x": -8.65999984741211,
                  "y": 0.0,
                  "z": -5.0
                },
                "DAPKLNIFPID": true,
                "HKNFOKFIKAG": 5.0,
                "actionPointType": "StandbyPoint",
                "GIAHMPPLHHF": {
                  "$type": "JIIIIFKFCAM",
                  "actionPointID": 330100002
                }
              }
            },
            {
              "$type": "SetGlobalPos",
              "key": "_Marana_LaserAlert_Pos6",
              "born": {
                "$type": "MIAJPKDCOPA",
                "offset": {
                  "x": -8.65999984741211,
                  "y": 0.0,
                  "z": 5.0
                },
                "DAPKLNIFPID": true,
                "HKNFOKFIKAG": 5.0,
                "actionPointType": "StandbyPoint",
                "GIAHMPPLHHF": {
                  "$type": "JIIIIFKFCAM",
                  "actionPointID": 330100002
                }
              }
            }
          ]
        },
        "LaserSetting_Island03": {
          "modifierName": "",
          "bonusCriticalHurt": 100.0,
          "onAdded": [
            {
              "$type": "SetGlobalPos",
              "key": "_Marana_LaserAlert_Pos1",
              "born": {
                "$type": "MIAJPKDCOPA",
                "offset": {
                  "x": 0.0,
                  "y": 0.0,
                  "z": 10.0
                },
                "DAPKLNIFPID": true,
                "HKNFOKFIKAG": 5.0,
                "actionPointType": "StandbyPoint",
                "GIAHMPPLHHF": {
                  "$type": "JIIIIFKFCAM",
                  "actionPointID": 330100003
                }
              }
            },
            {
              "$type": "SetGlobalPos",
              "key": "_Marana_LaserAlert_Pos2",
              "born": {
                "$type": "MIAJPKDCOPA",
                "offset": {
                  "x": 8.65999984741211,
                  "y": 0.0,
                  "z": 5.0
                },
                "DAPKLNIFPID": true,
                "HKNFOKFIKAG": 5.0,
                "actionPointType": "StandbyPoint",
                "GIAHMPPLHHF": {
                  "$type": "JIIIIFKFCAM",
                  "actionPointID": 330100003
                }
              }
            },
            {
              "$type": "SetGlobalPos",
              "key": "_Marana_LaserAlert_Pos3",
              "born": {
                "$type": "MIAJPKDCOPA",
                "offset": {
                  "x": 8.65999984741211,
                  "y": 0.0,
                  "z": -5.0
                },
                "DAPKLNIFPID": true,
                "HKNFOKFIKAG": 5.0,
                "actionPointType": "StandbyPoint",
                "GIAHMPPLHHF": {
                  "$type": "JIIIIFKFCAM",
                  "actionPointID": 330100003
                }
              }
            },
            {
              "$type": "SetGlobalPos",
              "key": "_Marana_LaserAlert_Pos4",
              "born": {
                "$type": "MIAJPKDCOPA",
                "offset": {
                  "x": 0.0,
                  "y": 0.0,
                  "z": -10.0
                },
                "DAPKLNIFPID": true,
                "HKNFOKFIKAG": 5.0,
                "actionPointType": "StandbyPoint",
                "GIAHMPPLHHF": {
                  "$type": "JIIIIFKFCAM",
                  "actionPointID": 330100003
                }
              }
            },
            {
              "$type": "SetGlobalPos",
              "key": "_Marana_LaserAlert_Pos5",
              "born": {
                "$type": "MIAJPKDCOPA",
                "offset": {
                  "x": -8.65999984741211,
                  "y": 0.0,
                  "z": -5.0
                },
                "DAPKLNIFPID": true,
                "HKNFOKFIKAG": 5.0,
                "actionPointType": "StandbyPoint",
                "GIAHMPPLHHF": {
                  "$type": "JIIIIFKFCAM",
                  "actionPointID": 330100003
                }
              }
            },
            {
              "$type": "SetGlobalPos",
              "key": "_Marana_LaserAlert_Pos6",
              "born": {
                "$type": "MIAJPKDCOPA",
                "offset": {
                  "x": -8.65999984741211,
                  "y": 0.0,
                  "z": 5.0
                },
                "DAPKLNIFPID": true,
                "HKNFOKFIKAG": 5.0,
                "actionPointType": "StandbyPoint",
                "GIAHMPPLHHF": {
                  "$type": "JIIIIFKFCAM",
                  "actionPointID": 330100003
                }
              }
            }
          ]
        },
        "LaserRain_Manager": {
          "modifierName": "",
          "duration": 5.0,
          "bonusCriticalHurt": 100.0,
          "thinkInterval": 3.5,
          "onAdded": [
            {
              "$type": "AttachEffect",
              "healLimitedByCasterMaxHPRatio": "Eff_SceneObj_DeathZero_LaserRain_ShieldHit",
              "born": {
                "$type": "ConfigBornBySelf",
                "offset": {
                  "x": 0.0,
                  "y": -1.5,
                  "z": 0.0
                }
              },
              "effectTempleteID": -1.0
            },
            {
              "$type": "ApplyModifier",
              "modifierName": "LaserRain_Position01"
            },
            {
              "$type": "ApplyModifier",
              "modifierName": "LaserRain_Position02"
            },
            {
              "$type": "ApplyModifier",
              "modifierName": "LaserRain_Position03"
            },
            {
              "$type": "ApplyModifier",
              "modifierName": "LaserRain_Position04"
            },
            {
              "$type": "ApplyModifier",
              "modifierName": "LaserRain_Position05"
            },
            {
              "$type": "ApplyModifier",
              "modifierName": "LaserRain_Position06"
            }
          ],
          "onThinkInterval": [
            {
              "$type": "FireSubEmitterEffect",
              "healLimitedByCasterMaxHPRatio": "Eff_SceneObj_DeathZero_LaserRain_LandHit",
              "born": {
                "$type": "ConfigBornByGlobalValue",
                "direction": {
                  "$type": "AKNHOGLMAAH",
                  "eularAngles": {
                    "x": 1.0
                  }
                },
                "positionKey": "_Marana_LaserAlert_Pos1",
                "directionKey": ""
              }
            },
            {
              "$type": "FireSubEmitterEffect",
              "healLimitedByCasterMaxHPRatio": "Eff_SceneObj_DeathZero_LaserRain_LandHit",
              "born": {
                "$type": "ConfigBornByGlobalValue",
                "direction": {
                  "$type": "AKNHOGLMAAH",
                  "eularAngles": {
                    "x": 1.0
                  }
                },
                "positionKey": "_Marana_LaserAlert_Pos2",
                "directionKey": ""
              }
            },
            {
              "$type": "FireSubEmitterEffect",
              "healLimitedByCasterMaxHPRatio": "Eff_SceneObj_DeathZero_LaserRain_LandHit",
              "born": {
                "$type": "ConfigBornByGlobalValue",
                "direction": {
                  "$type": "AKNHOGLMAAH",
                  "eularAngles": {
                    "x": 1.0
                  }
                },
                "positionKey": "_Marana_LaserAlert_Pos3",
                "directionKey": ""
              }
            },
            {
              "$type": "FireSubEmitterEffect",
              "healLimitedByCasterMaxHPRatio": "Eff_SceneObj_DeathZero_LaserRain_LandHit",
              "born": {
                "$type": "ConfigBornByGlobalValue",
                "direction": {
                  "$type": "AKNHOGLMAAH",
                  "eularAngles": {
                    "x": 1.0
                  }
                },
                "positionKey": "_Marana_LaserAlert_Pos4",
                "directionKey": ""
              }
            },
            {
              "$type": "FireSubEmitterEffect",
              "healLimitedByCasterMaxHPRatio": "Eff_SceneObj_DeathZero_LaserRain_LandHit",
              "born": {
                "$type": "ConfigBornByGlobalValue",
                "direction": {
                  "$type": "AKNHOGLMAAH",
                  "eularAngles": {
                    "x": 1.0
                  }
                },
                "positionKey": "_Marana_LaserAlert_Pos5",
                "directionKey": ""
              }
            },
            {
              "$type": "FireSubEmitterEffect",
              "healLimitedByCasterMaxHPRatio": "Eff_SceneObj_DeathZero_LaserRain_LandHit",
              "born": {
                "$type": "ConfigBornByGlobalValue",
                "direction": {
                  "$type": "AKNHOGLMAAH",
                  "eularAngles": {
                    "x": 1.0
                  }
                },
                "positionKey": "_Marana_LaserAlert_Pos6",
                "directionKey": ""
              }
            },
            {
              "$type": "Predicated",
              "otherTargets": {
                "$type": "CDFGNCHMNMA",
                "topLimit": 1,
                "sortType": "Nearest",
                "tag": "AranaraPlatform"
              },
              "targetPredicates": [
                {
                  "$type": "ByTargetGlobalValue",
                  "key": "AvatarCount",
                  "ratio": 1.0,
                  "compareType": "MoreThanAndEqual"
                }
              ],
              "successActions": [
                {
                  "$type": "ActCameraShake",
                  "target": "Caster",
                  "cameraShake": {
                    "shakeType": "CustomVector",
                    "shakeRange": 0.8999999761581421,
                    "shakeTime": 0.30000001192092896,
                    "shakeDistance": 40.0,
                    "shakeDir": {
                      "y": -1.0
                    },
                    "extension": {
                      "baseCycle": 0.20000000298023224,
                      "cycleDamping": 0.10000000149011612
                    }
                  },
                  "born": {
                    "$type": "ConfigBornByTarget"
                  }
                }
              ],
              "failActions": [
                {
                  "$type": "DamageByAttackValue",
                  "target": "Caster",
                  "otherTargets": {
                    "$type": "SelectTargetsByShape",
                    "shapeName": "CircleR18",
                    "campTargetType": "Enemy",
                    "OBHNBNDMPFN": 1.0
                  },
                  "predicates": [
                    {
                      "$type": "ByEntityTypes",
                      "entityTypes": ["Avatar"]
                    }
                  ],
                  "attacker": "Self",
                  "born": {
                    "$type": "ConfigBornByTarget"
                  },
                  "attackInfo": {
                    "attackTag": "",
                    "attenuationTag": "",
                    "attenuationGroup": "default",
                    "attackProperty": {
                      "damagePercentage": 1.0,
                      "damagePercentageRatio": 0.0,
                      "bonusCriticalHurt": 50.0,
                      "strikeType": "Pierce",
                      "enBreak": 200.0,
                      "attackType": "Range"
                    },
                    "hitPattern": {
                      "onHitEffectName": "default",
                      "hitImpulseType": "LV6",
                      "hitHaltTimeScale": 0.05000000074505806
                    }
                  }
                },
                {
                  "$type": "ActCameraShake",
                  "target": "Caster",
                  "cameraShake": {
                    "shakeType": "CustomVector",
                    "shakeRange": 1.7999999523162842,
                    "shakeTime": 0.5,
                    "shakeDistance": 50.0,
                    "shakeDir": {
                      "y": -1.0
                    },
                    "extension": {
                      "baseCycle": 0.20000000298023224,
                      "cycleDamping": 0.10000000149011612
                    }
                  },
                  "born": {
                    "$type": "ConfigBornByTarget"
                  }
                }
              ]
            }
          ]
        },
        "LaserRain_Position01": {
          "modifierName": "",
          "duration": 0.20000000298023224,
          "bonusCriticalHurt": 100.0,
          "onRemoved": [
            {
              "$type": "FireSubEmitterEffect",
              "healLimitedByCasterMaxHPRatio": "Eff_SceneObj_DeathZero_LaserRain_LandAlert",
              "born": {
                "$type": "ConfigBornByGlobalValue",
                "direction": {
                  "$type": "AKNHOGLMAAH",
                  "eularAngles": {
                    "x": 1.0
                  }
                },
                "positionKey": "_Marana_LaserAlert_Pos1",
                "directionKey": ""
              }
            },
            {
              "$type": "CreateGadget",
              "born": {
                "$type": "ConfigBornByGlobalValue",
                "DAPKLNIFPID": true,
                "HKNFOKFIKAG": 5.0,
                "direction": {
                  "$type": "AKNHOGLMAAH",
                  "eularAngles": {
                    "x": 1.0
                  }
                },
                "positionKey": "_Marana_LaserAlert_Pos1",
                "directionKey": ""
              },
              "GKJDJDACPMC": true,
              "gadgetID": 72000023,
              "campID": 4001
            }
          ]
        },
        "LaserRain_Position02": {
          "modifierName": "",
          "duration": 0.4000000059604645,
          "bonusCriticalHurt": 100.0,
          "onRemoved": [
            {
              "$type": "FireSubEmitterEffect",
              "healLimitedByCasterMaxHPRatio": "Eff_SceneObj_DeathZero_LaserRain_LandAlert",
              "born": {
                "$type": "ConfigBornByGlobalValue",
                "direction": {
                  "$type": "AKNHOGLMAAH",
                  "eularAngles": {
                    "x": 1.0
                  }
                },
                "positionKey": "_Marana_LaserAlert_Pos2",
                "directionKey": ""
              }
            },
            {
              "$type": "CreateGadget",
              "born": {
                "$type": "ConfigBornByGlobalValue",
                "DAPKLNIFPID": true,
                "HKNFOKFIKAG": 5.0,
                "direction": {
                  "$type": "AKNHOGLMAAH",
                  "eularAngles": {
                    "x": 1.0
                  }
                },
                "positionKey": "_Marana_LaserAlert_Pos2",
                "directionKey": ""
              },
              "GKJDJDACPMC": true,
              "gadgetID": 72000023,
              "campID": 4001
            }
          ]
        },
        "LaserRain_Position03": {
          "modifierName": "",
          "duration": 0.6000000238418579,
          "bonusCriticalHurt": 100.0,
          "onRemoved": [
            {
              "$type": "FireSubEmitterEffect",
              "healLimitedByCasterMaxHPRatio": "Eff_SceneObj_DeathZero_LaserRain_LandAlert",
              "born": {
                "$type": "ConfigBornByGlobalValue",
                "direction": {
                  "$type": "AKNHOGLMAAH",
                  "eularAngles": {
                    "x": 1.0
                  }
                },
                "positionKey": "_Marana_LaserAlert_Pos3",
                "directionKey": ""
              }
            },
            {
              "$type": "CreateGadget",
              "born": {
                "$type": "ConfigBornByGlobalValue",
                "DAPKLNIFPID": true,
                "HKNFOKFIKAG": 5.0,
                "direction": {
                  "$type": "AKNHOGLMAAH",
                  "eularAngles": {
                    "x": 1.0
                  }
                },
                "positionKey": "_Marana_LaserAlert_Pos3",
                "directionKey": ""
              },
              "GKJDJDACPMC": true,
              "gadgetID": 72000023,
              "campID": 4001
            }
          ]
        },
        "LaserRain_Position04": {
          "modifierName": "",
          "duration": 0.800000011920929,
          "bonusCriticalHurt": 100.0,
          "onRemoved": [
            {
              "$type": "FireSubEmitterEffect",
              "healLimitedByCasterMaxHPRatio": "Eff_SceneObj_DeathZero_LaserRain_LandAlert",
              "born": {
                "$type": "ConfigBornByGlobalValue",
                "direction": {
                  "$type": "AKNHOGLMAAH",
                  "eularAngles": {
                    "x": 1.0
                  }
                },
                "positionKey": "_Marana_LaserAlert_Pos4",
                "directionKey": ""
              }
            },
            {
              "$type": "CreateGadget",
              "born": {
                "$type": "ConfigBornByGlobalValue",
                "DAPKLNIFPID": true,
                "HKNFOKFIKAG": 5.0,
                "direction": {
                  "$type": "AKNHOGLMAAH",
                  "eularAngles": {
                    "x": 1.0
                  }
                },
                "positionKey": "_Marana_LaserAlert_Pos4",
                "directionKey": ""
              },
              "GKJDJDACPMC": true,
              "gadgetID": 72000023,
              "campID": 4001
            }
          ]
        },
        "LaserRain_Position05": {
          "modifierName": "",
          "duration": 1.0,
          "bonusCriticalHurt": 100.0,
          "onRemoved": [
            {
              "$type": "FireSubEmitterEffect",
              "healLimitedByCasterMaxHPRatio": "Eff_SceneObj_DeathZero_LaserRain_LandAlert",
              "born": {
                "$type": "ConfigBornByGlobalValue",
                "direction": {
                  "$type": "AKNHOGLMAAH",
                  "eularAngles": {
                    "x": 1.0
                  }
                },
                "positionKey": "_Marana_LaserAlert_Pos5",
                "directionKey": ""
              }
            },
            {
              "$type": "CreateGadget",
              "born": {
                "$type": "ConfigBornByGlobalValue",
                "DAPKLNIFPID": true,
                "HKNFOKFIKAG": 5.0,
                "direction": {
                  "$type": "AKNHOGLMAAH",
                  "eularAngles": {
                    "x": 1.0
                  }
                },
                "positionKey": "_Marana_LaserAlert_Pos5",
                "directionKey": ""
              },
              "GKJDJDACPMC": true,
              "gadgetID": 72000023,
              "campID": 4001
            }
          ]
        },
        "LaserRain_Position06": {
          "modifierName": "",
          "duration": 1.2000000476837158,
          "bonusCriticalHurt": 100.0,
          "onRemoved": [
            {
              "$type": "FireSubEmitterEffect",
              "healLimitedByCasterMaxHPRatio": "Eff_SceneObj_DeathZero_LaserRain_LandAlert",
              "born": {
                "$type": "ConfigBornByGlobalValue",
                "direction": {
                  "$type": "AKNHOGLMAAH",
                  "eularAngles": {
                    "x": 1.0
                  }
                },
                "positionKey": "_Marana_LaserAlert_Pos6",
                "directionKey": ""
              }
            },
            {
              "$type": "CreateGadget",
              "born": {
                "$type": "ConfigBornByGlobalValue",
                "DAPKLNIFPID": true,
                "HKNFOKFIKAG": 5.0,
                "direction": {
                  "$type": "AKNHOGLMAAH",
                  "eularAngles": {
                    "x": 1.0
                  }
                },
                "positionKey": "_Marana_LaserAlert_Pos6",
                "directionKey": ""
              },
              "GKJDJDACPMC": true,
              "gadgetID": 72000023,
              "campID": 4001
            }
          ]
        }
      },
      "onAdded": [
        {
          "$type": "ApplyModifier",
          "predicates": [
            {
              "$type": "ByTargetGlobalValue",
              "target": "Owner",
              "key": "SGV_BattleState",
              "ratio": 3.0,
              "compareType": "NoneOrEqual"
            }
          ],
          "modifierName": "LaserSetting_Island01"
        },
        {
          "$type": "ApplyModifier",
          "predicates": [
            {
              "$type": "ByTargetGlobalValue",
              "target": "Owner",
              "key": "SGV_BattleState",
              "ratio": 4.0
            }
          ],
          "modifierName": "LaserSetting_Island02"
        },
        {
          "$type": "ApplyModifier",
          "predicates": [
            {
              "$type": "ByTargetGlobalValue",
              "target": "Owner",
              "key": "SGV_BattleState",
              "ratio": 5.0
            }
          ],
          "modifierName": "LaserSetting_Island03"
        },
        {
          "$type": "ApplyModifier",
          "modifierName": "LaserRain_Manager"
        }
      ]
    }
  },
  {
    "Default": {
      "$type": "ConfigAbility",
      "abilityName": "SceneObj_Area_Xm_Property_Ani_Unique_MaranaSkill_03_Ability",
      "modifiers": {
        "LaserRainAttack_AlertDamage": {
          "modifierName": "",
          "duration": 4.0,
          "bonusCriticalHurt": 100.0,
          "thinkInterval": 0.5,
          "onAdded": [
            {
              "$type": "TriggerAttackEvent",
              "attackEvent": {
                "attackPattern": {
                  "$type": "ConfigAttackCircle",
                  "triggerType": "TriggerNoRepeat",
                  "born": {
                    "$type": "ConfigBornBySelf"
                  },
                  "height": 12.5,
                  "radius": 3.0
                },
                "attackInfo": {
                  "attackTag": "",
                  "attenuationTag": "",
                  "attenuationGroup": "default",
                  "attackProperty": {
                    "damagePercentage": 0.10000000149011612,
                    "damagePercentageRatio": 0.0,
                    "bonusCriticalHurt": 50.0,
                    "strikeType": "Pierce",
                    "enBreak": 25.0,
                    "attackType": "Range"
                  },
                  "hitPattern": {
                    "onHitEffectName": "default",
                    "hitImpulseType": "LV2",
                    "hitHaltTimeScale": 0.05000000074505806
                  },
                  "cameraShake": {
                    "shakeType": "HitVector",
                    "shakeRange": 0.05999999865889549,
                    "shakeTime": 0.11999999731779099,
                    "shakeDir": {
                      "z": 1.0
                    }
                  },
                  "canBeModifiedBy": "OriginOwner"
                }
              },
              "targetType": "Enemy",
              "entityTypes": ["Avatar"]
            }
          ],
          "onThinkInterval": [
            {
              "$type": "TriggerAttackEvent",
              "attackEvent": {
                "attackPattern": {
                  "$type": "ConfigAttackCircle",
                  "triggerType": "TriggerNoRepeat",
                  "born": {
                    "$type": "ConfigBornBySelf"
                  },
                  "height": 12.5,
                  "radius": 3.0
                },
                "attackInfo": {
                  "attackTag": "",
                  "attenuationTag": "",
                  "attenuationGroup": "default",
                  "attackProperty": {
                    "damagePercentage": 0.10000000149011612,
                    "damagePercentageRatio": 0.0,
                    "bonusCriticalHurt": 50.0,
                    "strikeType": "Pierce",
                    "enBreak": 25.0,
                    "attackType": "Range"
                  },
                  "hitPattern": {
                    "onHitEffectName": "default",
                    "hitImpulseType": "LV2",
                    "hitHaltTimeScale": 0.05000000074505806
                  },
                  "cameraShake": {
                    "shakeType": "HitVector",
                    "shakeRange": 0.05999999865889549,
                    "shakeTime": 0.11999999731779099,
                    "shakeDir": {
                      "z": 1.0
                    }
                  },
                  "canBeModifiedBy": "OriginOwner"
                }
              },
              "targetType": "Enemy",
              "entityTypes": ["Avatar"]
            }
          ]
        }
      },
      "onAdded": [
        {
          "$type": "AttachModifier",
          "modifierName": "LaserRainAttack_AlertDamage"
        }
      ]
    }
  },
  {
    "Default": {
      "$type": "ConfigAbility",
      "abilityName": "SceneObj_Area_Xm_Property_Ani_Unique_Marana_01_LaserRainAtk_Test",
      "modifiers": {
        "Marana_EffectTest": {
          "modifierName": "",
          "duration": 5.0,
          "bonusCriticalHurt": 100.0,
          "modifierMixins": [
            {
              "$type": "AttachModifierToSelfGlobalValueMixin",
              "globalValueKey": "_SCENEOBJ_LaserState",
              "defaultGlobalValueOnCreate": 0.0,
              "valueSteps": [0.5, 1.5],
              "modifierNameSteps": ["LaserEffect"]
            }
          ],
          "onAdded": [
            {
              "$type": "AddGlobalValue",
              "ratio": 1.0,
              "key": "_SCENEOBJ_Island_TempCount",
              "useLimitRange": true,
              "maxValue": 4.0,
              "minValue": 0.0
            },
            {
              "$type": "SetGlobalValue",
              "predicates": [
                {
                  "$type": "ByTargetGlobalValue",
                  "key": "_SCENEOBJ_Island_TempCount",
                  "ratio": 4.0
                }
              ],
              "ratio": 1.0,
              "key": "_SCENEOBJ_Island_TempCount",
              "maxValue": 0.0,
              "minValue": 0.0
            },
            {
              "$type": "Predicated",
              "targetPredicates": [
                {
                  "$type": "ByTargetGlobalValue",
                  "key": "_SCENEOBJ_Island_TempCount",
                  "ratio": 1.0
                }
              ],
              "successActions": [
                {
                  "$type": "SetGlobalPos",
                  "key": "_SCENEOBJ_Island_Center",
                  "born": {
                    "$type": "MIAJPKDCOPA",
                    "offset": {
                      "x": 0.0,
                      "y": 0.0,
                      "z": 0.0
                    },
                    "DAPKLNIFPID": true,
                    "HKNFOKFIKAG": 5.0,
                    "actionPointType": "StandbyPoint",
                    "GIAHMPPLHHF": {
                      "$type": "JIIIIFKFCAM",
                      "actionPointID": 330100001
                    }
                  }
                },
                {
                  "$type": "SetGlobalPos",
                  "key": "_SCENEOBJ_Island_Shield",
                  "born": {
                    "$type": "MIAJPKDCOPA",
                    "offset": {
                      "x": 0.0,
                      "y": 0.0,
                      "z": 0.0
                    },
                    "DAPKLNIFPID": true,
                    "HKNFOKFIKAG": 5.0,
                    "actionPointType": "StandbyPoint",
                    "GIAHMPPLHHF": {
                      "$type": "JIIIIFKFCAM",
                      "actionPointID": 330100004
                    }
                  }
                }
              ],
              "failActions": [
                {
                  "$type": "Predicated",
                  "targetPredicates": [
                    {
                      "$type": "ByTargetGlobalValue",
                      "key": "_SCENEOBJ_Island_TempCount",
                      "ratio": 2.0
                    }
                  ],
                  "successActions": [
                    {
                      "$type": "SetGlobalPos",
                      "key": "_SCENEOBJ_Island_Center",
                      "born": {
                        "$type": "MIAJPKDCOPA",
                        "offset": {
                          "x": 0.0,
                          "y": 0.0,
                          "z": 0.0
                        },
                        "DAPKLNIFPID": true,
                        "HKNFOKFIKAG": 5.0,
                        "actionPointType": "StandbyPoint",
                        "GIAHMPPLHHF": {
                          "$type": "JIIIIFKFCAM",
                          "actionPointID": 330100002
                        }
                      }
                    },
                    {
                      "$type": "SetGlobalPos",
                      "key": "_SCENEOBJ_Island_Shield",
                      "born": {
                        "$type": "MIAJPKDCOPA",
                        "offset": {
                          "x": 0.0,
                          "y": 0.0,
                          "z": 0.0
                        },
                        "DAPKLNIFPID": true,
                        "HKNFOKFIKAG": 5.0,
                        "actionPointType": "StandbyPoint",
                        "GIAHMPPLHHF": {
                          "$type": "JIIIIFKFCAM",
                          "actionPointID": 330100005
                        }
                      }
                    }
                  ],
                  "failActions": [
                    {
                      "$type": "SetGlobalPos",
                      "key": "_SCENEOBJ_Island_Center",
                      "born": {
                        "$type": "MIAJPKDCOPA",
                        "offset": {
                          "x": 0.0,
                          "y": 0.0,
                          "z": 0.0
                        },
                        "DAPKLNIFPID": true,
                        "HKNFOKFIKAG": 5.0,
                        "actionPointType": "StandbyPoint",
                        "GIAHMPPLHHF": {
                          "$type": "JIIIIFKFCAM",
                          "actionPointID": 330100003
                        }
                      }
                    },
                    {
                      "$type": "SetGlobalPos",
                      "key": "_SCENEOBJ_Island_Shield",
                      "born": {
                        "$type": "MIAJPKDCOPA",
                        "offset": {
                          "x": 0.0,
                          "y": 0.0,
                          "z": 0.0
                        },
                        "DAPKLNIFPID": true,
                        "HKNFOKFIKAG": 5.0,
                        "actionPointType": "StandbyPoint",
                        "GIAHMPPLHHF": {
                          "$type": "JIIIIFKFCAM",
                          "actionPointID": 330100006
                        }
                      }
                    }
                  ]
                }
              ]
            },
            {
              "$type": "CreateGadget",
              "lifeByOwnerIsAlive": true,
              "born": {
                "$type": "ConfigBornByGlobalValue",
                "DAPKLNIFPID": true,
                "HKNFOKFIKAG": 5.0,
                "positionKey": "_SCENEOBJ_Island_Center",
                "directionKey": ""
              },
              "sightGroupWithOwner": true,
              "gadgetID": 42608006,
              "campID": 4001
            },
            {
              "$type": "EnablePartControl",
              "partRootNames": ["LaserControl"],
              "enable": true
            },
            {
              "$type": "ApplyModifier",
              "modifierName": "LaserLatency"
            }
          ],
          "onRemoved": [
            {
              "$type": "EnablePartControl",
              "partRootNames": ["LaserControl"]
            },
            {
              "$type": "KillGadget",
              "gadgetInfo": {
                "sortType": "Reversed",
                "configID": 42608006
              }
            },
            {
              "$type": "SetGlobalValue",
              "ratio": 0.0,
              "key": "_SCENEOBJ_LaserState",
              "maxValue": 0.0,
              "minValue": 0.0
            }
          ]
        },
        "LaserLatency": {
          "modifierName": "",
          "duration": 0.5,
          "bonusCriticalHurt": 100.0,
          "onRemoved": [
            {
              "$type": "SetGlobalValue",
              "ratio": 1.0,
              "key": "_SCENEOBJ_LaserState",
              "maxValue": 0.0,
              "minValue": 0.0
            }
          ]
        },
        "LaserEffect": {
          "modifierName": "",
          "bonusCriticalHurt": 100.0,
          "onAdded": [
            {
              "$type": "SetPartControlTarget",
              "otherTargets": {
                "$type": "SelectTargetsByChildren",
                "entityTypePriority": ["Gadget"],
                "sortType": "Nearest",
                "configID": 42608006
              },
              "partRootNames": ["LaserControl"]
            },
            {
              "$type": "AttachEffect",
              "healLimitedByCasterMaxHPRatio": "Eff_SceneObj_IceShieldActivated_01",
              "born": {
                "$type": "ConfigBornByGlobalValue",
                "positionKey": "_SCENEOBJ_Island_Shield",
                "directionKey": ""
              },
              "effectTempleteID": -1.0
            },
            {
              "$type": "AttachEffect",
              "healLimitedByCasterMaxHPRatio": "Eff_SceneObj_DeathZero_LaserRain",
              "born": {
                "$type": "ConfigBornByAttachPoint",
                "attachPointName": "LaserControl"
              },
              "effectTempleteID": -1.0
            }
          ]
        }
      },
      "onAbilityStart": [
        {
          "$type": "ApplyModifier",
          "modifierName": "Marana_EffectTest"
        }
      ]
    }
  }
]
